%!PS-Adobe-3.0 EPSF-3.0
%%Title: Chen1.Bures.result.evolution.eps
%%Creator: matplotlib version 1.2.1, http://matplotlib.org/
%%CreationDate: Fri Jun 14 14:51:17 2013
%%Orientation: portrait
%%BoundingBox: -115 126 727 666
%%EndComments
%%BeginProlog
/mpldict 8 dict def
mpldict begin
/m { moveto } bind def
/l { lineto } bind def
/r { rlineto } bind def
/c { curveto } bind def
/cl { closepath } bind def
/box {
m
1 index 0 r
0 exch r
neg 0 r
cl
} bind def
/clipbox {
box
clip
newpath
} bind def
%!PS-Adobe-3.0 Resource-Font
%%Title: Bitstream Vera Sans
%%Copyright: Copyright (c) 2003 by Bitstream, Inc. All Rights Reserved.
%%Creator: Converted from TrueType to type 3 by PPR
25 dict begin
/_d{bind def}bind def
/_m{moveto}_d
/_l{lineto}_d
/_cl{closepath eofill}_d
/_c{curveto}_d
/_sc{7 -1 roll{setcachedevice}{pop pop pop pop pop pop}ifelse}_d
/_e{exec}_d
/FontName /BitstreamVeraSans-Roman def
/PaintType 0 def
/FontMatrix[.001 0 0 .001 0 0]def
/FontBBox[-183 -236 1287 928]def
/FontType 3 def
/Encoding [ /space /parenleft /parenright /hyphen /period /zero /one /two /four /five /six /eight /colon /B /C /E /G /bracketleft /bracketright /a /e /f /g /h /i /l /m /n /o /r /s /t /u /v /w ] def
/FontInfo 10 dict dup begin
/FamilyName (Bitstream Vera Sans) def
/FullName (Bitstream Vera Sans) def
/Notice (Copyright (c) 2003 by Bitstream, Inc. All Rights Reserved. Bitstream Vera is a trademark of Bitstream, Inc.) def
/Weight (Roman) def
/Version (Release 1.10) def
/ItalicAngle 0.0 def
/isFixedPitch false def
/UnderlinePosition -213 def
/UnderlineThickness 143 def
end readonly def
/CharStrings 35 dict dup begin
/space{318 0 0 0 0 0 _sc
}_d
/parenleft{390 0 86 -131 310 759 _sc
310 759 _m
266 683 234 609 213 536 _c
191 463 181 389 181 314 _c
181 238 191 164 213 91 _c
234 17 266 -56 310 -131 _c
232 -131 _l
183 -54 146 20 122 94 _c
98 168 86 241 86 314 _c
86 386 98 459 122 533 _c
146 607 182 682 232 759 _c
310 759 _l
_cl}_d
/parenright{390 0 80 -131 304 759 _sc
80 759 _m
158 759 _l
206 682 243 607 267 533 _c
291 459 304 386 304 314 _c
304 241 291 168 267 94 _c
243 20 206 -54 158 -131 _c
80 -131 _l
123 -56 155 17 177 91 _c
198 164 209 238 209 314 _c
209 389 198 463 177 536 _c
155 609 123 683 80 759 _c
_cl}_d
/hyphen{361 0 49 234 312 314 _sc
49 314 _m
312 314 _l
312 234 _l
49 234 _l
49 314 _l
_cl}_d
/period{318 0 107 0 210 124 _sc
107 124 _m
210 124 _l
210 0 _l
107 0 _l
107 124 _l
_cl}_d
/zero{636 0 66 -13 570 742 _sc
318 664 _m
267 664 229 639 203 589 _c
177 539 165 464 165 364 _c
165 264 177 189 203 139 _c
229 89 267 64 318 64 _c
369 64 407 89 433 139 _c
458 189 471 264 471 364 _c
471 464 458 539 433 589 _c
407 639 369 664 318 664 _c
318 742 _m
399 742 461 709 505 645 _c
548 580 570 486 570 364 _c
570 241 548 147 505 83 _c
461 19 399 -13 318 -13 _c
236 -13 173 19 130 83 _c
87 147 66 241 66 364 _c
66 486 87 580 130 645 _c
173 709 236 742 318 742 _c
_cl}_d
/one{636 0 110 0 544 729 _sc
124 83 _m
285 83 _l
285 639 _l
110 604 _l
110 694 _l
284 729 _l
383 729 _l
383 83 _l
544 83 _l
544 0 _l
124 0 _l
124 83 _l
_cl}_d
/two{{636 0 73 0 536 742 _sc
192 83 _m
536 83 _l
536 0 _l
73 0 _l
73 83 _l
110 121 161 173 226 239 _c
290 304 331 346 348 365 _c
380 400 402 430 414 455 _c
426 479 433 504 433 528 _c
433 566 419 598 392 622 _c
365 646 330 659 286 659 _c
255 659 222 653 188 643 _c
154 632 117 616 78 594 _c
78 694 _l
118 710 155 722 189 730 _c
223 738 255 742 284 742 _c
}_e{359 742 419 723 464 685 _c
509 647 532 597 532 534 _c
532 504 526 475 515 449 _c
504 422 484 390 454 354 _c
446 344 420 317 376 272 _c
332 227 271 164 192 83 _c
_cl}_e}_d
/four{636 0 49 0 580 729 _sc
378 643 _m
129 254 _l
378 254 _l
378 643 _l
352 729 _m
476 729 _l
476 254 _l
580 254 _l
580 172 _l
476 172 _l
476 0 _l
378 0 _l
378 172 _l
49 172 _l
49 267 _l
352 729 _l
_cl}_d
/five{{636 0 77 -13 549 729 _sc
108 729 _m
495 729 _l
495 646 _l
198 646 _l
198 467 _l
212 472 227 476 241 478 _c
255 480 270 482 284 482 _c
365 482 429 459 477 415 _c
525 370 549 310 549 234 _c
549 155 524 94 475 51 _c
426 8 357 -13 269 -13 _c
238 -13 207 -10 175 -6 _c
143 -1 111 6 77 17 _c
77 116 _l
106 100 136 88 168 80 _c
199 72 232 69 267 69 _c
}_e{323 69 368 83 401 113 _c
433 143 450 183 450 234 _c
450 284 433 324 401 354 _c
368 384 323 399 267 399 _c
241 399 214 396 188 390 _c
162 384 135 375 108 363 _c
108 729 _l
_cl}_e}_d
/six{{636 0 70 -13 573 742 _sc
330 404 _m
286 404 251 388 225 358 _c
199 328 186 286 186 234 _c
186 181 199 139 225 109 _c
251 79 286 64 330 64 _c
374 64 409 79 435 109 _c
461 139 474 181 474 234 _c
474 286 461 328 435 358 _c
409 388 374 404 330 404 _c
526 713 _m
526 623 _l
501 635 476 644 451 650 _c
425 656 400 659 376 659 _c
310 659 260 637 226 593 _c
}_e{192 549 172 482 168 394 _c
187 422 211 444 240 459 _c
269 474 301 482 336 482 _c
409 482 467 459 509 415 _c
551 371 573 310 573 234 _c
573 159 550 99 506 54 _c
462 9 403 -13 330 -13 _c
246 -13 181 19 137 83 _c
92 147 70 241 70 364 _c
70 479 97 571 152 639 _c
206 707 280 742 372 742 _c
396 742 421 739 447 735 _c
472 730 498 723 526 713 _c
_cl}_e}_d
/eight{{636 0 68 -13 568 742 _sc
318 346 _m
271 346 234 333 207 308 _c
180 283 167 249 167 205 _c
167 161 180 126 207 101 _c
234 76 271 64 318 64 _c
364 64 401 76 428 102 _c
455 127 469 161 469 205 _c
469 249 455 283 429 308 _c
402 333 365 346 318 346 _c
219 388 _m
177 398 144 418 120 447 _c
96 476 85 511 85 553 _c
85 611 105 657 147 691 _c
188 725 245 742 318 742 _c
}_e{390 742 447 725 489 691 _c
530 657 551 611 551 553 _c
551 511 539 476 515 447 _c
491 418 459 398 417 388 _c
464 377 501 355 528 323 _c
554 291 568 251 568 205 _c
568 134 546 80 503 43 _c
459 5 398 -13 318 -13 _c
237 -13 175 5 132 43 _c
89 80 68 134 68 205 _c
68 251 81 291 108 323 _c
134 355 171 377 219 388 _c
183 544 _m
183 506 194 476 218 455 _c
}_e{242 434 275 424 318 424 _c
360 424 393 434 417 455 _c
441 476 453 506 453 544 _c
453 582 441 611 417 632 _c
393 653 360 664 318 664 _c
275 664 242 653 218 632 _c
194 611 183 582 183 544 _c
_cl}_e}_d
/colon{337 0 117 0 220 517 _sc
117 124 _m
220 124 _l
220 0 _l
117 0 _l
117 124 _l
117 517 _m
220 517 _l
220 393 _l
117 393 _l
117 517 _l
_cl}_d
/B{{686 0 98 0 615 729 _sc
197 348 _m
197 81 _l
355 81 _l
408 81 447 92 473 114 _c
498 136 511 169 511 215 _c
511 260 498 293 473 315 _c
447 337 408 348 355 348 _c
197 348 _l
197 648 _m
197 428 _l
343 428 _l
391 428 426 437 450 455 _c
474 473 486 500 486 538 _c
486 574 474 602 450 620 _c
426 638 391 648 343 648 _c
197 648 _l
98 729 _m
350 729 _l
}_e{425 729 483 713 524 682 _c
564 650 585 606 585 549 _c
585 504 574 468 553 442 _c
532 416 502 399 462 393 _c
510 382 548 360 575 327 _c
601 294 615 253 615 204 _c
615 138 592 88 548 53 _c
504 17 441 0 360 0 _c
98 0 _l
98 729 _l
_cl}_e}_d
/C{{698 0 56 -13 644 742 _sc
644 673 _m
644 569 _l
610 599 575 622 537 638 _c
499 653 460 661 418 661 _c
334 661 270 635 226 584 _c
182 533 160 460 160 364 _c
160 268 182 194 226 143 _c
270 92 334 67 418 67 _c
460 67 499 74 537 90 _c
575 105 610 128 644 159 _c
644 56 _l
609 32 572 15 534 4 _c
496 -7 455 -13 412 -13 _c
302 -13 215 20 151 87 _c
}_e{87 154 56 246 56 364 _c
56 481 87 573 151 641 _c
215 708 302 742 412 742 _c
456 742 497 736 535 725 _c
573 713 610 696 644 673 _c
_cl}_e}_d
/E{632 0 98 0 568 729 _sc
98 729 _m
559 729 _l
559 646 _l
197 646 _l
197 430 _l
544 430 _l
544 347 _l
197 347 _l
197 83 _l
568 83 _l
568 0 _l
98 0 _l
98 729 _l
_cl}_d
/G{{775 0 56 -13 693 742 _sc
595 104 _m
595 300 _l
434 300 _l
434 381 _l
693 381 _l
693 68 _l
655 40 613 20 567 7 _c
521 -6 472 -13 420 -13 _c
306 -13 216 20 152 86 _c
88 152 56 245 56 364 _c
56 482 88 575 152 642 _c
216 708 306 742 420 742 _c
467 742 512 736 555 724 _c
598 712 638 695 674 673 _c
674 568 _l
637 598 598 621 557 637 _c
516 653 473 661 428 661 _c
}_e{338 661 271 636 227 586 _c
182 536 160 462 160 364 _c
160 265 182 191 227 141 _c
271 91 338 67 428 67 _c
462 67 493 70 521 76 _c
549 82 573 91 595 104 _c
_cl}_e}_d
/bracketleft{390 0 86 -131 293 760 _sc
86 760 _m
293 760 _l
293 690 _l
176 690 _l
176 -61 _l
293 -61 _l
293 -131 _l
86 -131 _l
86 760 _l
_cl}_d
/bracketright{390 0 97 -131 304 760 _sc
304 760 _m
304 -131 _l
97 -131 _l
97 -61 _l
214 -61 _l
214 690 _l
97 690 _l
97 760 _l
304 760 _l
_cl}_d
/a{{613 0 60 -13 522 560 _sc
343 275 _m
270 275 220 266 192 250 _c
164 233 150 205 150 165 _c
150 133 160 107 181 89 _c
202 70 231 61 267 61 _c
317 61 357 78 387 114 _c
417 149 432 196 432 255 _c
432 275 _l
343 275 _l
522 312 _m
522 0 _l
432 0 _l
432 83 _l
411 49 385 25 355 10 _c
325 -5 287 -13 243 -13 _c
187 -13 142 2 109 33 _c
76 64 60 106 60 159 _c
}_e{60 220 80 266 122 298 _c
163 329 224 345 306 345 _c
432 345 _l
432 354 _l
432 395 418 427 391 450 _c
364 472 326 484 277 484 _c
245 484 215 480 185 472 _c
155 464 127 453 100 439 _c
100 522 _l
132 534 164 544 195 550 _c
226 556 256 560 286 560 _c
365 560 424 539 463 498 _c
502 457 522 395 522 312 _c
_cl}_e}_d
/e{{615 0 55 -13 562 560 _sc
562 296 _m
562 252 _l
149 252 _l
153 190 171 142 205 110 _c
238 78 284 62 344 62 _c
378 62 412 66 444 74 _c
476 82 509 95 541 113 _c
541 28 _l
509 14 476 3 442 -3 _c
408 -9 373 -13 339 -13 _c
251 -13 182 12 131 62 _c
80 112 55 181 55 268 _c
55 357 79 428 127 481 _c
175 533 241 560 323 560 _c
397 560 455 536 498 489 _c
}_e{540 441 562 377 562 296 _c
472 322 _m
471 371 457 410 431 440 _c
404 469 368 484 324 484 _c
274 484 234 469 204 441 _c
174 413 156 373 152 322 _c
472 322 _l
_cl}_e}_d
/f{352 0 23 0 371 760 _sc
371 760 _m
371 685 _l
285 685 _l
253 685 230 678 218 665 _c
205 652 199 629 199 595 _c
199 547 _l
347 547 _l
347 477 _l
199 477 _l
199 0 _l
109 0 _l
109 477 _l
23 477 _l
23 547 _l
109 547 _l
109 585 _l
109 645 123 690 151 718 _c
179 746 224 760 286 760 _c
371 760 _l
_cl}_d
/g{{635 0 55 -207 544 560 _sc
454 280 _m
454 344 440 395 414 431 _c
387 467 349 485 301 485 _c
253 485 215 467 188 431 _c
161 395 148 344 148 280 _c
148 215 161 165 188 129 _c
215 93 253 75 301 75 _c
349 75 387 93 414 129 _c
440 165 454 215 454 280 _c
544 68 _m
544 -24 523 -93 482 -139 _c
440 -184 377 -207 292 -207 _c
260 -207 231 -204 203 -200 _c
175 -195 147 -188 121 -178 _c
}_e{121 -91 _l
147 -105 173 -115 199 -122 _c
225 -129 251 -133 278 -133 _c
336 -133 380 -117 410 -87 _c
439 -56 454 -10 454 52 _c
454 96 _l
435 64 411 40 382 24 _c
353 8 319 0 279 0 _c
211 0 157 25 116 76 _c
75 127 55 195 55 280 _c
55 364 75 432 116 483 _c
157 534 211 560 279 560 _c
319 560 353 552 382 536 _c
411 520 435 496 454 464 _c
454 547 _l
544 547 _l
}_e{544 68 _l
_cl}_e}_d
/h{634 0 91 0 549 760 _sc
549 330 _m
549 0 _l
459 0 _l
459 327 _l
459 379 448 417 428 443 _c
408 469 378 482 338 482 _c
289 482 251 466 223 435 _c
195 404 181 362 181 309 _c
181 0 _l
91 0 _l
91 760 _l
181 760 _l
181 462 _l
202 494 227 519 257 535 _c
286 551 320 560 358 560 _c
420 560 468 540 500 501 _c
532 462 549 405 549 330 _c
_cl}_d
/i{278 0 94 0 184 760 _sc
94 547 _m
184 547 _l
184 0 _l
94 0 _l
94 547 _l
94 760 _m
184 760 _l
184 646 _l
94 646 _l
94 760 _l
_cl}_d
/l{278 0 94 0 184 760 _sc
94 760 _m
184 760 _l
184 0 _l
94 0 _l
94 760 _l
_cl}_d
/m{{974 0 91 0 889 560 _sc
520 442 _m
542 482 569 511 600 531 _c
631 550 668 560 711 560 _c
767 560 811 540 842 500 _c
873 460 889 403 889 330 _c
889 0 _l
799 0 _l
799 327 _l
799 379 789 418 771 444 _c
752 469 724 482 686 482 _c
639 482 602 466 575 435 _c
548 404 535 362 535 309 _c
535 0 _l
445 0 _l
445 327 _l
445 379 435 418 417 444 _c
398 469 369 482 331 482 _c
}_e{285 482 248 466 221 435 _c
194 404 181 362 181 309 _c
181 0 _l
91 0 _l
91 547 _l
181 547 _l
181 462 _l
201 495 226 520 255 536 _c
283 552 317 560 357 560 _c
397 560 430 550 458 530 _c
486 510 506 480 520 442 _c
_cl}_e}_d
/n{634 0 91 0 549 560 _sc
549 330 _m
549 0 _l
459 0 _l
459 327 _l
459 379 448 417 428 443 _c
408 469 378 482 338 482 _c
289 482 251 466 223 435 _c
195 404 181 362 181 309 _c
181 0 _l
91 0 _l
91 547 _l
181 547 _l
181 462 _l
202 494 227 519 257 535 _c
286 551 320 560 358 560 _c
420 560 468 540 500 501 _c
532 462 549 405 549 330 _c
_cl}_d
/o{612 0 55 -13 557 560 _sc
306 484 _m
258 484 220 465 192 427 _c
164 389 150 338 150 273 _c
150 207 163 156 191 118 _c
219 80 257 62 306 62 _c
354 62 392 80 420 118 _c
448 156 462 207 462 273 _c
462 337 448 389 420 427 _c
392 465 354 484 306 484 _c
306 560 _m
384 560 445 534 490 484 _c
534 433 557 363 557 273 _c
557 183 534 113 490 63 _c
445 12 384 -13 306 -13 _c
227 -13 165 12 121 63 _c
77 113 55 183 55 273 _c
55 363 77 433 121 484 _c
165 534 227 560 306 560 _c
_cl}_d
/r{411 0 91 0 411 560 _sc
411 463 _m
401 469 390 473 378 476 _c
366 478 353 480 339 480 _c
288 480 249 463 222 430 _c
194 397 181 350 181 288 _c
181 0 _l
91 0 _l
91 547 _l
181 547 _l
181 462 _l
199 495 224 520 254 536 _c
284 552 321 560 365 560 _c
371 560 378 559 386 559 _c
393 558 401 557 411 555 _c
411 463 _l
_cl}_d
/s{{521 0 54 -13 472 560 _sc
443 531 _m
443 446 _l
417 458 391 468 364 475 _c
336 481 308 485 279 485 _c
234 485 200 478 178 464 _c
156 450 145 430 145 403 _c
145 382 153 366 169 354 _c
185 342 217 330 265 320 _c
296 313 _l
360 299 405 279 432 255 _c
458 230 472 195 472 151 _c
472 100 452 60 412 31 _c
372 1 316 -13 246 -13 _c
216 -13 186 -10 154 -5 _c
}_e{122 0 89 8 54 20 _c
54 113 _l
87 95 120 82 152 74 _c
184 65 216 61 248 61 _c
290 61 323 68 346 82 _c
368 96 380 117 380 144 _c
380 168 371 187 355 200 _c
339 213 303 226 247 238 _c
216 245 _l
160 257 119 275 95 299 _c
70 323 58 356 58 399 _c
58 450 76 490 112 518 _c
148 546 200 560 268 560 _c
301 560 332 557 362 552 _c
391 547 418 540 443 531 _c
}_e{_cl}_e}_d
/t{392 0 27 0 368 702 _sc
183 702 _m
183 547 _l
368 547 _l
368 477 _l
183 477 _l
183 180 _l
183 135 189 106 201 94 _c
213 81 238 75 276 75 _c
368 75 _l
368 0 _l
276 0 _l
206 0 158 13 132 39 _c
106 65 93 112 93 180 _c
93 477 _l
27 477 _l
27 547 _l
93 547 _l
93 702 _l
183 702 _l
_cl}_d
/u{634 0 85 -13 543 547 _sc
85 216 _m
85 547 _l
175 547 _l
175 219 _l
175 167 185 129 205 103 _c
225 77 255 64 296 64 _c
344 64 383 79 411 110 _c
439 141 453 183 453 237 _c
453 547 _l
543 547 _l
543 0 _l
453 0 _l
453 84 _l
431 50 405 26 377 10 _c
348 -5 315 -13 277 -13 _c
214 -13 166 6 134 45 _c
101 83 85 140 85 216 _c
_cl}_d
/v{592 0 30 0 562 547 _sc
30 547 _m
125 547 _l
296 88 _l
467 547 _l
562 547 _l
357 0 _l
235 0 _l
30 547 _l
_cl}_d
/w{818 0 42 0 776 547 _sc
42 547 _m
132 547 _l
244 120 _l
356 547 _l
462 547 _l
574 120 _l
686 547 _l
776 547 _l
633 0 _l
527 0 _l
409 448 _l
291 0 _l
185 0 _l
42 547 _l
_cl}_d
end readonly def

/BuildGlyph
 {exch begin
 CharStrings exch
 2 copy known not{pop /.notdef}if
 true 3 1 roll get exec
 end}_d

/BuildChar {
 1 index /Encoding get exch get
 1 index /BuildGlyph get exec
}_d

FontName currentdict end definefont pop
end
%%EndProlog
mpldict begin
-115.2 126 translate
842.4 540 0 0 clipbox
gsave
0 0 m
842.4 0 l
842.4 540 l
0 540 l
cl
1.000 setgray
fill
grestore
gsave
105.3 54 m
758.16 54 l
758.16 486 l
105.3 486 l
cl
1.000 setgray
fill
grestore
1.000 setlinewidth
1 setlinejoin
2 setlinecap
[] 0 setdash
0.000 0.000 1.000 setrgbcolor
gsave
652.9 432 105.3 54 clipbox
105.3 202.44 m
108.564 195.971 l
111.829 147.504 l
115.093 147.504 l
118.357 112.968 l
121.621 104.549 l
124.886 88.6002 l
128.15 88.6002 l
131.414 82.583 l
134.679 82.583 l
137.943 73.7444 l
141.207 65.8844 l
144.472 65.5649 l
151 65.5643 l
154.264 62.4135 l
183.643 62.4129 l
186.907 58.9307 l
193.436 58.9307 l
196.7 57.2908 l
203.229 57.258 l
206.493 56.2716 l
252.194 56.1897 l
255.458 55.349 l
275.044 55.3304 l
310.951 55.3304 l
314.215 54.6293 l
366.444 54.6293 l
369.708 54.3637 l
444.787 54.2616 l
461.109 54.2289 l
477.43 54.2289 l
480.695 54.1114 l
705.931 54.0241 l
705.931 54.0241 l
stroke
grestore
0.000 0.500 0.000 setrgbcolor
gsave
652.9 432 105.3 54 clipbox
105.3 194.5 m
108.564 181.087 l
111.829 108.33 l
115.093 100.324 l
121.621 100.299 l
124.886 93.5062 l
128.15 91.5481 l
131.414 90.0581 l
134.679 90.0581 l
137.943 89.8838 l
141.207 89.8838 l
144.472 84.2954 l
154.264 84.2954 l
157.529 82.5658 l
167.322 82.4357 l
170.586 82.4357 l
173.85 80.64 l
177.115 80.64 l
180.379 72.4034 l
193.436 72.4034 l
196.7 72.2636 l
199.965 72.2636 l
203.229 71.4514 l
209.758 71.4514 l
213.022 70.8718 l
222.815 70.8428 l
226.079 69.9066 l
235.872 69.9066 l
239.136 67.5702 l
242.401 65.5066 l
252.194 65.5066 l
255.458 64.621 l
261.986 64.621 l
265.251 64.4375 l
297.894 64.4374 l
301.158 64.2962 l
304.422 63.8686 l
327.272 63.8685 l
330.537 62.9766 l
343.594 62.7559 l
386.03 62.7555 l
389.294 62.2509 l
444.787 62.174 l
448.051 62.0503 l
461.109 61.9923 l
464.373 61.8612 l
477.43 61.7863 l
480.695 61.6376 l
516.602 61.3802 l
529.659 61.2634 l
578.624 60.9338 l
585.152 60.8644 l
608.002 60.756 l
705.931 60.3584 l
705.931 60.3584 l
stroke
grestore
1.000 0.000 0.000 setrgbcolor
gsave
652.9 432 105.3 54 clipbox
105.3 220.804 m
108.564 198.735 l
111.829 144.95 l
115.093 114.349 l
118.357 111.263 l
121.621 102.991 l
124.886 100.549 l
134.679 100.549 l
137.943 96.7013 l
141.207 94.9328 l
147.736 94.9328 l
151 87.9111 l
160.793 87.9111 l
164.057 87.7418 l
167.322 83.4003 l
170.586 83.4003 l
173.85 80.0594 l
196.7 80.0594 l
199.965 79.92 l
203.229 79.92 l
206.493 74.0884 l
213.022 74.0884 l
216.286 72.2622 l
222.815 72.2319 l
226.079 69.4386 l
255.458 69.3417 l
258.722 69.0216 l
261.986 69.0216 l
265.251 68.4101 l
268.515 67.0401 l
281.572 67.0401 l
284.837 66.8082 l
294.629 66.8082 l
297.894 66.6161 l
317.479 66.5963 l
320.744 66.5963 l
324.008 65.8303 l
327.272 65.5546 l
337.065 65.5347 l
340.33 64.5799 l
343.594 64.4656 l
346.858 63.1258 l
353.387 63.1258 l
356.651 62.8124 l
366.444 62.8124 l
369.708 62.6011 l
372.973 61.4551 l
376.237 61.4551 l
379.501 60.8589 l
402.351 60.8589 l
405.616 60.7445 l
408.88 60.7445 l
412.144 60.3021 l
434.994 60.2166 l
438.259 60.0342 l
461.109 60.0017 l
467.637 59.8689 l
526.395 59.7471 l
532.923 59.685 l
581.888 59.5846 l
591.681 59.5292 l
617.795 59.451 l
630.852 59.3712 l
673.288 59.2722 l
689.61 59.2148 l
705.931 59.1735 l
705.931 59.1735 l
stroke
grestore
0.000 0.750 0.750 setrgbcolor
gsave
652.9 432 105.3 54 clipbox
105.3 227.936 m
108.564 216.674 l
111.829 173.799 l
115.093 133.356 l
118.357 122.531 l
121.621 122.378 l
124.886 114.723 l
128.15 111.956 l
131.414 111.956 l
134.679 105.146 l
151 105.146 l
154.264 97.9599 l
157.529 97.9599 l
160.793 92.8455 l
170.586 92.8455 l
173.85 92.2733 l
193.436 92.2733 l
196.7 82.3221 l
219.55 82.3221 l
222.815 80.5728 l
226.079 75.1877 l
229.343 74.6137 l
235.872 74.5176 l
252.194 74.5176 l
255.458 74.2075 l
258.722 74.2075 l
261.986 73.5676 l
265.251 73.5676 l
268.515 70.6365 l
281.572 70.6365 l
284.837 68.8935 l
288.101 68.6687 l
294.629 68.6687 l
297.894 66.3683 l
301.158 66.3683 l
304.422 65.7853 l
310.951 65.7853 l
314.215 64.8583 l
340.33 64.7477 l
353.387 64.7294 l
356.651 63.7253 l
359.915 62.925 l
366.444 62.925 l
369.708 62.8132 l
372.973 62.2492 l
386.03 62.2492 l
389.294 61.8351 l
418.673 61.7725 l
421.937 61.5807 l
428.466 61.4784 l
431.73 61.331 l
451.316 61.2804 l
454.58 61.0963 l
705.931 61.0585 l
705.931 61.0585 l
stroke
grestore
0.750 0.000 0.750 setrgbcolor
gsave
652.9 432 105.3 54 clipbox
105.3 239.039 m
108.564 142.248 l
111.829 142.248 l
115.093 127.993 l
118.357 127.993 l
121.621 122.077 l
124.886 122.077 l
128.15 118.299 l
131.414 118.016 l
134.679 106.011 l
151 106.011 l
154.264 105.16 l
157.529 105.16 l
160.793 103.078 l
164.057 103.078 l
167.322 102.724 l
170.586 97.0848 l
177.115 97.0843 l
180.379 87.7878 l
186.907 87.7878 l
190.172 76.7587 l
213.022 76.7587 l
216.286 76.0216 l
229.343 76.02 l
232.608 75.666 l
239.136 75.6657 l
242.401 74.6817 l
255.458 74.6817 l
258.722 71.9943 l
265.251 71.9943 l
268.515 71.75 l
281.572 71.75 l
284.837 70.2673 l
291.365 70.247 l
294.629 69.136 l
297.894 69.136 l
301.158 68.6724 l
304.422 68.6724 l
307.687 68.3453 l
310.951 67.333 l
346.858 67.224 l
350.123 66.9536 l
353.387 66.8066 l
356.651 66.4791 l
359.915 65.9346 l
363.18 64.1629 l
372.973 64.112 l
395.823 64.003 l
399.087 63.6787 l
464.373 63.5787 l
474.166 63.5293 l
581.888 63.4208 l
670.024 63.4139 l
705.931 63.4114 l
705.931 63.4114 l
stroke
grestore
0.750 0.750 0.000 setrgbcolor
gsave
652.9 432 105.3 54 clipbox
105.3 188.205 m
108.564 125.049 l
118.357 125.049 l
121.621 121.018 l
124.886 118.069 l
128.15 107.7 l
151 107.7 l
154.264 106.528 l
157.529 106.528 l
160.793 101.194 l
164.057 94.6126 l
170.586 94.5496 l
173.85 85.0049 l
180.379 85.0049 l
183.643 77.2538 l
206.493 77.2538 l
209.758 76.3197 l
219.55 76.3183 l
222.815 75.1588 l
226.079 73.5286 l
229.343 72.6454 l
232.608 72.6454 l
235.872 72.0585 l
252.194 72.0585 l
255.458 71.8093 l
265.251 71.7681 l
297.894 71.7041 l
301.158 71.3022 l
304.422 70.5786 l
307.687 70.3307 l
314.215 70.2903 l
317.479 69.7072 l
330.537 69.6869 l
333.801 68.304 l
343.594 68.304 l
346.858 67.0174 l
369.708 66.9132 l
382.765 66.6458 l
386.03 66.6458 l
389.294 66.4706 l
399.087 66.4256 l
402.351 66.2723 l
415.409 66.268 l
418.673 65.9275 l
500.28 65.8309 l
526.395 65.7878 l
585.152 65.7722 l
705.931 65.7643 l
705.931 65.7643 l
stroke
grestore
0.000 setgray
gsave
652.9 432 105.3 54 clipbox
105.3 186.98 m
108.564 168.425 l
111.829 123.863 l
124.886 123.863 l
128.15 119.817 l
131.414 111.167 l
141.207 111.167 l
144.472 110.511 l
151 110.511 l
154.264 102.129 l
157.529 95.0391 l
160.793 94.9206 l
164.057 94.9206 l
167.322 85.9509 l
183.643 85.9357 l
186.907 82.0191 l
190.172 82.0191 l
193.436 80.3573 l
196.7 78.8689 l
213.022 78.8689 l
216.286 77.7665 l
219.55 76.9131 l
222.815 76.9131 l
226.079 75.678 l
229.343 75.3899 l
232.608 73.2951 l
235.872 73.0494 l
239.136 73.0494 l
242.401 72.4153 l
252.194 72.4153 l
255.458 72.1657 l
314.215 72.1656 l
317.479 71.4778 l
320.744 71.3562 l
324.008 71.3562 l
327.272 70.9278 l
330.537 70.6262 l
333.801 69.9476 l
337.065 69.8232 l
340.33 69.8232 l
343.594 69.5448 l
350.123 69.5448 l
356.651 69.3041 l
359.915 69.3041 l
363.18 69.1167 l
379.501 69.1157 l
382.765 68.9819 l
386.03 68.6444 l
428.466 68.6261 l
431.73 68.2975 l
470.902 68.2336 l
477.43 68.1639 l
705.931 68.1197 l
705.931 68.1197 l
stroke
grestore
0.000 0.000 1.000 setrgbcolor
gsave
652.9 432 105.3 54 clipbox
105.3 228.51 m
108.564 170.059 l
111.829 168.358 l
115.093 124.098 l
128.15 124.098 l
131.414 122.767 l
134.679 115.736 l
137.943 113.004 l
144.472 113.004 l
147.736 104.865 l
151 97.6486 l
154.264 97.4886 l
157.529 97.4886 l
160.793 89.5693 l
173.85 89.555 l
177.115 88.691 l
180.379 87.555 l
183.643 87.2377 l
193.436 87.2377 l
196.7 83.2247 l
199.965 82.8277 l
209.758 82.8277 l
213.022 81.8329 l
216.286 81.8329 l
219.55 80.2715 l
229.343 80.2715 l
232.608 78.8076 l
235.872 78.1793 l
239.136 77.3589 l
242.401 77.3589 l
245.665 76.7682 l
248.929 76.6061 l
261.986 76.6061 l
265.251 72.5626 l
268.515 72.5626 l
271.779 72.4461 l
294.629 72.4461 l
297.894 71.6167 l
343.594 71.5435 l
346.858 71.3055 l
366.444 71.3055 l
369.708 71.1207 l
395.823 71.0584 l
399.087 70.6232 l
454.58 70.5138 l
611.266 70.4775 l
705.931 70.4759 l
705.931 70.4759 l
stroke
grestore
0.000 0.500 0.000 setrgbcolor
gsave
652.9 432 105.3 54 clipbox
105.3 176.076 m
108.564 176.076 l
111.829 176.076 l
115.093 166.915 l
118.357 125.467 l
134.679 125.467 l
137.943 120.957 l
141.207 108.815 l
151 108.815 l
154.264 101.71 l
157.529 101.522 l
160.793 101.522 l
164.057 94.7236 l
170.586 94.7236 l
173.85 92.4832 l
177.115 92.4832 l
180.379 92.2415 l
183.643 88.3145 l
186.907 88.3145 l
190.172 87.011 l
203.229 86.9871 l
206.493 83.5319 l
209.758 83.5319 l
213.022 82.9545 l
219.55 82.9545 l
222.815 82.6147 l
226.079 80.7962 l
229.343 80.7962 l
232.608 78.7267 l
252.194 78.7117 l
255.458 77.9538 l
258.722 75.3 l
261.986 75.3 l
265.251 75.184 l
288.101 75.184 l
291.365 73.9212 l
317.479 73.8515 l
320.744 73.5698 l
327.272 73.5698 l
330.537 73.4411 l
382.765 73.3997 l
386.03 73.1216 l
451.316 73.0134 l
457.844 72.9567 l
578.624 72.8456 l
705.931 72.8344 l
705.931 72.8344 l
stroke
grestore
1.000 0.000 0.000 setrgbcolor
gsave
652.9 432 105.3 54 clipbox
105.3 185.694 m
108.564 171.665 l
111.829 170.122 l
115.093 160.296 l
118.357 155.199 l
121.621 127.723 l
134.679 127.717 l
137.943 118.472 l
141.207 118.472 l
144.472 113.534 l
154.264 113.534 l
157.529 106.652 l
160.793 105.771 l
164.057 105.771 l
167.322 100.645 l
173.85 100.645 l
177.115 98.0141 l
180.379 94.8183 l
183.643 94.8183 l
186.907 91.0426 l
190.172 91.0426 l
193.436 88.0139 l
196.7 88.0139 l
199.965 84.6747 l
213.022 84.6747 l
216.286 83.7005 l
229.343 83.7005 l
235.872 82.2647 l
239.136 80.4438 l
245.665 80.3801 l
248.929 80.3801 l
252.194 79.8864 l
278.308 79.8617 l
281.572 79.7608 l
284.837 78.9992 l
288.101 78.9992 l
291.365 77.9346 l
294.629 77.9346 l
297.894 77.1247 l
307.687 77.1247 l
310.951 76.765 l
314.215 76.2162 l
337.065 76.2162 l
340.33 76.1007 l
343.594 76.1007 l
346.858 75.9133 l
379.501 75.8312 l
399.087 75.6657 l
415.409 75.6234 l
418.673 75.3503 l
487.223 75.2521 l
513.337 75.2327 l
705.931 75.1943 l
705.931 75.1943 l
stroke
grestore
0.000 0.750 0.750 setrgbcolor
gsave
652.9 432 105.3 54 clipbox
105.3 179.621 m
108.564 179.621 l
111.829 158.941 l
118.357 158.941 l
121.621 156.549 l
124.886 130.66 l
128.15 129.68 l
131.414 123.302 l
134.679 121.407 l
137.943 120.047 l
141.207 116.789 l
147.736 116.763 l
151 115.842 l
154.264 108.428 l
167.322 108.428 l
170.586 106.907 l
173.85 99.846 l
177.115 98.5594 l
180.379 97.1411 l
183.643 93.511 l
186.907 93.511 l
190.172 92.6617 l
193.436 92.6617 l
196.7 90.7771 l
199.965 90.7771 l
203.229 87.7049 l
216.286 87.7049 l
219.55 86.7736 l
229.343 86.7736 l
232.608 82.9178 l
239.136 82.847 l
242.401 81.6396 l
245.665 81.3803 l
252.194 81.3639 l
255.458 80.8704 l
291.365 80.7616 l
294.629 80.0966 l
307.687 80.0966 l
310.951 79.7979 l
314.215 78.5168 l
340.33 78.5168 l
343.594 78.3047 l
372.973 78.3047 l
376.237 78.1331 l
389.294 78.1252 l
392.558 77.9365 l
412.144 77.7041 l
483.959 77.6127 l
500.28 77.5854 l
572.095 77.5612 l
705.931 77.5555 l
705.931 77.5555 l
stroke
grestore
0.750 0.000 0.750 setrgbcolor
gsave
652.9 432 105.3 54 clipbox
105.3 179.092 m
108.564 179.092 l
111.829 179.092 l
115.093 162.939 l
118.357 155.924 l
121.621 152.921 l
124.886 146.175 l
128.15 134.112 l
131.414 132.264 l
134.679 128.423 l
137.943 124.326 l
141.207 124.326 l
144.472 120.622 l
147.736 111.889 l
170.586 111.889 l
173.85 97.8149 l
180.379 97.8149 l
183.643 95.8324 l
186.907 93.5027 l
190.172 91.913 l
203.229 91.913 l
206.493 91.0491 l
213.022 91.0491 l
216.286 89.9719 l
219.55 88.0847 l
232.608 88.0841 l
235.872 83.8282 l
242.401 83.7626 l
258.722 83.7626 l
261.986 82.621 l
291.365 82.6202 l
294.629 82.3122 l
310.951 82.3122 l
314.215 82.1327 l
317.479 81.6048 l
327.272 81.6048 l
330.537 81.3365 l
333.801 80.7427 l
369.708 80.7427 l
372.973 80.5954 l
376.237 80.3306 l
382.765 80.309 l
386.03 80.1729 l
415.409 80.0851 l
431.73 80.0594 l
483.959 79.967 l
506.809 79.9326 l
705.931 79.92 l
705.931 79.92 l
stroke
grestore
0.750 0.750 0.000 setrgbcolor
gsave
652.9 432 105.3 54 clipbox
105.3 210.087 m
108.564 176.124 l
111.829 161.711 l
115.093 158.125 l
118.357 151.258 l
121.621 146.122 l
124.886 146.122 l
128.15 141.736 l
131.414 134.618 l
134.679 134.618 l
137.943 130.767 l
141.207 128.183 l
144.472 125.363 l
147.736 124.882 l
151 115.922 l
160.793 115.922 l
164.057 113.9 l
167.322 99.676 l
177.115 99.5914 l
180.379 98.7161 l
183.643 93.903 l
186.907 93.903 l
190.172 93.6163 l
196.7 93.6163 l
199.965 93.0461 l
206.493 93.0461 l
209.758 91.6432 l
216.286 91.6385 l
219.55 91.3685 l
222.815 89.9123 l
226.079 88.8331 l
229.343 88.5125 l
235.872 88.5123 l
239.136 86.4312 l
245.665 86.3734 l
261.986 86.3734 l
265.251 85.8428 l
271.779 85.842 l
275.044 85.6484 l
278.308 85.6484 l
281.572 84.6857 l
284.837 84.248 l
297.894 84.248 l
301.158 83.8904 l
307.687 83.4014 l
317.479 83.3944 l
320.744 83.1049 l
353.387 83.0105 l
363.18 82.8591 l
372.973 82.8591 l
376.237 82.7238 l
389.294 82.7238 l
392.558 82.511 l
444.787 82.3655 l
487.223 82.3269 l
705.931 82.287 l
705.931 82.287 l
stroke
grestore
0.000 setgray
gsave
652.9 432 105.3 54 clipbox
105.3 242.951 m
108.564 191.985 l
111.829 180.584 l
115.093 167.452 l
118.357 162.008 l
121.621 153.33 l
124.886 136.96 l
137.943 136.96 l
141.207 133.319 l
144.472 132.37 l
147.736 127.213 l
151 127.213 l
154.264 120.346 l
157.529 114.808 l
160.793 102.47 l
170.586 102.47 l
173.85 101.155 l
177.115 98.7861 l
183.643 98.7861 l
186.907 96.9429 l
190.172 96.9429 l
193.436 93.3954 l
206.493 93.3954 l
209.758 93.1594 l
213.022 93.1594 l
216.286 89.5842 l
239.136 89.5842 l
242.401 87.6511 l
255.458 87.651 l
258.722 87.5102 l
271.779 87.5102 l
275.044 87.3915 l
278.308 86.4616 l
281.572 86.4616 l
284.837 86.1885 l
307.687 86.1479 l
317.479 85.9783 l
333.801 85.9732 l
337.065 85.0437 l
356.651 85.0172 l
359.915 84.789 l
506.809 84.6779 l
608.002 84.6582 l
705.931 84.6552 l
705.931 84.6552 l
stroke
grestore
0.000 0.000 1.000 setrgbcolor
gsave
652.9 432 105.3 54 clipbox
105.3 298.701 m
108.564 243.646 l
111.829 194.972 l
115.093 182.75 l
118.357 148.621 l
124.886 148.621 l
128.15 139.715 l
137.943 139.715 l
141.207 132.014 l
144.472 132.014 l
147.736 125.31 l
151 125.31 l
154.264 123.873 l
157.529 123.689 l
160.793 116.44 l
164.057 105.956 l
173.85 105.956 l
177.115 101.859 l
180.379 99.4795 l
193.436 99.4788 l
196.7 94.3853 l
199.965 94.3853 l
203.229 93.441 l
206.493 93.441 l
209.758 90.1251 l
232.608 90.1251 l
235.872 88.523 l
248.929 88.523 l
252.194 88.3806 l
278.308 88.3806 l
281.572 88.1006 l
330.537 88.1005 l
337.065 87.8115 l
346.858 87.8115 l
350.123 87.5542 l
353.387 87.5542 l
359.915 87.2155 l
454.58 87.1304 l
461.109 87.0644 l
705.931 87.0275 l
705.931 87.0275 l
stroke
grestore
0.000 0.500 0.000 setrgbcolor
gsave
652.9 432 105.3 54 clipbox
105.3 222.062 m
108.564 185.402 l
111.829 160.32 l
115.093 160.142 l
118.357 158.748 l
121.621 146.753 l
124.886 146.753 l
128.15 144.348 l
131.414 142.804 l
134.679 139.997 l
137.943 139.791 l
141.207 129.151 l
144.472 129.151 l
147.736 127.633 l
151 127.633 l
154.264 124.669 l
157.529 124.669 l
160.793 124.199 l
164.057 118.678 l
167.322 109.939 l
170.586 108.609 l
177.115 108.609 l
180.379 103.448 l
183.643 101.108 l
186.907 101.107 l
190.172 99.0691 l
193.436 99.0691 l
196.7 97.4622 l
199.965 96.4001 l
203.229 91.8546 l
235.872 91.8546 l
239.136 90.6046 l
242.401 90.6046 l
245.665 90.4655 l
281.572 90.4655 l
284.837 90.1924 l
340.33 90.1924 l
343.594 89.6684 l
372.973 89.6417 l
376.237 89.4682 l
705.931 89.4027 l
705.931 89.4027 l
stroke
grestore
1.000 0.000 0.000 setrgbcolor
gsave
652.9 432 105.3 54 clipbox
105.3 226.008 m
108.564 189.888 l
111.829 185.77 l
115.093 163.242 l
118.357 161.14 l
121.621 146.837 l
124.886 146.837 l
128.15 142.098 l
131.414 142.098 l
134.679 133.242 l
137.943 133.242 l
141.207 131.315 l
154.264 131.315 l
157.529 128.14 l
160.793 119.727 l
164.057 112.93 l
170.586 112.93 l
173.85 110.436 l
177.115 106.804 l
180.379 106.804 l
183.643 104.167 l
186.907 103.476 l
190.172 102.027 l
193.436 99.9197 l
196.7 99.9197 l
199.965 99.3873 l
203.229 99.2242 l
206.493 94.5314 l
226.079 94.5314 l
229.343 93.0807 l
275.044 92.9894 l
288.101 92.9548 l
304.422 92.8685 l
314.215 92.8173 l
337.065 92.8173 l
340.33 92.2608 l
356.651 92.1641 l
376.237 91.917 l
506.809 91.808 l
542.716 91.7962 l
705.931 91.7818 l
705.931 91.7818 l
stroke
grestore
0.000 0.750 0.750 setrgbcolor
gsave
652.9 432 105.3 54 clipbox
105.3 239.592 m
108.564 228.471 l
111.829 192.026 l
115.093 186.421 l
118.357 162.871 l
121.621 153.494 l
124.886 149.193 l
128.15 149.193 l
131.414 144.54 l
134.679 137.565 l
141.207 137.517 l
144.472 135.034 l
151 135.034 l
154.264 131.38 l
157.529 125.449 l
164.057 122.516 l
167.322 116.62 l
170.586 113.584 l
177.115 112.105 l
180.379 109.889 l
183.643 104.976 l
186.907 102.669 l
190.172 102.669 l
193.436 101.276 l
206.493 101.276 l
209.758 97.9133 l
219.55 97.9133 l
222.815 95.1773 l
278.308 95.0881 l
291.365 95.0551 l
297.894 95.0407 l
301.158 94.8367 l
304.422 94.8367 l
307.687 94.5544 l
408.88 94.4902 l
412.144 94.3498 l
428.466 94.3259 l
490.487 94.2151 l
705.931 94.1639 l
705.931 94.1639 l
stroke
grestore
0.750 0.000 0.750 setrgbcolor
gsave
652.9 432 105.3 54 clipbox
105.3 243.958 m
108.564 208.077 l
111.829 178.647 l
115.093 178.647 l
118.357 171.629 l
121.621 166.747 l
124.886 157.917 l
128.15 152.091 l
131.414 152.091 l
134.679 147.273 l
137.943 140.361 l
144.472 140.361 l
147.736 137.717 l
151 125.934 l
157.529 125.934 l
160.793 123.035 l
164.057 114.538 l
170.586 113.039 l
173.85 113.039 l
177.115 108.412 l
180.379 105.96 l
183.643 105.96 l
186.907 103.709 l
199.965 103.696 l
203.229 102.053 l
209.758 102.053 l
213.022 101.797 l
216.286 98.0134 l
281.572 97.9277 l
288.101 97.8562 l
294.629 97.8562 l
297.894 97.728 l
301.158 96.7046 l
438.259 96.6033 l
451.316 96.573 l
705.931 96.5504 l
705.931 96.5504 l
stroke
grestore
0.750 0.750 0.000 setrgbcolor
gsave
652.9 432 105.3 54 clipbox
105.3 206.284 m
108.564 206.284 l
111.829 196.273 l
115.093 182.788 l
118.357 182.788 l
121.621 176.064 l
124.886 170.723 l
128.15 162.404 l
131.414 155.205 l
134.679 155.205 l
137.943 150.251 l
141.207 143.421 l
144.472 140.979 l
147.736 136.193 l
151 133.51 l
154.264 126.65 l
157.529 116.052 l
164.057 114.551 l
167.322 114.551 l
170.586 113.394 l
173.85 111.976 l
177.115 108.535 l
180.379 106.685 l
186.907 106.685 l
190.172 106.428 l
193.436 105.781 l
196.7 104.149 l
206.493 104.149 l
209.758 101.407 l
213.022 101.12 l
252.194 101.119 l
255.458 100.447 l
291.365 100.447 l
294.629 99.5273 l
320.744 99.4425 l
324.008 99.2772 l
366.444 99.2163 l
369.708 99.0834 l
451.316 98.9795 l
474.166 98.9627 l
705.931 98.9407 l
705.931 98.9407 l
stroke
grestore
0.000 setgray
gsave
652.9 432 105.3 54 clipbox
105.3 254.197 m
108.564 207.241 l
111.829 207.241 l
115.093 199.074 l
118.357 186.977 l
121.621 177.785 l
124.886 169.457 l
128.15 167.084 l
131.414 166.935 l
134.679 158.497 l
137.943 142.406 l
141.207 138.084 l
144.472 136.704 l
147.736 134.841 l
151 118.054 l
154.264 118.054 l
157.529 116.644 l
164.057 116.627 l
167.322 114.768 l
170.586 113.945 l
173.85 113.387 l
177.115 110.398 l
180.379 110.398 l
186.907 109.704 l
190.172 107.696 l
196.7 107.696 l
199.965 106.434 l
203.229 106.434 l
206.493 102.932 l
245.665 102.83 l
248.929 102.283 l
258.722 102.283 l
261.986 102.168 l
294.629 102.1 l
297.894 101.908 l
320.744 101.908 l
324.008 101.706 l
327.272 101.706 l
330.537 101.511 l
454.58 101.418 l
467.637 101.39 l
705.931 101.336 l
705.931 101.336 l
stroke
grestore
0.000 0.000 1.000 setrgbcolor
gsave
652.9 432 105.3 54 clipbox
105.3 235.344 m
108.564 235.344 l
111.829 208.381 l
115.093 194.501 l
118.357 194.501 l
121.621 190.055 l
124.886 178.022 l
128.15 170.42 l
131.414 144.157 l
134.679 144.157 l
137.943 140.114 l
141.207 138.74 l
144.472 134.942 l
147.736 133.862 l
151 133.862 l
154.264 120.472 l
157.529 120.472 l
160.793 119.077 l
164.057 115.435 l
173.85 115.435 l
177.115 111.919 l
183.643 110.455 l
190.172 110.455 l
193.436 107.627 l
196.7 107.627 l
199.965 105.317 l
222.815 105.216 l
226.079 104.951 l
248.929 104.951 l
252.194 104.696 l
255.458 104.582 l
258.722 104.315 l
288.101 104.263 l
291.365 104.124 l
382.765 104.027 l
389.294 103.833 l
705.931 103.736 l
705.931 103.736 l
stroke
grestore
0.000 0.500 0.000 setrgbcolor
gsave
652.9 432 105.3 54 clipbox
105.3 224.34 m
108.564 224.34 l
111.829 224.34 l
115.093 202.457 l
118.357 185.175 l
121.621 185.175 l
124.886 175.133 l
128.15 175.133 l
131.414 171.631 l
134.679 146.198 l
137.943 146.198 l
141.207 136.536 l
147.736 136.536 l
151 133.786 l
154.264 131.777 l
157.529 123.239 l
160.793 123.239 l
164.057 121.867 l
167.322 117.383 l
170.586 117.383 l
173.85 112.695 l
183.643 112.695 l
186.907 111.548 l
193.436 111.548 l
196.7 109.371 l
199.965 109.371 l
203.229 108.025 l
206.493 108.025 l
209.758 107.648 l
255.458 107.569 l
258.722 107.21 l
261.986 106.963 l
291.365 106.858 l
297.894 106.778 l
343.594 106.684 l
346.858 106.526 l
372.973 106.431 l
386.03 106.391 l
395.823 106.3 l
408.88 106.266 l
526.395 106.153 l
673.288 106.141 l
705.931 106.14 l
705.931 106.14 l
stroke
grestore
1.000 0.000 0.000 setrgbcolor
gsave
652.9 432 105.3 54 clipbox
105.3 281.293 m
108.564 226.173 l
111.829 195.936 l
115.093 195.32 l
118.357 179.063 l
121.621 179.063 l
124.886 176.789 l
128.15 164.18 l
131.414 157.755 l
134.679 139.454 l
137.943 139.32 l
141.207 139.32 l
144.472 134.969 l
147.736 134.969 l
151 133.738 l
157.529 133.738 l
160.793 126.296 l
164.057 125.715 l
167.322 124.951 l
170.586 119.725 l
173.85 119.725 l
177.115 114.706 l
186.907 114.706 l
193.436 114.366 l
196.7 114.353 l
199.965 111.589 l
203.229 111.589 l
206.493 111.082 l
209.758 111.082 l
213.022 110.502 l
258.722 110.499 l
268.515 109.841 l
281.572 109.841 l
284.837 109.516 l
288.101 109.372 l
317.479 109.372 l
320.744 109.24 l
330.537 109.181 l
333.801 108.982 l
340.33 108.982 l
343.594 108.79 l
415.409 108.7 l
428.466 108.667 l
572.095 108.558 l
705.931 108.55 l
705.931 108.55 l
stroke
grestore
0.000 0.750 0.750 setrgbcolor
gsave
652.9 432 105.3 54 clipbox
105.3 255.792 m
108.564 225.637 l
111.829 215.302 l
115.093 196.238 l
118.357 195.835 l
121.621 177.651 l
128.15 177.651 l
131.414 166.178 l
134.679 159.057 l
137.943 142.577 l
141.207 142.097 l
144.472 136.189 l
151 136.189 l
154.264 131.305 l
160.793 131.305 l
164.057 129.592 l
167.322 128.687 l
170.586 128.275 l
173.85 122.402 l
177.115 122.402 l
180.379 117.112 l
199.965 117.112 l
203.229 114.205 l
213.022 114.205 l
216.286 113.696 l
245.665 113.695 l
248.929 113.424 l
252.194 113.424 l
255.458 112.76 l
271.779 112.758 l
275.044 112.554 l
284.837 112.554 l
288.101 112.394 l
291.365 112.073 l
301.158 111.905 l
324.008 111.804 l
327.272 111.427 l
350.123 111.321 l
356.651 111.311 l
359.915 111.097 l
470.902 110.99 l
542.716 110.975 l
705.931 110.966 l
705.931 110.966 l
stroke
grestore
0.750 0.000 0.750 setrgbcolor
gsave
652.9 432 105.3 54 clipbox
105.3 263.938 m
108.564 250.589 l
111.829 208.352 l
115.093 208.352 l
118.357 196.735 l
121.621 193.996 l
124.886 181.464 l
131.414 181.464 l
134.679 168.367 l
137.943 160.598 l
141.207 145.875 l
144.472 145.076 l
147.736 138.885 l
154.264 138.885 l
157.529 134.453 l
164.057 134.453 l
167.322 133.082 l
170.586 131.314 l
173.85 131.314 l
177.115 125.36 l
180.379 125.36 l
183.643 119.852 l
203.229 119.852 l
206.493 117.153 l
209.758 116.743 l
232.608 116.743 l
235.872 116.569 l
239.136 116.569 l
242.401 116.137 l
255.458 116.137 l
258.722 115.489 l
275.044 115.454 l
278.308 115.292 l
281.572 114.253 l
297.894 114.253 l
301.158 113.985 l
327.272 113.983 l
330.537 113.523 l
510.073 113.421 l
529.659 113.393 l
705.931 113.386 l
705.931 113.386 l
stroke
grestore
0.750 0.750 0.000 setrgbcolor
gsave
652.9 432 105.3 54 clipbox
105.3 272.596 m
108.564 252.291 l
111.829 241.834 l
115.093 210.655 l
118.357 210.655 l
121.621 194.37 l
124.886 194.37 l
128.15 184.896 l
131.414 178.253 l
134.679 164.919 l
137.943 162.273 l
141.207 162.273 l
144.472 149.319 l
147.736 148.228 l
151 141.793 l
154.264 141.793 l
157.529 139.082 l
160.793 137.787 l
167.322 132.656 l
170.586 131.004 l
173.85 130.437 l
177.115 125.89 l
180.379 125.89 l
183.643 125.307 l
186.907 122.871 l
193.436 122.871 l
196.7 121.879 l
203.229 121.879 l
206.493 120.401 l
209.758 120.372 l
213.022 119.851 l
235.872 119.851 l
239.136 119.682 l
242.401 119.682 l
245.665 119.149 l
248.929 119.149 l
252.194 118.412 l
261.986 118.411 l
265.251 117.299 l
281.572 117.299 l
284.837 116.499 l
330.537 116.434 l
333.801 115.993 l
428.466 115.901 l
448.051 115.881 l
705.931 115.814 l
705.931 115.814 l
stroke
grestore
0.000 setgray
gsave
652.9 432 105.3 54 clipbox
105.3 251.489 m
108.564 251.489 l
111.829 222.947 l
115.093 209.107 l
118.357 209.107 l
121.621 188.284 l
124.886 181.352 l
128.15 167.985 l
137.943 167.985 l
141.207 153.613 l
144.472 153.613 l
147.736 152.885 l
151 143.071 l
154.264 140.531 l
157.529 139.179 l
160.793 133.711 l
164.057 133.711 l
167.322 131.982 l
170.586 127.93 l
173.85 127.93 l
177.115 127.586 l
180.379 127.584 l
183.643 125.869 l
186.907 124.878 l
190.172 123.561 l
196.7 123.561 l
199.965 122.097 l
242.401 122.097 l
245.665 120.112 l
255.458 120.112 l
258.722 119.36 l
284.837 119.36 l
288.101 119.078 l
294.629 118.937 l
333.801 118.932 l
337.065 118.778 l
382.765 118.679 l
386.03 118.463 l
428.466 118.359 l
444.787 118.333 l
523.13 118.262 l
705.931 118.247 l
705.931 118.247 l
stroke
grestore
0.000 0.000 1.000 setrgbcolor
gsave
652.9 432 105.3 54 clipbox
105.3 224.091 m
115.093 224.091 l
118.357 211.109 l
121.621 187.209 l
124.886 187.209 l
128.15 184.545 l
131.414 171.165 l
134.679 171.165 l
137.943 162.775 l
141.207 157.522 l
144.472 147.139 l
147.736 146.119 l
151 143.252 l
154.264 135.079 l
157.529 135.079 l
160.793 133.68 l
164.057 130.256 l
167.322 130.256 l
170.586 129.903 l
173.85 129.901 l
177.115 127.857 l
186.907 127.832 l
190.172 126.525 l
193.436 124.127 l
239.136 124.058 l
242.401 122.547 l
245.665 122.547 l
252.194 121.744 l
265.251 121.744 l
268.515 121.628 l
281.572 121.628 l
284.837 121.373 l
294.629 121.33 l
359.915 121.252 l
363.18 121.047 l
376.237 120.962 l
379.501 120.811 l
559.038 120.701 l
634.117 120.689 l
705.931 120.688 l
705.931 120.688 l
stroke
grestore
0.000 0.500 0.000 setrgbcolor
gsave
652.9 432 105.3 54 clipbox
105.3 274.431 m
108.564 225.359 l
118.357 225.359 l
121.621 212.465 l
124.886 190.273 l
128.15 179.325 l
131.414 179.325 l
134.679 172.747 l
137.943 172.747 l
141.207 159.774 l
144.472 159.231 l
147.736 151.271 l
151 145.155 l
154.264 143.832 l
157.529 136.737 l
160.793 136.737 l
164.057 135.297 l
167.322 132.83 l
170.586 132.541 l
177.115 132.469 l
180.379 130.125 l
183.643 130.125 l
186.907 129.344 l
190.172 127.44 l
193.436 127.175 l
196.7 126.452 l
232.608 126.452 l
235.872 126.046 l
239.136 124.964 l
242.401 124.964 l
245.665 124.176 l
258.722 124.176 l
261.986 123.982 l
310.951 123.981 l
314.215 123.826 l
353.387 123.826 l
359.915 123.522 l
382.765 123.435 l
389.294 123.351 l
402.351 123.351 l
405.616 123.182 l
454.58 123.171 l
705.931 123.135 l
705.931 123.135 l
stroke
grestore
1.000 0.000 0.000 setrgbcolor
gsave
652.9 432 105.3 54 clipbox
105.3 269.304 m
108.564 265.809 l
111.829 226.745 l
115.093 226.745 l
118.357 220.311 l
121.621 201.585 l
124.886 182.178 l
128.15 182.178 l
131.414 180.352 l
134.679 168.474 l
137.943 167.929 l
141.207 165.15 l
144.472 146.772 l
151 146.736 l
154.264 144.172 l
157.529 144.172 l
160.793 135.904 l
164.057 134.272 l
173.85 134.272 l
177.115 133.019 l
180.379 133.019 l
183.643 130.489 l
186.907 129.673 l
193.436 129.573 l
196.7 129.573 l
199.965 129.035 l
235.872 129.035 l
239.136 128.317 l
242.401 127.117 l
245.665 127.117 l
248.929 126.799 l
261.986 126.768 l
265.251 126.6 l
304.422 126.6 l
307.687 126.346 l
340.33 126.346 l
343.594 126.141 l
366.444 126.042 l
369.708 125.814 l
418.673 125.723 l
441.523 125.671 l
705.931 125.589 l
705.931 125.589 l
stroke
grestore
0.000 0.750 0.750 setrgbcolor
gsave
652.9 432 105.3 54 clipbox
105.3 272.533 m
108.564 248.596 l
111.829 248.187 l
115.093 216.301 l
121.621 216.301 l
124.886 203.329 l
128.15 183.529 l
131.414 177.188 l
134.679 176.895 l
137.943 168.923 l
141.207 156.86 l
144.472 155.062 l
147.736 145.801 l
151 145.801 l
154.264 144.228 l
157.529 141.214 l
160.793 141.207 l
164.057 138.915 l
167.322 136.264 l
170.586 136.264 l
173.85 135.884 l
177.115 133.72 l
183.643 133.72 l
186.907 133.288 l
190.172 132.339 l
199.965 132.301 l
203.229 131.842 l
235.872 131.842 l
242.401 130.839 l
245.665 129.958 l
248.929 129.958 l
252.194 129.651 l
265.251 129.627 l
271.779 129.381 l
291.365 129.276 l
297.894 129.18 l
324.008 129.104 l
333.801 129.065 l
337.065 128.45 l
359.915 128.449 l
363.18 128.24 l
425.201 128.159 l
438.259 128.12 l
705.931 128.051 l
705.931 128.051 l
stroke
grestore
0.750 0.000 0.750 setrgbcolor
gsave
652.9 432 105.3 54 clipbox
105.3 274.591 m
108.564 262.388 l
111.829 235.054 l
115.093 230.578 l
118.357 210.77 l
121.621 210.77 l
124.886 194.712 l
128.15 194.712 l
131.414 171.991 l
134.679 168.187 l
137.943 161.426 l
141.207 159.031 l
144.472 152.926 l
147.736 152.926 l
151 147.656 l
157.529 147.551 l
160.793 144.362 l
164.057 142.241 l
167.322 139.853 l
170.586 137.91 l
173.85 137.91 l
177.115 135.741 l
180.379 134.711 l
183.643 134.048 l
219.55 134.047 l
222.815 133.813 l
239.136 133.803 l
242.401 133.317 l
245.665 133.317 l
248.929 132.729 l
252.194 132.729 l
255.458 132.064 l
271.779 132.04 l
275.044 132.04 l
278.308 131.332 l
291.365 131.222 l
314.215 131.204 l
324.008 131.204 l
327.272 131.079 l
350.123 131.002 l
359.915 130.789 l
389.294 130.789 l
392.558 130.673 l
477.43 130.573 l
510.073 130.537 l
705.931 130.521 l
705.931 130.521 l
stroke
grestore
0.750 0.750 0.000 setrgbcolor
gsave
652.9 432 105.3 54 clipbox
105.3 294.507 m
108.564 277.024 l
111.829 233.661 l
115.093 233.661 l
118.357 228.56 l
121.621 208.342 l
124.886 175.158 l
128.15 175.158 l
131.414 164.803 l
134.679 158.862 l
141.207 158.862 l
144.472 158.374 l
147.736 153.578 l
151 151.555 l
154.264 146.957 l
157.529 146.957 l
160.793 141.055 l
164.057 139.858 l
167.322 139.858 l
170.586 137.686 l
173.85 136.401 l
183.643 136.401 l
186.907 136.012 l
213.022 136.011 l
216.286 135.78 l
232.608 135.77 l
235.872 135.578 l
239.136 135.578 l
242.401 134.979 l
245.665 134.979 l
248.929 134.325 l
265.251 134.301 l
268.515 134.301 l
271.779 133.632 l
281.572 133.632 l
288.101 133.437 l
317.479 133.437 l
320.744 133.314 l
372.973 133.244 l
382.765 133.202 l
448.051 133.098 l
457.844 133.055 l
705.931 133 l
705.931 133 l
stroke
grestore
0.000 setgray
gsave
652.9 432 105.3 54 clipbox
105.3 254.931 m
108.564 254.931 l
111.829 254.931 l
115.093 235.815 l
118.357 235.815 l
121.621 231.918 l
124.886 211.928 l
128.15 178.415 l
131.414 171.748 l
134.679 168.268 l
137.943 158.926 l
141.207 158.926 l
144.472 155.098 l
147.736 153.122 l
151 153.122 l
154.264 149.421 l
157.529 142.026 l
164.057 142.026 l
167.322 138.336 l
186.907 138.336 l
190.172 138.207 l
216.286 138.206 l
219.55 137.978 l
229.343 137.978 l
232.608 137.502 l
245.665 137.408 l
248.929 136.87 l
258.722 136.762 l
261.986 136.762 l
265.251 136.348 l
271.779 136.348 l
275.044 136.151 l
284.837 136.151 l
291.365 135.893 l
310.951 135.893 l
314.215 135.773 l
412.144 135.669 l
425.201 135.563 l
705.931 135.486 l
705.931 135.486 l
stroke
grestore
0.000 0.000 1.000 setrgbcolor
gsave
652.9 432 105.3 54 clipbox
105.3 266.173 m
108.564 251.066 l
111.829 251.066 l
115.093 240.272 l
118.357 238.052 l
121.621 214.401 l
124.886 212.868 l
128.15 204.995 l
131.414 181.751 l
134.679 175.101 l
137.943 171.809 l
141.207 159.218 l
144.472 159.218 l
147.736 155.333 l
151 154.399 l
154.264 154.399 l
157.529 151.537 l
160.793 144.395 l
167.322 144.395 l
170.586 140.495 l
222.815 140.386 l
226.079 139.609 l
248.929 139.516 l
252.194 139.263 l
255.458 139.154 l
258.722 138.642 l
304.422 138.534 l
310.951 138.431 l
346.858 138.33 l
356.651 138.278 l
366.444 138.278 l
369.708 138.153 l
480.695 138.032 l
497.016 138.005 l
705.931 137.982 l
705.931 137.982 l
stroke
grestore
0.000 0.500 0.000 setrgbcolor
gsave
652.9 432 105.3 54 clipbox
105.3 279.476 m
108.564 242.347 l
111.829 242.347 l
115.093 216.952 l
118.357 214.625 l
121.621 214.625 l
124.886 208.016 l
128.15 200.566 l
131.414 179.354 l
134.679 179.354 l
137.943 178.53 l
141.207 175.418 l
144.472 159.73 l
147.736 159.73 l
151 157.137 l
154.264 157.137 l
157.529 155.562 l
160.793 149.158 l
164.057 146.945 l
170.586 146.945 l
173.85 142.855 l
177.115 142.727 l
219.55 142.71 l
222.815 142.506 l
226.079 142.506 l
229.343 141.923 l
245.665 141.832 l
252.194 141.135 l
284.837 141.086 l
288.101 140.878 l
294.629 140.789 l
376.237 140.692 l
412.144 140.575 l
705.931 140.488 l
705.931 140.488 l
stroke
grestore
1.000 0.000 0.000 setrgbcolor
gsave
652.9 432 105.3 54 clipbox
105.3 295.633 m
108.564 280.937 l
111.829 244.5 l
115.093 244.5 l
118.357 219.58 l
121.621 216.49 l
124.886 214.978 l
128.15 204.743 l
131.414 202.482 l
134.679 182.348 l
137.943 182.348 l
141.207 182.026 l
144.472 179.087 l
147.736 160.455 l
151 160.455 l
154.264 159.123 l
157.529 159.001 l
160.793 159.001 l
164.057 152.299 l
167.322 149.657 l
173.85 149.657 l
177.115 145.399 l
180.379 145.06 l
229.343 145.044 l
232.608 144.424 l
239.136 144.411 l
242.401 144.125 l
248.929 144.033 l
261.986 143.807 l
275.044 143.779 l
278.308 143.649 l
288.101 143.647 l
291.365 143.292 l
297.894 143.205 l
434.994 143.125 l
441.523 143.043 l
705.931 143.003 l
705.931 143.003 l
stroke
grestore
0.000 0.750 0.750 setrgbcolor
gsave
652.9 432 105.3 54 clipbox
105.3 253.9 m
108.564 253.9 l
111.829 253.9 l
115.093 220.257 l
118.357 220.257 l
121.621 215.351 l
124.886 211.815 l
128.15 211.815 l
131.414 207.646 l
134.679 204.512 l
137.943 185.43 l
141.207 185.43 l
144.472 178.29 l
147.736 175.174 l
151 161.387 l
157.529 161.276 l
160.793 159.482 l
164.057 156.18 l
167.322 151.565 l
170.586 151.565 l
173.85 149.909 l
177.115 149.909 l
180.379 148.106 l
183.643 147.571 l
226.079 147.554 l
229.343 147.035 l
242.401 146.998 l
245.665 146.649 l
258.722 146.529 l
265.251 146.465 l
268.515 146.452 l
271.779 146.321 l
291.365 146.319 l
294.629 145.883 l
301.158 145.798 l
408.88 145.69 l
470.902 145.563 l
705.931 145.528 l
705.931 145.528 l
stroke
grestore
0.750 0.000 0.750 setrgbcolor
gsave
652.9 432 105.3 54 clipbox
105.3 269.961 m
108.564 257.35 l
111.829 257.35 l
115.093 237.449 l
118.357 222.729 l
121.621 217.779 l
124.886 217.779 l
128.15 214.648 l
131.414 199.194 l
134.679 199.194 l
137.943 184.493 l
144.472 184.493 l
147.736 180.233 l
151 165.381 l
154.264 161.214 l
157.529 157.576 l
160.793 153.262 l
164.057 153.262 l
167.322 151.706 l
170.586 151.706 l
173.85 151.518 l
177.115 150.239 l
183.643 150.225 l
186.907 150.074 l
190.172 150.074 l
193.436 149.904 l
219.55 149.903 l
222.815 149.246 l
261.986 149.244 l
265.251 148.77 l
294.629 148.77 l
301.158 148.55 l
324.008 148.532 l
327.272 148.375 l
399.087 148.297 l
408.88 148.228 l
431.73 148.109 l
705.931 148.064 l
705.931 148.064 l
stroke
grestore
0.750 0.750 0.000 setrgbcolor
gsave
652.9 432 105.3 54 clipbox
105.3 280.147 m
108.564 246.018 l
115.093 246.018 l
118.357 232.236 l
121.621 225.281 l
124.886 220.098 l
128.15 220.098 l
131.414 187.435 l
141.207 187.435 l
144.472 166.743 l
147.736 163.117 l
154.264 155.147 l
157.529 155.147 l
160.793 155.026 l
164.057 155.026 l
167.322 153.504 l
173.85 153.504 l
180.379 152.445 l
213.022 152.365 l
216.286 151.629 l
255.458 151.628 l
258.722 151.216 l
317.479 151.153 l
320.744 150.893 l
350.123 150.887 l
353.387 150.731 l
575.359 150.62 l
660.231 150.611 l
705.931 150.611 l
705.931 150.611 l
stroke
grestore
0.000 setgray
gsave
652.9 432 105.3 54 clipbox
105.3 301.497 m
108.564 280.499 l
111.829 248.879 l
115.093 240.335 l
118.357 240.335 l
121.621 234.374 l
124.886 190.463 l
134.679 190.463 l
137.943 168.278 l
141.207 165.181 l
144.472 160.929 l
147.736 157.208 l
160.793 157.208 l
167.322 156.907 l
170.586 155.59 l
173.85 154.973 l
203.229 154.934 l
206.493 154.643 l
209.758 154.171 l
239.136 154.17 l
245.665 153.982 l
248.929 153.982 l
252.194 153.818 l
284.837 153.818 l
288.101 153.673 l
310.951 153.658 l
314.215 153.522 l
343.594 153.522 l
346.858 153.31 l
483.959 153.202 l
591.681 153.172 l
705.931 153.169 l
705.931 153.169 l
stroke
grestore
0.000 0.000 1.000 setrgbcolor
gsave
652.9 432 105.3 54 clipbox
105.3 276.927 m
108.564 275.89 l
111.829 262.766 l
115.093 245.401 l
121.621 225.474 l
124.886 225.474 l
128.15 193.57 l
134.679 193.57 l
137.943 189.753 l
141.207 169.977 l
144.472 167.394 l
147.736 162.864 l
151 159.432 l
157.529 159.432 l
160.793 159.141 l
170.586 159.141 l
173.85 157.841 l
177.115 157.645 l
190.172 157.434 l
196.7 157.434 l
199.965 156.904 l
232.608 156.857 l
239.136 156.477 l
288.101 156.476 l
291.365 156.324 l
314.215 156.31 l
317.479 156.164 l
330.537 156.063 l
454.58 155.803 l
510.073 155.767 l
705.931 155.739 l
705.931 155.739 l
stroke
grestore
0.000 0.500 0.000 setrgbcolor
gsave
652.9 432 105.3 54 clipbox
105.3 307.357 m
108.564 269.67 l
111.829 269.67 l
115.093 232.434 l
118.357 232.434 l
121.621 226.389 l
124.886 216.035 l
128.15 216.035 l
131.414 191.623 l
134.679 191.623 l
137.943 184.522 l
141.207 180.209 l
144.472 171.831 l
147.736 169.748 l
151 164.958 l
154.264 161.808 l
160.793 161.808 l
164.057 161.528 l
173.85 161.528 l
177.115 160.245 l
180.379 160.245 l
183.643 159.981 l
186.907 159.981 l
190.172 159.543 l
193.436 159.32 l
226.079 159.32 l
229.343 159.201 l
255.458 159.115 l
261.986 159.023 l
314.215 158.934 l
324.008 158.795 l
330.537 158.787 l
333.801 158.577 l
428.466 158.408 l
705.931 158.322 l
705.931 158.322 l
stroke
grestore
1.000 0.000 0.000 setrgbcolor
gsave
652.9 432 105.3 54 clipbox
105.3 338.677 m
108.564 293.233 l
111.829 271.472 l
115.093 270.508 l
118.357 235.047 l
121.621 230.044 l
124.886 193.614 l
128.15 193.614 l
131.414 187.495 l
134.679 185.974 l
137.943 185.973 l
141.207 183.049 l
144.472 179.119 l
147.736 173.833 l
151 172.233 l
154.264 167.2 l
157.529 164.325 l
164.057 164.323 l
167.322 164.055 l
173.85 164.022 l
177.115 163.739 l
180.379 162.792 l
183.643 162.213 l
190.172 162.213 l
193.436 161.809 l
235.872 161.805 l
239.136 161.583 l
248.929 161.583 l
252.194 161.448 l
333.801 161.315 l
340.33 161.222 l
353.387 161.158 l
359.915 161.079 l
444.787 160.97 l
536.188 160.928 l
624.324 160.918 l
705.931 160.917 l
705.931 160.917 l
stroke
grestore
0.000 0.750 0.750 setrgbcolor
gsave
652.9 432 105.3 54 clipbox
105.3 321.648 m
108.564 271.012 l
115.093 271.012 l
118.357 264.502 l
121.621 237.73 l
128.15 195.72 l
131.414 195.72 l
134.679 190.551 l
137.943 181.522 l
147.736 181.521 l
151 175.974 l
154.264 174.08 l
157.529 169.582 l
160.793 166.973 l
167.322 166.971 l
170.586 166.713 l
173.85 166.713 l
177.115 166.348 l
180.379 166.348 l
183.643 165.471 l
186.907 164.899 l
193.436 164.899 l
196.7 164.221 l
235.872 164.216 l
239.136 164.05 l
288.101 163.981 l
294.629 163.838 l
346.858 163.768 l
350.123 163.628 l
705.931 163.526 l
705.931 163.526 l
stroke
grestore
0.750 0.000 0.750 setrgbcolor
gsave
652.9 432 105.3 54 clipbox
105.3 323.255 m
108.564 290.41 l
111.829 271.604 l
115.093 271.604 l
118.357 270.798 l
121.621 242.823 l
124.886 240.48 l
131.414 197.937 l
134.679 197.937 l
137.943 188.56 l
141.207 184.039 l
144.472 181.306 l
147.736 177.035 l
151 174.411 l
154.264 172.383 l
157.529 171.459 l
160.793 171.459 l
164.057 169.742 l
170.586 169.74 l
173.85 169.493 l
177.115 169.493 l
180.379 168.811 l
183.643 168.811 l
190.172 167.708 l
196.7 167.708 l
199.965 166.769 l
229.343 166.765 l
232.608 166.608 l
294.629 166.512 l
324.008 166.44 l
340.33 166.358 l
346.858 166.265 l
532.923 166.155 l
705.931 166.148 l
705.931 166.148 l
stroke
grestore
0.750 0.750 0.000 setrgbcolor
gsave
652.9 432 105.3 54 clipbox
105.3 318.697 m
108.564 294.111 l
115.093 264.422 l
118.357 242.772 l
121.621 239.297 l
124.886 230.767 l
128.15 227.134 l
131.414 222.055 l
134.679 200.259 l
137.943 200.259 l
141.207 191.207 l
144.472 186.665 l
147.736 175.221 l
151 175.221 l
154.264 174.499 l
157.529 174.499 l
164.057 174.038 l
167.322 172.624 l
173.85 172.622 l
177.115 171.965 l
180.379 171.965 l
183.643 171.402 l
186.907 171.402 l
190.172 171.184 l
193.436 170.63 l
196.7 170.63 l
199.965 170.162 l
203.229 169.444 l
222.815 169.444 l
226.079 169.294 l
291.365 169.224 l
301.158 169.025 l
343.594 168.915 l
353.387 168.872 l
705.931 168.785 l
705.931 168.785 l
stroke
grestore
0.000 setgray
gsave
652.9 432 105.3 54 clipbox
105.3 299.236 m
108.564 298.204 l
111.829 296.486 l
115.093 251.927 l
118.357 251.927 l
121.621 244.505 l
124.886 241.446 l
128.15 232.285 l
131.414 228.656 l
134.679 224.669 l
137.943 202.681 l
141.207 201.505 l
144.472 192.858 l
151 178.163 l
154.264 178.163 l
157.529 177.406 l
160.793 177.406 l
164.057 175.92 l
167.322 175.616 l
170.586 175.611 l
173.85 175.354 l
177.115 175.354 l
180.379 174.388 l
183.643 174.388 l
186.907 174.113 l
190.172 174.104 l
193.436 172.833 l
196.7 172.833 l
199.965 172.705 l
203.229 172.409 l
206.493 172.238 l
216.286 172.238 l
222.815 171.956 l
281.572 171.956 l
284.837 171.81 l
297.894 171.81 l
301.158 171.571 l
330.537 171.538 l
705.931 171.438 l
705.931 171.438 l
stroke
grestore
0.000 0.000 1.000 setrgbcolor
gsave
652.9 432 105.3 54 clipbox
105.3 319.77 m
108.564 285.456 l
111.829 283.201 l
115.093 266.416 l
118.357 248.203 l
121.621 248.203 l
124.886 246.324 l
128.15 243.675 l
131.414 226.196 l
134.679 226.196 l
137.943 217.982 l
141.207 205.199 l
144.472 203.421 l
147.736 195.304 l
154.264 181.203 l
157.529 181.203 l
160.793 180.413 l
164.057 180.413 l
167.322 178.964 l
170.586 178.511 l
180.379 178.511 l
183.643 176.936 l
190.172 176.936 l
193.436 175.529 l
196.7 175.01 l
213.022 175.01 l
216.286 174.639 l
226.079 174.6 l
301.158 174.514 l
304.422 174.278 l
350.123 174.181 l
705.931 174.105 l
705.931 174.105 l
stroke
grestore
0.000 0.500 0.000 setrgbcolor
gsave
652.9 432 105.3 54 clipbox
105.3 317.539 m
108.564 294.606 l
111.829 273.156 l
115.093 273.156 l
118.357 269.021 l
121.621 251.309 l
124.886 249.413 l
128.15 233.412 l
131.414 220.196 l
134.679 219.019 l
137.943 210.826 l
141.207 210.826 l
144.472 199.576 l
147.736 199.576 l
151 197.852 l
154.264 191.327 l
157.529 184.334 l
160.793 184.31 l
164.057 183.491 l
167.322 182.543 l
170.586 181.871 l
173.85 181.655 l
180.379 181.655 l
183.643 180.754 l
186.907 179.602 l
193.436 179.602 l
196.7 178.334 l
199.965 177.728 l
216.286 177.728 l
219.55 177.435 l
222.815 177.323 l
294.629 177.321 l
301.158 177.212 l
304.422 177.212 l
310.951 177.084 l
320.744 177.07 l
324.008 176.903 l
539.452 176.794 l
679.817 176.79 l
705.931 176.789 l
705.931 176.789 l
stroke
grestore
1.000 0.000 0.000 setrgbcolor
gsave
652.9 432 105.3 54 clipbox
105.3 321.807 m
108.564 319.024 l
111.829 287.644 l
115.093 275.158 l
118.357 272.292 l
121.621 258.03 l
124.886 250.313 l
128.15 250.313 l
131.414 235.022 l
134.679 222.5 l
137.943 220.906 l
141.207 212.716 l
144.472 211.746 l
147.736 201.997 l
151 201.997 l
154.264 193.471 l
157.529 192.302 l
160.793 187.55 l
164.057 187.145 l
167.322 185.609 l
170.586 184.95 l
173.85 184.588 l
180.379 184.588 l
183.643 183.092 l
186.907 183.017 l
190.172 180.786 l
199.965 180.786 l
203.229 180.556 l
219.55 180.556 l
226.079 180.157 l
288.101 180.157 l
291.365 179.794 l
324.008 179.794 l
327.272 179.553 l
705.931 179.49 l
705.931 179.49 l
stroke
grestore
0.000 0.750 0.750 setrgbcolor
gsave
652.9 432 105.3 54 clipbox
105.3 295.995 m
108.564 292.621 l
111.829 282.1 l
115.093 277.829 l
118.357 269.962 l
121.621 255.108 l
124.886 253.929 l
128.15 231.268 l
131.414 229.117 l
134.679 229.117 l
137.943 214.846 l
141.207 213.941 l
147.736 196.092 l
151 195.15 l
154.264 195.15 l
157.529 192.814 l
160.793 192.324 l
164.057 190.279 l
167.322 186.802 l
173.85 186.802 l
177.115 185.468 l
180.379 185.468 l
183.643 183.357 l
226.079 183.301 l
229.343 183.095 l
281.572 183.095 l
284.837 182.492 l
327.272 182.491 l
330.537 182.317 l
340.33 182.274 l
705.931 182.209 l
705.931 182.209 l
stroke
grestore
0.750 0.000 0.750 setrgbcolor
gsave
652.9 432 105.3 54 clipbox
105.3 311.026 m
108.564 297.579 l
111.829 273.654 l
115.093 273.654 l
118.357 256.037 l
121.621 256.037 l
124.886 252.194 l
128.15 237.276 l
131.414 233.602 l
134.679 217.263 l
137.943 207.489 l
141.207 198.813 l
144.472 198.092 l
147.736 198.092 l
151 195.938 l
154.264 195.454 l
157.529 193.218 l
160.793 189.14 l
167.322 189.14 l
170.586 187.963 l
173.85 187.963 l
177.115 186.042 l
232.608 185.956 l
239.136 185.871 l
275.044 185.802 l
278.308 185.299 l
324.008 185.243 l
327.272 184.998 l
705.931 184.946 l
705.931 184.946 l
stroke
grestore
0.750 0.750 0.000 setrgbcolor
gsave
652.9 432 105.3 54 clipbox
105.3 307.584 m
108.564 286.876 l
111.829 286.876 l
115.093 275.989 l
118.357 259.859 l
121.621 258.222 l
124.886 256.216 l
128.15 241.425 l
131.414 239.894 l
134.679 201.63 l
137.943 201.121 l
141.207 201.121 l
144.472 199.145 l
147.736 198.667 l
151 196.249 l
154.264 193.617 l
157.529 193.445 l
160.793 192.22 l
164.057 190.571 l
167.322 190.571 l
170.586 188.835 l
226.079 188.751 l
232.608 188.668 l
265.251 188.586 l
278.308 188.55 l
281.572 188.21 l
314.215 188.178 l
320.744 187.829 l
497.016 187.718 l
549.245 187.708 l
705.931 187.702 l
705.931 187.702 l
stroke
grestore
0.000 setgray
gsave
652.9 432 105.3 54 clipbox
105.3 350.515 m
108.564 310.857 l
111.829 288.396 l
115.093 282.637 l
118.357 275.277 l
121.621 262.262 l
124.886 245.605 l
128.15 245.605 l
131.414 215.06 l
134.679 215.06 l
137.943 204.539 l
141.207 204.235 l
144.472 199.368 l
147.736 199.368 l
151 196.061 l
154.264 195.088 l
164.057 195.057 l
167.322 193.288 l
170.586 193.288 l
173.85 191.731 l
229.343 191.638 l
235.872 191.567 l
248.929 191.567 l
252.194 191.366 l
281.572 191.349 l
284.837 191.22 l
294.629 191.22 l
297.894 191.091 l
310.951 191.002 l
314.215 190.763 l
317.479 190.763 l
320.744 190.644 l
412.144 190.548 l
418.673 190.486 l
705.931 190.478 l
705.931 190.478 l
stroke
grestore
0.000 0.000 1.000 setrgbcolor
gsave
652.9 432 105.3 54 clipbox
105.3 342.959 m
108.564 342.959 l
111.829 298.7 l
115.093 281.706 l
118.357 266.096 l
121.621 266.096 l
124.886 264.732 l
128.15 246.177 l
131.414 244.223 l
134.679 217.971 l
137.943 202.57 l
141.207 202.57 l
144.472 198.386 l
147.736 197.426 l
157.529 197.426 l
160.793 196.756 l
167.322 196.756 l
170.586 196.108 l
173.85 195.861 l
177.115 194.725 l
190.172 194.696 l
232.608 194.634 l
239.136 194.565 l
242.401 194.565 l
245.665 194.249 l
275.044 194.197 l
278.308 194.078 l
294.629 194.078 l
304.422 193.804 l
310.951 193.794 l
314.215 193.623 l
350.123 193.549 l
353.387 193.428 l
418.673 193.318 l
461.109 193.307 l
705.931 193.275 l
705.931 193.275 l
stroke
grestore
0.000 0.500 0.000 setrgbcolor
gsave
652.9 432 105.3 54 clipbox
105.3 306.302 m
108.564 306.302 l
111.829 306.302 l
115.093 300.12 l
118.357 282.52 l
121.621 267.75 l
124.886 267.689 l
128.15 258.597 l
131.414 247.422 l
134.679 246.201 l
137.943 215.111 l
141.207 205.854 l
144.472 205.854 l
147.736 200.826 l
151 199.878 l
154.264 199.668 l
157.529 199.668 l
160.793 199.524 l
164.057 199.524 l
167.322 198.552 l
170.586 198.552 l
173.85 197.788 l
193.436 197.768 l
206.493 197.768 l
209.758 197.46 l
213.022 197.33 l
255.458 197.232 l
258.722 196.989 l
275.044 196.989 l
278.308 196.836 l
291.365 196.796 l
294.629 196.426 l
304.422 196.426 l
307.687 196.303 l
399.087 196.208 l
412.144 196.172 l
705.931 196.093 l
705.931 196.093 l
stroke
grestore
1.000 0.000 0.000 setrgbcolor
gsave
652.9 432 105.3 54 clipbox
105.3 313.239 m
108.564 304.935 l
111.829 300.946 l
115.093 285.799 l
118.357 268.249 l
121.621 268.249 l
124.886 257.294 l
128.15 248.199 l
131.414 248.199 l
134.679 239.956 l
137.943 223.534 l
141.207 218.166 l
144.472 209.215 l
147.736 209.215 l
151 203.377 l
154.264 202.053 l
157.529 202.053 l
160.793 201.348 l
164.057 201.348 l
167.322 200.796 l
186.907 200.776 l
199.965 200.734 l
203.229 200.039 l
206.493 199.912 l
268.515 199.799 l
271.779 199.509 l
284.837 199.48 l
288.101 199.13 l
425.201 199.021 l
434.994 198.964 l
705.931 198.934 l
705.931 198.934 l
stroke
grestore
0.000 0.750 0.750 setrgbcolor
gsave
652.9 432 105.3 54 clipbox
105.3 316.086 m
108.564 306.095 l
111.829 268.899 l
115.093 268.899 l
121.621 250.142 l
128.15 250.142 l
131.414 226.728 l
134.679 222.364 l
141.207 222.364 l
144.472 220.93 l
147.736 212.651 l
151 212.651 l
154.264 206.035 l
157.529 204.692 l
160.793 204.692 l
164.057 204.244 l
167.322 204.244 l
170.586 203.898 l
186.907 203.878 l
190.172 203.514 l
193.436 203.416 l
196.7 202.727 l
209.758 202.598 l
265.251 202.491 l
268.515 202.25 l
288.101 202.203 l
291.365 201.941 l
464.373 201.836 l
493.752 201.81 l
705.931 201.798 l
705.931 201.798 l
stroke
grestore
0.750 0.000 0.750 setrgbcolor
gsave
652.9 432 105.3 54 clipbox
105.3 308.129 m
108.564 308.129 l
111.829 305.085 l
115.093 269.64 l
118.357 269.64 l
121.621 261.887 l
124.886 252.173 l
128.15 252.026 l
131.414 241.824 l
134.679 229.995 l
137.943 225.718 l
141.207 225.718 l
144.472 222.613 l
147.736 220.562 l
151 216.16 l
154.264 214.506 l
157.529 208.797 l
160.793 207.436 l
164.057 207.436 l
167.322 207.238 l
170.586 207.238 l
173.85 207.09 l
180.379 207.07 l
183.643 206.201 l
190.172 206.201 l
193.436 205.482 l
258.722 205.395 l
268.515 205.289 l
271.779 205.051 l
291.365 205.004 l
294.629 204.853 l
353.387 204.785 l
359.915 204.727 l
705.931 204.688 l
705.931 204.688 l
stroke
grestore
0.750 0.750 0.000 setrgbcolor
gsave
652.9 432 105.3 54 clipbox
105.3 338.316 m
108.564 292.829 l
111.829 287.365 l
115.093 270.976 l
118.357 270.355 l
121.621 270.355 l
124.886 262.023 l
128.15 254.292 l
131.414 253.597 l
134.679 239.999 l
137.943 233.333 l
141.207 223.761 l
144.472 221.963 l
151 221.963 l
154.264 218.561 l
157.529 217.189 l
160.793 211.66 l
164.057 210.283 l
173.85 210.283 l
177.115 208.993 l
193.436 208.993 l
196.7 208.376 l
258.722 208.294 l
265.251 208.097 l
268.515 208.097 l
271.779 207.909 l
343.594 207.798 l
356.651 207.762 l
359.915 207.62 l
705.931 207.602 l
705.931 207.602 l
stroke
grestore
0.000 setgray
gsave
652.9 432 105.3 54 clipbox
105.3 331.546 m
108.564 313.427 l
111.829 293.99 l
115.093 289.268 l
118.357 273.254 l
121.621 270.211 l
124.886 269.905 l
128.15 263.485 l
131.414 247.925 l
134.679 247.925 l
137.943 233.689 l
141.207 233.689 l
144.472 227.039 l
147.736 225.028 l
154.264 225.028 l
157.529 221.539 l
160.793 219.971 l
164.057 214.622 l
167.322 213.23 l
177.115 213.23 l
180.379 211.888 l
196.7 211.888 l
199.965 211.369 l
261.986 211.294 l
265.251 211.102 l
271.779 211.098 l
275.044 210.913 l
350.123 210.827 l
356.651 210.732 l
359.915 210.732 l
363.18 210.615 l
705.931 210.544 l
705.931 210.544 l
stroke
grestore
0.000 0.000 1.000 setrgbcolor
gsave
652.9 432 105.3 54 clipbox
105.3 346.121 m
108.564 334.038 l
111.829 299.222 l
118.357 291.248 l
121.621 275.612 l
124.886 273.076 l
128.15 267.278 l
131.414 258.174 l
134.679 250.492 l
137.943 250.492 l
141.207 235.491 l
144.472 231.792 l
147.736 230.395 l
151 228.179 l
154.264 227.264 l
157.529 224.212 l
160.793 224.212 l
164.057 220.228 l
167.322 217.68 l
170.586 216.276 l
180.379 216.275 l
183.643 214.884 l
199.965 214.884 l
203.229 214.461 l
265.251 214.39 l
268.515 214.118 l
288.101 214.015 l
301.158 213.886 l
304.422 213.701 l
320.744 213.675 l
438.259 213.582 l
448.051 213.538 l
510.073 213.52 l
705.931 213.514 l
705.931 213.514 l
stroke
grestore
0.000 0.500 0.000 setrgbcolor
gsave
652.9 432 105.3 54 clipbox
105.3 333.656 m
108.564 326.401 l
111.829 323.877 l
115.093 300.933 l
118.357 296.557 l
121.621 277.627 l
124.886 277.627 l
128.15 268.625 l
131.414 268.625 l
134.679 260.386 l
137.943 253.148 l
141.207 242.631 l
144.472 234.617 l
147.736 229.904 l
151 227.13 l
154.264 227.13 l
157.529 223.421 l
167.322 223.421 l
170.586 220.832 l
173.85 219.417 l
183.643 219.417 l
186.907 217.978 l
203.229 217.978 l
209.758 217.405 l
268.515 217.405 l
271.779 217.233 l
281.572 217.212 l
288.101 216.858 l
294.629 216.858 l
297.894 216.664 l
307.687 216.612 l
705.931 216.514 l
705.931 216.514 l
stroke
grestore
1.000 0.000 0.000 setrgbcolor
gsave
652.9 432 105.3 54 clipbox
105.3 336.202 m
108.564 319.751 l
111.829 300.598 l
115.093 294.471 l
118.357 294.471 l
121.621 270.262 l
124.886 270.262 l
128.15 262.378 l
131.414 261.438 l
134.679 246.17 l
137.943 237.435 l
141.207 232.644 l
144.472 232.644 l
147.736 232.357 l
151 228.542 l
154.264 227.179 l
157.529 227.179 l
160.793 226.703 l
164.057 224.947 l
170.586 224.947 l
173.85 222.857 l
177.115 222.652 l
183.643 222.652 l
186.907 221.31 l
190.172 221.168 l
206.493 221.168 l
209.758 220.927 l
213.022 220.407 l
275.044 220.391 l
278.308 220.049 l
281.572 219.926 l
288.101 219.926 l
291.365 219.729 l
297.894 219.65 l
705.931 219.544 l
705.931 219.544 l
stroke
grestore
0.000 0.750 0.750 setrgbcolor
gsave
652.9 432 105.3 54 clipbox
105.3 342.34 m
108.564 339.27 l
111.829 316.799 l
115.093 271.997 l
118.357 271.997 l
121.621 264.468 l
124.886 264.008 l
128.15 249.621 l
131.414 249.621 l
134.679 247.019 l
137.943 236.516 l
141.207 236.516 l
144.472 232.655 l
147.736 230.037 l
151 230.037 l
154.264 229.701 l
164.057 229.7 l
167.322 227.865 l
170.586 227.865 l
173.85 226.988 l
180.379 224.223 l
213.022 224.223 l
216.286 223.511 l
268.515 223.511 l
271.779 223.192 l
281.572 223.147 l
284.837 222.893 l
291.365 222.789 l
379.501 222.716 l
392.558 222.656 l
705.931 222.607 l
705.931 222.607 l
stroke
grestore
0.750 0.000 0.750 setrgbcolor
gsave
652.9 432 105.3 54 clipbox
105.3 339.3 m
108.564 335.422 l
111.829 335.422 l
115.093 313.035 l
118.357 273.832 l
121.621 273.832 l
124.886 266.658 l
128.15 254.04 l
134.679 252.301 l
137.943 240.508 l
141.207 232.996 l
154.264 232.996 l
160.793 232.295 l
164.057 232.294 l
167.322 230.451 l
170.586 230.451 l
173.85 227.24 l
216.286 227.24 l
219.55 226.715 l
268.515 226.715 l
271.779 226.57 l
275.044 226.101 l
307.687 226.027 l
314.215 225.959 l
356.651 225.856 l
372.973 225.785 l
705.931 225.704 l
705.931 225.704 l
stroke
grestore
0.750 0.750 0.000 setrgbcolor
gsave
652.9 432 105.3 54 clipbox
105.3 359.483 m
108.564 316.041 l
111.829 306.7 l
115.093 295.46 l
118.357 289.317 l
121.621 275.765 l
124.886 270.912 l
128.15 258.345 l
131.414 243.436 l
137.943 243.436 l
144.472 236.057 l
157.529 236.057 l
160.793 234.003 l
164.057 233.638 l
167.322 232.374 l
170.586 232.374 l
173.85 232.009 l
177.115 230.36 l
219.55 230.36 l
222.815 230.017 l
258.722 229.951 l
261.986 229.899 l
265.251 229.585 l
275.044 229.522 l
278.308 229.118 l
353.387 229.024 l
363.18 228.946 l
705.931 228.837 l
705.931 228.837 l
stroke
grestore
0.000 setgray
gsave
652.9 432 105.3 54 clipbox
105.3 371.669 m
108.564 324.648 l
111.829 319.118 l
115.093 295.566 l
121.621 292.055 l
124.886 273.31 l
128.15 271.229 l
131.414 259.123 l
134.679 246.464 l
141.207 246.464 l
144.472 242.021 l
147.736 239.218 l
151 239.218 l
154.264 237.643 l
157.529 236.561 l
160.793 235.841 l
164.057 235.841 l
167.322 235.279 l
170.586 235.279 l
173.85 235.032 l
177.115 235.032 l
180.379 233.584 l
216.286 233.584 l
219.55 233.316 l
245.665 233.298 l
248.929 233.064 l
255.458 233.064 l
258.722 232.706 l
278.308 232.645 l
281.572 232.242 l
353.387 232.144 l
369.708 232.085 l
392.558 232.031 l
705.931 232.008 l
705.931 232.008 l
stroke
grestore
0.000 0.000 1.000 setrgbcolor
gsave
652.9 432 105.3 54 clipbox
105.3 339.755 m
108.564 320.974 l
111.829 296.386 l
115.093 296.386 l
118.357 274.888 l
121.621 274.888 l
124.886 262.191 l
128.15 252.145 l
131.414 251.236 l
134.679 250.782 l
137.943 245.015 l
141.207 245.015 l
144.472 244.671 l
147.736 241.371 l
151 239.594 l
157.529 239.594 l
160.793 238.65 l
170.586 238.65 l
173.85 238.326 l
177.115 238.197 l
180.379 238.197 l
183.643 236.911 l
219.55 236.911 l
222.815 236.533 l
229.343 236.359 l
258.722 236.283 l
261.986 235.934 l
281.572 235.873 l
284.837 235.472 l
350.123 235.362 l
480.695 235.233 l
637.381 235.219 l
705.931 235.219 l
705.931 235.219 l
stroke
grestore
0.000 0.500 0.000 setrgbcolor
gsave
652.9 432 105.3 54 clipbox
105.3 332.913 m
108.564 332.191 l
111.829 323.021 l
115.093 299.066 l
118.357 299.066 l
121.621 276.574 l
124.886 275.651 l
131.414 255.131 l
134.679 248.52 l
137.943 247.509 l
141.207 245.189 l
144.472 243.585 l
151 243.585 l
154.264 242.121 l
164.057 242.121 l
167.322 241.445 l
177.115 241.404 l
180.379 241.404 l
183.643 240.975 l
186.907 240.341 l
222.815 240.341 l
226.079 239.856 l
229.343 239.519 l
239.136 239.4 l
261.986 239.4 l
265.251 239.267 l
271.779 239.267 l
275.044 239.047 l
284.837 239.016 l
288.101 238.808 l
353.387 238.701 l
369.708 238.606 l
399.087 238.516 l
705.931 238.472 l
705.931 238.472 l
stroke
grestore
1.000 0.000 0.000 setrgbcolor
gsave
652.9 432 105.3 54 clipbox
105.3 378.283 m
108.564 323.095 l
111.829 323.095 l
115.093 319.903 l
118.357 301.834 l
121.621 301.834 l
124.886 278.372 l
128.15 270.158 l
131.414 266.603 l
134.679 257.696 l
137.943 251.479 l
141.207 250.459 l
144.472 249.097 l
147.736 247.267 l
154.264 247.267 l
157.529 245.693 l
167.322 245.693 l
170.586 244.675 l
183.643 244.675 l
190.172 243.874 l
226.079 243.78 l
232.608 242.723 l
242.401 242.606 l
265.251 242.598 l
268.515 242.329 l
281.572 242.226 l
288.101 242.048 l
350.123 242.048 l
353.387 241.925 l
647.174 241.77 l
705.931 241.77 l
705.931 241.77 l
stroke
grestore
0.000 0.750 0.750 setrgbcolor
gsave
652.9 432 105.3 54 clipbox
105.3 368.787 m
108.564 321.959 l
111.829 320.178 l
115.093 309.153 l
118.357 299.856 l
124.886 299.856 l
128.15 280.281 l
131.414 272.943 l
134.679 268.744 l
137.943 258.054 l
141.207 254.551 l
144.472 253.523 l
147.736 253.096 l
151 250.634 l
154.264 250.223 l
157.529 250.223 l
160.793 249.368 l
167.322 249.368 l
170.586 248.87 l
173.85 248.017 l
183.643 248.017 l
186.907 247.316 l
190.172 247.08 l
219.55 247.006 l
222.815 246.714 l
232.608 246.646 l
235.872 245.978 l
245.665 245.924 l
248.929 245.747 l
265.251 245.675 l
268.515 245.459 l
330.537 245.353 l
369.708 245.26 l
444.787 245.149 l
483.959 245.123 l
705.931 245.114 l
705.931 245.114 l
stroke
grestore
0.750 0.000 0.750 setrgbcolor
gsave
652.9 432 105.3 54 clipbox
105.3 344.72 m
108.564 344.72 l
111.829 318.951 l
115.093 318.951 l
118.357 307.249 l
121.621 285.209 l
124.886 280.761 l
128.15 276.059 l
131.414 261.772 l
134.679 261.366 l
137.943 258.346 l
141.207 257.496 l
144.472 253.968 l
147.736 253.762 l
160.793 253.694 l
164.057 253.146 l
170.586 253.146 l
173.85 252.185 l
177.115 251.47 l
180.379 250.554 l
190.172 250.554 l
193.436 250.284 l
209.758 250.284 l
213.022 250.142 l
222.815 250.127 l
226.079 249.852 l
235.872 249.812 l
239.136 249.241 l
242.401 249.099 l
268.515 248.99 l
271.779 248.78 l
333.801 248.695 l
346.858 248.665 l
421.937 248.562 l
434.994 248.528 l
705.931 248.509 l
705.931 248.509 l
stroke
grestore
0.750 0.750 0.000 setrgbcolor
gsave
652.9 432 105.3 54 clipbox
105.3 321.769 m
108.564 321.769 l
111.829 308.715 l
115.093 287.642 l
118.357 287.642 l
121.621 282.799 l
124.886 277.485 l
128.15 271.376 l
131.414 261.73 l
134.679 260.737 l
137.943 260.636 l
141.207 256.887 l
151 256.834 l
157.529 256.414 l
160.793 256.275 l
167.322 256.239 l
170.586 255.906 l
173.85 255.361 l
177.115 255.314 l
180.379 255.038 l
183.643 253.791 l
186.907 253.517 l
213.022 253.517 l
216.286 253.361 l
226.079 253.361 l
229.343 253.111 l
239.136 253.1 l
242.401 252.623 l
245.665 252.501 l
268.515 252.4 l
278.308 252.218 l
327.272 252.158 l
333.801 252.095 l
408.88 252.005 l
421.937 251.977 l
705.931 251.958 l
705.931 251.958 l
stroke
grestore
0.000 setgray
gsave
652.9 432 105.3 54 clipbox
105.3 346.8 m
108.564 324.682 l
111.829 324.682 l
115.093 310.286 l
118.357 290.184 l
121.621 281.1 l
124.886 267.412 l
128.15 264.097 l
137.943 264.097 l
141.207 263.845 l
144.472 259.914 l
147.736 259.593 l
151 259.593 l
154.264 259.288 l
160.793 259.288 l
164.057 258.929 l
170.586 258.842 l
173.85 258.354 l
177.115 257.149 l
186.907 257.149 l
190.172 256.874 l
206.493 256.874 l
209.758 256.685 l
229.343 256.685 l
232.608 256.494 l
242.401 256.494 l
245.665 256.094 l
252.194 256.024 l
255.458 256.024 l
258.722 255.908 l
271.779 255.908 l
278.308 255.778 l
320.744 255.719 l
327.272 255.645 l
382.765 255.549 l
412.144 255.469 l
705.931 255.463 l
705.931 255.463 l
stroke
grestore
0.000 0.000 1.000 setrgbcolor
gsave
652.9 432 105.3 54 clipbox
105.3 344.654 m
108.564 344.654 l
111.829 327.692 l
115.093 327.692 l
118.357 311.963 l
121.621 292.84 l
124.886 283.439 l
128.15 270.883 l
131.414 267.58 l
134.679 267.574 l
137.943 265.851 l
141.207 264.326 l
144.472 264.025 l
147.736 263.071 l
154.264 262.476 l
164.057 262.432 l
167.322 262.084 l
173.85 262.084 l
177.115 261.693 l
180.379 260.503 l
196.7 260.357 l
199.965 260.357 l
203.229 260.138 l
232.608 260.123 l
235.872 260.003 l
239.136 259.674 l
258.722 259.672 l
261.986 259.54 l
265.251 259.54 l
268.515 259.393 l
281.572 259.29 l
294.629 259.259 l
343.594 259.25 l
346.858 259.133 l
705.931 259.028 l
705.931 259.028 l
stroke
grestore
0.000 0.500 0.000 setrgbcolor
gsave
652.9 432 105.3 54 clipbox
105.3 373.049 m
108.564 347.294 l
111.829 343.299 l
115.093 328.852 l
118.357 328.852 l
121.621 307.829 l
124.886 283.88 l
128.15 283.88 l
131.414 274.478 l
134.679 271.187 l
137.943 270.779 l
141.207 268.666 l
144.472 267.731 l
147.736 266.43 l
151 266.363 l
157.529 265.753 l
167.322 265.71 l
170.586 265.372 l
173.85 264.498 l
177.115 264.037 l
193.436 263.964 l
196.7 263.72 l
232.608 263.706 l
235.872 263.585 l
239.136 263.585 l
242.401 263.382 l
258.722 263.382 l
261.986 263.126 l
281.572 262.809 l
415.409 262.7 l
477.43 262.667 l
705.931 262.659 l
705.931 262.659 l
stroke
grestore
1.000 0.000 0.000 setrgbcolor
gsave
652.9 432 105.3 54 clipbox
105.3 345.526 m
108.564 330.971 l
111.829 330.971 l
115.093 309.851 l
118.357 309.851 l
121.621 295.025 l
124.886 291.285 l
128.15 280.799 l
131.414 279.148 l
134.679 272.53 l
144.472 272.53 l
151 269.925 l
154.264 269.792 l
160.793 269.168 l
167.322 269.127 l
170.586 268.893 l
173.85 267.922 l
177.115 267.921 l
180.379 267.747 l
183.643 267.747 l
193.436 267.438 l
226.079 267.425 l
229.343 267.031 l
255.458 266.992 l
258.722 266.588 l
271.779 266.546 l
363.18 266.44 l
372.973 266.39 l
705.931 266.359 l
705.931 266.359 l
stroke
grestore
0.000 0.750 0.750 setrgbcolor
gsave
652.9 432 105.3 54 clipbox
105.3 363.399 m
108.564 347.866 l
111.829 332.528 l
115.093 332.528 l
118.357 312 l
121.621 312 l
124.886 298.27 l
128.15 294.439 l
131.414 284.542 l
134.679 283.49 l
137.943 276.528 l
147.736 276.528 l
151 274.237 l
154.264 273.56 l
157.529 273.363 l
164.057 272.546 l
167.322 271.582 l
183.643 271.581 l
186.907 270.996 l
219.55 270.996 l
222.815 270.621 l
258.722 270.621 l
261.986 270.264 l
461.109 270.153 l
562.302 270.135 l
705.931 270.134 l
705.931 270.134 l
stroke
grestore
0.750 0.000 0.750 setrgbcolor
gsave
652.9 432 105.3 54 clipbox
105.3 335.911 m
115.093 335.911 l
118.357 335.613 l
121.621 314.283 l
124.886 314.283 l
128.15 301.655 l
131.414 293.753 l
134.679 288.423 l
137.943 285.712 l
141.207 280.667 l
144.472 278.019 l
151 278.019 l
154.264 277.694 l
157.529 276.347 l
160.793 275.389 l
177.115 275.388 l
180.379 274.599 l
222.815 274.599 l
226.079 274.361 l
261.986 274.361 l
265.251 274.088 l
705.931 273.991 l
705.931 273.991 l
stroke
grestore
0.750 0.750 0.000 setrgbcolor
gsave
652.9 432 105.3 54 clipbox
105.3 375.944 m
108.564 339.425 l
111.829 339.13 l
115.093 332.54 l
118.357 323.266 l
121.621 309.244 l
124.886 296.387 l
128.15 293.242 l
131.414 288.901 l
134.679 287.009 l
137.943 287.009 l
141.207 282.988 l
144.472 282.012 l
147.736 281.26 l
154.264 279.351 l
160.793 279.351 l
164.057 279.229 l
170.586 279.229 l
173.85 278.36 l
265.251 278.256 l
268.515 278.067 l
412.144 277.96 l
457.844 277.943 l
705.931 277.935 l
705.931 277.935 l
stroke
grestore
0.000 setgray
gsave
652.9 432 105.3 54 clipbox
105.3 378.436 m
108.564 362.134 l
111.829 343.079 l
115.093 313.271 l
118.357 299.182 l
121.621 296.279 l
124.886 292.254 l
128.15 290.349 l
131.414 290.349 l
134.679 286.758 l
137.943 285.794 l
147.736 285.794 l
151 284.727 l
154.264 284.193 l
157.529 283.228 l
164.057 283.228 l
167.322 282.286 l
288.101 282.18 l
297.894 282.127 l
379.501 282.021 l
415.409 282.011 l
705.931 281.975 l
705.931 281.975 l
stroke
grestore
0.000 0.000 1.000 setrgbcolor
gsave
652.9 432 105.3 54 clipbox
105.3 380.795 m
108.564 317.455 l
111.829 302.147 l
115.093 302.147 l
118.357 298.622 l
121.621 293.863 l
124.886 293.863 l
128.15 290.701 l
131.414 289.751 l
141.207 289.751 l
144.472 288.69 l
147.736 288.329 l
151 287.401 l
157.529 287.401 l
160.793 286.387 l
278.308 286.281 l
288.101 286.238 l
454.58 286.132 l
500.28 286.123 l
705.931 286.12 l
705.931 286.12 l
stroke
grestore
0.000 0.500 0.000 setrgbcolor
gsave
652.9 432 105.3 54 clipbox
105.3 378.411 m
108.564 368.07 l
111.829 321.81 l
115.093 305.292 l
118.357 305.292 l
121.621 303.102 l
124.886 297.56 l
128.15 296.595 l
131.414 294.829 l
134.679 293.893 l
144.472 293.893 l
147.736 292.839 l
151 292.65 l
154.264 290.675 l
275.044 290.582 l
281.572 290.482 l
705.931 290.38 l
705.931 290.38 l
stroke
grestore
1.000 0.000 0.000 setrgbcolor
gsave
652.9 432 105.3 54 clipbox
105.3 375.301 m
108.564 375.301 l
111.829 353.416 l
115.093 326.349 l
118.357 308.63 l
121.621 308.63 l
124.886 307.771 l
128.15 301.37 l
131.414 300.028 l
137.943 298.233 l
141.207 298.233 l
144.472 297.925 l
147.736 297.764 l
151 296.984 l
154.264 296.865 l
157.529 295.162 l
268.515 295.128 l
271.779 294.898 l
434.994 294.788 l
483.959 294.777 l
705.931 294.767 l
705.931 294.767 l
stroke
grestore
0.000 0.750 0.750 setrgbcolor
gsave
652.9 432 105.3 54 clipbox
105.3 389.645 m
108.564 377.007 l
111.829 371.19 l
115.093 358.062 l
118.357 331.087 l
121.621 312.176 l
124.886 312.176 l
128.15 311.641 l
131.414 304.867 l
134.679 304.092 l
137.943 302.557 l
141.207 302.31 l
144.472 301.562 l
147.736 301.562 l
151 301.076 l
157.529 301.076 l
160.793 299.864 l
206.493 299.864 l
209.758 299.682 l
219.55 299.682 l
222.815 299.55 l
261.986 299.549 l
265.251 299.415 l
431.73 299.306 l
510.073 299.299 l
705.931 299.296 l
705.931 299.296 l
stroke
grestore
0.750 0.000 0.750 setrgbcolor
gsave
652.9 432 105.3 54 clipbox
105.3 385.484 m
108.564 378.914 l
111.829 367.548 l
115.093 355.137 l
118.357 355.137 l
121.621 336.044 l
124.886 315.948 l
128.15 315.948 l
131.414 315.531 l
134.679 310.083 l
137.943 308.391 l
141.207 307.422 l
144.472 305.797 l
157.529 305.797 l
160.793 305.402 l
164.057 304.802 l
190.172 304.802 l
193.436 304.624 l
203.229 304.624 l
206.493 304.365 l
213.022 304.365 l
216.286 304.164 l
350.123 304.058 l
366.444 304.034 l
705.931 303.983 l
705.931 303.983 l
stroke
grestore
0.750 0.750 0.000 setrgbcolor
gsave
652.9 432 105.3 54 clipbox
105.3 382.239 m
108.564 382.239 l
115.093 369.157 l
118.357 358.732 l
121.621 353.726 l
124.886 335.154 l
128.15 319.97 l
131.414 319.97 l
134.679 319.671 l
137.943 315.554 l
141.207 312.949 l
147.736 310.776 l
151 310.776 l
157.529 310.328 l
164.057 310.328 l
167.322 309.999 l
170.586 309.999 l
173.85 309.843 l
183.643 309.827 l
186.907 309.485 l
193.436 309.485 l
196.7 309.369 l
206.493 309.369 l
209.758 309.24 l
216.286 309.24 l
219.55 309.039 l
317.479 308.938 l
350.123 308.907 l
705.931 308.85 l
705.931 308.85 l
stroke
grestore
0.000 setgray
gsave
652.9 432 105.3 54 clipbox
105.3 377.924 m
108.564 377.924 l
111.829 377.924 l
115.093 362.641 l
121.621 362.562 l
124.886 358.489 l
128.15 340.391 l
131.414 324.268 l
134.679 324.268 l
137.943 324.091 l
141.207 321.31 l
144.472 317.793 l
147.736 315.881 l
151 315.32 l
164.057 315.319 l
167.322 314.824 l
180.379 314.824 l
183.643 314.603 l
186.907 314.603 l
190.172 314.34 l
219.55 314.34 l
222.815 314.204 l
268.515 314.096 l
307.687 314.041 l
434.994 313.93 l
549.245 313.924 l
705.931 313.923 l
705.931 313.923 l
stroke
grestore
0.000 0.000 1.000 setrgbcolor
gsave
652.9 432 105.3 54 clipbox
105.3 384.826 m
108.564 380.383 l
115.093 380.383 l
118.357 366.018 l
124.886 361.754 l
128.15 356.732 l
131.414 345.939 l
134.679 328.878 l
141.207 328.827 l
144.472 324.937 l
147.736 321.35 l
151 321.19 l
154.264 320.621 l
167.322 320.62 l
170.586 320.133 l
173.85 320.133 l
177.115 319.888 l
180.379 319.888 l
183.643 319.639 l
232.608 319.639 l
235.872 319.487 l
268.515 319.377 l
278.308 319.309 l
705.931 319.233 l
705.931 319.233 l
stroke
grestore
0.000 0.500 0.000 setrgbcolor
gsave
652.9 432 105.3 54 clipbox
105.3 394.604 m
111.829 377.813 l
115.093 377.813 l
118.357 376.226 l
121.621 363.305 l
124.886 363.305 l
128.15 360.316 l
131.414 350.979 l
134.679 342.151 l
137.943 333.683 l
141.207 330.581 l
144.472 330.581 l
147.736 330.206 l
151 326.962 l
154.264 326.874 l
157.529 326.297 l
170.586 326.297 l
173.85 325.818 l
177.115 325.818 l
180.379 325.32 l
235.872 325.31 l
239.136 325.165 l
261.986 325.151 l
265.251 325.034 l
275.044 324.994 l
281.572 324.91 l
705.931 324.823 l
705.931 324.823 l
stroke
grestore
1.000 0.000 0.000 setrgbcolor
gsave
652.9 432 105.3 54 clipbox
105.3 397.955 m
108.564 392.716 l
111.829 388.365 l
115.093 380.797 l
118.357 371.945 l
121.621 364.826 l
124.886 362.874 l
131.414 362.874 l
134.679 355.884 l
137.943 346.386 l
141.207 339.198 l
144.472 336.07 l
147.736 336.07 l
151 335.905 l
154.264 333.012 l
157.529 332.963 l
160.793 332.414 l
170.586 332.413 l
173.85 331.301 l
239.136 331.254 l
245.665 331.032 l
281.572 330.952 l
288.101 330.889 l
376.237 330.793 l
399.087 330.775 l
705.931 330.748 l
705.931 330.748 l
stroke
grestore
0.000 0.750 0.750 setrgbcolor
gsave
652.9 432 105.3 54 clipbox
105.3 397.137 m
108.564 389.515 l
115.093 389.515 l
118.357 384.155 l
121.621 374.404 l
124.886 368.963 l
128.15 367.271 l
131.414 367.271 l
134.679 362.618 l
137.943 359.346 l
141.207 351.079 l
144.472 345.217 l
147.736 342.063 l
154.264 342.063 l
157.529 339.588 l
160.793 339.374 l
164.057 338.757 l
167.322 337.544 l
235.872 337.475 l
239.136 337.309 l
307.687 337.209 l
324.008 337.181 l
705.931 337.083 l
705.931 337.083 l
stroke
grestore
0.750 0.000 0.750 setrgbcolor
gsave
652.9 432 105.3 54 clipbox
105.3 397.365 m
108.564 397.365 l
111.829 393.811 l
115.093 379.576 l
118.357 377.699 l
121.621 377.525 l
124.886 377.525 l
128.15 368.072 l
131.414 368.072 l
134.679 365.524 l
137.943 362.159 l
141.207 358.228 l
144.472 355.734 l
147.736 351.862 l
151 348.682 l
157.529 348.682 l
160.793 346.818 l
164.057 346.436 l
167.322 345.663 l
170.586 344.434 l
229.343 344.342 l
239.136 344.128 l
304.422 344.019 l
337.065 343.993 l
705.931 343.939 l
705.931 343.939 l
stroke
grestore
0.750 0.750 0.000 setrgbcolor
gsave
652.9 432 105.3 54 clipbox
105.3 402.906 m
108.564 402.906 l
111.829 402.69 l
115.093 398.733 l
118.357 381.703 l
128.15 381.703 l
131.414 374.247 l
134.679 371.603 l
137.943 370.967 l
141.207 368.898 l
144.472 364.927 l
147.736 361.651 l
151 359.319 l
154.264 356.116 l
160.793 356.116 l
164.057 354.901 l
167.322 354.344 l
170.586 353.41 l
173.85 352.165 l
226.079 352.165 l
232.608 351.982 l
239.136 351.982 l
242.401 351.802 l
444.787 351.496 l
705.931 351.483 l
705.931 351.483 l
stroke
grestore
0.000 setgray
gsave
652.9 432 105.3 54 clipbox
105.3 412.461 m
108.564 405.976 l
111.829 405.976 l
115.093 396.426 l
118.357 396.426 l
121.621 386.318 l
131.414 386.318 l
134.679 381.422 l
137.943 378.824 l
141.207 377.337 l
144.472 375.374 l
147.736 372.678 l
151 368.55 l
154.264 367.906 l
157.529 364.678 l
160.793 362.981 l
170.586 362.981 l
173.85 362.323 l
177.115 361.063 l
209.758 361.063 l
213.022 360.896 l
219.55 360.834 l
226.079 360.671 l
245.665 360.562 l
248.929 360.417 l
261.986 360.417 l
265.251 360.257 l
294.629 360.206 l
304.422 360.053 l
705.931 359.999 l
705.931 359.999 l
stroke
grestore
0.000 0.000 1.000 setrgbcolor
gsave
652.9 432 105.3 54 clipbox
105.3 416.298 m
108.564 406.775 l
111.829 406.775 l
115.093 405.604 l
118.357 400.879 l
121.621 400.879 l
124.886 392.076 l
134.679 392.076 l
137.943 386.552 l
141.207 383.235 l
147.736 383.235 l
151 382.052 l
154.264 376.962 l
157.529 376.962 l
164.057 373.044 l
170.586 373.044 l
173.85 372.768 l
177.115 372.605 l
180.379 371.765 l
183.643 371.401 l
186.907 371.401 l
190.172 371.249 l
199.965 371.248 l
203.229 370.977 l
213.022 370.916 l
216.286 370.668 l
226.079 370.634 l
229.343 370.452 l
271.779 370.37 l
284.837 370.222 l
314.215 370.12 l
705.931 370.038 l
705.931 370.038 l
stroke
grestore
0.000 0.500 0.000 setrgbcolor
gsave
652.9 432 105.3 54 clipbox
105.3 416.137 m
108.564 411.448 l
115.093 411.448 l
118.357 408.11 l
121.621 407.245 l
124.886 404.13 l
128.15 400.003 l
137.943 400.003 l
141.207 395.072 l
144.472 393.491 l
147.736 392.285 l
154.264 392.284 l
157.529 388.251 l
164.057 388.251 l
167.322 386.405 l
173.85 386.405 l
177.115 385.958 l
180.379 384.464 l
183.643 384.305 l
193.436 384.305 l
196.7 384.011 l
216.286 383.949 l
219.55 383.704 l
261.986 383.548 l
265.251 383.216 l
340.33 383.112 l
382.765 383.063 l
705.931 383.027 l
705.931 383.027 l
stroke
grestore
1.000 0.000 0.000 setrgbcolor
gsave
652.9 432 105.3 54 clipbox
105.3 421.016 m
108.564 414.045 l
128.15 414.025 l
705.931 414 l
705.931 414 l
stroke
grestore
0.500 setlinewidth
0 setlinecap
0.000 setgray
gsave
/o {
gsave
newpath
translate
0.5 setlinewidth
1 setlinejoin
0 setlinecap
0 0 m
0 4 l
gsave
0.000 setgray
fill
grestore
stroke
grestore
} bind def
105.3 54 o
grestore
gsave
/o {
gsave
newpath
translate
0.5 setlinewidth
1 setlinejoin
0 setlinecap
0 0 m
0 -4 l
gsave
0.000 setgray
fill
grestore
stroke
grestore
} bind def
105.3 486 o
grestore
/BitstreamVeraSans-Roman findfont
12.000 scalefont
setfont
gsave
102.276562 40.921875 translate
0.000000 rotate
0.000000 0.171875 m /zero glyphshow
grestore
gsave
/o {
gsave
newpath
translate
0.5 setlinewidth
1 setlinejoin
0 setlinecap
0 0 m
0 4 l
gsave
0.000 setgray
fill
grestore
stroke
grestore
} bind def
268.515 54 o
grestore
gsave
/o {
gsave
newpath
translate
0.5 setlinewidth
1 setlinejoin
0 setlinecap
0 0 m
0 -4 l
gsave
0.000 setgray
fill
grestore
stroke
grestore
} bind def
268.515 486 o
grestore
gsave
261.733750 40.921875 translate
0.000000 rotate
0.000000 0.171875 m /five glyphshow
7.634766 0.171875 m /zero glyphshow
grestore
gsave
/o {
gsave
newpath
translate
0.5 setlinewidth
1 setlinejoin
0 setlinecap
0 0 m
0 4 l
gsave
0.000 setgray
fill
grestore
stroke
grestore
} bind def
431.73 54 o
grestore
gsave
/o {
gsave
newpath
translate
0.5 setlinewidth
1 setlinejoin
0 setlinecap
0 0 m
0 -4 l
gsave
0.000 setgray
fill
grestore
stroke
grestore
} bind def
431.73 486 o
grestore
gsave
421.323750 40.921875 translate
0.000000 rotate
0.000000 0.171875 m /one glyphshow
7.634766 0.171875 m /zero glyphshow
15.269531 0.171875 m /zero glyphshow
grestore
gsave
/o {
gsave
newpath
translate
0.5 setlinewidth
1 setlinejoin
0 setlinecap
0 0 m
0 4 l
gsave
0.000 setgray
fill
grestore
stroke
grestore
} bind def
594.945 54 o
grestore
gsave
/o {
gsave
newpath
translate
0.5 setlinewidth
1 setlinejoin
0 setlinecap
0 0 m
0 -4 l
gsave
0.000 setgray
fill
grestore
stroke
grestore
} bind def
594.945 486 o
grestore
gsave
584.538750 40.921875 translate
0.000000 rotate
0.000000 0.171875 m /one glyphshow
7.634766 0.171875 m /five glyphshow
15.269531 0.171875 m /zero glyphshow
grestore
gsave
/o {
gsave
newpath
translate
0.5 setlinewidth
1 setlinejoin
0 setlinecap
0 0 m
0 4 l
gsave
0.000 setgray
fill
grestore
stroke
grestore
} bind def
758.16 54 o
grestore
gsave
/o {
gsave
newpath
translate
0.5 setlinewidth
1 setlinejoin
0 setlinecap
0 0 m
0 -4 l
gsave
0.000 setgray
fill
grestore
stroke
grestore
} bind def
758.16 486 o
grestore
gsave
747.535000 40.921875 translate
0.000000 rotate
0.000000 0.171875 m /two glyphshow
7.634766 0.171875 m /zero glyphshow
15.269531 0.171875 m /zero glyphshow
grestore
gsave
399.089375 26.625000 translate
0.000000 rotate
0.000000 0.171875 m /G glyphshow
9.298828 0.171875 m /e glyphshow
16.681641 0.171875 m /n glyphshow
24.287109 0.171875 m /e glyphshow
31.669922 0.171875 m /r glyphshow
36.603516 0.171875 m /a glyphshow
43.957031 0.171875 m /t glyphshow
48.662109 0.171875 m /i glyphshow
51.996094 0.171875 m /o glyphshow
59.337891 0.171875 m /n glyphshow
grestore
gsave
/o {
gsave
newpath
translate
0.5 setlinewidth
1 setlinejoin
0 setlinecap
0 0 m
4 0 l
gsave
0.000 setgray
fill
grestore
stroke
grestore
} bind def
105.3 54 o
grestore
gsave
/o {
gsave
newpath
translate
0.5 setlinewidth
1 setlinejoin
0 setlinecap
0 0 m
-4 0 l
gsave
0.000 setgray
fill
grestore
stroke
grestore
} bind def
758.16 54 o
grestore
gsave
83.800000 49.460937 translate
0.000000 rotate
0.000000 0.171875 m /zero glyphshow
7.634766 0.171875 m /period glyphshow
11.449219 0.171875 m /zero glyphshow
grestore
gsave
/o {
gsave
newpath
translate
0.5 setlinewidth
1 setlinejoin
0 setlinecap
0 0 m
4 0 l
gsave
0.000 setgray
fill
grestore
stroke
grestore
} bind def
105.3 126 o
grestore
gsave
/o {
gsave
newpath
translate
0.5 setlinewidth
1 setlinejoin
0 setlinecap
0 0 m
-4 0 l
gsave
0.000 setgray
fill
grestore
stroke
grestore
} bind def
758.16 126 o
grestore
gsave
84.206250 121.460937 translate
0.000000 rotate
0.000000 0.171875 m /zero glyphshow
7.634766 0.171875 m /period glyphshow
11.449219 0.171875 m /two glyphshow
grestore
gsave
/o {
gsave
newpath
translate
0.5 setlinewidth
1 setlinejoin
0 setlinecap
0 0 m
4 0 l
gsave
0.000 setgray
fill
grestore
stroke
grestore
} bind def
105.3 198 o
grestore
gsave
/o {
gsave
newpath
translate
0.5 setlinewidth
1 setlinejoin
0 setlinecap
0 0 m
-4 0 l
gsave
0.000 setgray
fill
grestore
stroke
grestore
} bind def
758.16 198 o
grestore
gsave
83.675000 193.460937 translate
0.000000 rotate
0.000000 0.171875 m /zero glyphshow
7.634766 0.171875 m /period glyphshow
11.449219 0.171875 m /four glyphshow
grestore
gsave
/o {
gsave
newpath
translate
0.5 setlinewidth
1 setlinejoin
0 setlinecap
0 0 m
4 0 l
gsave
0.000 setgray
fill
grestore
stroke
grestore
} bind def
105.3 270 o
grestore
gsave
/o {
gsave
newpath
translate
0.5 setlinewidth
1 setlinejoin
0 setlinecap
0 0 m
-4 0 l
gsave
0.000 setgray
fill
grestore
stroke
grestore
} bind def
758.16 270 o
grestore
gsave
83.768750 265.460938 translate
0.000000 rotate
0.000000 0.171875 m /zero glyphshow
7.634766 0.171875 m /period glyphshow
11.449219 0.171875 m /six glyphshow
grestore
gsave
/o {
gsave
newpath
translate
0.5 setlinewidth
1 setlinejoin
0 setlinecap
0 0 m
4 0 l
gsave
0.000 setgray
fill
grestore
stroke
grestore
} bind def
105.3 342 o
grestore
gsave
/o {
gsave
newpath
translate
0.5 setlinewidth
1 setlinejoin
0 setlinecap
0 0 m
-4 0 l
gsave
0.000 setgray
fill
grestore
stroke
grestore
} bind def
758.16 342 o
grestore
gsave
83.831250 337.460937 translate
0.000000 rotate
0.000000 0.171875 m /zero glyphshow
7.634766 0.171875 m /period glyphshow
11.449219 0.171875 m /eight glyphshow
grestore
gsave
/o {
gsave
newpath
translate
0.5 setlinewidth
1 setlinejoin
0 setlinecap
0 0 m
4 0 l
gsave
0.000 setgray
fill
grestore
stroke
grestore
} bind def
105.3 414 o
grestore
gsave
/o {
gsave
newpath
translate
0.5 setlinewidth
1 setlinejoin
0 setlinecap
0 0 m
-4 0 l
gsave
0.000 setgray
fill
grestore
stroke
grestore
} bind def
758.16 414 o
grestore
gsave
84.315625 409.460937 translate
0.000000 rotate
0.000000 0.171875 m /one glyphshow
7.634766 0.171875 m /period glyphshow
11.449219 0.171875 m /zero glyphshow
grestore
gsave
/o {
gsave
newpath
translate
0.5 setlinewidth
1 setlinejoin
0 setlinecap
0 0 m
4 0 l
gsave
0.000 setgray
fill
grestore
stroke
grestore
} bind def
105.3 486 o
grestore
gsave
/o {
gsave
newpath
translate
0.5 setlinewidth
1 setlinejoin
0 setlinecap
0 0 m
-4 0 l
gsave
0.000 setgray
fill
grestore
stroke
grestore
} bind def
758.16 486 o
grestore
gsave
84.721875 481.546875 translate
0.000000 rotate
0.000000 0.000000 m /one glyphshow
7.634766 0.000000 m /period glyphshow
11.449219 0.000000 m /two glyphshow
grestore
gsave
78.675000 228.429688 translate
90.000000 rotate
0.000000 2.500000 m /E glyphshow
7.582031 2.500000 m /n glyphshow
15.187500 2.500000 m /t glyphshow
19.892578 2.500000 m /a glyphshow
27.246094 2.500000 m /n glyphshow
34.851562 2.500000 m /g glyphshow
42.468750 2.500000 m /l glyphshow
45.802734 2.500000 m /e glyphshow
53.185547 2.500000 m /m glyphshow
64.875000 2.500000 m /e glyphshow
72.257812 2.500000 m /n glyphshow
79.863281 2.500000 m /t glyphshow
grestore
1.000 setlinewidth
2 setlinecap
gsave
105.3 486 m
758.16 486 l
stroke
grestore
gsave
758.16 54 m
758.16 486 l
stroke
grestore
gsave
105.3 54 m
758.16 54 l
stroke
grestore
gsave
105.3 54 m
105.3 486 l
stroke
grestore
/BitstreamVeraSans-Roman findfont
14.400 scalefont
setfont
gsave
197.690938 489.156250 translate
0.000000 rotate
0.000000 1.843750 m /E glyphshow
9.082642 1.843750 m /v glyphshow
17.589722 1.843750 m /o glyphshow
26.384583 1.843750 m /l glyphshow
30.378418 1.843750 m /u glyphshow
39.489136 1.843750 m /t glyphshow
45.125427 1.843750 m /i glyphshow
49.119263 1.843750 m /o glyphshow
57.914124 1.843750 m /n glyphshow
67.024841 1.843750 m /space glyphshow
71.594238 1.843750 m /o glyphshow
80.389099 1.843750 m /f glyphshow
85.449829 1.843750 m /space glyphshow
90.019226 1.843750 m /C glyphshow
100.056458 1.843750 m /h glyphshow
109.167175 1.843750 m /e glyphshow
118.011169 1.843750 m /n glyphshow
127.121887 1.843750 m /one glyphshow
136.267700 1.843750 m /space glyphshow
140.837097 1.843750 m /bracketleft glyphshow
146.445312 1.843750 m /w glyphshow
158.202209 1.843750 m /i glyphshow
162.196045 1.843750 m /t glyphshow
167.832336 1.843750 m /h glyphshow
176.943054 1.843750 m /space glyphshow
181.512451 1.843750 m /n glyphshow
190.623169 1.843750 m /o glyphshow
199.418030 1.843750 m /i glyphshow
203.411865 1.843750 m /s glyphshow
210.901184 1.843750 m /e glyphshow
219.745178 1.843750 m /space glyphshow
224.314575 1.843750 m /hyphen glyphshow
229.501648 1.843750 m /space glyphshow
234.071045 1.843750 m /one glyphshow
243.216858 1.843750 m /period glyphshow
247.786255 1.843750 m /zero glyphshow
256.932068 1.843750 m /zero glyphshow
266.077881 1.843750 m /zero glyphshow
275.223694 1.843750 m /zero glyphshow
284.369507 1.843750 m /zero glyphshow
293.515320 1.843750 m /zero glyphshow
302.661133 1.843750 m /e glyphshow
311.505127 1.843750 m /hyphen glyphshow
316.692200 1.843750 m /one glyphshow
325.838013 1.843750 m /six glyphshow
334.983826 1.843750 m /bracketright glyphshow
340.592041 1.843750 m /space glyphshow
345.161438 1.843750 m /parenleft glyphshow
350.769653 1.843750 m /m glyphshow
364.772644 1.843750 m /e glyphshow
373.616638 1.843750 m /a glyphshow
382.425537 1.843750 m /s glyphshow
389.914856 1.843750 m /u glyphshow
399.025574 1.843750 m /r glyphshow
404.560608 1.843750 m /e glyphshow
413.404602 1.843750 m /colon glyphshow
418.247742 1.843750 m /space glyphshow
422.817139 1.843750 m /B glyphshow
432.678894 1.843750 m /u glyphshow
441.789612 1.843750 m /r glyphshow
447.324646 1.843750 m /e glyphshow
456.168640 1.843750 m /s glyphshow
463.657959 1.843750 m /parenright glyphshow
grestore

end
showpage
