%!PS-Adobe-3.0 EPSF-3.0
%%Title: ['Chen1.Bures.result', 'Chen1.Hilbert-Schmidt.result', 'Chen1.concurrence.result', 'Chen1.entropy.result', 'Chen1.superfidelity.result'].entanglement.eps
%%Creator: matplotlib version 1.2.1, http://matplotlib.org/
%%CreationDate: Fri Jun 14 14:51:27 2013
%%Orientation: portrait
%%BoundingBox: -115 126 727 666
%%EndComments
%%BeginProlog
/mpldict 10 dict def
mpldict begin
/m { moveto } bind def
/l { lineto } bind def
/r { rlineto } bind def
/c { curveto } bind def
/cl { closepath } bind def
/box {
m
1 index 0 r
0 exch r
neg 0 r
cl
} bind def
/clipbox {
box
clip
newpath
} bind def
%!PS-Adobe-3.0 Resource-Font
%%Title: cmr10
%%Copyright: Copyright (C) 1994, Basil K. Malyshev. All Rights Reserved.012BaKoMa Fonts Collection, Level-B.
%%Creator: Converted from TrueType to type 3 by PPR
25 dict begin
/_d{bind def}bind def
/_m{moveto}_d
/_l{lineto}_d
/_cl{closepath eofill}_d
/_c{curveto}_d
/_sc{7 -1 roll{setcachedevice}{pop pop pop pop pop pop}ifelse}_d
/_e{exec}_d
/FontName /Cmr10 def
/PaintType 0 def
/FontMatrix[.001 0 0 .001 0 0]def
/FontBBox[-44 -250 1009 750]def
/FontType 3 def
/Encoding [ /three ] def
/FontInfo 10 dict dup begin
/FamilyName (cmr10) def
/FullName (cmr10) def
/Notice (Copyright (C) 1994, Basil K. Malyshev. All Rights Reserved.012BaKoMa Fonts Collection, Level-B. ) def
/Weight (Regular) def
/Version (1.1/12-Nov-94) def
/ItalicAngle 0.0 def
/isFixedPitch false def
/UnderlinePosition -133 def
/UnderlineThickness 20 def
end readonly def
/CharStrings 1 dict dup begin
/three{{500 0 42 -21 457 666 _sc
95 77 _m
111 54 132 37 158 26 _c
184 15 213 10 243 10 _c
281 10 309 26 325 59 _c
341 92 350 130 350 172 _c
350 190 348 209 345 228 _c
341 247 335 265 327 281 _c
319 297 308 310 294 320 _c
280 330 262 335 242 335 _c
176 335 _l
170 335 167 338 167 344 _c
167 353 _l
167 358 170 361 176 361 _c
231 365 _l
254 365 273 373 289 391 _c
}_e{305 409 316 430 323 456 _c
330 481 334 505 334 528 _c
334 560 326 586 311 606 _c
296 626 273 637 243 637 _c
217 637 193 632 170 622 _c
147 612 129 598 115 579 _c
116 579 117 580 118 580 _c
119 580 120 580 122 580 _c
137 580 150 574 160 564 _c
170 554 175 541 175 527 _c
175 512 170 499 160 489 _c
150 479 137 474 122 474 _c
107 474 94 479 84 489 _c
}_e{74 499 69 512 69 527 _c
69 555 77 580 95 601 _c
112 622 134 638 161 649 _c
188 660 215 666 243 666 _c
263 666 284 663 307 657 _c
329 651 350 642 368 631 _c
386 619 401 605 413 588 _c
424 570 430 550 430 528 _c
430 500 423 474 411 450 _c
399 426 382 406 360 389 _c
338 371 314 358 288 350 _c
317 344 345 333 371 317 _c
397 301 417 280 433 255 _c
}_e{449 229 457 202 457 173 _c
457 136 446 103 426 73 _c
406 43 379 19 347 3 _c
314 -13 279 -21 243 -21 _c
211 -21 180 -15 149 -3 _c
117 8 92 25 72 49 _c
52 73 42 101 42 135 _c
42 151 47 165 58 176 _c
69 187 83 193 100 193 _c
110 193 120 190 129 185 _c
138 180 145 173 150 164 _c
155 154 158 145 158 135 _c
158 118 152 104 141 93 _c
}_e{129 82 116 77 100 77 _c
95 77 _l
_cl}_e}_d
end readonly def

/BuildGlyph
 {exch begin
 CharStrings exch
 2 copy known not{pop /.notdef}if
 true 3 1 roll get exec
 end}_d

/BuildChar {
 1 index /Encoding get exch get
 1 index /BuildGlyph get exec
}_d

FontName currentdict end definefont pop
%!PS-Adobe-3.0 Resource-Font
%%Title: Bitstream Vera Sans
%%Copyright: Copyright (c) 2003 by Bitstream, Inc. All Rights Reserved.
%%Creator: Converted from TrueType to type 3 by PPR
25 dict begin
/_d{bind def}bind def
/_m{moveto}_d
/_l{lineto}_d
/_cl{closepath eofill}_d
/_c{curveto}_d
/_sc{7 -1 roll{setcachedevice}{pop pop pop pop pop pop}ifelse}_d
/_e{exec}_d
/FontName /BitstreamVeraSans-Roman def
/PaintType 0 def
/FontMatrix[.001 0 0 .001 0 0]def
/FontBBox[-183 -236 1287 928]def
/FontType 3 def
/Encoding [ /space /comma /hyphen /period /zero /one /two /four /six /eight /colon /B /C /E /H /S /a /b /c /d /e /f /g /h /i /l /m /n /o /p /r /s /t /u /y ] def
/FontInfo 10 dict dup begin
/FamilyName (Bitstream Vera Sans) def
/FullName (Bitstream Vera Sans) def
/Notice (Copyright (c) 2003 by Bitstream, Inc. All Rights Reserved. Bitstream Vera is a trademark of Bitstream, Inc.) def
/Weight (Roman) def
/Version (Release 1.10) def
/ItalicAngle 0.0 def
/isFixedPitch false def
/UnderlinePosition -213 def
/UnderlineThickness 143 def
end readonly def
/CharStrings 35 dict dup begin
/space{318 0 0 0 0 0 _sc
}_d
/comma{318 0 77 -115 220 124 _sc
117 124 _m
220 124 _l
220 40 _l
140 -115 _l
77 -115 _l
117 40 _l
117 124 _l
_cl}_d
/hyphen{361 0 49 234 312 314 _sc
49 314 _m
312 314 _l
312 234 _l
49 234 _l
49 314 _l
_cl}_d
/period{318 0 107 0 210 124 _sc
107 124 _m
210 124 _l
210 0 _l
107 0 _l
107 124 _l
_cl}_d
/zero{636 0 66 -13 570 742 _sc
318 664 _m
267 664 229 639 203 589 _c
177 539 165 464 165 364 _c
165 264 177 189 203 139 _c
229 89 267 64 318 64 _c
369 64 407 89 433 139 _c
458 189 471 264 471 364 _c
471 464 458 539 433 589 _c
407 639 369 664 318 664 _c
318 742 _m
399 742 461 709 505 645 _c
548 580 570 486 570 364 _c
570 241 548 147 505 83 _c
461 19 399 -13 318 -13 _c
236 -13 173 19 130 83 _c
87 147 66 241 66 364 _c
66 486 87 580 130 645 _c
173 709 236 742 318 742 _c
_cl}_d
/one{636 0 110 0 544 729 _sc
124 83 _m
285 83 _l
285 639 _l
110 604 _l
110 694 _l
284 729 _l
383 729 _l
383 83 _l
544 83 _l
544 0 _l
124 0 _l
124 83 _l
_cl}_d
/two{{636 0 73 0 536 742 _sc
192 83 _m
536 83 _l
536 0 _l
73 0 _l
73 83 _l
110 121 161 173 226 239 _c
290 304 331 346 348 365 _c
380 400 402 430 414 455 _c
426 479 433 504 433 528 _c
433 566 419 598 392 622 _c
365 646 330 659 286 659 _c
255 659 222 653 188 643 _c
154 632 117 616 78 594 _c
78 694 _l
118 710 155 722 189 730 _c
223 738 255 742 284 742 _c
}_e{359 742 419 723 464 685 _c
509 647 532 597 532 534 _c
532 504 526 475 515 449 _c
504 422 484 390 454 354 _c
446 344 420 317 376 272 _c
332 227 271 164 192 83 _c
_cl}_e}_d
/four{636 0 49 0 580 729 _sc
378 643 _m
129 254 _l
378 254 _l
378 643 _l
352 729 _m
476 729 _l
476 254 _l
580 254 _l
580 172 _l
476 172 _l
476 0 _l
378 0 _l
378 172 _l
49 172 _l
49 267 _l
352 729 _l
_cl}_d
/six{{636 0 70 -13 573 742 _sc
330 404 _m
286 404 251 388 225 358 _c
199 328 186 286 186 234 _c
186 181 199 139 225 109 _c
251 79 286 64 330 64 _c
374 64 409 79 435 109 _c
461 139 474 181 474 234 _c
474 286 461 328 435 358 _c
409 388 374 404 330 404 _c
526 713 _m
526 623 _l
501 635 476 644 451 650 _c
425 656 400 659 376 659 _c
310 659 260 637 226 593 _c
}_e{192 549 172 482 168 394 _c
187 422 211 444 240 459 _c
269 474 301 482 336 482 _c
409 482 467 459 509 415 _c
551 371 573 310 573 234 _c
573 159 550 99 506 54 _c
462 9 403 -13 330 -13 _c
246 -13 181 19 137 83 _c
92 147 70 241 70 364 _c
70 479 97 571 152 639 _c
206 707 280 742 372 742 _c
396 742 421 739 447 735 _c
472 730 498 723 526 713 _c
_cl}_e}_d
/eight{{636 0 68 -13 568 742 _sc
318 346 _m
271 346 234 333 207 308 _c
180 283 167 249 167 205 _c
167 161 180 126 207 101 _c
234 76 271 64 318 64 _c
364 64 401 76 428 102 _c
455 127 469 161 469 205 _c
469 249 455 283 429 308 _c
402 333 365 346 318 346 _c
219 388 _m
177 398 144 418 120 447 _c
96 476 85 511 85 553 _c
85 611 105 657 147 691 _c
188 725 245 742 318 742 _c
}_e{390 742 447 725 489 691 _c
530 657 551 611 551 553 _c
551 511 539 476 515 447 _c
491 418 459 398 417 388 _c
464 377 501 355 528 323 _c
554 291 568 251 568 205 _c
568 134 546 80 503 43 _c
459 5 398 -13 318 -13 _c
237 -13 175 5 132 43 _c
89 80 68 134 68 205 _c
68 251 81 291 108 323 _c
134 355 171 377 219 388 _c
183 544 _m
183 506 194 476 218 455 _c
}_e{242 434 275 424 318 424 _c
360 424 393 434 417 455 _c
441 476 453 506 453 544 _c
453 582 441 611 417 632 _c
393 653 360 664 318 664 _c
275 664 242 653 218 632 _c
194 611 183 582 183 544 _c
_cl}_e}_d
/colon{337 0 117 0 220 517 _sc
117 124 _m
220 124 _l
220 0 _l
117 0 _l
117 124 _l
117 517 _m
220 517 _l
220 393 _l
117 393 _l
117 517 _l
_cl}_d
/B{{686 0 98 0 615 729 _sc
197 348 _m
197 81 _l
355 81 _l
408 81 447 92 473 114 _c
498 136 511 169 511 215 _c
511 260 498 293 473 315 _c
447 337 408 348 355 348 _c
197 348 _l
197 648 _m
197 428 _l
343 428 _l
391 428 426 437 450 455 _c
474 473 486 500 486 538 _c
486 574 474 602 450 620 _c
426 638 391 648 343 648 _c
197 648 _l
98 729 _m
350 729 _l
}_e{425 729 483 713 524 682 _c
564 650 585 606 585 549 _c
585 504 574 468 553 442 _c
532 416 502 399 462 393 _c
510 382 548 360 575 327 _c
601 294 615 253 615 204 _c
615 138 592 88 548 53 _c
504 17 441 0 360 0 _c
98 0 _l
98 729 _l
_cl}_e}_d
/C{{698 0 56 -13 644 742 _sc
644 673 _m
644 569 _l
610 599 575 622 537 638 _c
499 653 460 661 418 661 _c
334 661 270 635 226 584 _c
182 533 160 460 160 364 _c
160 268 182 194 226 143 _c
270 92 334 67 418 67 _c
460 67 499 74 537 90 _c
575 105 610 128 644 159 _c
644 56 _l
609 32 572 15 534 4 _c
496 -7 455 -13 412 -13 _c
302 -13 215 20 151 87 _c
}_e{87 154 56 246 56 364 _c
56 481 87 573 151 641 _c
215 708 302 742 412 742 _c
456 742 497 736 535 725 _c
573 713 610 696 644 673 _c
_cl}_e}_d
/E{632 0 98 0 568 729 _sc
98 729 _m
559 729 _l
559 646 _l
197 646 _l
197 430 _l
544 430 _l
544 347 _l
197 347 _l
197 83 _l
568 83 _l
568 0 _l
98 0 _l
98 729 _l
_cl}_d
/H{752 0 98 0 654 729 _sc
98 729 _m
197 729 _l
197 430 _l
555 430 _l
555 729 _l
654 729 _l
654 0 _l
555 0 _l
555 347 _l
197 347 _l
197 0 _l
98 0 _l
98 729 _l
_cl}_d
/S{{635 0 66 -13 579 742 _sc
535 705 _m
535 609 _l
497 627 462 640 429 649 _c
395 657 363 662 333 662 _c
279 662 237 651 208 631 _c
179 610 165 580 165 542 _c
165 510 174 485 194 469 _c
213 452 250 439 304 429 _c
364 417 _l
437 403 491 378 526 343 _c
561 307 579 260 579 201 _c
579 130 555 77 508 41 _c
460 5 391 -13 300 -13 _c
265 -13 228 -9 189 -2 _c
}_e{150 5 110 16 69 32 _c
69 134 _l
109 111 148 94 186 83 _c
224 71 262 66 300 66 _c
356 66 399 77 430 99 _c
460 121 476 152 476 194 _c
476 230 465 258 443 278 _c
421 298 385 313 335 323 _c
275 335 _l
201 349 148 372 115 404 _c
82 435 66 478 66 534 _c
66 598 88 649 134 686 _c
179 723 242 742 322 742 _c
356 742 390 739 426 733 _c
461 727 497 717 535 705 _c
}_e{_cl}_e}_d
/a{{613 0 60 -13 522 560 _sc
343 275 _m
270 275 220 266 192 250 _c
164 233 150 205 150 165 _c
150 133 160 107 181 89 _c
202 70 231 61 267 61 _c
317 61 357 78 387 114 _c
417 149 432 196 432 255 _c
432 275 _l
343 275 _l
522 312 _m
522 0 _l
432 0 _l
432 83 _l
411 49 385 25 355 10 _c
325 -5 287 -13 243 -13 _c
187 -13 142 2 109 33 _c
76 64 60 106 60 159 _c
}_e{60 220 80 266 122 298 _c
163 329 224 345 306 345 _c
432 345 _l
432 354 _l
432 395 418 427 391 450 _c
364 472 326 484 277 484 _c
245 484 215 480 185 472 _c
155 464 127 453 100 439 _c
100 522 _l
132 534 164 544 195 550 _c
226 556 256 560 286 560 _c
365 560 424 539 463 498 _c
502 457 522 395 522 312 _c
_cl}_e}_d
/b{{635 0 91 -13 580 760 _sc
487 273 _m
487 339 473 390 446 428 _c
418 466 381 485 334 485 _c
286 485 249 466 222 428 _c
194 390 181 339 181 273 _c
181 207 194 155 222 117 _c
249 79 286 61 334 61 _c
381 61 418 79 446 117 _c
473 155 487 207 487 273 _c
181 464 _m
199 496 223 520 252 536 _c
281 552 316 560 356 560 _c
422 560 476 533 518 481 _c
559 428 580 359 580 273 _c
}_e{580 187 559 117 518 65 _c
476 13 422 -13 356 -13 _c
316 -13 281 -5 252 10 _c
223 25 199 49 181 82 _c
181 0 _l
91 0 _l
91 760 _l
181 760 _l
181 464 _l
_cl}_e}_d
/c{{550 0 55 -13 488 560 _sc
488 526 _m
488 442 _l
462 456 437 466 411 473 _c
385 480 360 484 334 484 _c
276 484 230 465 198 428 _c
166 391 150 339 150 273 _c
150 206 166 154 198 117 _c
230 80 276 62 334 62 _c
360 62 385 65 411 72 _c
437 79 462 90 488 104 _c
488 21 _l
462 9 436 0 410 -5 _c
383 -10 354 -13 324 -13 _c
242 -13 176 12 128 64 _c
}_e{79 115 55 185 55 273 _c
55 362 79 432 128 483 _c
177 534 244 560 330 560 _c
358 560 385 557 411 551 _c
437 545 463 537 488 526 _c
_cl}_e}_d
/d{{635 0 55 -13 544 760 _sc
454 464 _m
454 760 _l
544 760 _l
544 0 _l
454 0 _l
454 82 _l
435 49 411 25 382 10 _c
353 -5 319 -13 279 -13 _c
213 -13 159 13 117 65 _c
75 117 55 187 55 273 _c
55 359 75 428 117 481 _c
159 533 213 560 279 560 _c
319 560 353 552 382 536 _c
411 520 435 496 454 464 _c
148 273 _m
148 207 161 155 188 117 _c
215 79 253 61 301 61 _c
}_e{348 61 385 79 413 117 _c
440 155 454 207 454 273 _c
454 339 440 390 413 428 _c
385 466 348 485 301 485 _c
253 485 215 466 188 428 _c
161 390 148 339 148 273 _c
_cl}_e}_d
/e{{615 0 55 -13 562 560 _sc
562 296 _m
562 252 _l
149 252 _l
153 190 171 142 205 110 _c
238 78 284 62 344 62 _c
378 62 412 66 444 74 _c
476 82 509 95 541 113 _c
541 28 _l
509 14 476 3 442 -3 _c
408 -9 373 -13 339 -13 _c
251 -13 182 12 131 62 _c
80 112 55 181 55 268 _c
55 357 79 428 127 481 _c
175 533 241 560 323 560 _c
397 560 455 536 498 489 _c
}_e{540 441 562 377 562 296 _c
472 322 _m
471 371 457 410 431 440 _c
404 469 368 484 324 484 _c
274 484 234 469 204 441 _c
174 413 156 373 152 322 _c
472 322 _l
_cl}_e}_d
/f{352 0 23 0 371 760 _sc
371 760 _m
371 685 _l
285 685 _l
253 685 230 678 218 665 _c
205 652 199 629 199 595 _c
199 547 _l
347 547 _l
347 477 _l
199 477 _l
199 0 _l
109 0 _l
109 477 _l
23 477 _l
23 547 _l
109 547 _l
109 585 _l
109 645 123 690 151 718 _c
179 746 224 760 286 760 _c
371 760 _l
_cl}_d
/g{{635 0 55 -207 544 560 _sc
454 280 _m
454 344 440 395 414 431 _c
387 467 349 485 301 485 _c
253 485 215 467 188 431 _c
161 395 148 344 148 280 _c
148 215 161 165 188 129 _c
215 93 253 75 301 75 _c
349 75 387 93 414 129 _c
440 165 454 215 454 280 _c
544 68 _m
544 -24 523 -93 482 -139 _c
440 -184 377 -207 292 -207 _c
260 -207 231 -204 203 -200 _c
175 -195 147 -188 121 -178 _c
}_e{121 -91 _l
147 -105 173 -115 199 -122 _c
225 -129 251 -133 278 -133 _c
336 -133 380 -117 410 -87 _c
439 -56 454 -10 454 52 _c
454 96 _l
435 64 411 40 382 24 _c
353 8 319 0 279 0 _c
211 0 157 25 116 76 _c
75 127 55 195 55 280 _c
55 364 75 432 116 483 _c
157 534 211 560 279 560 _c
319 560 353 552 382 536 _c
411 520 435 496 454 464 _c
454 547 _l
544 547 _l
}_e{544 68 _l
_cl}_e}_d
/h{634 0 91 0 549 760 _sc
549 330 _m
549 0 _l
459 0 _l
459 327 _l
459 379 448 417 428 443 _c
408 469 378 482 338 482 _c
289 482 251 466 223 435 _c
195 404 181 362 181 309 _c
181 0 _l
91 0 _l
91 760 _l
181 760 _l
181 462 _l
202 494 227 519 257 535 _c
286 551 320 560 358 560 _c
420 560 468 540 500 501 _c
532 462 549 405 549 330 _c
_cl}_d
/i{278 0 94 0 184 760 _sc
94 547 _m
184 547 _l
184 0 _l
94 0 _l
94 547 _l
94 760 _m
184 760 _l
184 646 _l
94 646 _l
94 760 _l
_cl}_d
/l{278 0 94 0 184 760 _sc
94 760 _m
184 760 _l
184 0 _l
94 0 _l
94 760 _l
_cl}_d
/m{{974 0 91 0 889 560 _sc
520 442 _m
542 482 569 511 600 531 _c
631 550 668 560 711 560 _c
767 560 811 540 842 500 _c
873 460 889 403 889 330 _c
889 0 _l
799 0 _l
799 327 _l
799 379 789 418 771 444 _c
752 469 724 482 686 482 _c
639 482 602 466 575 435 _c
548 404 535 362 535 309 _c
535 0 _l
445 0 _l
445 327 _l
445 379 435 418 417 444 _c
398 469 369 482 331 482 _c
}_e{285 482 248 466 221 435 _c
194 404 181 362 181 309 _c
181 0 _l
91 0 _l
91 547 _l
181 547 _l
181 462 _l
201 495 226 520 255 536 _c
283 552 317 560 357 560 _c
397 560 430 550 458 530 _c
486 510 506 480 520 442 _c
_cl}_e}_d
/n{634 0 91 0 549 560 _sc
549 330 _m
549 0 _l
459 0 _l
459 327 _l
459 379 448 417 428 443 _c
408 469 378 482 338 482 _c
289 482 251 466 223 435 _c
195 404 181 362 181 309 _c
181 0 _l
91 0 _l
91 547 _l
181 547 _l
181 462 _l
202 494 227 519 257 535 _c
286 551 320 560 358 560 _c
420 560 468 540 500 501 _c
532 462 549 405 549 330 _c
_cl}_d
/o{612 0 55 -13 557 560 _sc
306 484 _m
258 484 220 465 192 427 _c
164 389 150 338 150 273 _c
150 207 163 156 191 118 _c
219 80 257 62 306 62 _c
354 62 392 80 420 118 _c
448 156 462 207 462 273 _c
462 337 448 389 420 427 _c
392 465 354 484 306 484 _c
306 560 _m
384 560 445 534 490 484 _c
534 433 557 363 557 273 _c
557 183 534 113 490 63 _c
445 12 384 -13 306 -13 _c
227 -13 165 12 121 63 _c
77 113 55 183 55 273 _c
55 363 77 433 121 484 _c
165 534 227 560 306 560 _c
_cl}_d
/p{{635 0 91 -207 580 560 _sc
181 82 _m
181 -207 _l
91 -207 _l
91 547 _l
181 547 _l
181 464 _l
199 496 223 520 252 536 _c
281 552 316 560 356 560 _c
422 560 476 533 518 481 _c
559 428 580 359 580 273 _c
580 187 559 117 518 65 _c
476 13 422 -13 356 -13 _c
316 -13 281 -5 252 10 _c
223 25 199 49 181 82 _c
487 273 _m
487 339 473 390 446 428 _c
418 466 381 485 334 485 _c
}_e{286 485 249 466 222 428 _c
194 390 181 339 181 273 _c
181 207 194 155 222 117 _c
249 79 286 61 334 61 _c
381 61 418 79 446 117 _c
473 155 487 207 487 273 _c
_cl}_e}_d
/r{411 0 91 0 411 560 _sc
411 463 _m
401 469 390 473 378 476 _c
366 478 353 480 339 480 _c
288 480 249 463 222 430 _c
194 397 181 350 181 288 _c
181 0 _l
91 0 _l
91 547 _l
181 547 _l
181 462 _l
199 495 224 520 254 536 _c
284 552 321 560 365 560 _c
371 560 378 559 386 559 _c
393 558 401 557 411 555 _c
411 463 _l
_cl}_d
/s{{521 0 54 -13 472 560 _sc
443 531 _m
443 446 _l
417 458 391 468 364 475 _c
336 481 308 485 279 485 _c
234 485 200 478 178 464 _c
156 450 145 430 145 403 _c
145 382 153 366 169 354 _c
185 342 217 330 265 320 _c
296 313 _l
360 299 405 279 432 255 _c
458 230 472 195 472 151 _c
472 100 452 60 412 31 _c
372 1 316 -13 246 -13 _c
216 -13 186 -10 154 -5 _c
}_e{122 0 89 8 54 20 _c
54 113 _l
87 95 120 82 152 74 _c
184 65 216 61 248 61 _c
290 61 323 68 346 82 _c
368 96 380 117 380 144 _c
380 168 371 187 355 200 _c
339 213 303 226 247 238 _c
216 245 _l
160 257 119 275 95 299 _c
70 323 58 356 58 399 _c
58 450 76 490 112 518 _c
148 546 200 560 268 560 _c
301 560 332 557 362 552 _c
391 547 418 540 443 531 _c
}_e{_cl}_e}_d
/t{392 0 27 0 368 702 _sc
183 702 _m
183 547 _l
368 547 _l
368 477 _l
183 477 _l
183 180 _l
183 135 189 106 201 94 _c
213 81 238 75 276 75 _c
368 75 _l
368 0 _l
276 0 _l
206 0 158 13 132 39 _c
106 65 93 112 93 180 _c
93 477 _l
27 477 _l
27 547 _l
93 547 _l
93 702 _l
183 702 _l
_cl}_d
/u{634 0 85 -13 543 547 _sc
85 216 _m
85 547 _l
175 547 _l
175 219 _l
175 167 185 129 205 103 _c
225 77 255 64 296 64 _c
344 64 383 79 411 110 _c
439 141 453 183 453 237 _c
453 547 _l
543 547 _l
543 0 _l
453 0 _l
453 84 _l
431 50 405 26 377 10 _c
348 -5 315 -13 277 -13 _c
214 -13 166 6 134 45 _c
101 83 85 140 85 216 _c
_cl}_d
/y{592 0 30 -207 562 547 _sc
322 -50 _m
296 -114 271 -157 247 -177 _c
223 -197 191 -207 151 -207 _c
79 -207 _l
79 -132 _l
132 -132 _l
156 -132 175 -126 189 -114 _c
203 -102 218 -75 235 -31 _c
251 9 _l
30 547 _l
125 547 _l
296 119 _l
467 547 _l
562 547 _l
322 -50 _l
_cl}_d
end readonly def

/BuildGlyph
 {exch begin
 CharStrings exch
 2 copy known not{pop /.notdef}if
 true 3 1 roll get exec
 end}_d

/BuildChar {
 1 index /Encoding get exch get
 1 index /BuildGlyph get exec
}_d

FontName currentdict end definefont pop
%!PS-Adobe-3.0 Resource-Font
%%Title: cmmi10
%%Copyright: Copyright (C) 1994, Basil K. Malyshev. All Rights Reserved.012BaKoMa Fonts Collection, Level-B.
%%Creator: Converted from TrueType to type 3 by PPR
25 dict begin
/_d{bind def}bind def
/_m{moveto}_d
/_l{lineto}_d
/_cl{closepath eofill}_d
/_c{curveto}_d
/_sc{7 -1 roll{setcachedevice}{pop pop pop pop pop pop}ifelse}_d
/_e{exec}_d
/FontName /Cmmi10 def
/PaintType 0 def
/FontMatrix[.001 0 0 .001 0 0]def
/FontBBox[-34 -250 1048 750]def
/FontType 3 def
/Encoding [ /lambda ] def
/FontInfo 10 dict dup begin
/FamilyName (cmmi10) def
/FullName (cmmi10) def
/Notice (Copyright (C) 1994, Basil K. Malyshev. All Rights Reserved.012BaKoMa Fonts Collection, Level-B. ) def
/Weight (Regular) def
/Version (1.1/12-Nov-94) def
/ItalicAngle 0.0 def
/isFixedPitch false def
/UnderlinePosition -133 def
/UnderlineThickness 20 def
end readonly def
/CharStrings 1 dict dup begin
/lambda{{583 0 51 -12 550 694 _sc
51 17 _m
51 27 55 36 64 45 _c
345 321 _l
246 599 _l
238 620 229 637 221 649 _c
212 661 200 668 184 668 _c
176 668 173 672 173 681 _c
173 685 175 688 178 690 _c
180 692 184 694 188 694 _c
258 694 300 673 315 632 _c
518 65 _l
526 36 535 17 545 8 _c
548 2 550 0 550 -1 _c
550 -7 547 -10 542 -10 _c
488 -10 _l
471 -5 458 8 448 32 _c
}_e{357 288 _l
115 4 _l
103 -6 92 -12 83 -12 _c
74 -12 66 -9 60 -4 _c
54 1 51 8 51 17 _c
_cl}_e}_d
end readonly def

/BuildGlyph
 {exch begin
 CharStrings exch
 2 copy known not{pop /.notdef}if
 true 3 1 roll get exec
 end}_d

/BuildChar {
 1 index /Encoding get exch get
 1 index /BuildGlyph get exec
}_d

FontName currentdict end definefont pop
end
%%EndProlog
mpldict begin
-115.2 126 translate
842.4 540 0 0 clipbox
gsave
0 0 m
842.4 0 l
842.4 540 l
0 540 l
cl
1.000 setgray
fill
grestore
gsave
105.3 54 m
758.16 54 l
758.16 486 l
105.3 486 l
cl
1.000 setgray
fill
grestore
1.000 setlinewidth
1 setlinejoin
2 setlinecap
[] 0 setdash
0.000 0.000 1.000 setrgbcolor
gsave
652.9 432 105.3 54 clipbox
105.3 54.0289 m
111.829 61.6301 l
118.357 60.2082 l
124.886 62.4702 l
131.414 65.2937 l
137.943 68.1172 l
144.472 70.9436 l
151 73.7711 l
157.529 76.6012 l
164.057 79.4331 l
170.586 82.2666 l
177.115 85.104 l
183.643 87.9444 l
190.172 90.7862 l
196.7 93.633 l
203.229 96.4832 l
209.758 99.3382 l
216.286 102.197 l
222.815 105.061 l
229.343 107.929 l
235.872 110.803 l
242.401 113.683 l
248.929 116.568 l
255.458 119.46 l
261.986 122.359 l
268.515 125.264 l
275.044 128.176 l
281.572 131.097 l
288.101 134.025 l
294.629 136.962 l
301.158 139.907 l
307.687 142.862 l
314.215 145.825 l
320.744 148.8 l
327.272 151.784 l
333.801 154.779 l
340.33 157.785 l
346.858 160.803 l
353.387 163.834 l
359.915 166.877 l
366.444 169.933 l
372.973 173.003 l
379.501 176.087 l
386.03 179.186 l
392.558 182.3 l
399.087 185.431 l
405.616 188.578 l
412.144 191.743 l
418.673 194.925 l
425.201 198.126 l
431.73 201.347 l
438.259 204.588 l
444.787 207.851 l
451.316 211.135 l
457.844 214.442 l
464.373 217.774 l
470.902 221.13 l
477.43 224.512 l
483.959 227.921 l
490.487 231.358 l
497.016 234.825 l
503.545 238.323 l
510.073 241.853 l
516.602 245.417 l
523.13 249.016 l
529.659 252.653 l
536.188 256.329 l
542.716 260.045 l
549.245 263.805 l
555.773 267.61 l
562.302 271.463 l
568.831 275.367 l
575.359 279.324 l
581.888 283.337 l
588.416 287.411 l
594.945 291.549 l
601.474 295.755 l
608.002 300.034 l
614.531 304.391 l
621.059 308.831 l
627.588 313.361 l
634.117 317.989 l
640.645 322.722 l
647.174 327.57 l
653.702 332.544 l
660.231 337.656 l
666.76 342.92 l
673.288 348.355 l
679.817 353.98 l
686.345 359.82 l
692.874 365.907 l
699.403 372.28 l
705.931 378.988 l
712.46 386.097 l
718.988 393.7 l
725.517 401.927 l
732.046 410.98 l
738.574 421.199 l
745.103 433.246 l
751.631 448.833 l
758.16 486 l
stroke
grestore
0.500 setlinewidth
0 setlinecap
0.000 setgray
gsave
652.9 432 105.3 54 clipbox
/o {
gsave
newpath
translate
0.5 setlinewidth
1 setlinejoin
0 setlinecap
0 -2.5 m
0.663008 -2.5 1.29895 -2.23658 1.76777 -1.76777 c
2.23658 -1.29895 2.5 -0.663008 2.5 0 c
2.5 0.663008 2.23658 1.29895 1.76777 1.76777 c
1.29895 2.23658 0.663008 2.5 0 2.5 c
-0.663008 2.5 -1.29895 2.23658 -1.76777 1.76777 c
-2.23658 1.29895 -2.5 0.663008 -2.5 0 c
-2.5 -0.663008 -2.23658 -1.29895 -1.76777 -1.76777 c
-1.29895 -2.23658 -0.663008 -2.5 0 -2.5 c
cl
gsave
0.000 0.000 1.000 setrgbcolor
fill
grestore
stroke
grestore
} bind def
105.3 54.0289 o
111.829 61.6301 o
118.357 60.2082 o
124.886 62.4702 o
131.414 65.2937 o
137.943 68.1172 o
144.472 70.9436 o
151 73.7711 o
157.529 76.6012 o
164.057 79.4331 o
170.586 82.2666 o
177.115 85.104 o
183.643 87.9444 o
190.172 90.7862 o
196.7 93.633 o
203.229 96.4832 o
209.758 99.3382 o
216.286 102.197 o
222.815 105.061 o
229.343 107.929 o
235.872 110.803 o
242.401 113.683 o
248.929 116.568 o
255.458 119.46 o
261.986 122.359 o
268.515 125.264 o
275.044 128.176 o
281.572 131.097 o
288.101 134.025 o
294.629 136.962 o
301.158 139.907 o
307.687 142.862 o
314.215 145.825 o
320.744 148.8 o
327.272 151.784 o
333.801 154.779 o
340.33 157.785 o
346.858 160.803 o
353.387 163.834 o
359.915 166.877 o
366.444 169.933 o
372.973 173.003 o
379.501 176.087 o
386.03 179.186 o
392.558 182.3 o
399.087 185.431 o
405.616 188.578 o
412.144 191.743 o
418.673 194.925 o
425.201 198.126 o
431.73 201.347 o
438.259 204.588 o
444.787 207.851 o
451.316 211.135 o
457.844 214.442 o
464.373 217.774 o
470.902 221.13 o
477.43 224.512 o
483.959 227.921 o
490.487 231.358 o
497.016 234.825 o
503.545 238.323 o
510.073 241.853 o
516.602 245.417 o
523.13 249.016 o
529.659 252.653 o
536.188 256.329 o
542.716 260.045 o
549.245 263.805 o
555.773 267.61 o
562.302 271.463 o
568.831 275.367 o
575.359 279.324 o
581.888 283.337 o
588.416 287.411 o
594.945 291.549 o
601.474 295.755 o
608.002 300.034 o
614.531 304.391 o
621.059 308.831 o
627.588 313.361 o
634.117 317.989 o
640.645 322.722 o
647.174 327.57 o
653.702 332.544 o
660.231 337.656 o
666.76 342.92 o
673.288 348.355 o
679.817 353.98 o
686.345 359.82 o
692.874 365.907 o
699.403 372.28 o
705.931 378.988 o
712.46 386.097 o
718.988 393.7 o
725.517 401.927 o
732.046 410.98 o
738.574 421.199 o
745.103 433.246 o
751.631 448.833 o
758.16 486 o
grestore
1.000 setlinewidth
2 setlinecap
0.000 0.500 0.000 setrgbcolor
gsave
652.9 432 105.3 54 clipbox
105.3 54.0007 m
111.829 59.274 l
118.357 63.5029 l
124.886 61.2439 l
131.414 58.4216 l
137.943 58.8367 l
144.472 58.7709 l
151 59.4944 l
157.529 59.7387 l
164.057 59.4439 l
170.586 60.1864 l
177.115 60.3926 l
183.643 59.4434 l
190.172 60.7713 l
196.7 60.7927 l
203.229 61.2917 l
209.758 61.9278 l
216.286 63.2536 l
222.815 63.58 l
229.343 64.1943 l
235.872 65.3673 l
242.401 66.7475 l
248.929 68.0984 l
255.458 68.9758 l
261.986 70.3892 l
268.515 71.9353 l
275.044 73.599 l
281.572 75.1712 l
288.101 76.9003 l
294.629 78.7232 l
301.158 80.7055 l
307.687 82.7765 l
314.215 84.9671 l
320.744 87.2302 l
327.272 89.6321 l
333.801 92.1402 l
340.33 94.7482 l
346.858 97.4706 l
353.387 100.318 l
359.915 103.265 l
366.444 106.336 l
372.973 109.552 l
379.501 112.863 l
386.03 116.274 l
392.558 119.861 l
399.087 123.598 l
405.616 127.183 l
412.144 131.06 l
418.673 135.077 l
425.201 139.212 l
431.73 143.47 l
438.259 147.851 l
444.787 152.357 l
451.316 156.982 l
457.844 161.727 l
464.373 166.594 l
470.902 171.582 l
477.43 176.69 l
483.959 181.917 l
490.487 187.26 l
497.016 192.72 l
503.545 198.296 l
510.073 203.986 l
516.602 209.786 l
523.13 215.7 l
529.659 221.728 l
536.188 227.86 l
542.716 234.085 l
549.245 240.425 l
555.773 246.863 l
562.302 253.403 l
568.831 260.039 l
575.359 266.772 l
581.888 273.6 l
588.416 280.518 l
594.945 287.526 l
601.474 294.622 l
608.002 301.803 l
614.531 309.067 l
621.059 316.412 l
627.588 323.836 l
634.117 331.338 l
640.645 338.914 l
647.174 346.564 l
653.702 354.284 l
660.231 362.074 l
666.76 369.931 l
673.288 377.853 l
679.817 385.838 l
686.345 393.886 l
692.874 401.993 l
699.403 410.158 l
705.931 418.38 l
712.46 426.657 l
718.988 434.987 l
725.517 443.368 l
732.046 451.8 l
738.574 460.281 l
745.103 468.809 l
751.631 477.382 l
758.16 486 l
stroke
grestore
0.500 setlinewidth
0 setlinecap
0.000 setgray
gsave
652.9 432 105.3 54 clipbox
/o {
gsave
newpath
translate
0.5 setlinewidth
1 setlinejoin
0 setlinecap
0 -2.5 m
0.663008 -2.5 1.29895 -2.23658 1.76777 -1.76777 c
2.23658 -1.29895 2.5 -0.663008 2.5 0 c
2.5 0.663008 2.23658 1.29895 1.76777 1.76777 c
1.29895 2.23658 0.663008 2.5 0 2.5 c
-0.663008 2.5 -1.29895 2.23658 -1.76777 1.76777 c
-2.23658 1.29895 -2.5 0.663008 -2.5 0 c
-2.5 -0.663008 -2.23658 -1.29895 -1.76777 -1.76777 c
-1.29895 -2.23658 -0.663008 -2.5 0 -2.5 c
cl
gsave
0.000 0.500 0.000 setrgbcolor
fill
grestore
stroke
grestore
} bind def
105.3 54.0007 o
111.829 59.274 o
118.357 63.5029 o
124.886 61.2439 o
131.414 58.4216 o
137.943 58.8367 o
144.472 58.7709 o
151 59.4944 o
157.529 59.7387 o
164.057 59.4439 o
170.586 60.1864 o
177.115 60.3926 o
183.643 59.4434 o
190.172 60.7713 o
196.7 60.7927 o
203.229 61.2917 o
209.758 61.9278 o
216.286 63.2536 o
222.815 63.58 o
229.343 64.1943 o
235.872 65.3673 o
242.401 66.7475 o
248.929 68.0984 o
255.458 68.9758 o
261.986 70.3892 o
268.515 71.9353 o
275.044 73.599 o
281.572 75.1712 o
288.101 76.9003 o
294.629 78.7232 o
301.158 80.7055 o
307.687 82.7765 o
314.215 84.9671 o
320.744 87.2302 o
327.272 89.6321 o
333.801 92.1402 o
340.33 94.7482 o
346.858 97.4706 o
353.387 100.318 o
359.915 103.265 o
366.444 106.336 o
372.973 109.552 o
379.501 112.863 o
386.03 116.274 o
392.558 119.861 o
399.087 123.598 o
405.616 127.183 o
412.144 131.06 o
418.673 135.077 o
425.201 139.212 o
431.73 143.47 o
438.259 147.851 o
444.787 152.357 o
451.316 156.982 o
457.844 161.727 o
464.373 166.594 o
470.902 171.582 o
477.43 176.69 o
483.959 181.917 o
490.487 187.26 o
497.016 192.72 o
503.545 198.296 o
510.073 203.986 o
516.602 209.786 o
523.13 215.7 o
529.659 221.728 o
536.188 227.86 o
542.716 234.085 o
549.245 240.425 o
555.773 246.863 o
562.302 253.403 o
568.831 260.039 o
575.359 266.772 o
581.888 273.6 o
588.416 280.518 o
594.945 287.526 o
601.474 294.622 o
608.002 301.803 o
614.531 309.067 o
621.059 316.412 o
627.588 323.836 o
634.117 331.338 o
640.645 338.914 o
647.174 346.564 o
653.702 354.284 o
660.231 362.074 o
666.76 369.931 o
673.288 377.853 o
679.817 385.838 o
686.345 393.886 o
692.874 401.993 o
699.403 410.158 o
705.931 418.38 o
712.46 426.657 o
718.988 434.987 o
725.517 443.368 o
732.046 451.8 o
738.574 460.281 o
745.103 468.809 o
751.631 477.382 o
758.16 486 o
grestore
1.000 setlinewidth
2 setlinecap
1.000 0.000 0.000 setrgbcolor
gsave
652.9 432 105.3 54 clipbox
105.3 54 m
111.829 54.1807 l
118.357 54.6364 l
124.886 55.3183 l
131.414 56.2005 l
137.943 57.265 l
144.472 58.498 l
151 59.8882 l
157.529 61.4264 l
164.057 63.1043 l
170.586 64.915 l
177.115 66.8521 l
183.643 68.9102 l
190.172 71.084 l
196.7 73.3689 l
203.229 75.7607 l
209.758 78.2554 l
216.286 80.8495 l
222.815 83.5394 l
229.343 86.3221 l
235.872 89.1946 l
242.401 92.154 l
248.929 95.1978 l
255.458 98.3236 l
261.986 101.529 l
268.515 104.811 l
275.044 108.169 l
281.572 111.6 l
288.101 115.102 l
294.629 118.674 l
301.158 122.313 l
307.687 126.019 l
314.215 129.789 l
320.744 133.622 l
327.272 137.516 l
333.801 141.47 l
340.33 145.483 l
346.858 149.554 l
353.387 153.68 l
359.915 157.862 l
366.444 162.097 l
372.973 166.385 l
379.501 170.725 l
386.03 175.115 l
392.558 179.554 l
399.087 184.042 l
405.616 188.578 l
412.144 193.16 l
418.673 197.788 l
425.201 202.461 l
431.73 207.178 l
438.259 211.938 l
444.787 216.741 l
451.316 221.586 l
457.844 226.471 l
464.373 231.397 l
470.902 236.362 l
477.43 241.367 l
483.959 246.409 l
490.487 251.489 l
497.016 256.606 l
503.545 261.759 l
510.073 266.949 l
516.602 272.173 l
523.13 277.432 l
529.659 282.725 l
536.188 288.051 l
542.716 293.411 l
549.245 298.803 l
555.773 304.227 l
562.302 309.682 l
568.831 315.169 l
575.359 320.686 l
581.888 326.234 l
588.416 331.811 l
594.945 337.417 l
601.474 343.052 l
608.002 348.716 l
614.531 354.407 l
621.059 360.126 l
627.588 365.873 l
634.117 371.646 l
640.645 377.446 l
647.174 383.272 l
653.702 389.124 l
660.231 395.001 l
666.76 400.904 l
673.288 406.831 l
679.817 412.783 l
686.345 418.758 l
692.874 424.758 l
699.403 430.781 l
705.931 436.827 l
712.46 442.897 l
718.988 448.989 l
725.517 455.103 l
732.046 461.239 l
738.574 467.397 l
745.103 473.577 l
751.631 479.778 l
758.16 486 l
stroke
grestore
0.500 setlinewidth
0 setlinecap
0.000 setgray
gsave
652.9 432 105.3 54 clipbox
/o {
gsave
newpath
translate
0.5 setlinewidth
1 setlinejoin
0 setlinecap
0 -2.5 m
0.663008 -2.5 1.29895 -2.23658 1.76777 -1.76777 c
2.23658 -1.29895 2.5 -0.663008 2.5 0 c
2.5 0.663008 2.23658 1.29895 1.76777 1.76777 c
1.29895 2.23658 0.663008 2.5 0 2.5 c
-0.663008 2.5 -1.29895 2.23658 -1.76777 1.76777 c
-2.23658 1.29895 -2.5 0.663008 -2.5 0 c
-2.5 -0.663008 -2.23658 -1.29895 -1.76777 -1.76777 c
-1.29895 -2.23658 -0.663008 -2.5 0 -2.5 c
cl
gsave
1.000 0.000 0.000 setrgbcolor
fill
grestore
stroke
grestore
} bind def
105.3 54 o
111.829 54.1807 o
118.357 54.6364 o
124.886 55.3183 o
131.414 56.2005 o
137.943 57.265 o
144.472 58.498 o
151 59.8882 o
157.529 61.4264 o
164.057 63.1043 o
170.586 64.915 o
177.115 66.8521 o
183.643 68.9102 o
190.172 71.084 o
196.7 73.3689 o
203.229 75.7607 o
209.758 78.2554 o
216.286 80.8495 o
222.815 83.5394 o
229.343 86.3221 o
235.872 89.1946 o
242.401 92.154 o
248.929 95.1978 o
255.458 98.3236 o
261.986 101.529 o
268.515 104.811 o
275.044 108.169 o
281.572 111.6 o
288.101 115.102 o
294.629 118.674 o
301.158 122.313 o
307.687 126.019 o
314.215 129.789 o
320.744 133.622 o
327.272 137.516 o
333.801 141.47 o
340.33 145.483 o
346.858 149.554 o
353.387 153.68 o
359.915 157.862 o
366.444 162.097 o
372.973 166.385 o
379.501 170.725 o
386.03 175.115 o
392.558 179.554 o
399.087 184.042 o
405.616 188.578 o
412.144 193.16 o
418.673 197.788 o
425.201 202.461 o
431.73 207.178 o
438.259 211.938 o
444.787 216.741 o
451.316 221.586 o
457.844 226.471 o
464.373 231.397 o
470.902 236.362 o
477.43 241.367 o
483.959 246.409 o
490.487 251.489 o
497.016 256.606 o
503.545 261.759 o
510.073 266.949 o
516.602 272.173 o
523.13 277.432 o
529.659 282.725 o
536.188 288.051 o
542.716 293.411 o
549.245 298.803 o
555.773 304.227 o
562.302 309.682 o
568.831 315.169 o
575.359 320.686 o
581.888 326.234 o
588.416 331.811 o
594.945 337.417 o
601.474 343.052 o
608.002 348.716 o
614.531 354.407 o
621.059 360.126 o
627.588 365.873 o
634.117 371.646 o
640.645 377.446 o
647.174 383.272 o
653.702 389.124 o
660.231 395.001 o
666.76 400.904 o
673.288 406.831 o
679.817 412.783 o
686.345 418.758 o
692.874 424.758 o
699.403 430.781 o
705.931 436.827 o
712.46 442.897 o
718.988 448.989 o
725.517 455.103 o
732.046 461.239 o
738.574 467.397 o
745.103 473.577 o
751.631 479.778 o
758.16 486 o
grestore
1.000 setlinewidth
2 setlinecap
0.000 0.750 0.750 setrgbcolor
gsave
652.9 432 105.3 54 clipbox
105.3 54.0008 m
111.829 54.221 l
118.357 54.7959 l
124.886 55.2803 l
131.414 55.0524 l
137.943 54.8967 l
144.472 55.0489 l
151 55.33 l
157.529 55.655 l
164.057 55.9829 l
170.586 56.133 l
177.115 56.7076 l
183.643 56.9127 l
190.172 57.3617 l
196.7 57.9462 l
203.229 58.6921 l
209.758 59.2503 l
216.286 59.6842 l
222.815 60.471 l
229.343 60.9745 l
235.872 61.704 l
242.401 62.4286 l
248.929 63.1556 l
255.458 63.8837 l
261.986 64.6016 l
268.515 65.6231 l
275.044 66.5865 l
281.572 67.669 l
288.101 68.7151 l
294.629 69.8817 l
301.158 70.9574 l
307.687 72.1311 l
314.215 73.7499 l
320.744 74.9509 l
327.272 76.2219 l
333.801 77.7095 l
340.33 79.3516 l
346.858 80.7651 l
353.387 82.4413 l
359.915 84.0429 l
366.444 85.8934 l
372.973 87.7547 l
379.501 89.6445 l
386.03 91.486 l
392.558 93.3366 l
399.087 95.512 l
405.616 97.7384 l
412.144 99.9551 l
418.673 102.199 l
425.201 104.51 l
431.73 107.069 l
438.259 109.701 l
444.787 112.355 l
451.316 115.111 l
457.844 117.979 l
464.373 120.877 l
470.902 124.027 l
477.43 127.041 l
483.959 130.246 l
490.487 133.555 l
497.016 136.966 l
503.545 140.566 l
510.073 144.256 l
516.602 148.108 l
523.13 151.926 l
529.659 155.965 l
536.188 160.108 l
542.716 164.385 l
549.245 168.831 l
555.773 173.401 l
562.302 178.16 l
568.831 183.01 l
575.359 188.109 l
581.888 193.37 l
588.416 198.838 l
594.945 204.434 l
601.474 210.168 l
608.002 216.196 l
614.531 222.526 l
621.059 228.858 l
627.588 235.615 l
634.117 242.584 l
640.645 249.837 l
647.174 257.424 l
653.702 265.435 l
660.231 273.603 l
666.76 282.145 l
673.288 291.093 l
679.817 300.465 l
686.345 310.185 l
692.874 320.594 l
699.403 331.509 l
705.931 343.107 l
712.46 355.363 l
718.988 368.397 l
725.517 382.632 l
732.046 397.928 l
738.574 414.811 l
745.103 433.569 l
751.631 455.632 l
758.16 486.098 l
stroke
grestore
0.500 setlinewidth
0 setlinecap
0.000 setgray
gsave
652.9 432 105.3 54 clipbox
/o {
gsave
newpath
translate
0.5 setlinewidth
1 setlinejoin
0 setlinecap
0 -2.5 m
0.663008 -2.5 1.29895 -2.23658 1.76777 -1.76777 c
2.23658 -1.29895 2.5 -0.663008 2.5 0 c
2.5 0.663008 2.23658 1.29895 1.76777 1.76777 c
1.29895 2.23658 0.663008 2.5 0 2.5 c
-0.663008 2.5 -1.29895 2.23658 -1.76777 1.76777 c
-2.23658 1.29895 -2.5 0.663008 -2.5 0 c
-2.5 -0.663008 -2.23658 -1.29895 -1.76777 -1.76777 c
-1.29895 -2.23658 -0.663008 -2.5 0 -2.5 c
cl
gsave
0.000 0.750 0.750 setrgbcolor
fill
grestore
stroke
grestore
} bind def
105.3 54.0008 o
111.829 54.221 o
118.357 54.7959 o
124.886 55.2803 o
131.414 55.0524 o
137.943 54.8967 o
144.472 55.0489 o
151 55.33 o
157.529 55.655 o
164.057 55.9829 o
170.586 56.133 o
177.115 56.7076 o
183.643 56.9127 o
190.172 57.3617 o
196.7 57.9462 o
203.229 58.6921 o
209.758 59.2503 o
216.286 59.6842 o
222.815 60.471 o
229.343 60.9745 o
235.872 61.704 o
242.401 62.4286 o
248.929 63.1556 o
255.458 63.8837 o
261.986 64.6016 o
268.515 65.6231 o
275.044 66.5865 o
281.572 67.669 o
288.101 68.7151 o
294.629 69.8817 o
301.158 70.9574 o
307.687 72.1311 o
314.215 73.7499 o
320.744 74.9509 o
327.272 76.2219 o
333.801 77.7095 o
340.33 79.3516 o
346.858 80.7651 o
353.387 82.4413 o
359.915 84.0429 o
366.444 85.8934 o
372.973 87.7547 o
379.501 89.6445 o
386.03 91.486 o
392.558 93.3366 o
399.087 95.512 o
405.616 97.7384 o
412.144 99.9551 o
418.673 102.199 o
425.201 104.51 o
431.73 107.069 o
438.259 109.701 o
444.787 112.355 o
451.316 115.111 o
457.844 117.979 o
464.373 120.877 o
470.902 124.027 o
477.43 127.041 o
483.959 130.246 o
490.487 133.555 o
497.016 136.966 o
503.545 140.566 o
510.073 144.256 o
516.602 148.108 o
523.13 151.926 o
529.659 155.965 o
536.188 160.108 o
542.716 164.385 o
549.245 168.831 o
555.773 173.401 o
562.302 178.16 o
568.831 183.01 o
575.359 188.109 o
581.888 193.37 o
588.416 198.838 o
594.945 204.434 o
601.474 210.168 o
608.002 216.196 o
614.531 222.526 o
621.059 228.858 o
627.588 235.615 o
634.117 242.584 o
640.645 249.837 o
647.174 257.424 o
653.702 265.435 o
660.231 273.603 o
666.76 282.145 o
673.288 291.093 o
679.817 300.465 o
686.345 310.185 o
692.874 320.594 o
699.403 331.509 o
705.931 343.107 o
712.46 355.363 o
718.988 368.397 o
725.517 382.632 o
732.046 397.928 o
738.574 414.811 o
745.103 433.569 o
751.631 455.632 o
758.16 486.098 o
grestore
1.000 setlinewidth
2 setlinecap
0.750 0.000 0.750 setrgbcolor
gsave
652.9 432 105.3 54 clipbox
105.3 54.0012 m
111.829 56.8194 l
118.357 59.6225 l
124.886 59.8474 l
131.414 61.1579 l
137.943 62.9461 l
144.472 57.0872 l
151 57.5145 l
157.529 58.1142 l
164.057 58.8832 l
170.586 58.6754 l
177.115 57.4754 l
183.643 58.8859 l
190.172 58.2293 l
196.7 58.6589 l
203.229 58.6216 l
209.758 58.3053 l
216.286 58.9136 l
222.815 59.3904 l
229.343 59.8415 l
235.872 60.4453 l
242.401 61.1708 l
248.929 61.8778 l
255.458 62.6731 l
261.986 63.5302 l
268.515 64.3875 l
275.044 65.3224 l
281.572 66.2921 l
288.101 67.3322 l
294.629 68.4094 l
301.158 69.5712 l
307.687 70.7577 l
314.215 72.014 l
320.744 73.32 l
327.272 74.6951 l
333.801 76.1306 l
340.33 77.6147 l
346.858 79.1764 l
353.387 80.8074 l
359.915 82.502 l
366.444 84.2701 l
372.973 86.1096 l
379.501 88.0226 l
386.03 90.0395 l
392.558 92.0928 l
399.087 94.2379 l
405.616 96.4541 l
412.144 98.765 l
418.673 101.162 l
425.201 103.644 l
431.73 106.215 l
438.259 108.876 l
444.787 111.629 l
451.316 114.474 l
457.844 117.415 l
464.373 120.451 l
470.902 123.584 l
477.43 126.659 l
483.959 129.937 l
490.487 133.312 l
497.016 136.782 l
503.545 140.352 l
510.073 144.019 l
516.602 147.789 l
523.13 151.658 l
529.659 155.633 l
536.188 159.714 l
542.716 163.903 l
549.245 168.203 l
555.773 172.616 l
562.302 177.146 l
568.831 181.796 l
575.359 186.569 l
581.888 191.469 l
588.416 196.502 l
594.945 201.671 l
601.474 206.983 l
608.002 212.444 l
614.531 218.061 l
621.059 223.843 l
627.588 229.798 l
634.117 235.937 l
640.645 242.272 l
647.174 248.818 l
653.702 255.59 l
660.231 262.608 l
666.76 269.894 l
673.288 277.474 l
679.817 285.381 l
686.345 293.655 l
692.874 302.343 l
699.403 311.509 l
705.931 321.231 l
712.46 331.616 l
718.988 342.81 l
725.517 355.025 l
732.046 368.586 l
738.574 384.042 l
745.103 402.469 l
751.631 426.648 l
758.16 486 l
stroke
grestore
0.500 setlinewidth
0 setlinecap
0.000 setgray
gsave
652.9 432 105.3 54 clipbox
/o {
gsave
newpath
translate
0.5 setlinewidth
1 setlinejoin
0 setlinecap
0 -2.5 m
0.663008 -2.5 1.29895 -2.23658 1.76777 -1.76777 c
2.23658 -1.29895 2.5 -0.663008 2.5 0 c
2.5 0.663008 2.23658 1.29895 1.76777 1.76777 c
1.29895 2.23658 0.663008 2.5 0 2.5 c
-0.663008 2.5 -1.29895 2.23658 -1.76777 1.76777 c
-2.23658 1.29895 -2.5 0.663008 -2.5 0 c
-2.5 -0.663008 -2.23658 -1.29895 -1.76777 -1.76777 c
-1.29895 -2.23658 -0.663008 -2.5 0 -2.5 c
cl
gsave
0.750 0.000 0.750 setrgbcolor
fill
grestore
stroke
grestore
} bind def
105.3 54.0012 o
111.829 56.8194 o
118.357 59.6225 o
124.886 59.8474 o
131.414 61.1579 o
137.943 62.9461 o
144.472 57.0872 o
151 57.5145 o
157.529 58.1142 o
164.057 58.8832 o
170.586 58.6754 o
177.115 57.4754 o
183.643 58.8859 o
190.172 58.2293 o
196.7 58.6589 o
203.229 58.6216 o
209.758 58.3053 o
216.286 58.9136 o
222.815 59.3904 o
229.343 59.8415 o
235.872 60.4453 o
242.401 61.1708 o
248.929 61.8778 o
255.458 62.6731 o
261.986 63.5302 o
268.515 64.3875 o
275.044 65.3224 o
281.572 66.2921 o
288.101 67.3322 o
294.629 68.4094 o
301.158 69.5712 o
307.687 70.7577 o
314.215 72.014 o
320.744 73.32 o
327.272 74.6951 o
333.801 76.1306 o
340.33 77.6147 o
346.858 79.1764 o
353.387 80.8074 o
359.915 82.502 o
366.444 84.2701 o
372.973 86.1096 o
379.501 88.0226 o
386.03 90.0395 o
392.558 92.0928 o
399.087 94.2379 o
405.616 96.4541 o
412.144 98.765 o
418.673 101.162 o
425.201 103.644 o
431.73 106.215 o
438.259 108.876 o
444.787 111.629 o
451.316 114.474 o
457.844 117.415 o
464.373 120.451 o
470.902 123.584 o
477.43 126.659 o
483.959 129.937 o
490.487 133.312 o
497.016 136.782 o
503.545 140.352 o
510.073 144.019 o
516.602 147.789 o
523.13 151.658 o
529.659 155.633 o
536.188 159.714 o
542.716 163.903 o
549.245 168.203 o
555.773 172.616 o
562.302 177.146 o
568.831 181.796 o
575.359 186.569 o
581.888 191.469 o
588.416 196.502 o
594.945 201.671 o
601.474 206.983 o
608.002 212.444 o
614.531 218.061 o
621.059 223.843 o
627.588 229.798 o
634.117 235.937 o
640.645 242.272 o
647.174 248.818 o
653.702 255.59 o
660.231 262.608 o
666.76 269.894 o
673.288 277.474 o
679.817 285.381 o
686.345 293.655 o
692.874 302.343 o
699.403 311.509 o
705.931 321.231 o
712.46 331.616 o
718.988 342.81 o
725.517 355.025 o
732.046 368.586 o
738.574 384.042 o
745.103 402.469 o
751.631 426.648 o
758.16 486 o
grestore
gsave
/o {
gsave
newpath
translate
0.5 setlinewidth
1 setlinejoin
0 setlinecap
0 0 m
0 4 l
gsave
0.000 setgray
fill
grestore
stroke
grestore
} bind def
105.3 54 o
grestore
gsave
/o {
gsave
newpath
translate
0.5 setlinewidth
1 setlinejoin
0 setlinecap
0 0 m
0 -4 l
gsave
0.000 setgray
fill
grestore
stroke
grestore
} bind def
105.3 486 o
grestore
/BitstreamVeraSans-Roman findfont
12.000 scalefont
setfont
gsave
96.550000 40.921875 translate
0.000000 rotate
0.000000 0.171875 m /zero glyphshow
7.634766 0.171875 m /period glyphshow
11.449219 0.171875 m /zero glyphshow
grestore
gsave
/o {
gsave
newpath
translate
0.5 setlinewidth
1 setlinejoin
0 setlinecap
0 0 m
0 4 l
gsave
0.000 setgray
fill
grestore
stroke
grestore
} bind def
235.872 54 o
grestore
gsave
/o {
gsave
newpath
translate
0.5 setlinewidth
1 setlinejoin
0 setlinecap
0 0 m
0 -4 l
gsave
0.000 setgray
fill
grestore
stroke
grestore
} bind def
235.872 486 o
grestore
gsave
227.325125 40.921875 translate
0.000000 rotate
0.000000 0.171875 m /zero glyphshow
7.634766 0.171875 m /period glyphshow
11.449219 0.171875 m /two glyphshow
grestore
gsave
/o {
gsave
newpath
translate
0.5 setlinewidth
1 setlinejoin
0 setlinecap
0 0 m
0 4 l
gsave
0.000 setgray
fill
grestore
stroke
grestore
} bind def
366.444 54 o
grestore
gsave
/o {
gsave
newpath
translate
0.5 setlinewidth
1 setlinejoin
0 setlinecap
0 0 m
0 -4 l
gsave
0.000 setgray
fill
grestore
stroke
grestore
} bind def
366.444 486 o
grestore
gsave
357.631500 40.921875 translate
0.000000 rotate
0.000000 0.171875 m /zero glyphshow
7.634766 0.171875 m /period glyphshow
11.449219 0.171875 m /four glyphshow
grestore
gsave
/o {
gsave
newpath
translate
0.5 setlinewidth
1 setlinejoin
0 setlinecap
0 0 m
0 4 l
gsave
0.000 setgray
fill
grestore
stroke
grestore
} bind def
497.016 54 o
grestore
gsave
/o {
gsave
newpath
translate
0.5 setlinewidth
1 setlinejoin
0 setlinecap
0 0 m
0 -4 l
gsave
0.000 setgray
fill
grestore
stroke
grestore
} bind def
497.016 486 o
grestore
gsave
488.250375 40.921875 translate
0.000000 rotate
0.000000 0.171875 m /zero glyphshow
7.634766 0.171875 m /period glyphshow
11.449219 0.171875 m /six glyphshow
grestore
gsave
/o {
gsave
newpath
translate
0.5 setlinewidth
1 setlinejoin
0 setlinecap
0 0 m
0 4 l
gsave
0.000 setgray
fill
grestore
stroke
grestore
} bind def
627.588 54 o
grestore
gsave
/o {
gsave
newpath
translate
0.5 setlinewidth
1 setlinejoin
0 setlinecap
0 0 m
0 -4 l
gsave
0.000 setgray
fill
grestore
stroke
grestore
} bind def
627.588 486 o
grestore
gsave
618.853625 40.921875 translate
0.000000 rotate
0.000000 0.171875 m /zero glyphshow
7.634766 0.171875 m /period glyphshow
11.449219 0.171875 m /eight glyphshow
grestore
gsave
/o {
gsave
newpath
translate
0.5 setlinewidth
1 setlinejoin
0 setlinecap
0 0 m
0 4 l
gsave
0.000 setgray
fill
grestore
stroke
grestore
} bind def
758.16 54 o
grestore
gsave
/o {
gsave
newpath
translate
0.5 setlinewidth
1 setlinejoin
0 setlinecap
0 0 m
0 -4 l
gsave
0.000 setgray
fill
grestore
stroke
grestore
} bind def
758.16 486 o
grestore
gsave
749.667812 40.921875 translate
0.000000 rotate
0.000000 0.171875 m /one glyphshow
7.634766 0.171875 m /period glyphshow
11.449219 0.171875 m /zero glyphshow
grestore
gsave
383.730000 22.921875 translate
0.000000 rotate
/Cmmi10 findfont
12.0 scalefont
setfont
0.000000 4.671875 moveto
/lambda glyphshow

/Cmr10 findfont
8.4 scalefont
setfont
6.996094 1.610750 moveto
/three glyphshow

/BitstreamVeraSans-Roman findfont
12.0 scalefont
setfont
12.996094 4.671875 moveto
/comma glyphshow

16.810547 4.671875 moveto
/space glyphshow

/Cmmi10 findfont
12.0 scalefont
setfont
20.625000 4.671875 moveto
/lambda glyphshow

/Cmr10 findfont
8.4 scalefont
setfont
27.621094 1.610750 moveto
/three glyphshow

/BitstreamVeraSans-Roman findfont
12.0 scalefont
setfont
33.621094 4.671875 moveto
/comma glyphshow

37.435547 4.671875 moveto
/space glyphshow

/Cmmi10 findfont
12.0 scalefont
setfont
41.250000 4.671875 moveto
/lambda glyphshow

/Cmr10 findfont
8.4 scalefont
setfont
48.246094 1.610750 moveto
/three glyphshow

/BitstreamVeraSans-Roman findfont
12.0 scalefont
setfont
54.246094 4.671875 moveto
/comma glyphshow

58.060547 4.671875 moveto
/space glyphshow

/Cmmi10 findfont
12.0 scalefont
setfont
61.875000 4.671875 moveto
/lambda glyphshow

/Cmr10 findfont
8.4 scalefont
setfont
68.871094 1.610750 moveto
/three glyphshow

/BitstreamVeraSans-Roman findfont
12.0 scalefont
setfont
74.871094 4.671875 moveto
/comma glyphshow

78.685547 4.671875 moveto
/space glyphshow

/Cmmi10 findfont
12.0 scalefont
setfont
82.500000 4.671875 moveto
/lambda glyphshow

/Cmr10 findfont
8.4 scalefont
setfont
89.496094 1.610750 moveto
/three glyphshow


grestore
gsave
/o {
gsave
newpath
translate
0.5 setlinewidth
1 setlinejoin
0 setlinecap
0 0 m
4 0 l
gsave
0.000 setgray
fill
grestore
stroke
grestore
} bind def
105.3 54 o
grestore
gsave
/o {
gsave
newpath
translate
0.5 setlinewidth
1 setlinejoin
0 setlinecap
0 0 m
-4 0 l
gsave
0.000 setgray
fill
grestore
stroke
grestore
} bind def
758.16 54 o
grestore
gsave
83.800000 49.460937 translate
0.000000 rotate
0.000000 0.171875 m /zero glyphshow
7.634766 0.171875 m /period glyphshow
11.449219 0.171875 m /zero glyphshow
grestore
gsave
/o {
gsave
newpath
translate
0.5 setlinewidth
1 setlinejoin
0 setlinecap
0 0 m
4 0 l
gsave
0.000 setgray
fill
grestore
stroke
grestore
} bind def
105.3 140.4 o
grestore
gsave
/o {
gsave
newpath
translate
0.5 setlinewidth
1 setlinejoin
0 setlinecap
0 0 m
-4 0 l
gsave
0.000 setgray
fill
grestore
stroke
grestore
} bind def
758.16 140.4 o
grestore
gsave
84.206250 135.860937 translate
0.000000 rotate
0.000000 0.171875 m /zero glyphshow
7.634766 0.171875 m /period glyphshow
11.449219 0.171875 m /two glyphshow
grestore
gsave
/o {
gsave
newpath
translate
0.5 setlinewidth
1 setlinejoin
0 setlinecap
0 0 m
4 0 l
gsave
0.000 setgray
fill
grestore
stroke
grestore
} bind def
105.3 226.8 o
grestore
gsave
/o {
gsave
newpath
translate
0.5 setlinewidth
1 setlinejoin
0 setlinecap
0 0 m
-4 0 l
gsave
0.000 setgray
fill
grestore
stroke
grestore
} bind def
758.16 226.8 o
grestore
gsave
83.675000 222.260937 translate
0.000000 rotate
0.000000 0.171875 m /zero glyphshow
7.634766 0.171875 m /period glyphshow
11.449219 0.171875 m /four glyphshow
grestore
gsave
/o {
gsave
newpath
translate
0.5 setlinewidth
1 setlinejoin
0 setlinecap
0 0 m
4 0 l
gsave
0.000 setgray
fill
grestore
stroke
grestore
} bind def
105.3 313.2 o
grestore
gsave
/o {
gsave
newpath
translate
0.5 setlinewidth
1 setlinejoin
0 setlinecap
0 0 m
-4 0 l
gsave
0.000 setgray
fill
grestore
stroke
grestore
} bind def
758.16 313.2 o
grestore
gsave
83.768750 308.660938 translate
0.000000 rotate
0.000000 0.171875 m /zero glyphshow
7.634766 0.171875 m /period glyphshow
11.449219 0.171875 m /six glyphshow
grestore
gsave
/o {
gsave
newpath
translate
0.5 setlinewidth
1 setlinejoin
0 setlinecap
0 0 m
4 0 l
gsave
0.000 setgray
fill
grestore
stroke
grestore
} bind def
105.3 399.6 o
grestore
gsave
/o {
gsave
newpath
translate
0.5 setlinewidth
1 setlinejoin
0 setlinecap
0 0 m
-4 0 l
gsave
0.000 setgray
fill
grestore
stroke
grestore
} bind def
758.16 399.6 o
grestore
gsave
83.831250 395.060938 translate
0.000000 rotate
0.000000 0.171875 m /zero glyphshow
7.634766 0.171875 m /period glyphshow
11.449219 0.171875 m /eight glyphshow
grestore
gsave
/o {
gsave
newpath
translate
0.5 setlinewidth
1 setlinejoin
0 setlinecap
0 0 m
4 0 l
gsave
0.000 setgray
fill
grestore
stroke
grestore
} bind def
105.3 486 o
grestore
gsave
/o {
gsave
newpath
translate
0.5 setlinewidth
1 setlinejoin
0 setlinecap
0 0 m
-4 0 l
gsave
0.000 setgray
fill
grestore
stroke
grestore
} bind def
758.16 486 o
grestore
gsave
84.315625 481.460938 translate
0.000000 rotate
0.000000 0.171875 m /one glyphshow
7.634766 0.171875 m /period glyphshow
11.449219 0.171875 m /zero glyphshow
grestore
gsave
78.675000 228.429688 translate
90.000000 rotate
0.000000 2.500000 m /E glyphshow
7.582031 2.500000 m /n glyphshow
15.187500 2.500000 m /t glyphshow
19.892578 2.500000 m /a glyphshow
27.246094 2.500000 m /n glyphshow
34.851562 2.500000 m /g glyphshow
42.468750 2.500000 m /l glyphshow
45.802734 2.500000 m /e glyphshow
53.185547 2.500000 m /m glyphshow
64.875000 2.500000 m /e glyphshow
72.257812 2.500000 m /n glyphshow
79.863281 2.500000 m /t glyphshow
grestore
1.000 setlinewidth
2 setlinecap
gsave
105.3 486 m
758.16 486 l
stroke
grestore
gsave
758.16 54 m
758.16 486 l
stroke
grestore
gsave
105.3 54 m
758.16 54 l
stroke
grestore
gsave
105.3 54 m
105.3 486 l
stroke
grestore
/BitstreamVeraSans-Roman findfont
14.400 scalefont
setfont
gsave
381.948750 488.093750 translate
0.000000 rotate
0.000000 2.906250 m /E glyphshow
9.082642 2.906250 m /n glyphshow
18.193359 2.906250 m /t glyphshow
23.829651 2.906250 m /a glyphshow
32.638550 2.906250 m /n glyphshow
41.749268 2.906250 m /g glyphshow
50.874023 2.906250 m /l glyphshow
54.867859 2.906250 m /e glyphshow
63.711853 2.906250 m /m glyphshow
77.714844 2.906250 m /e glyphshow
86.558838 2.906250 m /n glyphshow
95.669556 2.906250 m /t glyphshow
grestore
gsave
112.5 370.746 m
449.699 370.746 l
449.699 478.8 l
112.5 478.8 l
112.5 370.746 l
cl
gsave
1.000 setgray
fill
grestore
stroke
grestore
0.000 0.000 1.000 setrgbcolor
gsave
122.58 467.439 m
142.74 467.439 l
stroke
grestore
0.500 setlinewidth
0 setlinecap
0.000 setgray
gsave
/o {
gsave
newpath
translate
0.5 setlinewidth
1 setlinejoin
0 setlinecap
0 -2.5 m
0.663008 -2.5 1.29895 -2.23658 1.76777 -1.76777 c
2.23658 -1.29895 2.5 -0.663008 2.5 0 c
2.5 0.663008 2.23658 1.29895 1.76777 1.76777 c
1.29895 2.23658 0.663008 2.5 0 2.5 c
-0.663008 2.5 -1.29895 2.23658 -1.76777 1.76777 c
-2.23658 1.29895 -2.5 0.663008 -2.5 0 c
-2.5 -0.663008 -2.23658 -1.29895 -1.76777 -1.76777 c
-1.29895 -2.23658 -0.663008 -2.5 0 -2.5 c
cl
gsave
0.000 0.000 1.000 setrgbcolor
fill
grestore
stroke
grestore
} bind def
122.58 467.439 o
142.74 467.439 o
grestore
gsave
158.580000 460.774375 translate
0.000000 rotate
0.000000 1.625000 m /s glyphshow
7.489319 1.625000 m /t glyphshow
13.125610 1.625000 m /a glyphshow
21.934509 1.625000 m /t glyphshow
27.570801 1.625000 m /e glyphshow
36.414795 1.625000 m /colon glyphshow
41.257935 1.625000 m /space glyphshow
45.827332 1.625000 m /C glyphshow
55.864563 1.625000 m /h glyphshow
64.975281 1.625000 m /e glyphshow
73.819275 1.625000 m /n glyphshow
82.929993 1.625000 m /one glyphshow
92.075806 1.625000 m /comma glyphshow
96.645203 1.625000 m /space glyphshow
101.214600 1.625000 m /m glyphshow
115.217590 1.625000 m /e glyphshow
124.061584 1.625000 m /a glyphshow
132.870483 1.625000 m /s glyphshow
140.359802 1.625000 m /u glyphshow
149.470520 1.625000 m /r glyphshow
155.005554 1.625000 m /e glyphshow
163.849548 1.625000 m /colon glyphshow
168.692688 1.625000 m /space glyphshow
173.262085 1.625000 m /B glyphshow
183.123840 1.625000 m /u glyphshow
192.234558 1.625000 m /r glyphshow
197.769592 1.625000 m /e glyphshow
206.613586 1.625000 m /s glyphshow
grestore
1.000 setlinewidth
2 setlinecap
0.000 0.500 0.000 setrgbcolor
gsave
122.58 446.693 m
142.74 446.693 l
stroke
grestore
0.500 setlinewidth
0 setlinecap
0.000 setgray
gsave
/o {
gsave
newpath
translate
0.5 setlinewidth
1 setlinejoin
0 setlinecap
0 -2.5 m
0.663008 -2.5 1.29895 -2.23658 1.76777 -1.76777 c
2.23658 -1.29895 2.5 -0.663008 2.5 0 c
2.5 0.663008 2.23658 1.29895 1.76777 1.76777 c
1.29895 2.23658 0.663008 2.5 0 2.5 c
-0.663008 2.5 -1.29895 2.23658 -1.76777 1.76777 c
-2.23658 1.29895 -2.5 0.663008 -2.5 0 c
-2.5 -0.663008 -2.23658 -1.29895 -1.76777 -1.76777 c
-1.29895 -2.23658 -0.663008 -2.5 0 -2.5 c
cl
gsave
0.000 0.500 0.000 setrgbcolor
fill
grestore
stroke
grestore
} bind def
122.58 446.693 o
142.74 446.693 o
grestore
gsave
158.580000 440.027500 translate
0.000000 rotate
0.000000 1.625000 m /s glyphshow
7.489319 1.625000 m /t glyphshow
13.125610 1.625000 m /a glyphshow
21.934509 1.625000 m /t glyphshow
27.570801 1.625000 m /e glyphshow
36.414795 1.625000 m /colon glyphshow
41.257935 1.625000 m /space glyphshow
45.827332 1.625000 m /C glyphshow
55.864563 1.625000 m /h glyphshow
64.975281 1.625000 m /e glyphshow
73.819275 1.625000 m /n glyphshow
82.929993 1.625000 m /one glyphshow
92.075806 1.625000 m /comma glyphshow
96.645203 1.625000 m /space glyphshow
101.214600 1.625000 m /m glyphshow
115.217590 1.625000 m /e glyphshow
124.061584 1.625000 m /a glyphshow
132.870483 1.625000 m /s glyphshow
140.359802 1.625000 m /u glyphshow
149.470520 1.625000 m /r glyphshow
155.005554 1.625000 m /e glyphshow
163.849548 1.625000 m /colon glyphshow
168.692688 1.625000 m /space glyphshow
173.262085 1.625000 m /H glyphshow
184.071411 1.625000 m /i glyphshow
188.065247 1.625000 m /l glyphshow
192.059082 1.625000 m /b glyphshow
201.183838 1.625000 m /e glyphshow
210.027832 1.625000 m /r glyphshow
215.937866 1.625000 m /t glyphshow
221.574158 1.625000 m /hyphen glyphshow
226.761230 1.625000 m /S glyphshow
235.885986 1.625000 m /c glyphshow
243.789429 1.625000 m /h glyphshow
252.900146 1.625000 m /m glyphshow
266.903137 1.625000 m /i glyphshow
270.896973 1.625000 m /d glyphshow
280.021729 1.625000 m /t glyphshow
grestore
1.000 setlinewidth
2 setlinecap
1.000 0.000 0.000 setrgbcolor
gsave
122.58 425.946 m
142.74 425.946 l
stroke
grestore
0.500 setlinewidth
0 setlinecap
0.000 setgray
gsave
/o {
gsave
newpath
translate
0.5 setlinewidth
1 setlinejoin
0 setlinecap
0 -2.5 m
0.663008 -2.5 1.29895 -2.23658 1.76777 -1.76777 c
2.23658 -1.29895 2.5 -0.663008 2.5 0 c
2.5 0.663008 2.23658 1.29895 1.76777 1.76777 c
1.29895 2.23658 0.663008 2.5 0 2.5 c
-0.663008 2.5 -1.29895 2.23658 -1.76777 1.76777 c
-2.23658 1.29895 -2.5 0.663008 -2.5 0 c
-2.5 -0.663008 -2.23658 -1.29895 -1.76777 -1.76777 c
-1.29895 -2.23658 -0.663008 -2.5 0 -2.5 c
cl
gsave
1.000 0.000 0.000 setrgbcolor
fill
grestore
stroke
grestore
} bind def
122.58 425.946 o
142.74 425.946 o
grestore
gsave
158.580000 419.280625 translate
0.000000 rotate
0.000000 1.625000 m /s glyphshow
7.489319 1.625000 m /t glyphshow
13.125610 1.625000 m /a glyphshow
21.934509 1.625000 m /t glyphshow
27.570801 1.625000 m /e glyphshow
36.414795 1.625000 m /colon glyphshow
41.257935 1.625000 m /space glyphshow
45.827332 1.625000 m /C glyphshow
55.864563 1.625000 m /h glyphshow
64.975281 1.625000 m /e glyphshow
73.819275 1.625000 m /n glyphshow
82.929993 1.625000 m /one glyphshow
92.075806 1.625000 m /comma glyphshow
96.645203 1.625000 m /space glyphshow
101.214600 1.625000 m /m glyphshow
115.217590 1.625000 m /e glyphshow
124.061584 1.625000 m /a glyphshow
132.870483 1.625000 m /s glyphshow
140.359802 1.625000 m /u glyphshow
149.470520 1.625000 m /r glyphshow
155.005554 1.625000 m /e glyphshow
163.849548 1.625000 m /colon glyphshow
168.692688 1.625000 m /space glyphshow
173.262085 1.625000 m /c glyphshow
181.165527 1.625000 m /o glyphshow
189.960388 1.625000 m /n glyphshow
199.071106 1.625000 m /c glyphshow
206.974548 1.625000 m /u glyphshow
216.085266 1.625000 m /r glyphshow
221.745300 1.625000 m /r glyphshow
227.280334 1.625000 m /e glyphshow
236.124329 1.625000 m /n glyphshow
245.235046 1.625000 m /c glyphshow
253.138489 1.625000 m /e glyphshow
grestore
1.000 setlinewidth
2 setlinecap
0.000 0.750 0.750 setrgbcolor
gsave
122.58 405.199 m
142.74 405.199 l
stroke
grestore
0.500 setlinewidth
0 setlinecap
0.000 setgray
gsave
/o {
gsave
newpath
translate
0.5 setlinewidth
1 setlinejoin
0 setlinecap
0 -2.5 m
0.663008 -2.5 1.29895 -2.23658 1.76777 -1.76777 c
2.23658 -1.29895 2.5 -0.663008 2.5 0 c
2.5 0.663008 2.23658 1.29895 1.76777 1.76777 c
1.29895 2.23658 0.663008 2.5 0 2.5 c
-0.663008 2.5 -1.29895 2.23658 -1.76777 1.76777 c
-2.23658 1.29895 -2.5 0.663008 -2.5 0 c
-2.5 -0.663008 -2.23658 -1.29895 -1.76777 -1.76777 c
-1.29895 -2.23658 -0.663008 -2.5 0 -2.5 c
cl
gsave
0.000 0.750 0.750 setrgbcolor
fill
grestore
stroke
grestore
} bind def
122.58 405.199 o
142.74 405.199 o
grestore
gsave
158.580000 397.252500 translate
0.000000 rotate
0.000000 2.906250 m /s glyphshow
7.489319 2.906250 m /t glyphshow
13.125610 2.906250 m /a glyphshow
21.934509 2.906250 m /t glyphshow
27.570801 2.906250 m /e glyphshow
36.414795 2.906250 m /colon glyphshow
41.257935 2.906250 m /space glyphshow
45.827332 2.906250 m /C glyphshow
55.864563 2.906250 m /h glyphshow
64.975281 2.906250 m /e glyphshow
73.819275 2.906250 m /n glyphshow
82.929993 2.906250 m /one glyphshow
92.075806 2.906250 m /comma glyphshow
96.645203 2.906250 m /space glyphshow
101.214600 2.906250 m /m glyphshow
115.217590 2.906250 m /e glyphshow
124.061584 2.906250 m /a glyphshow
132.870483 2.906250 m /s glyphshow
140.359802 2.906250 m /u glyphshow
149.470520 2.906250 m /r glyphshow
155.005554 2.906250 m /e glyphshow
163.849548 2.906250 m /colon glyphshow
168.692688 2.906250 m /space glyphshow
173.262085 2.906250 m /e glyphshow
182.106079 2.906250 m /n glyphshow
191.216797 2.906250 m /t glyphshow
196.853088 2.906250 m /r glyphshow
202.388123 2.906250 m /o glyphshow
211.182983 2.906250 m /p glyphshow
220.307739 2.906250 m /y glyphshow
grestore
1.000 setlinewidth
2 setlinecap
0.750 0.000 0.750 setrgbcolor
gsave
122.58 384.452 m
142.74 384.452 l
stroke
grestore
0.500 setlinewidth
0 setlinecap
0.000 setgray
gsave
/o {
gsave
newpath
translate
0.5 setlinewidth
1 setlinejoin
0 setlinecap
0 -2.5 m
0.663008 -2.5 1.29895 -2.23658 1.76777 -1.76777 c
2.23658 -1.29895 2.5 -0.663008 2.5 0 c
2.5 0.663008 2.23658 1.29895 1.76777 1.76777 c
1.29895 2.23658 0.663008 2.5 0 2.5 c
-0.663008 2.5 -1.29895 2.23658 -1.76777 1.76777 c
-2.23658 1.29895 -2.5 0.663008 -2.5 0 c
-2.5 -0.663008 -2.23658 -1.29895 -1.76777 -1.76777 c
-1.29895 -2.23658 -0.663008 -2.5 0 -2.5 c
cl
gsave
0.750 0.000 0.750 setrgbcolor
fill
grestore
stroke
grestore
} bind def
122.58 384.452 o
142.74 384.452 o
grestore
gsave
158.580000 376.505625 translate
0.000000 rotate
0.000000 2.906250 m /s glyphshow
7.489319 2.906250 m /t glyphshow
13.125610 2.906250 m /a glyphshow
21.934509 2.906250 m /t glyphshow
27.570801 2.906250 m /e glyphshow
36.414795 2.906250 m /colon glyphshow
41.257935 2.906250 m /space glyphshow
45.827332 2.906250 m /C glyphshow
55.864563 2.906250 m /h glyphshow
64.975281 2.906250 m /e glyphshow
73.819275 2.906250 m /n glyphshow
82.929993 2.906250 m /one glyphshow
92.075806 2.906250 m /comma glyphshow
96.645203 2.906250 m /space glyphshow
101.214600 2.906250 m /m glyphshow
115.217590 2.906250 m /e glyphshow
124.061584 2.906250 m /a glyphshow
132.870483 2.906250 m /s glyphshow
140.359802 2.906250 m /u glyphshow
149.470520 2.906250 m /r glyphshow
155.005554 2.906250 m /e glyphshow
163.849548 2.906250 m /colon glyphshow
168.692688 2.906250 m /space glyphshow
173.262085 2.906250 m /s glyphshow
180.751404 2.906250 m /u glyphshow
189.862122 2.906250 m /p glyphshow
198.986877 2.906250 m /e glyphshow
207.830872 2.906250 m /r glyphshow
213.740906 2.906250 m /f glyphshow
218.801636 2.906250 m /i glyphshow
222.795471 2.906250 m /d glyphshow
231.920227 2.906250 m /e glyphshow
240.764221 2.906250 m /l glyphshow
244.758057 2.906250 m /i glyphshow
248.751892 2.906250 m /t glyphshow
254.388184 2.906250 m /y glyphshow
grestore

end
showpage
