%!PS-Adobe-3.0 EPSF-3.0
%%Title: ['Chen2.Bures.result', 'Chen2.Hilbert-Schmidt.result', 'Chen2.concurrence.result', 'Chen2.entropy.result', 'Chen2.superfidelity.result'].entanglement.eps
%%Creator: matplotlib version 1.2.1, http://matplotlib.org/
%%CreationDate: Fri Jun 14 14:51:40 2013
%%Orientation: portrait
%%BoundingBox: -115 126 727 666
%%EndComments
%%BeginProlog
/mpldict 10 dict def
mpldict begin
/m { moveto } bind def
/l { lineto } bind def
/r { rlineto } bind def
/c { curveto } bind def
/cl { closepath } bind def
/box {
m
1 index 0 r
0 exch r
neg 0 r
cl
} bind def
/clipbox {
box
clip
newpath
} bind def
%!PS-Adobe-3.0 Resource-Font
%%Title: cmr10
%%Copyright: Copyright (C) 1994, Basil K. Malyshev. All Rights Reserved.012BaKoMa Fonts Collection, Level-B.
%%Creator: Converted from TrueType to type 3 by PPR
25 dict begin
/_d{bind def}bind def
/_m{moveto}_d
/_l{lineto}_d
/_cl{closepath eofill}_d
/_c{curveto}_d
/_sc{7 -1 roll{setcachedevice}{pop pop pop pop pop pop}ifelse}_d
/_e{exec}_d
/FontName /Cmr10 def
/PaintType 0 def
/FontMatrix[.001 0 0 .001 0 0]def
/FontBBox[-44 -250 1009 750]def
/FontType 3 def
/Encoding [ /three ] def
/FontInfo 10 dict dup begin
/FamilyName (cmr10) def
/FullName (cmr10) def
/Notice (Copyright (C) 1994, Basil K. Malyshev. All Rights Reserved.012BaKoMa Fonts Collection, Level-B. ) def
/Weight (Regular) def
/Version (1.1/12-Nov-94) def
/ItalicAngle 0.0 def
/isFixedPitch false def
/UnderlinePosition -133 def
/UnderlineThickness 20 def
end readonly def
/CharStrings 1 dict dup begin
/three{{500 0 42 -21 457 666 _sc
95 77 _m
111 54 132 37 158 26 _c
184 15 213 10 243 10 _c
281 10 309 26 325 59 _c
341 92 350 130 350 172 _c
350 190 348 209 345 228 _c
341 247 335 265 327 281 _c
319 297 308 310 294 320 _c
280 330 262 335 242 335 _c
176 335 _l
170 335 167 338 167 344 _c
167 353 _l
167 358 170 361 176 361 _c
231 365 _l
254 365 273 373 289 391 _c
}_e{305 409 316 430 323 456 _c
330 481 334 505 334 528 _c
334 560 326 586 311 606 _c
296 626 273 637 243 637 _c
217 637 193 632 170 622 _c
147 612 129 598 115 579 _c
116 579 117 580 118 580 _c
119 580 120 580 122 580 _c
137 580 150 574 160 564 _c
170 554 175 541 175 527 _c
175 512 170 499 160 489 _c
150 479 137 474 122 474 _c
107 474 94 479 84 489 _c
}_e{74 499 69 512 69 527 _c
69 555 77 580 95 601 _c
112 622 134 638 161 649 _c
188 660 215 666 243 666 _c
263 666 284 663 307 657 _c
329 651 350 642 368 631 _c
386 619 401 605 413 588 _c
424 570 430 550 430 528 _c
430 500 423 474 411 450 _c
399 426 382 406 360 389 _c
338 371 314 358 288 350 _c
317 344 345 333 371 317 _c
397 301 417 280 433 255 _c
}_e{449 229 457 202 457 173 _c
457 136 446 103 426 73 _c
406 43 379 19 347 3 _c
314 -13 279 -21 243 -21 _c
211 -21 180 -15 149 -3 _c
117 8 92 25 72 49 _c
52 73 42 101 42 135 _c
42 151 47 165 58 176 _c
69 187 83 193 100 193 _c
110 193 120 190 129 185 _c
138 180 145 173 150 164 _c
155 154 158 145 158 135 _c
158 118 152 104 141 93 _c
}_e{129 82 116 77 100 77 _c
95 77 _l
_cl}_e}_d
end readonly def

/BuildGlyph
 {exch begin
 CharStrings exch
 2 copy known not{pop /.notdef}if
 true 3 1 roll get exec
 end}_d

/BuildChar {
 1 index /Encoding get exch get
 1 index /BuildGlyph get exec
}_d

FontName currentdict end definefont pop
%!PS-Adobe-3.0 Resource-Font
%%Title: Bitstream Vera Sans
%%Copyright: Copyright (c) 2003 by Bitstream, Inc. All Rights Reserved.
%%Creator: Converted from TrueType to type 3 by PPR
25 dict begin
/_d{bind def}bind def
/_m{moveto}_d
/_l{lineto}_d
/_cl{closepath eofill}_d
/_c{curveto}_d
/_sc{7 -1 roll{setcachedevice}{pop pop pop pop pop pop}ifelse}_d
/_e{exec}_d
/FontName /BitstreamVeraSans-Roman def
/PaintType 0 def
/FontMatrix[.001 0 0 .001 0 0]def
/FontBBox[-183 -236 1287 928]def
/FontType 3 def
/Encoding [ /space /comma /hyphen /period /zero /one /two /four /six /eight /colon /B /C /E /H /S /a /b /c /d /e /f /g /h /i /l /m /n /o /p /r /s /t /u /y ] def
/FontInfo 10 dict dup begin
/FamilyName (Bitstream Vera Sans) def
/FullName (Bitstream Vera Sans) def
/Notice (Copyright (c) 2003 by Bitstream, Inc. All Rights Reserved. Bitstream Vera is a trademark of Bitstream, Inc.) def
/Weight (Roman) def
/Version (Release 1.10) def
/ItalicAngle 0.0 def
/isFixedPitch false def
/UnderlinePosition -213 def
/UnderlineThickness 143 def
end readonly def
/CharStrings 35 dict dup begin
/space{318 0 0 0 0 0 _sc
}_d
/comma{318 0 77 -115 220 124 _sc
117 124 _m
220 124 _l
220 40 _l
140 -115 _l
77 -115 _l
117 40 _l
117 124 _l
_cl}_d
/hyphen{361 0 49 234 312 314 _sc
49 314 _m
312 314 _l
312 234 _l
49 234 _l
49 314 _l
_cl}_d
/period{318 0 107 0 210 124 _sc
107 124 _m
210 124 _l
210 0 _l
107 0 _l
107 124 _l
_cl}_d
/zero{636 0 66 -13 570 742 _sc
318 664 _m
267 664 229 639 203 589 _c
177 539 165 464 165 364 _c
165 264 177 189 203 139 _c
229 89 267 64 318 64 _c
369 64 407 89 433 139 _c
458 189 471 264 471 364 _c
471 464 458 539 433 589 _c
407 639 369 664 318 664 _c
318 742 _m
399 742 461 709 505 645 _c
548 580 570 486 570 364 _c
570 241 548 147 505 83 _c
461 19 399 -13 318 -13 _c
236 -13 173 19 130 83 _c
87 147 66 241 66 364 _c
66 486 87 580 130 645 _c
173 709 236 742 318 742 _c
_cl}_d
/one{636 0 110 0 544 729 _sc
124 83 _m
285 83 _l
285 639 _l
110 604 _l
110 694 _l
284 729 _l
383 729 _l
383 83 _l
544 83 _l
544 0 _l
124 0 _l
124 83 _l
_cl}_d
/two{{636 0 73 0 536 742 _sc
192 83 _m
536 83 _l
536 0 _l
73 0 _l
73 83 _l
110 121 161 173 226 239 _c
290 304 331 346 348 365 _c
380 400 402 430 414 455 _c
426 479 433 504 433 528 _c
433 566 419 598 392 622 _c
365 646 330 659 286 659 _c
255 659 222 653 188 643 _c
154 632 117 616 78 594 _c
78 694 _l
118 710 155 722 189 730 _c
223 738 255 742 284 742 _c
}_e{359 742 419 723 464 685 _c
509 647 532 597 532 534 _c
532 504 526 475 515 449 _c
504 422 484 390 454 354 _c
446 344 420 317 376 272 _c
332 227 271 164 192 83 _c
_cl}_e}_d
/four{636 0 49 0 580 729 _sc
378 643 _m
129 254 _l
378 254 _l
378 643 _l
352 729 _m
476 729 _l
476 254 _l
580 254 _l
580 172 _l
476 172 _l
476 0 _l
378 0 _l
378 172 _l
49 172 _l
49 267 _l
352 729 _l
_cl}_d
/six{{636 0 70 -13 573 742 _sc
330 404 _m
286 404 251 388 225 358 _c
199 328 186 286 186 234 _c
186 181 199 139 225 109 _c
251 79 286 64 330 64 _c
374 64 409 79 435 109 _c
461 139 474 181 474 234 _c
474 286 461 328 435 358 _c
409 388 374 404 330 404 _c
526 713 _m
526 623 _l
501 635 476 644 451 650 _c
425 656 400 659 376 659 _c
310 659 260 637 226 593 _c
}_e{192 549 172 482 168 394 _c
187 422 211 444 240 459 _c
269 474 301 482 336 482 _c
409 482 467 459 509 415 _c
551 371 573 310 573 234 _c
573 159 550 99 506 54 _c
462 9 403 -13 330 -13 _c
246 -13 181 19 137 83 _c
92 147 70 241 70 364 _c
70 479 97 571 152 639 _c
206 707 280 742 372 742 _c
396 742 421 739 447 735 _c
472 730 498 723 526 713 _c
_cl}_e}_d
/eight{{636 0 68 -13 568 742 _sc
318 346 _m
271 346 234 333 207 308 _c
180 283 167 249 167 205 _c
167 161 180 126 207 101 _c
234 76 271 64 318 64 _c
364 64 401 76 428 102 _c
455 127 469 161 469 205 _c
469 249 455 283 429 308 _c
402 333 365 346 318 346 _c
219 388 _m
177 398 144 418 120 447 _c
96 476 85 511 85 553 _c
85 611 105 657 147 691 _c
188 725 245 742 318 742 _c
}_e{390 742 447 725 489 691 _c
530 657 551 611 551 553 _c
551 511 539 476 515 447 _c
491 418 459 398 417 388 _c
464 377 501 355 528 323 _c
554 291 568 251 568 205 _c
568 134 546 80 503 43 _c
459 5 398 -13 318 -13 _c
237 -13 175 5 132 43 _c
89 80 68 134 68 205 _c
68 251 81 291 108 323 _c
134 355 171 377 219 388 _c
183 544 _m
183 506 194 476 218 455 _c
}_e{242 434 275 424 318 424 _c
360 424 393 434 417 455 _c
441 476 453 506 453 544 _c
453 582 441 611 417 632 _c
393 653 360 664 318 664 _c
275 664 242 653 218 632 _c
194 611 183 582 183 544 _c
_cl}_e}_d
/colon{337 0 117 0 220 517 _sc
117 124 _m
220 124 _l
220 0 _l
117 0 _l
117 124 _l
117 517 _m
220 517 _l
220 393 _l
117 393 _l
117 517 _l
_cl}_d
/B{{686 0 98 0 615 729 _sc
197 348 _m
197 81 _l
355 81 _l
408 81 447 92 473 114 _c
498 136 511 169 511 215 _c
511 260 498 293 473 315 _c
447 337 408 348 355 348 _c
197 348 _l
197 648 _m
197 428 _l
343 428 _l
391 428 426 437 450 455 _c
474 473 486 500 486 538 _c
486 574 474 602 450 620 _c
426 638 391 648 343 648 _c
197 648 _l
98 729 _m
350 729 _l
}_e{425 729 483 713 524 682 _c
564 650 585 606 585 549 _c
585 504 574 468 553 442 _c
532 416 502 399 462 393 _c
510 382 548 360 575 327 _c
601 294 615 253 615 204 _c
615 138 592 88 548 53 _c
504 17 441 0 360 0 _c
98 0 _l
98 729 _l
_cl}_e}_d
/C{{698 0 56 -13 644 742 _sc
644 673 _m
644 569 _l
610 599 575 622 537 638 _c
499 653 460 661 418 661 _c
334 661 270 635 226 584 _c
182 533 160 460 160 364 _c
160 268 182 194 226 143 _c
270 92 334 67 418 67 _c
460 67 499 74 537 90 _c
575 105 610 128 644 159 _c
644 56 _l
609 32 572 15 534 4 _c
496 -7 455 -13 412 -13 _c
302 -13 215 20 151 87 _c
}_e{87 154 56 246 56 364 _c
56 481 87 573 151 641 _c
215 708 302 742 412 742 _c
456 742 497 736 535 725 _c
573 713 610 696 644 673 _c
_cl}_e}_d
/E{632 0 98 0 568 729 _sc
98 729 _m
559 729 _l
559 646 _l
197 646 _l
197 430 _l
544 430 _l
544 347 _l
197 347 _l
197 83 _l
568 83 _l
568 0 _l
98 0 _l
98 729 _l
_cl}_d
/H{752 0 98 0 654 729 _sc
98 729 _m
197 729 _l
197 430 _l
555 430 _l
555 729 _l
654 729 _l
654 0 _l
555 0 _l
555 347 _l
197 347 _l
197 0 _l
98 0 _l
98 729 _l
_cl}_d
/S{{635 0 66 -13 579 742 _sc
535 705 _m
535 609 _l
497 627 462 640 429 649 _c
395 657 363 662 333 662 _c
279 662 237 651 208 631 _c
179 610 165 580 165 542 _c
165 510 174 485 194 469 _c
213 452 250 439 304 429 _c
364 417 _l
437 403 491 378 526 343 _c
561 307 579 260 579 201 _c
579 130 555 77 508 41 _c
460 5 391 -13 300 -13 _c
265 -13 228 -9 189 -2 _c
}_e{150 5 110 16 69 32 _c
69 134 _l
109 111 148 94 186 83 _c
224 71 262 66 300 66 _c
356 66 399 77 430 99 _c
460 121 476 152 476 194 _c
476 230 465 258 443 278 _c
421 298 385 313 335 323 _c
275 335 _l
201 349 148 372 115 404 _c
82 435 66 478 66 534 _c
66 598 88 649 134 686 _c
179 723 242 742 322 742 _c
356 742 390 739 426 733 _c
461 727 497 717 535 705 _c
}_e{_cl}_e}_d
/a{{613 0 60 -13 522 560 _sc
343 275 _m
270 275 220 266 192 250 _c
164 233 150 205 150 165 _c
150 133 160 107 181 89 _c
202 70 231 61 267 61 _c
317 61 357 78 387 114 _c
417 149 432 196 432 255 _c
432 275 _l
343 275 _l
522 312 _m
522 0 _l
432 0 _l
432 83 _l
411 49 385 25 355 10 _c
325 -5 287 -13 243 -13 _c
187 -13 142 2 109 33 _c
76 64 60 106 60 159 _c
}_e{60 220 80 266 122 298 _c
163 329 224 345 306 345 _c
432 345 _l
432 354 _l
432 395 418 427 391 450 _c
364 472 326 484 277 484 _c
245 484 215 480 185 472 _c
155 464 127 453 100 439 _c
100 522 _l
132 534 164 544 195 550 _c
226 556 256 560 286 560 _c
365 560 424 539 463 498 _c
502 457 522 395 522 312 _c
_cl}_e}_d
/b{{635 0 91 -13 580 760 _sc
487 273 _m
487 339 473 390 446 428 _c
418 466 381 485 334 485 _c
286 485 249 466 222 428 _c
194 390 181 339 181 273 _c
181 207 194 155 222 117 _c
249 79 286 61 334 61 _c
381 61 418 79 446 117 _c
473 155 487 207 487 273 _c
181 464 _m
199 496 223 520 252 536 _c
281 552 316 560 356 560 _c
422 560 476 533 518 481 _c
559 428 580 359 580 273 _c
}_e{580 187 559 117 518 65 _c
476 13 422 -13 356 -13 _c
316 -13 281 -5 252 10 _c
223 25 199 49 181 82 _c
181 0 _l
91 0 _l
91 760 _l
181 760 _l
181 464 _l
_cl}_e}_d
/c{{550 0 55 -13 488 560 _sc
488 526 _m
488 442 _l
462 456 437 466 411 473 _c
385 480 360 484 334 484 _c
276 484 230 465 198 428 _c
166 391 150 339 150 273 _c
150 206 166 154 198 117 _c
230 80 276 62 334 62 _c
360 62 385 65 411 72 _c
437 79 462 90 488 104 _c
488 21 _l
462 9 436 0 410 -5 _c
383 -10 354 -13 324 -13 _c
242 -13 176 12 128 64 _c
}_e{79 115 55 185 55 273 _c
55 362 79 432 128 483 _c
177 534 244 560 330 560 _c
358 560 385 557 411 551 _c
437 545 463 537 488 526 _c
_cl}_e}_d
/d{{635 0 55 -13 544 760 _sc
454 464 _m
454 760 _l
544 760 _l
544 0 _l
454 0 _l
454 82 _l
435 49 411 25 382 10 _c
353 -5 319 -13 279 -13 _c
213 -13 159 13 117 65 _c
75 117 55 187 55 273 _c
55 359 75 428 117 481 _c
159 533 213 560 279 560 _c
319 560 353 552 382 536 _c
411 520 435 496 454 464 _c
148 273 _m
148 207 161 155 188 117 _c
215 79 253 61 301 61 _c
}_e{348 61 385 79 413 117 _c
440 155 454 207 454 273 _c
454 339 440 390 413 428 _c
385 466 348 485 301 485 _c
253 485 215 466 188 428 _c
161 390 148 339 148 273 _c
_cl}_e}_d
/e{{615 0 55 -13 562 560 _sc
562 296 _m
562 252 _l
149 252 _l
153 190 171 142 205 110 _c
238 78 284 62 344 62 _c
378 62 412 66 444 74 _c
476 82 509 95 541 113 _c
541 28 _l
509 14 476 3 442 -3 _c
408 -9 373 -13 339 -13 _c
251 -13 182 12 131 62 _c
80 112 55 181 55 268 _c
55 357 79 428 127 481 _c
175 533 241 560 323 560 _c
397 560 455 536 498 489 _c
}_e{540 441 562 377 562 296 _c
472 322 _m
471 371 457 410 431 440 _c
404 469 368 484 324 484 _c
274 484 234 469 204 441 _c
174 413 156 373 152 322 _c
472 322 _l
_cl}_e}_d
/f{352 0 23 0 371 760 _sc
371 760 _m
371 685 _l
285 685 _l
253 685 230 678 218 665 _c
205 652 199 629 199 595 _c
199 547 _l
347 547 _l
347 477 _l
199 477 _l
199 0 _l
109 0 _l
109 477 _l
23 477 _l
23 547 _l
109 547 _l
109 585 _l
109 645 123 690 151 718 _c
179 746 224 760 286 760 _c
371 760 _l
_cl}_d
/g{{635 0 55 -207 544 560 _sc
454 280 _m
454 344 440 395 414 431 _c
387 467 349 485 301 485 _c
253 485 215 467 188 431 _c
161 395 148 344 148 280 _c
148 215 161 165 188 129 _c
215 93 253 75 301 75 _c
349 75 387 93 414 129 _c
440 165 454 215 454 280 _c
544 68 _m
544 -24 523 -93 482 -139 _c
440 -184 377 -207 292 -207 _c
260 -207 231 -204 203 -200 _c
175 -195 147 -188 121 -178 _c
}_e{121 -91 _l
147 -105 173 -115 199 -122 _c
225 -129 251 -133 278 -133 _c
336 -133 380 -117 410 -87 _c
439 -56 454 -10 454 52 _c
454 96 _l
435 64 411 40 382 24 _c
353 8 319 0 279 0 _c
211 0 157 25 116 76 _c
75 127 55 195 55 280 _c
55 364 75 432 116 483 _c
157 534 211 560 279 560 _c
319 560 353 552 382 536 _c
411 520 435 496 454 464 _c
454 547 _l
544 547 _l
}_e{544 68 _l
_cl}_e}_d
/h{634 0 91 0 549 760 _sc
549 330 _m
549 0 _l
459 0 _l
459 327 _l
459 379 448 417 428 443 _c
408 469 378 482 338 482 _c
289 482 251 466 223 435 _c
195 404 181 362 181 309 _c
181 0 _l
91 0 _l
91 760 _l
181 760 _l
181 462 _l
202 494 227 519 257 535 _c
286 551 320 560 358 560 _c
420 560 468 540 500 501 _c
532 462 549 405 549 330 _c
_cl}_d
/i{278 0 94 0 184 760 _sc
94 547 _m
184 547 _l
184 0 _l
94 0 _l
94 547 _l
94 760 _m
184 760 _l
184 646 _l
94 646 _l
94 760 _l
_cl}_d
/l{278 0 94 0 184 760 _sc
94 760 _m
184 760 _l
184 0 _l
94 0 _l
94 760 _l
_cl}_d
/m{{974 0 91 0 889 560 _sc
520 442 _m
542 482 569 511 600 531 _c
631 550 668 560 711 560 _c
767 560 811 540 842 500 _c
873 460 889 403 889 330 _c
889 0 _l
799 0 _l
799 327 _l
799 379 789 418 771 444 _c
752 469 724 482 686 482 _c
639 482 602 466 575 435 _c
548 404 535 362 535 309 _c
535 0 _l
445 0 _l
445 327 _l
445 379 435 418 417 444 _c
398 469 369 482 331 482 _c
}_e{285 482 248 466 221 435 _c
194 404 181 362 181 309 _c
181 0 _l
91 0 _l
91 547 _l
181 547 _l
181 462 _l
201 495 226 520 255 536 _c
283 552 317 560 357 560 _c
397 560 430 550 458 530 _c
486 510 506 480 520 442 _c
_cl}_e}_d
/n{634 0 91 0 549 560 _sc
549 330 _m
549 0 _l
459 0 _l
459 327 _l
459 379 448 417 428 443 _c
408 469 378 482 338 482 _c
289 482 251 466 223 435 _c
195 404 181 362 181 309 _c
181 0 _l
91 0 _l
91 547 _l
181 547 _l
181 462 _l
202 494 227 519 257 535 _c
286 551 320 560 358 560 _c
420 560 468 540 500 501 _c
532 462 549 405 549 330 _c
_cl}_d
/o{612 0 55 -13 557 560 _sc
306 484 _m
258 484 220 465 192 427 _c
164 389 150 338 150 273 _c
150 207 163 156 191 118 _c
219 80 257 62 306 62 _c
354 62 392 80 420 118 _c
448 156 462 207 462 273 _c
462 337 448 389 420 427 _c
392 465 354 484 306 484 _c
306 560 _m
384 560 445 534 490 484 _c
534 433 557 363 557 273 _c
557 183 534 113 490 63 _c
445 12 384 -13 306 -13 _c
227 -13 165 12 121 63 _c
77 113 55 183 55 273 _c
55 363 77 433 121 484 _c
165 534 227 560 306 560 _c
_cl}_d
/p{{635 0 91 -207 580 560 _sc
181 82 _m
181 -207 _l
91 -207 _l
91 547 _l
181 547 _l
181 464 _l
199 496 223 520 252 536 _c
281 552 316 560 356 560 _c
422 560 476 533 518 481 _c
559 428 580 359 580 273 _c
580 187 559 117 518 65 _c
476 13 422 -13 356 -13 _c
316 -13 281 -5 252 10 _c
223 25 199 49 181 82 _c
487 273 _m
487 339 473 390 446 428 _c
418 466 381 485 334 485 _c
}_e{286 485 249 466 222 428 _c
194 390 181 339 181 273 _c
181 207 194 155 222 117 _c
249 79 286 61 334 61 _c
381 61 418 79 446 117 _c
473 155 487 207 487 273 _c
_cl}_e}_d
/r{411 0 91 0 411 560 _sc
411 463 _m
401 469 390 473 378 476 _c
366 478 353 480 339 480 _c
288 480 249 463 222 430 _c
194 397 181 350 181 288 _c
181 0 _l
91 0 _l
91 547 _l
181 547 _l
181 462 _l
199 495 224 520 254 536 _c
284 552 321 560 365 560 _c
371 560 378 559 386 559 _c
393 558 401 557 411 555 _c
411 463 _l
_cl}_d
/s{{521 0 54 -13 472 560 _sc
443 531 _m
443 446 _l
417 458 391 468 364 475 _c
336 481 308 485 279 485 _c
234 485 200 478 178 464 _c
156 450 145 430 145 403 _c
145 382 153 366 169 354 _c
185 342 217 330 265 320 _c
296 313 _l
360 299 405 279 432 255 _c
458 230 472 195 472 151 _c
472 100 452 60 412 31 _c
372 1 316 -13 246 -13 _c
216 -13 186 -10 154 -5 _c
}_e{122 0 89 8 54 20 _c
54 113 _l
87 95 120 82 152 74 _c
184 65 216 61 248 61 _c
290 61 323 68 346 82 _c
368 96 380 117 380 144 _c
380 168 371 187 355 200 _c
339 213 303 226 247 238 _c
216 245 _l
160 257 119 275 95 299 _c
70 323 58 356 58 399 _c
58 450 76 490 112 518 _c
148 546 200 560 268 560 _c
301 560 332 557 362 552 _c
391 547 418 540 443 531 _c
}_e{_cl}_e}_d
/t{392 0 27 0 368 702 _sc
183 702 _m
183 547 _l
368 547 _l
368 477 _l
183 477 _l
183 180 _l
183 135 189 106 201 94 _c
213 81 238 75 276 75 _c
368 75 _l
368 0 _l
276 0 _l
206 0 158 13 132 39 _c
106 65 93 112 93 180 _c
93 477 _l
27 477 _l
27 547 _l
93 547 _l
93 702 _l
183 702 _l
_cl}_d
/u{634 0 85 -13 543 547 _sc
85 216 _m
85 547 _l
175 547 _l
175 219 _l
175 167 185 129 205 103 _c
225 77 255 64 296 64 _c
344 64 383 79 411 110 _c
439 141 453 183 453 237 _c
453 547 _l
543 547 _l
543 0 _l
453 0 _l
453 84 _l
431 50 405 26 377 10 _c
348 -5 315 -13 277 -13 _c
214 -13 166 6 134 45 _c
101 83 85 140 85 216 _c
_cl}_d
/y{592 0 30 -207 562 547 _sc
322 -50 _m
296 -114 271 -157 247 -177 _c
223 -197 191 -207 151 -207 _c
79 -207 _l
79 -132 _l
132 -132 _l
156 -132 175 -126 189 -114 _c
203 -102 218 -75 235 -31 _c
251 9 _l
30 547 _l
125 547 _l
296 119 _l
467 547 _l
562 547 _l
322 -50 _l
_cl}_d
end readonly def

/BuildGlyph
 {exch begin
 CharStrings exch
 2 copy known not{pop /.notdef}if
 true 3 1 roll get exec
 end}_d

/BuildChar {
 1 index /Encoding get exch get
 1 index /BuildGlyph get exec
}_d

FontName currentdict end definefont pop
%!PS-Adobe-3.0 Resource-Font
%%Title: cmmi10
%%Copyright: Copyright (C) 1994, Basil K. Malyshev. All Rights Reserved.012BaKoMa Fonts Collection, Level-B.
%%Creator: Converted from TrueType to type 3 by PPR
25 dict begin
/_d{bind def}bind def
/_m{moveto}_d
/_l{lineto}_d
/_cl{closepath eofill}_d
/_c{curveto}_d
/_sc{7 -1 roll{setcachedevice}{pop pop pop pop pop pop}ifelse}_d
/_e{exec}_d
/FontName /Cmmi10 def
/PaintType 0 def
/FontMatrix[.001 0 0 .001 0 0]def
/FontBBox[-34 -250 1048 750]def
/FontType 3 def
/Encoding [ /lambda ] def
/FontInfo 10 dict dup begin
/FamilyName (cmmi10) def
/FullName (cmmi10) def
/Notice (Copyright (C) 1994, Basil K. Malyshev. All Rights Reserved.012BaKoMa Fonts Collection, Level-B. ) def
/Weight (Regular) def
/Version (1.1/12-Nov-94) def
/ItalicAngle 0.0 def
/isFixedPitch false def
/UnderlinePosition -133 def
/UnderlineThickness 20 def
end readonly def
/CharStrings 1 dict dup begin
/lambda{{583 0 51 -12 550 694 _sc
51 17 _m
51 27 55 36 64 45 _c
345 321 _l
246 599 _l
238 620 229 637 221 649 _c
212 661 200 668 184 668 _c
176 668 173 672 173 681 _c
173 685 175 688 178 690 _c
180 692 184 694 188 694 _c
258 694 300 673 315 632 _c
518 65 _l
526 36 535 17 545 8 _c
548 2 550 0 550 -1 _c
550 -7 547 -10 542 -10 _c
488 -10 _l
471 -5 458 8 448 32 _c
}_e{357 288 _l
115 4 _l
103 -6 92 -12 83 -12 _c
74 -12 66 -9 60 -4 _c
54 1 51 8 51 17 _c
_cl}_e}_d
end readonly def

/BuildGlyph
 {exch begin
 CharStrings exch
 2 copy known not{pop /.notdef}if
 true 3 1 roll get exec
 end}_d

/BuildChar {
 1 index /Encoding get exch get
 1 index /BuildGlyph get exec
}_d

FontName currentdict end definefont pop
end
%%EndProlog
mpldict begin
-115.2 126 translate
842.4 540 0 0 clipbox
gsave
0 0 m
842.4 0 l
842.4 540 l
0 540 l
cl
1.000 setgray
fill
grestore
gsave
105.3 54 m
758.16 54 l
758.16 486 l
105.3 486 l
cl
1.000 setgray
fill
grestore
1.000 setlinewidth
1 setlinejoin
2 setlinecap
[] 0 setdash
0.000 0.000 1.000 setrgbcolor
gsave
652.9 432 105.3 54 clipbox
105.3 54.0025 m
111.829 58.7038 l
118.357 59.8292 l
124.886 62.6764 l
131.414 65.5878 l
137.943 55.1023 l
144.472 55.2259 l
151 55.2551 l
157.529 54.8556 l
164.057 54.9131 l
170.586 54.973 l
177.115 55.2707 l
183.643 55.3989 l
190.172 55.3298 l
196.7 54.3467 l
203.229 54.2525 l
209.758 54.4935 l
216.286 54.478 l
222.815 54.4575 l
229.343 54.2109 l
235.872 54.2748 l
242.401 54.1546 l
248.929 54.0713 l
255.458 54.0678 l
261.986 54.0473 l
268.515 54.0304 l
275.044 54.0602 l
281.572 54.1052 l
288.101 54.0453 l
294.629 54.0921 l
301.158 54.0278 l
307.687 54.0547 l
314.215 54.0359 l
320.744 54.0604 l
327.272 54.0805 l
333.801 54.0628 l
340.33 54.0179 l
346.858 54.0594 l
353.387 54.0901 l
359.915 54.061 l
366.444 54.088 l
372.973 54.0288 l
379.501 54.1084 l
386.03 54.398 l
392.558 56.2583 l
399.087 56.8227 l
405.616 61.9032 l
412.144 66.9864 l
418.673 72.0735 l
425.201 77.1663 l
431.73 82.2661 l
438.259 87.3746 l
444.787 92.4935 l
451.316 97.6243 l
457.844 102.769 l
464.373 107.929 l
470.902 113.106 l
477.43 118.302 l
483.959 123.519 l
490.487 128.759 l
497.016 134.025 l
503.545 139.317 l
510.073 144.638 l
516.602 149.991 l
523.13 155.379 l
529.659 160.803 l
536.188 166.267 l
542.716 171.773 l
549.245 177.324 l
555.773 182.925 l
562.302 188.578 l
568.831 194.287 l
575.359 200.056 l
581.888 205.891 l
588.416 211.795 l
594.945 217.773 l
601.474 223.833 l
608.002 229.98 l
614.531 236.22 l
621.059 242.563 l
627.588 249.016 l
634.117 255.59 l
640.645 262.296 l
647.174 269.145 l
653.702 276.153 l
660.231 283.337 l
666.76 290.716 l
673.288 298.313 l
679.817 306.156 l
686.345 314.279 l
692.874 322.722 l
699.403 331.539 l
705.931 340.795 l
712.46 350.58 l
718.988 361.017 l
725.517 372.28 l
732.046 384.639 l
738.574 398.551 l
745.103 414.901 l
751.631 435.986 l
758.16 486 l
stroke
grestore
0.500 setlinewidth
0 setlinecap
0.000 setgray
gsave
652.9 432 105.3 54 clipbox
/o {
gsave
newpath
translate
0.5 setlinewidth
1 setlinejoin
0 setlinecap
0 -2.5 m
0.663008 -2.5 1.29895 -2.23658 1.76777 -1.76777 c
2.23658 -1.29895 2.5 -0.663008 2.5 0 c
2.5 0.663008 2.23658 1.29895 1.76777 1.76777 c
1.29895 2.23658 0.663008 2.5 0 2.5 c
-0.663008 2.5 -1.29895 2.23658 -1.76777 1.76777 c
-2.23658 1.29895 -2.5 0.663008 -2.5 0 c
-2.5 -0.663008 -2.23658 -1.29895 -1.76777 -1.76777 c
-1.29895 -2.23658 -0.663008 -2.5 0 -2.5 c
cl
gsave
0.000 0.000 1.000 setrgbcolor
fill
grestore
stroke
grestore
} bind def
105.3 54.0025 o
111.829 58.7038 o
118.357 59.8292 o
124.886 62.6764 o
131.414 65.5878 o
137.943 55.1023 o
144.472 55.2259 o
151 55.2551 o
157.529 54.8556 o
164.057 54.9131 o
170.586 54.973 o
177.115 55.2707 o
183.643 55.3989 o
190.172 55.3298 o
196.7 54.3467 o
203.229 54.2525 o
209.758 54.4935 o
216.286 54.478 o
222.815 54.4575 o
229.343 54.2109 o
235.872 54.2748 o
242.401 54.1546 o
248.929 54.0713 o
255.458 54.0678 o
261.986 54.0473 o
268.515 54.0304 o
275.044 54.0602 o
281.572 54.1052 o
288.101 54.0453 o
294.629 54.0921 o
301.158 54.0278 o
307.687 54.0547 o
314.215 54.0359 o
320.744 54.0604 o
327.272 54.0805 o
333.801 54.0628 o
340.33 54.0179 o
346.858 54.0594 o
353.387 54.0901 o
359.915 54.061 o
366.444 54.088 o
372.973 54.0288 o
379.501 54.1084 o
386.03 54.398 o
392.558 56.2583 o
399.087 56.8227 o
405.616 61.9032 o
412.144 66.9864 o
418.673 72.0735 o
425.201 77.1663 o
431.73 82.2661 o
438.259 87.3746 o
444.787 92.4935 o
451.316 97.6243 o
457.844 102.769 o
464.373 107.929 o
470.902 113.106 o
477.43 118.302 o
483.959 123.519 o
490.487 128.759 o
497.016 134.025 o
503.545 139.317 o
510.073 144.638 o
516.602 149.991 o
523.13 155.379 o
529.659 160.803 o
536.188 166.267 o
542.716 171.773 o
549.245 177.324 o
555.773 182.925 o
562.302 188.578 o
568.831 194.287 o
575.359 200.056 o
581.888 205.891 o
588.416 211.795 o
594.945 217.773 o
601.474 223.833 o
608.002 229.98 o
614.531 236.22 o
621.059 242.563 o
627.588 249.016 o
634.117 255.59 o
640.645 262.296 o
647.174 269.145 o
653.702 276.153 o
660.231 283.337 o
666.76 290.716 o
673.288 298.313 o
679.817 306.156 o
686.345 314.279 o
692.874 322.722 o
699.403 331.539 o
705.931 340.795 o
712.46 350.58 o
718.988 361.017 o
725.517 372.28 o
732.046 384.639 o
738.574 398.551 o
745.103 414.901 o
751.631 435.986 o
758.16 486 o
grestore
1.000 setlinewidth
2 setlinecap
0.000 0.500 0.000 setrgbcolor
gsave
652.9 432 105.3 54 clipbox
105.3 54.2314 m
111.829 58.796 l
118.357 61.1334 l
124.886 58.5245 l
131.414 59.2309 l
137.943 60.6275 l
144.472 60.8845 l
151 57.0946 l
157.529 57.0431 l
164.057 56.9249 l
170.586 57.0314 l
177.115 56.8743 l
183.643 56.5428 l
190.172 56.9599 l
196.7 56.7101 l
203.229 56.5634 l
209.758 56.8798 l
216.286 56.9849 l
222.815 57.3465 l
229.343 56.1445 l
235.872 56.6492 l
242.401 56.3396 l
248.929 56.2083 l
255.458 56.3694 l
261.986 56.4624 l
268.515 56.4837 l
275.044 56.3463 l
281.572 56.2276 l
288.101 56.3805 l
294.629 56.5013 l
301.158 58.658 l
307.687 57.8196 l
314.215 57.5114 l
320.744 57.799 l
327.272 57.4772 l
333.801 57.6951 l
340.33 57.8871 l
346.858 57.9595 l
353.387 57.8375 l
359.915 57.7115 l
366.444 56.9474 l
372.973 56.6748 l
379.501 56.3966 l
386.03 55.8486 l
392.558 56.2904 l
399.087 57.8003 l
405.616 63.9599 l
412.144 70.3463 l
418.673 76.7708 l
425.201 83.3506 l
431.73 89.9841 l
438.259 96.7026 l
444.787 103.619 l
451.316 110.46 l
457.844 117.383 l
464.373 124.403 l
470.902 131.375 l
477.43 138.53 l
483.959 145.748 l
490.487 153.028 l
497.016 160.367 l
503.545 167.764 l
510.073 175.217 l
516.602 182.723 l
523.13 190.282 l
529.659 197.891 l
536.188 205.549 l
542.716 213.255 l
549.245 221.005 l
555.773 228.801 l
562.302 236.639 l
568.831 244.518 l
575.359 252.435 l
581.888 260.392 l
588.416 268.386 l
594.945 276.417 l
601.474 284.482 l
608.002 292.582 l
614.531 300.712 l
621.059 308.874 l
627.588 317.069 l
634.117 325.29 l
640.645 333.543 l
647.174 341.819 l
653.702 350.124 l
660.231 358.454 l
666.76 366.809 l
673.288 375.189 l
679.817 383.592 l
686.345 392.019 l
692.874 400.466 l
699.403 408.935 l
705.931 417.427 l
712.46 425.936 l
718.988 434.465 l
725.517 443.009 l
732.046 451.572 l
738.574 460.154 l
745.103 468.755 l
751.631 477.371 l
758.16 486.002 l
stroke
grestore
0.500 setlinewidth
0 setlinecap
0.000 setgray
gsave
652.9 432 105.3 54 clipbox
/o {
gsave
newpath
translate
0.5 setlinewidth
1 setlinejoin
0 setlinecap
0 -2.5 m
0.663008 -2.5 1.29895 -2.23658 1.76777 -1.76777 c
2.23658 -1.29895 2.5 -0.663008 2.5 0 c
2.5 0.663008 2.23658 1.29895 1.76777 1.76777 c
1.29895 2.23658 0.663008 2.5 0 2.5 c
-0.663008 2.5 -1.29895 2.23658 -1.76777 1.76777 c
-2.23658 1.29895 -2.5 0.663008 -2.5 0 c
-2.5 -0.663008 -2.23658 -1.29895 -1.76777 -1.76777 c
-1.29895 -2.23658 -0.663008 -2.5 0 -2.5 c
cl
gsave
0.000 0.500 0.000 setrgbcolor
fill
grestore
stroke
grestore
} bind def
105.3 54.2314 o
111.829 58.796 o
118.357 61.1334 o
124.886 58.5245 o
131.414 59.2309 o
137.943 60.6275 o
144.472 60.8845 o
151 57.0946 o
157.529 57.0431 o
164.057 56.9249 o
170.586 57.0314 o
177.115 56.8743 o
183.643 56.5428 o
190.172 56.9599 o
196.7 56.7101 o
203.229 56.5634 o
209.758 56.8798 o
216.286 56.9849 o
222.815 57.3465 o
229.343 56.1445 o
235.872 56.6492 o
242.401 56.3396 o
248.929 56.2083 o
255.458 56.3694 o
261.986 56.4624 o
268.515 56.4837 o
275.044 56.3463 o
281.572 56.2276 o
288.101 56.3805 o
294.629 56.5013 o
301.158 58.658 o
307.687 57.8196 o
314.215 57.5114 o
320.744 57.799 o
327.272 57.4772 o
333.801 57.6951 o
340.33 57.8871 o
346.858 57.9595 o
353.387 57.8375 o
359.915 57.7115 o
366.444 56.9474 o
372.973 56.6748 o
379.501 56.3966 o
386.03 55.8486 o
392.558 56.2904 o
399.087 57.8003 o
405.616 63.9599 o
412.144 70.3463 o
418.673 76.7708 o
425.201 83.3506 o
431.73 89.9841 o
438.259 96.7026 o
444.787 103.619 o
451.316 110.46 o
457.844 117.383 o
464.373 124.403 o
470.902 131.375 o
477.43 138.53 o
483.959 145.748 o
490.487 153.028 o
497.016 160.367 o
503.545 167.764 o
510.073 175.217 o
516.602 182.723 o
523.13 190.282 o
529.659 197.891 o
536.188 205.549 o
542.716 213.255 o
549.245 221.005 o
555.773 228.801 o
562.302 236.639 o
568.831 244.518 o
575.359 252.435 o
581.888 260.392 o
588.416 268.386 o
594.945 276.417 o
601.474 284.482 o
608.002 292.582 o
614.531 300.712 o
621.059 308.874 o
627.588 317.069 o
634.117 325.29 o
640.645 333.543 o
647.174 341.819 o
653.702 350.124 o
660.231 358.454 o
666.76 366.809 o
673.288 375.189 o
679.817 383.592 o
686.345 392.019 o
692.874 400.466 o
699.403 408.935 o
705.931 417.427 o
712.46 425.936 o
718.988 434.465 o
725.517 443.009 o
732.046 451.572 o
738.574 460.154 o
745.103 468.755 o
751.631 477.371 o
758.16 486.002 o
grestore
1.000 setlinewidth
2 setlinecap
1.000 0.000 0.000 setrgbcolor
gsave
652.9 432 105.3 54 clipbox
105.3 54 m
111.829 54 l
118.357 54 l
124.886 54 l
131.414 54 l
137.943 54 l
144.472 54 l
151 54 l
157.529 54 l
164.057 54 l
170.586 54 l
177.115 54 l
183.643 54 l
190.172 54 l
196.7 54 l
203.229 54 l
209.758 54 l
216.286 54 l
222.815 54 l
229.343 54 l
235.872 54 l
242.401 54 l
248.929 54 l
255.458 54 l
261.986 54 l
268.515 54 l
275.044 54 l
281.572 54 l
288.101 54 l
294.629 54 l
301.158 54 l
307.687 54 l
314.215 54 l
320.744 54 l
327.272 54 l
333.801 54 l
340.33 54 l
346.858 54 l
353.387 54 l
359.915 54 l
366.444 54 l
372.973 54 l
379.501 54 l
386.03 54 l
392.558 54 l
399.087 54.1807 l
405.616 55.1652 l
412.144 56.8183 l
418.673 59.0358 l
425.201 61.751 l
431.73 64.915 l
438.259 68.4891 l
444.787 72.4419 l
451.316 76.7464 l
457.844 81.3799 l
464.373 86.3221 l
470.902 91.5553 l
477.43 97.0636 l
483.959 102.833 l
490.487 108.85 l
497.016 115.102 l
503.545 121.58 l
510.073 128.273 l
516.602 135.172 l
523.13 142.268 l
529.659 149.554 l
536.188 157.021 l
542.716 164.664 l
549.245 172.475 l
555.773 180.448 l
562.302 188.578 l
568.831 196.859 l
575.359 205.286 l
581.888 213.854 l
588.416 222.56 l
594.945 231.397 l
601.474 240.363 l
608.002 249.453 l
614.531 258.663 l
621.059 267.991 l
627.588 277.432 l
634.117 286.983 l
640.645 296.642 l
647.174 306.405 l
653.702 316.27 l
660.231 326.234 l
666.76 336.293 l
673.288 346.447 l
679.817 356.692 l
686.345 367.025 l
692.874 377.446 l
699.403 387.952 l
705.931 398.54 l
712.46 409.209 l
718.988 419.956 l
725.517 430.781 l
732.046 441.681 l
738.574 452.654 l
745.103 463.7 l
751.631 474.816 l
758.16 486 l
stroke
grestore
0.500 setlinewidth
0 setlinecap
0.000 setgray
gsave
652.9 432 105.3 54 clipbox
/o {
gsave
newpath
translate
0.5 setlinewidth
1 setlinejoin
0 setlinecap
0 -2.5 m
0.663008 -2.5 1.29895 -2.23658 1.76777 -1.76777 c
2.23658 -1.29895 2.5 -0.663008 2.5 0 c
2.5 0.663008 2.23658 1.29895 1.76777 1.76777 c
1.29895 2.23658 0.663008 2.5 0 2.5 c
-0.663008 2.5 -1.29895 2.23658 -1.76777 1.76777 c
-2.23658 1.29895 -2.5 0.663008 -2.5 0 c
-2.5 -0.663008 -2.23658 -1.29895 -1.76777 -1.76777 c
-1.29895 -2.23658 -0.663008 -2.5 0 -2.5 c
cl
gsave
1.000 0.000 0.000 setrgbcolor
fill
grestore
stroke
grestore
} bind def
105.3 54 o
111.829 54 o
118.357 54 o
124.886 54 o
131.414 54 o
137.943 54 o
144.472 54 o
151 54 o
157.529 54 o
164.057 54 o
170.586 54 o
177.115 54 o
183.643 54 o
190.172 54 o
196.7 54 o
203.229 54 o
209.758 54 o
216.286 54 o
222.815 54 o
229.343 54 o
235.872 54 o
242.401 54 o
248.929 54 o
255.458 54 o
261.986 54 o
268.515 54 o
275.044 54 o
281.572 54 o
288.101 54 o
294.629 54 o
301.158 54 o
307.687 54 o
314.215 54 o
320.744 54 o
327.272 54 o
333.801 54 o
340.33 54 o
346.858 54 o
353.387 54 o
359.915 54 o
366.444 54 o
372.973 54 o
379.501 54 o
386.03 54 o
392.558 54 o
399.087 54.1807 o
405.616 55.1652 o
412.144 56.8183 o
418.673 59.0358 o
425.201 61.751 o
431.73 64.915 o
438.259 68.4891 o
444.787 72.4419 o
451.316 76.7464 o
457.844 81.3799 o
464.373 86.3221 o
470.902 91.5553 o
477.43 97.0636 o
483.959 102.833 o
490.487 108.85 o
497.016 115.102 o
503.545 121.58 o
510.073 128.273 o
516.602 135.172 o
523.13 142.268 o
529.659 149.554 o
536.188 157.021 o
542.716 164.664 o
549.245 172.475 o
555.773 180.448 o
562.302 188.578 o
568.831 196.859 o
575.359 205.286 o
581.888 213.854 o
588.416 222.56 o
594.945 231.397 o
601.474 240.363 o
608.002 249.453 o
614.531 258.663 o
621.059 267.991 o
627.588 277.432 o
634.117 286.983 o
640.645 296.642 o
647.174 306.405 o
653.702 316.27 o
660.231 326.234 o
666.76 336.293 o
673.288 346.447 o
679.817 356.692 o
686.345 367.025 o
692.874 377.446 o
699.403 387.952 o
705.931 398.54 o
712.46 409.209 o
718.988 419.956 o
725.517 430.781 o
732.046 441.681 o
738.574 452.654 o
745.103 463.7 o
751.631 474.816 o
758.16 486 o
grestore
1.000 setlinewidth
2 setlinecap
0.000 0.750 0.750 setrgbcolor
gsave
652.9 432 105.3 54 clipbox
105.3 54.1154 m
111.829 54.7056 l
118.357 54.3751 l
124.886 54.5347 l
131.414 54.8424 l
137.943 55.0525 l
144.472 55.3854 l
151 54.8736 l
157.529 54.6256 l
164.057 54.5234 l
170.586 54.4885 l
177.115 54.4381 l
183.643 54.3127 l
190.172 54.2076 l
196.7 54.2757 l
203.229 54.2527 l
209.758 54.3305 l
216.286 54.2423 l
222.815 54.3111 l
229.343 54.4981 l
235.872 54.608 l
242.401 54.4512 l
248.929 54.3816 l
255.458 54.1912 l
261.986 54.177 l
268.515 54.2634 l
275.044 54.3484 l
281.572 54.4223 l
288.101 54.2956 l
294.629 54.235 l
301.158 54.2712 l
307.687 54.3163 l
314.215 54.4832 l
320.744 54.7068 l
327.272 54.6175 l
333.801 54.5904 l
340.33 54.4293 l
346.858 54.5532 l
353.387 54.6712 l
359.915 54.5279 l
366.444 54.4702 l
372.973 54.6088 l
379.501 54.7464 l
386.03 54.6755 l
392.558 54.3578 l
399.087 54.2931 l
405.616 54.4801 l
412.144 54.9181 l
418.673 55.5671 l
425.201 56.3874 l
431.73 57.3666 l
438.259 58.7011 l
444.787 60.1118 l
451.316 61.7172 l
457.844 63.5694 l
464.373 65.5285 l
470.902 67.7215 l
477.43 70.1674 l
483.959 72.8579 l
490.487 75.6711 l
497.016 78.7462 l
503.545 82.081 l
510.073 85.6554 l
516.602 89.2242 l
523.13 93.0606 l
529.659 97.1674 l
536.188 101.548 l
542.716 106.167 l
549.245 111.093 l
555.773 116.198 l
562.302 121.594 l
568.831 127.287 l
575.359 133.088 l
581.888 139.068 l
588.416 145.364 l
594.945 151.909 l
601.474 158.744 l
608.002 165.921 l
614.531 173.45 l
621.059 181.328 l
627.588 189.387 l
634.117 197.896 l
640.645 206.81 l
647.174 216.121 l
653.702 225.725 l
660.231 235.756 l
666.76 246.254 l
673.288 257.245 l
679.817 268.788 l
686.345 280.922 l
692.874 293.523 l
699.403 306.777 l
705.931 320.663 l
712.46 335.492 l
718.988 351.291 l
725.517 368.104 l
732.046 386.08 l
738.574 405.655 l
745.103 427.406 l
751.631 452.475 l
758.16 486.009 l
stroke
grestore
0.500 setlinewidth
0 setlinecap
0.000 setgray
gsave
652.9 432 105.3 54 clipbox
/o {
gsave
newpath
translate
0.5 setlinewidth
1 setlinejoin
0 setlinecap
0 -2.5 m
0.663008 -2.5 1.29895 -2.23658 1.76777 -1.76777 c
2.23658 -1.29895 2.5 -0.663008 2.5 0 c
2.5 0.663008 2.23658 1.29895 1.76777 1.76777 c
1.29895 2.23658 0.663008 2.5 0 2.5 c
-0.663008 2.5 -1.29895 2.23658 -1.76777 1.76777 c
-2.23658 1.29895 -2.5 0.663008 -2.5 0 c
-2.5 -0.663008 -2.23658 -1.29895 -1.76777 -1.76777 c
-1.29895 -2.23658 -0.663008 -2.5 0 -2.5 c
cl
gsave
0.000 0.750 0.750 setrgbcolor
fill
grestore
stroke
grestore
} bind def
105.3 54.1154 o
111.829 54.7056 o
118.357 54.3751 o
124.886 54.5347 o
131.414 54.8424 o
137.943 55.0525 o
144.472 55.3854 o
151 54.8736 o
157.529 54.6256 o
164.057 54.5234 o
170.586 54.4885 o
177.115 54.4381 o
183.643 54.3127 o
190.172 54.2076 o
196.7 54.2757 o
203.229 54.2527 o
209.758 54.3305 o
216.286 54.2423 o
222.815 54.3111 o
229.343 54.4981 o
235.872 54.608 o
242.401 54.4512 o
248.929 54.3816 o
255.458 54.1912 o
261.986 54.177 o
268.515 54.2634 o
275.044 54.3484 o
281.572 54.4223 o
288.101 54.2956 o
294.629 54.235 o
301.158 54.2712 o
307.687 54.3163 o
314.215 54.4832 o
320.744 54.7068 o
327.272 54.6175 o
333.801 54.5904 o
340.33 54.4293 o
346.858 54.5532 o
353.387 54.6712 o
359.915 54.5279 o
366.444 54.4702 o
372.973 54.6088 o
379.501 54.7464 o
386.03 54.6755 o
392.558 54.3578 o
399.087 54.2931 o
405.616 54.4801 o
412.144 54.9181 o
418.673 55.5671 o
425.201 56.3874 o
431.73 57.3666 o
438.259 58.7011 o
444.787 60.1118 o
451.316 61.7172 o
457.844 63.5694 o
464.373 65.5285 o
470.902 67.7215 o
477.43 70.1674 o
483.959 72.8579 o
490.487 75.6711 o
497.016 78.7462 o
503.545 82.081 o
510.073 85.6554 o
516.602 89.2242 o
523.13 93.0606 o
529.659 97.1674 o
536.188 101.548 o
542.716 106.167 o
549.245 111.093 o
555.773 116.198 o
562.302 121.594 o
568.831 127.287 o
575.359 133.088 o
581.888 139.068 o
588.416 145.364 o
594.945 151.909 o
601.474 158.744 o
608.002 165.921 o
614.531 173.45 o
621.059 181.328 o
627.588 189.387 o
634.117 197.896 o
640.645 206.81 o
647.174 216.121 o
653.702 225.725 o
660.231 235.756 o
666.76 246.254 o
673.288 257.245 o
679.817 268.788 o
686.345 280.922 o
692.874 293.523 o
699.403 306.777 o
705.931 320.663 o
712.46 335.492 o
718.988 351.291 o
725.517 368.104 o
732.046 386.08 o
738.574 405.655 o
745.103 427.406 o
751.631 452.475 o
758.16 486.009 o
grestore
1.000 setlinewidth
2 setlinecap
0.750 0.000 0.750 setrgbcolor
gsave
652.9 432 105.3 54 clipbox
105.3 54.0169 m
111.829 56.5912 l
118.357 59.1532 l
124.886 57.366 l
131.414 58.1284 l
137.943 59.0959 l
144.472 59.4084 l
151 59.4878 l
157.529 58.7308 l
164.057 58.8383 l
170.586 56.9936 l
177.115 56.5593 l
183.643 56.139 l
190.172 56.0601 l
196.7 56.4108 l
203.229 56.5553 l
209.758 56.4894 l
216.286 56.821 l
222.815 56.7281 l
229.343 56.1859 l
235.872 56.8278 l
242.401 56.4042 l
248.929 56.3888 l
255.458 56.4272 l
261.986 55.8774 l
268.515 55.9569 l
275.044 55.9376 l
281.572 55.6681 l
288.101 56.5586 l
294.629 56.4376 l
301.158 56.3603 l
307.687 56.637 l
314.215 57.1524 l
320.744 57.1309 l
327.272 57.3244 l
333.801 57.0496 l
340.33 57.3904 l
346.858 56.9246 l
353.387 56.8837 l
359.915 56.27 l
366.444 55.7986 l
372.973 55.6616 l
379.501 55.3178 l
386.03 55.2302 l
392.558 55.3114 l
399.087 56.4589 l
405.616 59.7799 l
412.144 63.3221 l
418.673 67.0475 l
425.201 70.725 l
431.73 74.5829 l
438.259 78.4666 l
444.787 82.4921 l
451.316 86.5098 l
457.844 90.5901 l
464.373 94.7493 l
470.902 98.9897 l
477.43 103.272 l
483.959 107.625 l
490.487 112.098 l
497.016 116.602 l
503.545 121.134 l
510.073 125.763 l
516.602 130.479 l
523.13 135.253 l
529.659 140.113 l
536.188 145.058 l
542.716 150.076 l
549.245 155.175 l
555.773 160.367 l
562.302 165.645 l
568.831 171.017 l
575.359 176.485 l
581.888 182.061 l
588.416 187.74 l
594.945 193.519 l
601.474 199.428 l
608.002 205.456 l
614.531 211.618 l
621.059 217.921 l
627.588 224.376 l
634.117 230.992 l
640.645 237.776 l
647.174 244.752 l
653.702 251.929 l
660.231 259.331 l
666.76 266.982 l
673.288 274.905 l
679.817 283.135 l
686.345 291.71 l
692.874 300.682 l
699.403 310.115 l
705.931 320.077 l
712.46 330.684 l
718.988 342.082 l
725.517 354.477 l
732.046 368.2 l
738.574 383.796 l
745.103 402.34 l
751.631 426.607 l
758.16 486 l
stroke
grestore
0.500 setlinewidth
0 setlinecap
0.000 setgray
gsave
652.9 432 105.3 54 clipbox
/o {
gsave
newpath
translate
0.5 setlinewidth
1 setlinejoin
0 setlinecap
0 -2.5 m
0.663008 -2.5 1.29895 -2.23658 1.76777 -1.76777 c
2.23658 -1.29895 2.5 -0.663008 2.5 0 c
2.5 0.663008 2.23658 1.29895 1.76777 1.76777 c
1.29895 2.23658 0.663008 2.5 0 2.5 c
-0.663008 2.5 -1.29895 2.23658 -1.76777 1.76777 c
-2.23658 1.29895 -2.5 0.663008 -2.5 0 c
-2.5 -0.663008 -2.23658 -1.29895 -1.76777 -1.76777 c
-1.29895 -2.23658 -0.663008 -2.5 0 -2.5 c
cl
gsave
0.750 0.000 0.750 setrgbcolor
fill
grestore
stroke
grestore
} bind def
105.3 54.0169 o
111.829 56.5912 o
118.357 59.1532 o
124.886 57.366 o
131.414 58.1284 o
137.943 59.0959 o
144.472 59.4084 o
151 59.4878 o
157.529 58.7308 o
164.057 58.8383 o
170.586 56.9936 o
177.115 56.5593 o
183.643 56.139 o
190.172 56.0601 o
196.7 56.4108 o
203.229 56.5553 o
209.758 56.4894 o
216.286 56.821 o
222.815 56.7281 o
229.343 56.1859 o
235.872 56.8278 o
242.401 56.4042 o
248.929 56.3888 o
255.458 56.4272 o
261.986 55.8774 o
268.515 55.9569 o
275.044 55.9376 o
281.572 55.6681 o
288.101 56.5586 o
294.629 56.4376 o
301.158 56.3603 o
307.687 56.637 o
314.215 57.1524 o
320.744 57.1309 o
327.272 57.3244 o
333.801 57.0496 o
340.33 57.3904 o
346.858 56.9246 o
353.387 56.8837 o
359.915 56.27 o
366.444 55.7986 o
372.973 55.6616 o
379.501 55.3178 o
386.03 55.2302 o
392.558 55.3114 o
399.087 56.4589 o
405.616 59.7799 o
412.144 63.3221 o
418.673 67.0475 o
425.201 70.725 o
431.73 74.5829 o
438.259 78.4666 o
444.787 82.4921 o
451.316 86.5098 o
457.844 90.5901 o
464.373 94.7493 o
470.902 98.9897 o
477.43 103.272 o
483.959 107.625 o
490.487 112.098 o
497.016 116.602 o
503.545 121.134 o
510.073 125.763 o
516.602 130.479 o
523.13 135.253 o
529.659 140.113 o
536.188 145.058 o
542.716 150.076 o
549.245 155.175 o
555.773 160.367 o
562.302 165.645 o
568.831 171.017 o
575.359 176.485 o
581.888 182.061 o
588.416 187.74 o
594.945 193.519 o
601.474 199.428 o
608.002 205.456 o
614.531 211.618 o
621.059 217.921 o
627.588 224.376 o
634.117 230.992 o
640.645 237.776 o
647.174 244.752 o
653.702 251.929 o
660.231 259.331 o
666.76 266.982 o
673.288 274.905 o
679.817 283.135 o
686.345 291.71 o
692.874 300.682 o
699.403 310.115 o
705.931 320.077 o
712.46 330.684 o
718.988 342.082 o
725.517 354.477 o
732.046 368.2 o
738.574 383.796 o
745.103 402.34 o
751.631 426.607 o
758.16 486 o
grestore
gsave
/o {
gsave
newpath
translate
0.5 setlinewidth
1 setlinejoin
0 setlinecap
0 0 m
0 4 l
gsave
0.000 setgray
fill
grestore
stroke
grestore
} bind def
105.3 54 o
grestore
gsave
/o {
gsave
newpath
translate
0.5 setlinewidth
1 setlinejoin
0 setlinecap
0 0 m
0 -4 l
gsave
0.000 setgray
fill
grestore
stroke
grestore
} bind def
105.3 486 o
grestore
/BitstreamVeraSans-Roman findfont
12.000 scalefont
setfont
gsave
96.550000 40.921875 translate
0.000000 rotate
0.000000 0.171875 m /zero glyphshow
7.634766 0.171875 m /period glyphshow
11.449219 0.171875 m /zero glyphshow
grestore
gsave
/o {
gsave
newpath
translate
0.5 setlinewidth
1 setlinejoin
0 setlinecap
0 0 m
0 4 l
gsave
0.000 setgray
fill
grestore
stroke
grestore
} bind def
235.872 54 o
grestore
gsave
/o {
gsave
newpath
translate
0.5 setlinewidth
1 setlinejoin
0 setlinecap
0 0 m
0 -4 l
gsave
0.000 setgray
fill
grestore
stroke
grestore
} bind def
235.872 486 o
grestore
gsave
227.325125 40.921875 translate
0.000000 rotate
0.000000 0.171875 m /zero glyphshow
7.634766 0.171875 m /period glyphshow
11.449219 0.171875 m /two glyphshow
grestore
gsave
/o {
gsave
newpath
translate
0.5 setlinewidth
1 setlinejoin
0 setlinecap
0 0 m
0 4 l
gsave
0.000 setgray
fill
grestore
stroke
grestore
} bind def
366.444 54 o
grestore
gsave
/o {
gsave
newpath
translate
0.5 setlinewidth
1 setlinejoin
0 setlinecap
0 0 m
0 -4 l
gsave
0.000 setgray
fill
grestore
stroke
grestore
} bind def
366.444 486 o
grestore
gsave
357.631500 40.921875 translate
0.000000 rotate
0.000000 0.171875 m /zero glyphshow
7.634766 0.171875 m /period glyphshow
11.449219 0.171875 m /four glyphshow
grestore
gsave
/o {
gsave
newpath
translate
0.5 setlinewidth
1 setlinejoin
0 setlinecap
0 0 m
0 4 l
gsave
0.000 setgray
fill
grestore
stroke
grestore
} bind def
497.016 54 o
grestore
gsave
/o {
gsave
newpath
translate
0.5 setlinewidth
1 setlinejoin
0 setlinecap
0 0 m
0 -4 l
gsave
0.000 setgray
fill
grestore
stroke
grestore
} bind def
497.016 486 o
grestore
gsave
488.250375 40.921875 translate
0.000000 rotate
0.000000 0.171875 m /zero glyphshow
7.634766 0.171875 m /period glyphshow
11.449219 0.171875 m /six glyphshow
grestore
gsave
/o {
gsave
newpath
translate
0.5 setlinewidth
1 setlinejoin
0 setlinecap
0 0 m
0 4 l
gsave
0.000 setgray
fill
grestore
stroke
grestore
} bind def
627.588 54 o
grestore
gsave
/o {
gsave
newpath
translate
0.5 setlinewidth
1 setlinejoin
0 setlinecap
0 0 m
0 -4 l
gsave
0.000 setgray
fill
grestore
stroke
grestore
} bind def
627.588 486 o
grestore
gsave
618.853625 40.921875 translate
0.000000 rotate
0.000000 0.171875 m /zero glyphshow
7.634766 0.171875 m /period glyphshow
11.449219 0.171875 m /eight glyphshow
grestore
gsave
/o {
gsave
newpath
translate
0.5 setlinewidth
1 setlinejoin
0 setlinecap
0 0 m
0 4 l
gsave
0.000 setgray
fill
grestore
stroke
grestore
} bind def
758.16 54 o
grestore
gsave
/o {
gsave
newpath
translate
0.5 setlinewidth
1 setlinejoin
0 setlinecap
0 0 m
0 -4 l
gsave
0.000 setgray
fill
grestore
stroke
grestore
} bind def
758.16 486 o
grestore
gsave
749.667812 40.921875 translate
0.000000 rotate
0.000000 0.171875 m /one glyphshow
7.634766 0.171875 m /period glyphshow
11.449219 0.171875 m /zero glyphshow
grestore
gsave
383.730000 22.921875 translate
0.000000 rotate
/Cmmi10 findfont
12.0 scalefont
setfont
0.000000 4.671875 moveto
/lambda glyphshow

/Cmr10 findfont
8.4 scalefont
setfont
6.996094 1.610750 moveto
/three glyphshow

/BitstreamVeraSans-Roman findfont
12.0 scalefont
setfont
12.996094 4.671875 moveto
/comma glyphshow

16.810547 4.671875 moveto
/space glyphshow

/Cmmi10 findfont
12.0 scalefont
setfont
20.625000 4.671875 moveto
/lambda glyphshow

/Cmr10 findfont
8.4 scalefont
setfont
27.621094 1.610750 moveto
/three glyphshow

/BitstreamVeraSans-Roman findfont
12.0 scalefont
setfont
33.621094 4.671875 moveto
/comma glyphshow

37.435547 4.671875 moveto
/space glyphshow

/Cmmi10 findfont
12.0 scalefont
setfont
41.250000 4.671875 moveto
/lambda glyphshow

/Cmr10 findfont
8.4 scalefont
setfont
48.246094 1.610750 moveto
/three glyphshow

/BitstreamVeraSans-Roman findfont
12.0 scalefont
setfont
54.246094 4.671875 moveto
/comma glyphshow

58.060547 4.671875 moveto
/space glyphshow

/Cmmi10 findfont
12.0 scalefont
setfont
61.875000 4.671875 moveto
/lambda glyphshow

/Cmr10 findfont
8.4 scalefont
setfont
68.871094 1.610750 moveto
/three glyphshow

/BitstreamVeraSans-Roman findfont
12.0 scalefont
setfont
74.871094 4.671875 moveto
/comma glyphshow

78.685547 4.671875 moveto
/space glyphshow

/Cmmi10 findfont
12.0 scalefont
setfont
82.500000 4.671875 moveto
/lambda glyphshow

/Cmr10 findfont
8.4 scalefont
setfont
89.496094 1.610750 moveto
/three glyphshow


grestore
gsave
/o {
gsave
newpath
translate
0.5 setlinewidth
1 setlinejoin
0 setlinecap
0 0 m
4 0 l
gsave
0.000 setgray
fill
grestore
stroke
grestore
} bind def
105.3 54 o
grestore
gsave
/o {
gsave
newpath
translate
0.5 setlinewidth
1 setlinejoin
0 setlinecap
0 0 m
-4 0 l
gsave
0.000 setgray
fill
grestore
stroke
grestore
} bind def
758.16 54 o
grestore
gsave
83.800000 49.460937 translate
0.000000 rotate
0.000000 0.171875 m /zero glyphshow
7.634766 0.171875 m /period glyphshow
11.449219 0.171875 m /zero glyphshow
grestore
gsave
/o {
gsave
newpath
translate
0.5 setlinewidth
1 setlinejoin
0 setlinecap
0 0 m
4 0 l
gsave
0.000 setgray
fill
grestore
stroke
grestore
} bind def
105.3 140.4 o
grestore
gsave
/o {
gsave
newpath
translate
0.5 setlinewidth
1 setlinejoin
0 setlinecap
0 0 m
-4 0 l
gsave
0.000 setgray
fill
grestore
stroke
grestore
} bind def
758.16 140.4 o
grestore
gsave
84.206250 135.860937 translate
0.000000 rotate
0.000000 0.171875 m /zero glyphshow
7.634766 0.171875 m /period glyphshow
11.449219 0.171875 m /two glyphshow
grestore
gsave
/o {
gsave
newpath
translate
0.5 setlinewidth
1 setlinejoin
0 setlinecap
0 0 m
4 0 l
gsave
0.000 setgray
fill
grestore
stroke
grestore
} bind def
105.3 226.8 o
grestore
gsave
/o {
gsave
newpath
translate
0.5 setlinewidth
1 setlinejoin
0 setlinecap
0 0 m
-4 0 l
gsave
0.000 setgray
fill
grestore
stroke
grestore
} bind def
758.16 226.8 o
grestore
gsave
83.675000 222.260937 translate
0.000000 rotate
0.000000 0.171875 m /zero glyphshow
7.634766 0.171875 m /period glyphshow
11.449219 0.171875 m /four glyphshow
grestore
gsave
/o {
gsave
newpath
translate
0.5 setlinewidth
1 setlinejoin
0 setlinecap
0 0 m
4 0 l
gsave
0.000 setgray
fill
grestore
stroke
grestore
} bind def
105.3 313.2 o
grestore
gsave
/o {
gsave
newpath
translate
0.5 setlinewidth
1 setlinejoin
0 setlinecap
0 0 m
-4 0 l
gsave
0.000 setgray
fill
grestore
stroke
grestore
} bind def
758.16 313.2 o
grestore
gsave
83.768750 308.660938 translate
0.000000 rotate
0.000000 0.171875 m /zero glyphshow
7.634766 0.171875 m /period glyphshow
11.449219 0.171875 m /six glyphshow
grestore
gsave
/o {
gsave
newpath
translate
0.5 setlinewidth
1 setlinejoin
0 setlinecap
0 0 m
4 0 l
gsave
0.000 setgray
fill
grestore
stroke
grestore
} bind def
105.3 399.6 o
grestore
gsave
/o {
gsave
newpath
translate
0.5 setlinewidth
1 setlinejoin
0 setlinecap
0 0 m
-4 0 l
gsave
0.000 setgray
fill
grestore
stroke
grestore
} bind def
758.16 399.6 o
grestore
gsave
83.831250 395.060938 translate
0.000000 rotate
0.000000 0.171875 m /zero glyphshow
7.634766 0.171875 m /period glyphshow
11.449219 0.171875 m /eight glyphshow
grestore
gsave
/o {
gsave
newpath
translate
0.5 setlinewidth
1 setlinejoin
0 setlinecap
0 0 m
4 0 l
gsave
0.000 setgray
fill
grestore
stroke
grestore
} bind def
105.3 486 o
grestore
gsave
/o {
gsave
newpath
translate
0.5 setlinewidth
1 setlinejoin
0 setlinecap
0 0 m
-4 0 l
gsave
0.000 setgray
fill
grestore
stroke
grestore
} bind def
758.16 486 o
grestore
gsave
84.315625 481.460938 translate
0.000000 rotate
0.000000 0.171875 m /one glyphshow
7.634766 0.171875 m /period glyphshow
11.449219 0.171875 m /zero glyphshow
grestore
gsave
78.675000 228.429688 translate
90.000000 rotate
0.000000 2.500000 m /E glyphshow
7.582031 2.500000 m /n glyphshow
15.187500 2.500000 m /t glyphshow
19.892578 2.500000 m /a glyphshow
27.246094 2.500000 m /n glyphshow
34.851562 2.500000 m /g glyphshow
42.468750 2.500000 m /l glyphshow
45.802734 2.500000 m /e glyphshow
53.185547 2.500000 m /m glyphshow
64.875000 2.500000 m /e glyphshow
72.257812 2.500000 m /n glyphshow
79.863281 2.500000 m /t glyphshow
grestore
1.000 setlinewidth
2 setlinecap
gsave
105.3 486 m
758.16 486 l
stroke
grestore
gsave
758.16 54 m
758.16 486 l
stroke
grestore
gsave
105.3 54 m
758.16 54 l
stroke
grestore
gsave
105.3 54 m
105.3 486 l
stroke
grestore
/BitstreamVeraSans-Roman findfont
14.400 scalefont
setfont
gsave
381.948750 488.093750 translate
0.000000 rotate
0.000000 2.906250 m /E glyphshow
9.082642 2.906250 m /n glyphshow
18.193359 2.906250 m /t glyphshow
23.829651 2.906250 m /a glyphshow
32.638550 2.906250 m /n glyphshow
41.749268 2.906250 m /g glyphshow
50.874023 2.906250 m /l glyphshow
54.867859 2.906250 m /e glyphshow
63.711853 2.906250 m /m glyphshow
77.714844 2.906250 m /e glyphshow
86.558838 2.906250 m /n glyphshow
95.669556 2.906250 m /t glyphshow
grestore
gsave
112.5 370.746 m
449.699 370.746 l
449.699 478.8 l
112.5 478.8 l
112.5 370.746 l
cl
gsave
1.000 setgray
fill
grestore
stroke
grestore
0.000 0.000 1.000 setrgbcolor
gsave
122.58 467.439 m
142.74 467.439 l
stroke
grestore
0.500 setlinewidth
0 setlinecap
0.000 setgray
gsave
/o {
gsave
newpath
translate
0.5 setlinewidth
1 setlinejoin
0 setlinecap
0 -2.5 m
0.663008 -2.5 1.29895 -2.23658 1.76777 -1.76777 c
2.23658 -1.29895 2.5 -0.663008 2.5 0 c
2.5 0.663008 2.23658 1.29895 1.76777 1.76777 c
1.29895 2.23658 0.663008 2.5 0 2.5 c
-0.663008 2.5 -1.29895 2.23658 -1.76777 1.76777 c
-2.23658 1.29895 -2.5 0.663008 -2.5 0 c
-2.5 -0.663008 -2.23658 -1.29895 -1.76777 -1.76777 c
-1.29895 -2.23658 -0.663008 -2.5 0 -2.5 c
cl
gsave
0.000 0.000 1.000 setrgbcolor
fill
grestore
stroke
grestore
} bind def
122.58 467.439 o
142.74 467.439 o
grestore
gsave
158.580000 460.774375 translate
0.000000 rotate
0.000000 1.625000 m /s glyphshow
7.489319 1.625000 m /t glyphshow
13.125610 1.625000 m /a glyphshow
21.934509 1.625000 m /t glyphshow
27.570801 1.625000 m /e glyphshow
36.414795 1.625000 m /colon glyphshow
41.257935 1.625000 m /space glyphshow
45.827332 1.625000 m /C glyphshow
55.864563 1.625000 m /h glyphshow
64.975281 1.625000 m /e glyphshow
73.819275 1.625000 m /n glyphshow
82.929993 1.625000 m /two glyphshow
92.075806 1.625000 m /comma glyphshow
96.645203 1.625000 m /space glyphshow
101.214600 1.625000 m /m glyphshow
115.217590 1.625000 m /e glyphshow
124.061584 1.625000 m /a glyphshow
132.870483 1.625000 m /s glyphshow
140.359802 1.625000 m /u glyphshow
149.470520 1.625000 m /r glyphshow
155.005554 1.625000 m /e glyphshow
163.849548 1.625000 m /colon glyphshow
168.692688 1.625000 m /space glyphshow
173.262085 1.625000 m /B glyphshow
183.123840 1.625000 m /u glyphshow
192.234558 1.625000 m /r glyphshow
197.769592 1.625000 m /e glyphshow
206.613586 1.625000 m /s glyphshow
grestore
1.000 setlinewidth
2 setlinecap
0.000 0.500 0.000 setrgbcolor
gsave
122.58 446.693 m
142.74 446.693 l
stroke
grestore
0.500 setlinewidth
0 setlinecap
0.000 setgray
gsave
/o {
gsave
newpath
translate
0.5 setlinewidth
1 setlinejoin
0 setlinecap
0 -2.5 m
0.663008 -2.5 1.29895 -2.23658 1.76777 -1.76777 c
2.23658 -1.29895 2.5 -0.663008 2.5 0 c
2.5 0.663008 2.23658 1.29895 1.76777 1.76777 c
1.29895 2.23658 0.663008 2.5 0 2.5 c
-0.663008 2.5 -1.29895 2.23658 -1.76777 1.76777 c
-2.23658 1.29895 -2.5 0.663008 -2.5 0 c
-2.5 -0.663008 -2.23658 -1.29895 -1.76777 -1.76777 c
-1.29895 -2.23658 -0.663008 -2.5 0 -2.5 c
cl
gsave
0.000 0.500 0.000 setrgbcolor
fill
grestore
stroke
grestore
} bind def
122.58 446.693 o
142.74 446.693 o
grestore
gsave
158.580000 440.027500 translate
0.000000 rotate
0.000000 1.625000 m /s glyphshow
7.489319 1.625000 m /t glyphshow
13.125610 1.625000 m /a glyphshow
21.934509 1.625000 m /t glyphshow
27.570801 1.625000 m /e glyphshow
36.414795 1.625000 m /colon glyphshow
41.257935 1.625000 m /space glyphshow
45.827332 1.625000 m /C glyphshow
55.864563 1.625000 m /h glyphshow
64.975281 1.625000 m /e glyphshow
73.819275 1.625000 m /n glyphshow
82.929993 1.625000 m /two glyphshow
92.075806 1.625000 m /comma glyphshow
96.645203 1.625000 m /space glyphshow
101.214600 1.625000 m /m glyphshow
115.217590 1.625000 m /e glyphshow
124.061584 1.625000 m /a glyphshow
132.870483 1.625000 m /s glyphshow
140.359802 1.625000 m /u glyphshow
149.470520 1.625000 m /r glyphshow
155.005554 1.625000 m /e glyphshow
163.849548 1.625000 m /colon glyphshow
168.692688 1.625000 m /space glyphshow
173.262085 1.625000 m /H glyphshow
184.071411 1.625000 m /i glyphshow
188.065247 1.625000 m /l glyphshow
192.059082 1.625000 m /b glyphshow
201.183838 1.625000 m /e glyphshow
210.027832 1.625000 m /r glyphshow
215.937866 1.625000 m /t glyphshow
221.574158 1.625000 m /hyphen glyphshow
226.761230 1.625000 m /S glyphshow
235.885986 1.625000 m /c glyphshow
243.789429 1.625000 m /h glyphshow
252.900146 1.625000 m /m glyphshow
266.903137 1.625000 m /i glyphshow
270.896973 1.625000 m /d glyphshow
280.021729 1.625000 m /t glyphshow
grestore
1.000 setlinewidth
2 setlinecap
1.000 0.000 0.000 setrgbcolor
gsave
122.58 425.946 m
142.74 425.946 l
stroke
grestore
0.500 setlinewidth
0 setlinecap
0.000 setgray
gsave
/o {
gsave
newpath
translate
0.5 setlinewidth
1 setlinejoin
0 setlinecap
0 -2.5 m
0.663008 -2.5 1.29895 -2.23658 1.76777 -1.76777 c
2.23658 -1.29895 2.5 -0.663008 2.5 0 c
2.5 0.663008 2.23658 1.29895 1.76777 1.76777 c
1.29895 2.23658 0.663008 2.5 0 2.5 c
-0.663008 2.5 -1.29895 2.23658 -1.76777 1.76777 c
-2.23658 1.29895 -2.5 0.663008 -2.5 0 c
-2.5 -0.663008 -2.23658 -1.29895 -1.76777 -1.76777 c
-1.29895 -2.23658 -0.663008 -2.5 0 -2.5 c
cl
gsave
1.000 0.000 0.000 setrgbcolor
fill
grestore
stroke
grestore
} bind def
122.58 425.946 o
142.74 425.946 o
grestore
gsave
158.580000 419.280625 translate
0.000000 rotate
0.000000 1.625000 m /s glyphshow
7.489319 1.625000 m /t glyphshow
13.125610 1.625000 m /a glyphshow
21.934509 1.625000 m /t glyphshow
27.570801 1.625000 m /e glyphshow
36.414795 1.625000 m /colon glyphshow
41.257935 1.625000 m /space glyphshow
45.827332 1.625000 m /C glyphshow
55.864563 1.625000 m /h glyphshow
64.975281 1.625000 m /e glyphshow
73.819275 1.625000 m /n glyphshow
82.929993 1.625000 m /two glyphshow
92.075806 1.625000 m /comma glyphshow
96.645203 1.625000 m /space glyphshow
101.214600 1.625000 m /m glyphshow
115.217590 1.625000 m /e glyphshow
124.061584 1.625000 m /a glyphshow
132.870483 1.625000 m /s glyphshow
140.359802 1.625000 m /u glyphshow
149.470520 1.625000 m /r glyphshow
155.005554 1.625000 m /e glyphshow
163.849548 1.625000 m /colon glyphshow
168.692688 1.625000 m /space glyphshow
173.262085 1.625000 m /c glyphshow
181.165527 1.625000 m /o glyphshow
189.960388 1.625000 m /n glyphshow
199.071106 1.625000 m /c glyphshow
206.974548 1.625000 m /u glyphshow
216.085266 1.625000 m /r glyphshow
221.745300 1.625000 m /r glyphshow
227.280334 1.625000 m /e glyphshow
236.124329 1.625000 m /n glyphshow
245.235046 1.625000 m /c glyphshow
253.138489 1.625000 m /e glyphshow
grestore
1.000 setlinewidth
2 setlinecap
0.000 0.750 0.750 setrgbcolor
gsave
122.58 405.199 m
142.74 405.199 l
stroke
grestore
0.500 setlinewidth
0 setlinecap
0.000 setgray
gsave
/o {
gsave
newpath
translate
0.5 setlinewidth
1 setlinejoin
0 setlinecap
0 -2.5 m
0.663008 -2.5 1.29895 -2.23658 1.76777 -1.76777 c
2.23658 -1.29895 2.5 -0.663008 2.5 0 c
2.5 0.663008 2.23658 1.29895 1.76777 1.76777 c
1.29895 2.23658 0.663008 2.5 0 2.5 c
-0.663008 2.5 -1.29895 2.23658 -1.76777 1.76777 c
-2.23658 1.29895 -2.5 0.663008 -2.5 0 c
-2.5 -0.663008 -2.23658 -1.29895 -1.76777 -1.76777 c
-1.29895 -2.23658 -0.663008 -2.5 0 -2.5 c
cl
gsave
0.000 0.750 0.750 setrgbcolor
fill
grestore
stroke
grestore
} bind def
122.58 405.199 o
142.74 405.199 o
grestore
gsave
158.580000 397.252500 translate
0.000000 rotate
0.000000 2.906250 m /s glyphshow
7.489319 2.906250 m /t glyphshow
13.125610 2.906250 m /a glyphshow
21.934509 2.906250 m /t glyphshow
27.570801 2.906250 m /e glyphshow
36.414795 2.906250 m /colon glyphshow
41.257935 2.906250 m /space glyphshow
45.827332 2.906250 m /C glyphshow
55.864563 2.906250 m /h glyphshow
64.975281 2.906250 m /e glyphshow
73.819275 2.906250 m /n glyphshow
82.929993 2.906250 m /two glyphshow
92.075806 2.906250 m /comma glyphshow
96.645203 2.906250 m /space glyphshow
101.214600 2.906250 m /m glyphshow
115.217590 2.906250 m /e glyphshow
124.061584 2.906250 m /a glyphshow
132.870483 2.906250 m /s glyphshow
140.359802 2.906250 m /u glyphshow
149.470520 2.906250 m /r glyphshow
155.005554 2.906250 m /e glyphshow
163.849548 2.906250 m /colon glyphshow
168.692688 2.906250 m /space glyphshow
173.262085 2.906250 m /e glyphshow
182.106079 2.906250 m /n glyphshow
191.216797 2.906250 m /t glyphshow
196.853088 2.906250 m /r glyphshow
202.388123 2.906250 m /o glyphshow
211.182983 2.906250 m /p glyphshow
220.307739 2.906250 m /y glyphshow
grestore
1.000 setlinewidth
2 setlinecap
0.750 0.000 0.750 setrgbcolor
gsave
122.58 384.452 m
142.74 384.452 l
stroke
grestore
0.500 setlinewidth
0 setlinecap
0.000 setgray
gsave
/o {
gsave
newpath
translate
0.5 setlinewidth
1 setlinejoin
0 setlinecap
0 -2.5 m
0.663008 -2.5 1.29895 -2.23658 1.76777 -1.76777 c
2.23658 -1.29895 2.5 -0.663008 2.5 0 c
2.5 0.663008 2.23658 1.29895 1.76777 1.76777 c
1.29895 2.23658 0.663008 2.5 0 2.5 c
-0.663008 2.5 -1.29895 2.23658 -1.76777 1.76777 c
-2.23658 1.29895 -2.5 0.663008 -2.5 0 c
-2.5 -0.663008 -2.23658 -1.29895 -1.76777 -1.76777 c
-1.29895 -2.23658 -0.663008 -2.5 0 -2.5 c
cl
gsave
0.750 0.000 0.750 setrgbcolor
fill
grestore
stroke
grestore
} bind def
122.58 384.452 o
142.74 384.452 o
grestore
gsave
158.580000 376.505625 translate
0.000000 rotate
0.000000 2.906250 m /s glyphshow
7.489319 2.906250 m /t glyphshow
13.125610 2.906250 m /a glyphshow
21.934509 2.906250 m /t glyphshow
27.570801 2.906250 m /e glyphshow
36.414795 2.906250 m /colon glyphshow
41.257935 2.906250 m /space glyphshow
45.827332 2.906250 m /C glyphshow
55.864563 2.906250 m /h glyphshow
64.975281 2.906250 m /e glyphshow
73.819275 2.906250 m /n glyphshow
82.929993 2.906250 m /two glyphshow
92.075806 2.906250 m /comma glyphshow
96.645203 2.906250 m /space glyphshow
101.214600 2.906250 m /m glyphshow
115.217590 2.906250 m /e glyphshow
124.061584 2.906250 m /a glyphshow
132.870483 2.906250 m /s glyphshow
140.359802 2.906250 m /u glyphshow
149.470520 2.906250 m /r glyphshow
155.005554 2.906250 m /e glyphshow
163.849548 2.906250 m /colon glyphshow
168.692688 2.906250 m /space glyphshow
173.262085 2.906250 m /s glyphshow
180.751404 2.906250 m /u glyphshow
189.862122 2.906250 m /p glyphshow
198.986877 2.906250 m /e glyphshow
207.830872 2.906250 m /r glyphshow
213.740906 2.906250 m /f glyphshow
218.801636 2.906250 m /i glyphshow
222.795471 2.906250 m /d glyphshow
231.920227 2.906250 m /e glyphshow
240.764221 2.906250 m /l glyphshow
244.758057 2.906250 m /i glyphshow
248.751892 2.906250 m /t glyphshow
254.388184 2.906250 m /y glyphshow
grestore

end
showpage
