%!PS-Adobe-3.0 EPSF-3.0
%%Title: ['Horodecki.Bures.result', 'Horodecki.Hilbert-Schmidt.result', 'Horodecki.concurrence.result', 'Horodecki.entropy.result', 'Horodecki.superfidelity.result'].entanglement.eps
%%Creator: matplotlib version 1.2.1, http://matplotlib.org/
%%CreationDate: Fri Jun 14 14:51:14 2013
%%Orientation: portrait
%%BoundingBox: -115 126 727 666
%%EndComments
%%BeginProlog
/mpldict 8 dict def
mpldict begin
/m { moveto } bind def
/l { lineto } bind def
/r { rlineto } bind def
/c { curveto } bind def
/cl { closepath } bind def
/box {
m
1 index 0 r
0 exch r
neg 0 r
cl
} bind def
/clipbox {
box
clip
newpath
} bind def
%!PS-Adobe-3.0 Resource-Font
%%Title: Bitstream Vera Sans
%%Copyright: Copyright (c) 2003 by Bitstream, Inc. All Rights Reserved.
%%Creator: Converted from TrueType to type 3 by PPR
25 dict begin
/_d{bind def}bind def
/_m{moveto}_d
/_l{lineto}_d
/_cl{closepath eofill}_d
/_c{curveto}_d
/_sc{7 -1 roll{setcachedevice}{pop pop pop pop pop pop}ifelse}_d
/_e{exec}_d
/FontName /BitstreamVeraSans-Roman def
/PaintType 0 def
/FontMatrix[.001 0 0 .001 0 0]def
/FontBBox[-183 -236 1287 928]def
/FontType 3 def
/Encoding [ /space /comma /hyphen /period /zero /one /two /four /six /eight /colon /B /E /H /S /a /b /c /d /e /f /g /h /i /k /l /m /n /o /p /q /r /s /t /u /y ] def
/FontInfo 10 dict dup begin
/FamilyName (Bitstream Vera Sans) def
/FullName (Bitstream Vera Sans) def
/Notice (Copyright (c) 2003 by Bitstream, Inc. All Rights Reserved. Bitstream Vera is a trademark of Bitstream, Inc.) def
/Weight (Roman) def
/Version (Release 1.10) def
/ItalicAngle 0.0 def
/isFixedPitch false def
/UnderlinePosition -213 def
/UnderlineThickness 143 def
end readonly def
/CharStrings 36 dict dup begin
/space{318 0 0 0 0 0 _sc
}_d
/comma{318 0 77 -115 220 124 _sc
117 124 _m
220 124 _l
220 40 _l
140 -115 _l
77 -115 _l
117 40 _l
117 124 _l
_cl}_d
/hyphen{361 0 49 234 312 314 _sc
49 314 _m
312 314 _l
312 234 _l
49 234 _l
49 314 _l
_cl}_d
/period{318 0 107 0 210 124 _sc
107 124 _m
210 124 _l
210 0 _l
107 0 _l
107 124 _l
_cl}_d
/zero{636 0 66 -13 570 742 _sc
318 664 _m
267 664 229 639 203 589 _c
177 539 165 464 165 364 _c
165 264 177 189 203 139 _c
229 89 267 64 318 64 _c
369 64 407 89 433 139 _c
458 189 471 264 471 364 _c
471 464 458 539 433 589 _c
407 639 369 664 318 664 _c
318 742 _m
399 742 461 709 505 645 _c
548 580 570 486 570 364 _c
570 241 548 147 505 83 _c
461 19 399 -13 318 -13 _c
236 -13 173 19 130 83 _c
87 147 66 241 66 364 _c
66 486 87 580 130 645 _c
173 709 236 742 318 742 _c
_cl}_d
/one{636 0 110 0 544 729 _sc
124 83 _m
285 83 _l
285 639 _l
110 604 _l
110 694 _l
284 729 _l
383 729 _l
383 83 _l
544 83 _l
544 0 _l
124 0 _l
124 83 _l
_cl}_d
/two{{636 0 73 0 536 742 _sc
192 83 _m
536 83 _l
536 0 _l
73 0 _l
73 83 _l
110 121 161 173 226 239 _c
290 304 331 346 348 365 _c
380 400 402 430 414 455 _c
426 479 433 504 433 528 _c
433 566 419 598 392 622 _c
365 646 330 659 286 659 _c
255 659 222 653 188 643 _c
154 632 117 616 78 594 _c
78 694 _l
118 710 155 722 189 730 _c
223 738 255 742 284 742 _c
}_e{359 742 419 723 464 685 _c
509 647 532 597 532 534 _c
532 504 526 475 515 449 _c
504 422 484 390 454 354 _c
446 344 420 317 376 272 _c
332 227 271 164 192 83 _c
_cl}_e}_d
/four{636 0 49 0 580 729 _sc
378 643 _m
129 254 _l
378 254 _l
378 643 _l
352 729 _m
476 729 _l
476 254 _l
580 254 _l
580 172 _l
476 172 _l
476 0 _l
378 0 _l
378 172 _l
49 172 _l
49 267 _l
352 729 _l
_cl}_d
/six{{636 0 70 -13 573 742 _sc
330 404 _m
286 404 251 388 225 358 _c
199 328 186 286 186 234 _c
186 181 199 139 225 109 _c
251 79 286 64 330 64 _c
374 64 409 79 435 109 _c
461 139 474 181 474 234 _c
474 286 461 328 435 358 _c
409 388 374 404 330 404 _c
526 713 _m
526 623 _l
501 635 476 644 451 650 _c
425 656 400 659 376 659 _c
310 659 260 637 226 593 _c
}_e{192 549 172 482 168 394 _c
187 422 211 444 240 459 _c
269 474 301 482 336 482 _c
409 482 467 459 509 415 _c
551 371 573 310 573 234 _c
573 159 550 99 506 54 _c
462 9 403 -13 330 -13 _c
246 -13 181 19 137 83 _c
92 147 70 241 70 364 _c
70 479 97 571 152 639 _c
206 707 280 742 372 742 _c
396 742 421 739 447 735 _c
472 730 498 723 526 713 _c
_cl}_e}_d
/eight{{636 0 68 -13 568 742 _sc
318 346 _m
271 346 234 333 207 308 _c
180 283 167 249 167 205 _c
167 161 180 126 207 101 _c
234 76 271 64 318 64 _c
364 64 401 76 428 102 _c
455 127 469 161 469 205 _c
469 249 455 283 429 308 _c
402 333 365 346 318 346 _c
219 388 _m
177 398 144 418 120 447 _c
96 476 85 511 85 553 _c
85 611 105 657 147 691 _c
188 725 245 742 318 742 _c
}_e{390 742 447 725 489 691 _c
530 657 551 611 551 553 _c
551 511 539 476 515 447 _c
491 418 459 398 417 388 _c
464 377 501 355 528 323 _c
554 291 568 251 568 205 _c
568 134 546 80 503 43 _c
459 5 398 -13 318 -13 _c
237 -13 175 5 132 43 _c
89 80 68 134 68 205 _c
68 251 81 291 108 323 _c
134 355 171 377 219 388 _c
183 544 _m
183 506 194 476 218 455 _c
}_e{242 434 275 424 318 424 _c
360 424 393 434 417 455 _c
441 476 453 506 453 544 _c
453 582 441 611 417 632 _c
393 653 360 664 318 664 _c
275 664 242 653 218 632 _c
194 611 183 582 183 544 _c
_cl}_e}_d
/colon{337 0 117 0 220 517 _sc
117 124 _m
220 124 _l
220 0 _l
117 0 _l
117 124 _l
117 517 _m
220 517 _l
220 393 _l
117 393 _l
117 517 _l
_cl}_d
/B{{686 0 98 0 615 729 _sc
197 348 _m
197 81 _l
355 81 _l
408 81 447 92 473 114 _c
498 136 511 169 511 215 _c
511 260 498 293 473 315 _c
447 337 408 348 355 348 _c
197 348 _l
197 648 _m
197 428 _l
343 428 _l
391 428 426 437 450 455 _c
474 473 486 500 486 538 _c
486 574 474 602 450 620 _c
426 638 391 648 343 648 _c
197 648 _l
98 729 _m
350 729 _l
}_e{425 729 483 713 524 682 _c
564 650 585 606 585 549 _c
585 504 574 468 553 442 _c
532 416 502 399 462 393 _c
510 382 548 360 575 327 _c
601 294 615 253 615 204 _c
615 138 592 88 548 53 _c
504 17 441 0 360 0 _c
98 0 _l
98 729 _l
_cl}_e}_d
/E{632 0 98 0 568 729 _sc
98 729 _m
559 729 _l
559 646 _l
197 646 _l
197 430 _l
544 430 _l
544 347 _l
197 347 _l
197 83 _l
568 83 _l
568 0 _l
98 0 _l
98 729 _l
_cl}_d
/H{752 0 98 0 654 729 _sc
98 729 _m
197 729 _l
197 430 _l
555 430 _l
555 729 _l
654 729 _l
654 0 _l
555 0 _l
555 347 _l
197 347 _l
197 0 _l
98 0 _l
98 729 _l
_cl}_d
/S{{635 0 66 -13 579 742 _sc
535 705 _m
535 609 _l
497 627 462 640 429 649 _c
395 657 363 662 333 662 _c
279 662 237 651 208 631 _c
179 610 165 580 165 542 _c
165 510 174 485 194 469 _c
213 452 250 439 304 429 _c
364 417 _l
437 403 491 378 526 343 _c
561 307 579 260 579 201 _c
579 130 555 77 508 41 _c
460 5 391 -13 300 -13 _c
265 -13 228 -9 189 -2 _c
}_e{150 5 110 16 69 32 _c
69 134 _l
109 111 148 94 186 83 _c
224 71 262 66 300 66 _c
356 66 399 77 430 99 _c
460 121 476 152 476 194 _c
476 230 465 258 443 278 _c
421 298 385 313 335 323 _c
275 335 _l
201 349 148 372 115 404 _c
82 435 66 478 66 534 _c
66 598 88 649 134 686 _c
179 723 242 742 322 742 _c
356 742 390 739 426 733 _c
461 727 497 717 535 705 _c
}_e{_cl}_e}_d
/a{{613 0 60 -13 522 560 _sc
343 275 _m
270 275 220 266 192 250 _c
164 233 150 205 150 165 _c
150 133 160 107 181 89 _c
202 70 231 61 267 61 _c
317 61 357 78 387 114 _c
417 149 432 196 432 255 _c
432 275 _l
343 275 _l
522 312 _m
522 0 _l
432 0 _l
432 83 _l
411 49 385 25 355 10 _c
325 -5 287 -13 243 -13 _c
187 -13 142 2 109 33 _c
76 64 60 106 60 159 _c
}_e{60 220 80 266 122 298 _c
163 329 224 345 306 345 _c
432 345 _l
432 354 _l
432 395 418 427 391 450 _c
364 472 326 484 277 484 _c
245 484 215 480 185 472 _c
155 464 127 453 100 439 _c
100 522 _l
132 534 164 544 195 550 _c
226 556 256 560 286 560 _c
365 560 424 539 463 498 _c
502 457 522 395 522 312 _c
_cl}_e}_d
/b{{635 0 91 -13 580 760 _sc
487 273 _m
487 339 473 390 446 428 _c
418 466 381 485 334 485 _c
286 485 249 466 222 428 _c
194 390 181 339 181 273 _c
181 207 194 155 222 117 _c
249 79 286 61 334 61 _c
381 61 418 79 446 117 _c
473 155 487 207 487 273 _c
181 464 _m
199 496 223 520 252 536 _c
281 552 316 560 356 560 _c
422 560 476 533 518 481 _c
559 428 580 359 580 273 _c
}_e{580 187 559 117 518 65 _c
476 13 422 -13 356 -13 _c
316 -13 281 -5 252 10 _c
223 25 199 49 181 82 _c
181 0 _l
91 0 _l
91 760 _l
181 760 _l
181 464 _l
_cl}_e}_d
/c{{550 0 55 -13 488 560 _sc
488 526 _m
488 442 _l
462 456 437 466 411 473 _c
385 480 360 484 334 484 _c
276 484 230 465 198 428 _c
166 391 150 339 150 273 _c
150 206 166 154 198 117 _c
230 80 276 62 334 62 _c
360 62 385 65 411 72 _c
437 79 462 90 488 104 _c
488 21 _l
462 9 436 0 410 -5 _c
383 -10 354 -13 324 -13 _c
242 -13 176 12 128 64 _c
}_e{79 115 55 185 55 273 _c
55 362 79 432 128 483 _c
177 534 244 560 330 560 _c
358 560 385 557 411 551 _c
437 545 463 537 488 526 _c
_cl}_e}_d
/d{{635 0 55 -13 544 760 _sc
454 464 _m
454 760 _l
544 760 _l
544 0 _l
454 0 _l
454 82 _l
435 49 411 25 382 10 _c
353 -5 319 -13 279 -13 _c
213 -13 159 13 117 65 _c
75 117 55 187 55 273 _c
55 359 75 428 117 481 _c
159 533 213 560 279 560 _c
319 560 353 552 382 536 _c
411 520 435 496 454 464 _c
148 273 _m
148 207 161 155 188 117 _c
215 79 253 61 301 61 _c
}_e{348 61 385 79 413 117 _c
440 155 454 207 454 273 _c
454 339 440 390 413 428 _c
385 466 348 485 301 485 _c
253 485 215 466 188 428 _c
161 390 148 339 148 273 _c
_cl}_e}_d
/e{{615 0 55 -13 562 560 _sc
562 296 _m
562 252 _l
149 252 _l
153 190 171 142 205 110 _c
238 78 284 62 344 62 _c
378 62 412 66 444 74 _c
476 82 509 95 541 113 _c
541 28 _l
509 14 476 3 442 -3 _c
408 -9 373 -13 339 -13 _c
251 -13 182 12 131 62 _c
80 112 55 181 55 268 _c
55 357 79 428 127 481 _c
175 533 241 560 323 560 _c
397 560 455 536 498 489 _c
}_e{540 441 562 377 562 296 _c
472 322 _m
471 371 457 410 431 440 _c
404 469 368 484 324 484 _c
274 484 234 469 204 441 _c
174 413 156 373 152 322 _c
472 322 _l
_cl}_e}_d
/f{352 0 23 0 371 760 _sc
371 760 _m
371 685 _l
285 685 _l
253 685 230 678 218 665 _c
205 652 199 629 199 595 _c
199 547 _l
347 547 _l
347 477 _l
199 477 _l
199 0 _l
109 0 _l
109 477 _l
23 477 _l
23 547 _l
109 547 _l
109 585 _l
109 645 123 690 151 718 _c
179 746 224 760 286 760 _c
371 760 _l
_cl}_d
/g{{635 0 55 -207 544 560 _sc
454 280 _m
454 344 440 395 414 431 _c
387 467 349 485 301 485 _c
253 485 215 467 188 431 _c
161 395 148 344 148 280 _c
148 215 161 165 188 129 _c
215 93 253 75 301 75 _c
349 75 387 93 414 129 _c
440 165 454 215 454 280 _c
544 68 _m
544 -24 523 -93 482 -139 _c
440 -184 377 -207 292 -207 _c
260 -207 231 -204 203 -200 _c
175 -195 147 -188 121 -178 _c
}_e{121 -91 _l
147 -105 173 -115 199 -122 _c
225 -129 251 -133 278 -133 _c
336 -133 380 -117 410 -87 _c
439 -56 454 -10 454 52 _c
454 96 _l
435 64 411 40 382 24 _c
353 8 319 0 279 0 _c
211 0 157 25 116 76 _c
75 127 55 195 55 280 _c
55 364 75 432 116 483 _c
157 534 211 560 279 560 _c
319 560 353 552 382 536 _c
411 520 435 496 454 464 _c
454 547 _l
544 547 _l
}_e{544 68 _l
_cl}_e}_d
/h{634 0 91 0 549 760 _sc
549 330 _m
549 0 _l
459 0 _l
459 327 _l
459 379 448 417 428 443 _c
408 469 378 482 338 482 _c
289 482 251 466 223 435 _c
195 404 181 362 181 309 _c
181 0 _l
91 0 _l
91 760 _l
181 760 _l
181 462 _l
202 494 227 519 257 535 _c
286 551 320 560 358 560 _c
420 560 468 540 500 501 _c
532 462 549 405 549 330 _c
_cl}_d
/i{278 0 94 0 184 760 _sc
94 547 _m
184 547 _l
184 0 _l
94 0 _l
94 547 _l
94 760 _m
184 760 _l
184 646 _l
94 646 _l
94 760 _l
_cl}_d
/k{579 0 91 0 576 760 _sc
91 760 _m
181 760 _l
181 311 _l
449 547 _l
564 547 _l
274 291 _l
576 0 _l
459 0 _l
181 267 _l
181 0 _l
91 0 _l
91 760 _l
_cl}_d
/l{278 0 94 0 184 760 _sc
94 760 _m
184 760 _l
184 0 _l
94 0 _l
94 760 _l
_cl}_d
/m{{974 0 91 0 889 560 _sc
520 442 _m
542 482 569 511 600 531 _c
631 550 668 560 711 560 _c
767 560 811 540 842 500 _c
873 460 889 403 889 330 _c
889 0 _l
799 0 _l
799 327 _l
799 379 789 418 771 444 _c
752 469 724 482 686 482 _c
639 482 602 466 575 435 _c
548 404 535 362 535 309 _c
535 0 _l
445 0 _l
445 327 _l
445 379 435 418 417 444 _c
398 469 369 482 331 482 _c
}_e{285 482 248 466 221 435 _c
194 404 181 362 181 309 _c
181 0 _l
91 0 _l
91 547 _l
181 547 _l
181 462 _l
201 495 226 520 255 536 _c
283 552 317 560 357 560 _c
397 560 430 550 458 530 _c
486 510 506 480 520 442 _c
_cl}_e}_d
/n{634 0 91 0 549 560 _sc
549 330 _m
549 0 _l
459 0 _l
459 327 _l
459 379 448 417 428 443 _c
408 469 378 482 338 482 _c
289 482 251 466 223 435 _c
195 404 181 362 181 309 _c
181 0 _l
91 0 _l
91 547 _l
181 547 _l
181 462 _l
202 494 227 519 257 535 _c
286 551 320 560 358 560 _c
420 560 468 540 500 501 _c
532 462 549 405 549 330 _c
_cl}_d
/o{612 0 55 -13 557 560 _sc
306 484 _m
258 484 220 465 192 427 _c
164 389 150 338 150 273 _c
150 207 163 156 191 118 _c
219 80 257 62 306 62 _c
354 62 392 80 420 118 _c
448 156 462 207 462 273 _c
462 337 448 389 420 427 _c
392 465 354 484 306 484 _c
306 560 _m
384 560 445 534 490 484 _c
534 433 557 363 557 273 _c
557 183 534 113 490 63 _c
445 12 384 -13 306 -13 _c
227 -13 165 12 121 63 _c
77 113 55 183 55 273 _c
55 363 77 433 121 484 _c
165 534 227 560 306 560 _c
_cl}_d
/p{{635 0 91 -207 580 560 _sc
181 82 _m
181 -207 _l
91 -207 _l
91 547 _l
181 547 _l
181 464 _l
199 496 223 520 252 536 _c
281 552 316 560 356 560 _c
422 560 476 533 518 481 _c
559 428 580 359 580 273 _c
580 187 559 117 518 65 _c
476 13 422 -13 356 -13 _c
316 -13 281 -5 252 10 _c
223 25 199 49 181 82 _c
487 273 _m
487 339 473 390 446 428 _c
418 466 381 485 334 485 _c
}_e{286 485 249 466 222 428 _c
194 390 181 339 181 273 _c
181 207 194 155 222 117 _c
249 79 286 61 334 61 _c
381 61 418 79 446 117 _c
473 155 487 207 487 273 _c
_cl}_e}_d
/q{{635 0 55 -207 544 560 _sc
148 273 _m
148 207 161 155 188 117 _c
215 79 253 61 301 61 _c
348 61 385 79 413 117 _c
440 155 454 207 454 273 _c
454 339 440 390 413 428 _c
385 466 348 485 301 485 _c
253 485 215 466 188 428 _c
161 390 148 339 148 273 _c
454 82 _m
435 49 411 25 382 10 _c
353 -5 319 -13 279 -13 _c
213 -13 159 13 117 65 _c
75 117 55 187 55 273 _c
}_e{55 359 75 428 117 481 _c
159 533 213 560 279 560 _c
319 560 353 552 382 536 _c
411 520 435 496 454 464 _c
454 547 _l
544 547 _l
544 -207 _l
454 -207 _l
454 82 _l
_cl}_e}_d
/r{411 0 91 0 411 560 _sc
411 463 _m
401 469 390 473 378 476 _c
366 478 353 480 339 480 _c
288 480 249 463 222 430 _c
194 397 181 350 181 288 _c
181 0 _l
91 0 _l
91 547 _l
181 547 _l
181 462 _l
199 495 224 520 254 536 _c
284 552 321 560 365 560 _c
371 560 378 559 386 559 _c
393 558 401 557 411 555 _c
411 463 _l
_cl}_d
/s{{521 0 54 -13 472 560 _sc
443 531 _m
443 446 _l
417 458 391 468 364 475 _c
336 481 308 485 279 485 _c
234 485 200 478 178 464 _c
156 450 145 430 145 403 _c
145 382 153 366 169 354 _c
185 342 217 330 265 320 _c
296 313 _l
360 299 405 279 432 255 _c
458 230 472 195 472 151 _c
472 100 452 60 412 31 _c
372 1 316 -13 246 -13 _c
216 -13 186 -10 154 -5 _c
}_e{122 0 89 8 54 20 _c
54 113 _l
87 95 120 82 152 74 _c
184 65 216 61 248 61 _c
290 61 323 68 346 82 _c
368 96 380 117 380 144 _c
380 168 371 187 355 200 _c
339 213 303 226 247 238 _c
216 245 _l
160 257 119 275 95 299 _c
70 323 58 356 58 399 _c
58 450 76 490 112 518 _c
148 546 200 560 268 560 _c
301 560 332 557 362 552 _c
391 547 418 540 443 531 _c
}_e{_cl}_e}_d
/t{392 0 27 0 368 702 _sc
183 702 _m
183 547 _l
368 547 _l
368 477 _l
183 477 _l
183 180 _l
183 135 189 106 201 94 _c
213 81 238 75 276 75 _c
368 75 _l
368 0 _l
276 0 _l
206 0 158 13 132 39 _c
106 65 93 112 93 180 _c
93 477 _l
27 477 _l
27 547 _l
93 547 _l
93 702 _l
183 702 _l
_cl}_d
/u{634 0 85 -13 543 547 _sc
85 216 _m
85 547 _l
175 547 _l
175 219 _l
175 167 185 129 205 103 _c
225 77 255 64 296 64 _c
344 64 383 79 411 110 _c
439 141 453 183 453 237 _c
453 547 _l
543 547 _l
543 0 _l
453 0 _l
453 84 _l
431 50 405 26 377 10 _c
348 -5 315 -13 277 -13 _c
214 -13 166 6 134 45 _c
101 83 85 140 85 216 _c
_cl}_d
/y{592 0 30 -207 562 547 _sc
322 -50 _m
296 -114 271 -157 247 -177 _c
223 -197 191 -207 151 -207 _c
79 -207 _l
79 -132 _l
132 -132 _l
156 -132 175 -126 189 -114 _c
203 -102 218 -75 235 -31 _c
251 9 _l
30 547 _l
125 547 _l
296 119 _l
467 547 _l
562 547 _l
322 -50 _l
_cl}_d
end readonly def

/BuildGlyph
 {exch begin
 CharStrings exch
 2 copy known not{pop /.notdef}if
 true 3 1 roll get exec
 end}_d

/BuildChar {
 1 index /Encoding get exch get
 1 index /BuildGlyph get exec
}_d

FontName currentdict end definefont pop
end
%%EndProlog
mpldict begin
-115.2 126 translate
842.4 540 0 0 clipbox
gsave
0 0 m
842.4 0 l
842.4 540 l
0 540 l
cl
1.000 setgray
fill
grestore
gsave
105.3 54 m
758.16 54 l
758.16 486 l
105.3 486 l
cl
1.000 setgray
fill
grestore
1.000 setlinewidth
1 setlinejoin
2 setlinecap
[] 0 setdash
0.000 0.000 1.000 setrgbcolor
gsave
652.9 432 105.3 54 clipbox
105.3 453.116 m
111.829 423.788 l
118.357 404.077 l
124.886 388.043 l
131.414 374.111 l
137.943 361.583 l
144.472 350.076 l
151 339.352 l
157.529 329.253 l
164.057 319.666 l
170.586 310.508 l
177.115 301.716 l
183.643 293.239 l
190.172 285.039 l
196.7 277.082 l
203.229 269.342 l
209.758 261.794 l
216.286 254.421 l
222.815 247.205 l
229.343 240.132 l
235.872 233.19 l
242.401 226.367 l
248.929 219.652 l
255.458 213.039 l
261.986 206.518 l
268.515 200.082 l
275.044 193.726 l
281.572 187.442 l
288.101 181.226 l
294.629 175.071 l
301.158 168.973 l
307.687 162.931 l
314.215 156.937 l
320.744 150.988 l
327.272 145.084 l
333.801 139.215 l
340.33 133.387 l
346.858 127.593 l
353.387 121.816 l
359.915 116.075 l
366.444 110.359 l
372.973 104.665 l
379.501 98.9868 l
386.03 93.3265 l
392.558 87.6853 l
399.087 82.0529 l
405.616 76.4311 l
412.144 70.8389 l
418.673 65.2269 l
425.201 59.6227 l
431.73 54.5507 l
438.259 59.6211 l
444.787 65.2218 l
451.316 70.8151 l
457.844 76.4264 l
464.373 82.0471 l
470.902 87.6824 l
477.43 93.3214 l
483.959 98.9818 l
490.487 104.658 l
497.016 110.354 l
503.545 116.073 l
510.073 121.815 l
516.602 127.583 l
523.13 133.382 l
529.659 139.214 l
536.188 145.081 l
542.716 150.987 l
549.245 156.936 l
555.773 162.93 l
562.302 168.973 l
568.831 175.07 l
575.359 181.224 l
581.888 187.442 l
588.416 193.725 l
594.945 200.083 l
601.474 206.518 l
608.002 213.039 l
614.531 219.653 l
621.059 226.367 l
627.588 233.191 l
634.117 240.132 l
640.645 247.206 l
647.174 254.421 l
653.702 261.795 l
660.231 269.342 l
666.76 277.083 l
673.288 285.04 l
679.817 293.24 l
686.345 301.716 l
692.874 310.508 l
699.403 319.666 l
705.931 329.253 l
712.46 339.352 l
718.988 350.076 l
725.517 361.583 l
732.046 374.111 l
738.574 388.043 l
745.103 404.077 l
751.631 423.788 l
758.16 453.116 l
stroke
grestore
0.500 setlinewidth
0 setlinecap
0.000 setgray
gsave
652.9 432 105.3 54 clipbox
/o {
gsave
newpath
translate
0.5 setlinewidth
1 setlinejoin
0 setlinecap
0 -2.5 m
0.663008 -2.5 1.29895 -2.23658 1.76777 -1.76777 c
2.23658 -1.29895 2.5 -0.663008 2.5 0 c
2.5 0.663008 2.23658 1.29895 1.76777 1.76777 c
1.29895 2.23658 0.663008 2.5 0 2.5 c
-0.663008 2.5 -1.29895 2.23658 -1.76777 1.76777 c
-2.23658 1.29895 -2.5 0.663008 -2.5 0 c
-2.5 -0.663008 -2.23658 -1.29895 -1.76777 -1.76777 c
-1.29895 -2.23658 -0.663008 -2.5 0 -2.5 c
cl
gsave
0.000 0.000 1.000 setrgbcolor
fill
grestore
stroke
grestore
} bind def
105.3 453.116 o
111.829 423.788 o
118.357 404.077 o
124.886 388.043 o
131.414 374.111 o
137.943 361.583 o
144.472 350.076 o
151 339.352 o
157.529 329.253 o
164.057 319.666 o
170.586 310.508 o
177.115 301.716 o
183.643 293.239 o
190.172 285.039 o
196.7 277.082 o
203.229 269.342 o
209.758 261.794 o
216.286 254.421 o
222.815 247.205 o
229.343 240.132 o
235.872 233.19 o
242.401 226.367 o
248.929 219.652 o
255.458 213.039 o
261.986 206.518 o
268.515 200.082 o
275.044 193.726 o
281.572 187.442 o
288.101 181.226 o
294.629 175.071 o
301.158 168.973 o
307.687 162.931 o
314.215 156.937 o
320.744 150.988 o
327.272 145.084 o
333.801 139.215 o
340.33 133.387 o
346.858 127.593 o
353.387 121.816 o
359.915 116.075 o
366.444 110.359 o
372.973 104.665 o
379.501 98.9868 o
386.03 93.3265 o
392.558 87.6853 o
399.087 82.0529 o
405.616 76.4311 o
412.144 70.8389 o
418.673 65.2269 o
425.201 59.6227 o
431.73 54.5507 o
438.259 59.6211 o
444.787 65.2218 o
451.316 70.8151 o
457.844 76.4264 o
464.373 82.0471 o
470.902 87.6824 o
477.43 93.3214 o
483.959 98.9818 o
490.487 104.658 o
497.016 110.354 o
503.545 116.073 o
510.073 121.815 o
516.602 127.583 o
523.13 133.382 o
529.659 139.214 o
536.188 145.081 o
542.716 150.987 o
549.245 156.936 o
555.773 162.93 o
562.302 168.973 o
568.831 175.07 o
575.359 181.224 o
581.888 187.442 o
588.416 193.725 o
594.945 200.083 o
601.474 206.518 o
608.002 213.039 o
614.531 219.653 o
621.059 226.367 o
627.588 233.191 o
634.117 240.132 o
640.645 247.206 o
647.174 254.421 o
653.702 261.795 o
660.231 269.342 o
666.76 277.083 o
673.288 285.04 o
679.817 293.24 o
686.345 301.716 o
692.874 310.508 o
699.403 319.666 o
705.931 329.253 o
712.46 339.352 o
718.988 350.076 o
725.517 361.583 o
732.046 374.111 o
738.574 388.043 o
745.103 404.077 o
751.631 423.788 o
758.16 453.116 o
grestore
1.000 setlinewidth
2 setlinecap
0.000 0.500 0.000 setrgbcolor
gsave
652.9 432 105.3 54 clipbox
105.3 482.618 m
111.829 474.012 l
118.357 465.408 l
124.886 456.804 l
131.414 448.201 l
137.943 439.595 l
144.472 430.99 l
151 422.393 l
157.529 413.789 l
164.057 405.19 l
170.586 396.592 l
177.115 387.995 l
183.643 379.399 l
190.172 370.802 l
196.7 362.208 l
203.229 353.618 l
209.758 345.026 l
216.286 336.433 l
222.815 327.845 l
229.343 319.256 l
235.872 310.673 l
242.401 302.087 l
248.929 293.497 l
255.458 284.924 l
261.986 276.333 l
268.515 267.754 l
275.044 259.169 l
281.572 250.601 l
288.101 242.018 l
294.629 233.451 l
301.158 224.878 l
307.687 216.303 l
314.215 207.732 l
320.744 199.172 l
327.272 190.621 l
333.801 182.052 l
340.33 173.489 l
346.858 164.937 l
353.387 156.376 l
359.915 147.827 l
366.444 139.283 l
372.973 130.748 l
379.501 122.205 l
386.03 113.673 l
392.558 105.236 l
399.087 96.6742 l
405.616 88.1477 l
412.144 79.6183 l
418.673 71.2127 l
425.201 64.2226 l
431.73 55.172 l
438.259 63.33 l
444.787 72.1633 l
451.316 81.1905 l
457.844 88.4771 l
464.373 96.7611 l
470.902 105.227 l
477.43 113.724 l
483.959 122.248 l
490.487 130.781 l
497.016 139.307 l
503.545 147.867 l
510.073 156.439 l
516.602 164.948 l
523.13 173.49 l
529.659 182.062 l
536.188 190.613 l
542.716 199.171 l
549.245 207.733 l
555.773 216.307 l
562.302 224.876 l
568.831 233.441 l
575.359 242.014 l
581.888 250.592 l
588.416 259.17 l
594.945 267.744 l
601.474 276.327 l
608.002 284.909 l
614.531 293.491 l
621.059 302.076 l
627.588 310.663 l
634.117 319.25 l
640.645 327.839 l
647.174 336.429 l
653.702 345.025 l
660.231 353.619 l
666.76 362.217 l
673.288 370.811 l
679.817 379.409 l
686.345 387.997 l
692.874 396.603 l
699.403 405.2 l
705.931 413.801 l
712.46 422.404 l
718.988 431.001 l
725.517 439.608 l
732.046 448.206 l
738.574 456.806 l
745.103 465.414 l
751.631 474.019 l
758.16 482.632 l
stroke
grestore
0.500 setlinewidth
0 setlinecap
0.000 setgray
gsave
652.9 432 105.3 54 clipbox
/o {
gsave
newpath
translate
0.5 setlinewidth
1 setlinejoin
0 setlinecap
0 -2.5 m
0.663008 -2.5 1.29895 -2.23658 1.76777 -1.76777 c
2.23658 -1.29895 2.5 -0.663008 2.5 0 c
2.5 0.663008 2.23658 1.29895 1.76777 1.76777 c
1.29895 2.23658 0.663008 2.5 0 2.5 c
-0.663008 2.5 -1.29895 2.23658 -1.76777 1.76777 c
-2.23658 1.29895 -2.5 0.663008 -2.5 0 c
-2.5 -0.663008 -2.23658 -1.29895 -1.76777 -1.76777 c
-1.29895 -2.23658 -0.663008 -2.5 0 -2.5 c
cl
gsave
0.000 0.500 0.000 setrgbcolor
fill
grestore
stroke
grestore
} bind def
105.3 482.618 o
111.829 474.012 o
118.357 465.408 o
124.886 456.804 o
131.414 448.201 o
137.943 439.595 o
144.472 430.99 o
151 422.393 o
157.529 413.789 o
164.057 405.19 o
170.586 396.592 o
177.115 387.995 o
183.643 379.399 o
190.172 370.802 o
196.7 362.208 o
203.229 353.618 o
209.758 345.026 o
216.286 336.433 o
222.815 327.845 o
229.343 319.256 o
235.872 310.673 o
242.401 302.087 o
248.929 293.497 o
255.458 284.924 o
261.986 276.333 o
268.515 267.754 o
275.044 259.169 o
281.572 250.601 o
288.101 242.018 o
294.629 233.451 o
301.158 224.878 o
307.687 216.303 o
314.215 207.732 o
320.744 199.172 o
327.272 190.621 o
333.801 182.052 o
340.33 173.489 o
346.858 164.937 o
353.387 156.376 o
359.915 147.827 o
366.444 139.283 o
372.973 130.748 o
379.501 122.205 o
386.03 113.673 o
392.558 105.236 o
399.087 96.6742 o
405.616 88.1477 o
412.144 79.6183 o
418.673 71.2127 o
425.201 64.2226 o
431.73 55.172 o
438.259 63.33 o
444.787 72.1633 o
451.316 81.1905 o
457.844 88.4771 o
464.373 96.7611 o
470.902 105.227 o
477.43 113.724 o
483.959 122.248 o
490.487 130.781 o
497.016 139.307 o
503.545 147.867 o
510.073 156.439 o
516.602 164.948 o
523.13 173.49 o
529.659 182.062 o
536.188 190.613 o
542.716 199.171 o
549.245 207.733 o
555.773 216.307 o
562.302 224.876 o
568.831 233.441 o
575.359 242.014 o
581.888 250.592 o
588.416 259.17 o
594.945 267.744 o
601.474 276.327 o
608.002 284.909 o
614.531 293.491 o
621.059 302.076 o
627.588 310.663 o
634.117 319.25 o
640.645 327.839 o
647.174 336.429 o
653.702 345.025 o
660.231 353.619 o
666.76 362.217 o
673.288 370.811 o
679.817 379.409 o
686.345 387.997 o
692.874 396.603 o
699.403 405.2 o
705.931 413.801 o
712.46 422.404 o
718.988 431.001 o
725.517 439.608 o
732.046 448.206 o
738.574 456.806 o
745.103 465.414 o
751.631 474.019 o
758.16 482.632 o
grestore
1.000 setlinewidth
2 setlinecap
1.000 0.000 0.000 setrgbcolor
gsave
652.9 432 105.3 54 clipbox
105.3 481.118 m
111.829 468.825 l
118.357 456.617 l
124.886 444.495 l
131.414 432.462 l
137.943 420.52 l
144.472 408.672 l
151 396.92 l
157.529 385.266 l
164.057 373.713 l
170.586 362.264 l
177.115 350.922 l
183.643 339.69 l
190.172 328.57 l
196.7 317.567 l
203.229 306.683 l
209.758 295.923 l
216.286 285.29 l
222.815 274.788 l
229.343 264.421 l
235.872 254.193 l
242.401 244.11 l
248.929 234.177 l
255.458 224.397 l
261.986 214.777 l
268.515 205.323 l
275.044 196.04 l
281.572 186.936 l
288.101 178.016 l
294.629 169.289 l
301.158 160.763 l
307.687 152.445 l
314.215 144.344 l
320.744 136.472 l
327.272 128.837 l
333.801 121.451 l
340.33 114.327 l
346.858 107.478 l
353.387 100.919 l
359.915 94.6667 l
366.444 88.7382 l
372.973 83.154 l
379.501 77.9368 l
386.03 73.1127 l
392.558 68.7114 l
399.087 64.7683 l
405.616 61.3257 l
412.144 58.4364 l
418.673 56.17 l
425.201 54.6274 l
431.73 54 l
438.259 54.6274 l
444.787 56.17 l
451.316 58.4364 l
457.844 61.3257 l
464.373 64.7683 l
470.902 68.7114 l
477.43 73.1127 l
483.959 77.9368 l
490.487 83.154 l
497.016 88.7382 l
503.545 94.6667 l
510.073 100.919 l
516.602 107.478 l
523.13 114.327 l
529.659 121.451 l
536.188 128.837 l
542.716 136.472 l
549.245 144.344 l
555.773 152.445 l
562.302 160.763 l
568.831 169.289 l
575.359 178.016 l
581.888 186.936 l
588.416 196.04 l
594.945 205.323 l
601.474 214.777 l
608.002 224.397 l
614.531 234.177 l
621.059 244.11 l
627.588 254.193 l
634.117 264.421 l
640.645 274.788 l
647.174 285.29 l
653.702 295.923 l
660.231 306.683 l
666.76 317.567 l
673.288 328.57 l
679.817 339.69 l
686.345 350.922 l
692.874 362.264 l
699.403 373.713 l
705.931 385.266 l
712.46 396.92 l
718.988 408.672 l
725.517 420.52 l
732.046 432.462 l
738.574 444.495 l
745.103 456.617 l
751.631 468.825 l
758.16 481.118 l
stroke
grestore
0.500 setlinewidth
0 setlinecap
0.000 setgray
gsave
652.9 432 105.3 54 clipbox
/o {
gsave
newpath
translate
0.5 setlinewidth
1 setlinejoin
0 setlinecap
0 -2.5 m
0.663008 -2.5 1.29895 -2.23658 1.76777 -1.76777 c
2.23658 -1.29895 2.5 -0.663008 2.5 0 c
2.5 0.663008 2.23658 1.29895 1.76777 1.76777 c
1.29895 2.23658 0.663008 2.5 0 2.5 c
-0.663008 2.5 -1.29895 2.23658 -1.76777 1.76777 c
-2.23658 1.29895 -2.5 0.663008 -2.5 0 c
-2.5 -0.663008 -2.23658 -1.29895 -1.76777 -1.76777 c
-1.29895 -2.23658 -0.663008 -2.5 0 -2.5 c
cl
gsave
1.000 0.000 0.000 setrgbcolor
fill
grestore
stroke
grestore
} bind def
105.3 481.118 o
111.829 468.825 o
118.357 456.617 o
124.886 444.495 o
131.414 432.462 o
137.943 420.52 o
144.472 408.672 o
151 396.92 o
157.529 385.266 o
164.057 373.713 o
170.586 362.264 o
177.115 350.922 o
183.643 339.69 o
190.172 328.57 o
196.7 317.567 o
203.229 306.683 o
209.758 295.923 o
216.286 285.29 o
222.815 274.788 o
229.343 264.421 o
235.872 254.193 o
242.401 244.11 o
248.929 234.177 o
255.458 224.397 o
261.986 214.777 o
268.515 205.323 o
275.044 196.04 o
281.572 186.936 o
288.101 178.016 o
294.629 169.289 o
301.158 160.763 o
307.687 152.445 o
314.215 144.344 o
320.744 136.472 o
327.272 128.837 o
333.801 121.451 o
340.33 114.327 o
346.858 107.478 o
353.387 100.919 o
359.915 94.6667 o
366.444 88.7382 o
372.973 83.154 o
379.501 77.9368 o
386.03 73.1127 o
392.558 68.7114 o
399.087 64.7683 o
405.616 61.3257 o
412.144 58.4364 o
418.673 56.17 o
425.201 54.6274 o
431.73 54 o
438.259 54.6274 o
444.787 56.17 o
451.316 58.4364 o
457.844 61.3257 o
464.373 64.7683 o
470.902 68.7114 o
477.43 73.1127 o
483.959 77.9368 o
490.487 83.154 o
497.016 88.7382 o
503.545 94.6667 o
510.073 100.919 o
516.602 107.478 o
523.13 114.327 o
529.659 121.451 o
536.188 128.837 o
542.716 136.472 o
549.245 144.344 o
555.773 152.445 o
562.302 160.763 o
568.831 169.289 o
575.359 178.016 o
581.888 186.936 o
588.416 196.04 o
594.945 205.323 o
601.474 214.777 o
608.002 224.397 o
614.531 234.177 o
621.059 244.11 o
627.588 254.193 o
634.117 264.421 o
640.645 274.788 o
647.174 285.29 o
653.702 295.923 o
660.231 306.683 o
666.76 317.567 o
673.288 328.57 o
679.817 339.69 o
686.345 350.922 o
692.874 362.264 o
699.403 373.713 o
705.931 385.266 o
712.46 396.92 o
718.988 408.672 o
725.517 420.52 o
732.046 432.462 o
738.574 444.495 o
745.103 456.617 o
751.631 468.825 o
758.16 481.118 o
grestore
1.000 setlinewidth
2 setlinecap
0.000 0.750 0.750 setrgbcolor
gsave
652.9 432 105.3 54 clipbox
105.3 481.125 m
111.829 448.388 l
118.357 422.543 l
124.886 399.935 l
131.414 379.468 l
137.943 360.595 l
144.472 343.044 l
151 326.609 l
157.529 311.064 l
164.057 296.316 l
170.586 282.355 l
177.115 269.088 l
183.643 256.458 l
190.172 244.403 l
196.7 232.917 l
203.229 221.941 l
209.758 211.447 l
216.286 201.4 l
222.815 191.81 l
229.343 182.643 l
235.872 173.847 l
242.401 165.42 l
248.929 157.369 l
255.458 149.682 l
261.986 142.346 l
268.515 135.352 l
275.044 128.691 l
281.572 122.354 l
288.101 116.333 l
294.629 110.63 l
301.158 105.214 l
307.687 100.101 l
314.215 95.2804 l
320.744 90.7414 l
327.272 86.4749 l
333.801 82.4862 l
340.33 78.7715 l
346.858 75.3272 l
353.387 72.1447 l
359.915 69.2218 l
366.444 66.5717 l
372.973 64.1814 l
379.501 62.0487 l
386.03 60.1686 l
392.558 58.5362 l
399.087 57.1586 l
405.616 56.0406 l
412.144 55.1731 l
418.673 54.5561 l
425.201 54.1705 l
431.73 54.0468 l
438.259 54.1724 l
444.787 54.5474 l
451.316 55.1776 l
457.844 56.0526 l
464.373 57.1783 l
470.902 58.556 l
477.43 60.1866 l
483.959 62.0716 l
490.487 64.2124 l
497.016 66.6097 l
503.545 69.2532 l
510.073 72.1588 l
516.602 75.3289 l
523.13 78.7663 l
529.659 82.4696 l
536.188 86.4426 l
542.716 90.695 l
549.245 95.2417 l
555.773 100.07 l
562.302 105.189 l
568.831 110.604 l
575.359 116.322 l
581.888 122.35 l
588.416 128.695 l
594.945 135.342 l
601.474 142.316 l
608.002 149.631 l
614.531 157.3 l
621.059 165.331 l
627.588 173.737 l
634.117 182.534 l
640.645 191.759 l
647.174 201.374 l
653.702 211.401 l
660.231 221.905 l
666.76 232.899 l
673.288 244.41 l
679.817 256.461 l
686.345 269.086 l
692.874 282.351 l
699.403 296.313 l
705.931 311.037 l
712.46 326.609 l
718.988 343.13 l
725.517 360.721 l
732.046 379.606 l
738.574 400.093 l
745.103 422.749 l
751.631 448.484 l
758.16 481.12 l
stroke
grestore
0.500 setlinewidth
0 setlinecap
0.000 setgray
gsave
652.9 432 105.3 54 clipbox
/o {
gsave
newpath
translate
0.5 setlinewidth
1 setlinejoin
0 setlinecap
0 -2.5 m
0.663008 -2.5 1.29895 -2.23658 1.76777 -1.76777 c
2.23658 -1.29895 2.5 -0.663008 2.5 0 c
2.5 0.663008 2.23658 1.29895 1.76777 1.76777 c
1.29895 2.23658 0.663008 2.5 0 2.5 c
-0.663008 2.5 -1.29895 2.23658 -1.76777 1.76777 c
-2.23658 1.29895 -2.5 0.663008 -2.5 0 c
-2.5 -0.663008 -2.23658 -1.29895 -1.76777 -1.76777 c
-1.29895 -2.23658 -0.663008 -2.5 0 -2.5 c
cl
gsave
0.000 0.750 0.750 setrgbcolor
fill
grestore
stroke
grestore
} bind def
105.3 481.125 o
111.829 448.388 o
118.357 422.543 o
124.886 399.935 o
131.414 379.468 o
137.943 360.595 o
144.472 343.044 o
151 326.609 o
157.529 311.064 o
164.057 296.316 o
170.586 282.355 o
177.115 269.088 o
183.643 256.458 o
190.172 244.403 o
196.7 232.917 o
203.229 221.941 o
209.758 211.447 o
216.286 201.4 o
222.815 191.81 o
229.343 182.643 o
235.872 173.847 o
242.401 165.42 o
248.929 157.369 o
255.458 149.682 o
261.986 142.346 o
268.515 135.352 o
275.044 128.691 o
281.572 122.354 o
288.101 116.333 o
294.629 110.63 o
301.158 105.214 o
307.687 100.101 o
314.215 95.2804 o
320.744 90.7414 o
327.272 86.4749 o
333.801 82.4862 o
340.33 78.7715 o
346.858 75.3272 o
353.387 72.1447 o
359.915 69.2218 o
366.444 66.5717 o
372.973 64.1814 o
379.501 62.0487 o
386.03 60.1686 o
392.558 58.5362 o
399.087 57.1586 o
405.616 56.0406 o
412.144 55.1731 o
418.673 54.5561 o
425.201 54.1705 o
431.73 54.0468 o
438.259 54.1724 o
444.787 54.5474 o
451.316 55.1776 o
457.844 56.0526 o
464.373 57.1783 o
470.902 58.556 o
477.43 60.1866 o
483.959 62.0716 o
490.487 64.2124 o
497.016 66.6097 o
503.545 69.2532 o
510.073 72.1588 o
516.602 75.3289 o
523.13 78.7663 o
529.659 82.4696 o
536.188 86.4426 o
542.716 90.695 o
549.245 95.2417 o
555.773 100.07 o
562.302 105.189 o
568.831 110.604 o
575.359 116.322 o
581.888 122.35 o
588.416 128.695 o
594.945 135.342 o
601.474 142.316 o
608.002 149.631 o
614.531 157.3 o
621.059 165.331 o
627.588 173.737 o
634.117 182.534 o
640.645 191.759 o
647.174 201.374 o
653.702 211.401 o
660.231 221.905 o
666.76 232.899 o
673.288 244.41 o
679.817 256.461 o
686.345 269.086 o
692.874 282.351 o
699.403 296.313 o
705.931 311.037 o
712.46 326.609 o
718.988 343.13 o
725.517 360.721 o
732.046 379.606 o
738.574 400.093 o
745.103 422.749 o
751.631 448.484 o
758.16 481.12 o
grestore
1.000 setlinewidth
2 setlinecap
0.750 0.000 0.750 setrgbcolor
gsave
652.9 432 105.3 54 clipbox
105.3 453.116 m
111.829 416.39 l
118.357 394.657 l
124.886 377.429 l
131.414 362.602 l
137.943 349.385 l
144.472 337.334 l
151 326.177 l
157.529 315.734 l
164.057 305.877 l
170.586 296.51 l
177.115 287.563 l
183.643 278.978 l
190.172 270.712 l
196.7 262.727 l
203.229 254.992 l
209.758 247.482 l
216.286 240.176 l
222.815 233.055 l
229.343 226.103 l
235.872 219.307 l
242.401 212.652 l
248.929 206.129 l
255.458 199.729 l
261.986 193.442 l
268.515 187.261 l
275.044 181.179 l
281.572 175.19 l
288.101 169.287 l
294.629 163.466 l
301.158 157.723 l
307.687 152.052 l
314.215 146.448 l
320.744 140.909 l
327.272 135.437 l
333.801 130.021 l
340.33 124.657 l
346.858 119.349 l
353.387 114.085 l
359.915 108.871 l
366.444 103.694 l
372.973 98.5589 l
379.501 93.4707 l
386.03 88.4205 l
392.558 83.4088 l
399.087 78.4674 l
405.616 73.5206 l
412.144 68.6156 l
418.673 64.0505 l
425.201 59.0248 l
431.73 55.0864 l
438.259 59.0065 l
444.787 64.003 l
451.316 68.6245 l
457.844 73.5146 l
464.373 78.4584 l
470.902 83.4354 l
477.43 88.4456 l
483.959 93.4877 l
490.487 98.5779 l
497.016 103.708 l
503.545 108.884 l
510.073 114.102 l
516.602 119.339 l
523.13 124.654 l
529.659 130.014 l
536.188 135.439 l
542.716 140.913 l
549.245 146.452 l
555.773 152.055 l
562.302 157.726 l
568.831 163.468 l
575.359 169.288 l
581.888 175.191 l
588.416 181.185 l
594.945 187.268 l
601.474 193.446 l
608.002 199.733 l
614.531 206.134 l
621.059 212.654 l
627.588 219.309 l
634.117 226.105 l
640.645 233.057 l
647.174 240.178 l
653.702 247.483 l
660.231 254.995 l
666.76 262.728 l
673.288 270.712 l
679.817 278.979 l
686.345 287.563 l
692.874 296.51 l
699.403 305.876 l
705.931 315.734 l
712.46 326.177 l
718.988 337.334 l
725.517 349.386 l
732.046 362.602 l
738.574 377.424 l
745.103 394.652 l
751.631 416.141 l
758.16 453.116 l
stroke
grestore
0.500 setlinewidth
0 setlinecap
0.000 setgray
gsave
652.9 432 105.3 54 clipbox
/o {
gsave
newpath
translate
0.5 setlinewidth
1 setlinejoin
0 setlinecap
0 -2.5 m
0.663008 -2.5 1.29895 -2.23658 1.76777 -1.76777 c
2.23658 -1.29895 2.5 -0.663008 2.5 0 c
2.5 0.663008 2.23658 1.29895 1.76777 1.76777 c
1.29895 2.23658 0.663008 2.5 0 2.5 c
-0.663008 2.5 -1.29895 2.23658 -1.76777 1.76777 c
-2.23658 1.29895 -2.5 0.663008 -2.5 0 c
-2.5 -0.663008 -2.23658 -1.29895 -1.76777 -1.76777 c
-1.29895 -2.23658 -0.663008 -2.5 0 -2.5 c
cl
gsave
0.750 0.000 0.750 setrgbcolor
fill
grestore
stroke
grestore
} bind def
105.3 453.116 o
111.829 416.39 o
118.357 394.657 o
124.886 377.429 o
131.414 362.602 o
137.943 349.385 o
144.472 337.334 o
151 326.177 o
157.529 315.734 o
164.057 305.877 o
170.586 296.51 o
177.115 287.563 o
183.643 278.978 o
190.172 270.712 o
196.7 262.727 o
203.229 254.992 o
209.758 247.482 o
216.286 240.176 o
222.815 233.055 o
229.343 226.103 o
235.872 219.307 o
242.401 212.652 o
248.929 206.129 o
255.458 199.729 o
261.986 193.442 o
268.515 187.261 o
275.044 181.179 o
281.572 175.19 o
288.101 169.287 o
294.629 163.466 o
301.158 157.723 o
307.687 152.052 o
314.215 146.448 o
320.744 140.909 o
327.272 135.437 o
333.801 130.021 o
340.33 124.657 o
346.858 119.349 o
353.387 114.085 o
359.915 108.871 o
366.444 103.694 o
372.973 98.5589 o
379.501 93.4707 o
386.03 88.4205 o
392.558 83.4088 o
399.087 78.4674 o
405.616 73.5206 o
412.144 68.6156 o
418.673 64.0505 o
425.201 59.0248 o
431.73 55.0864 o
438.259 59.0065 o
444.787 64.003 o
451.316 68.6245 o
457.844 73.5146 o
464.373 78.4584 o
470.902 83.4354 o
477.43 88.4456 o
483.959 93.4877 o
490.487 98.5779 o
497.016 103.708 o
503.545 108.884 o
510.073 114.102 o
516.602 119.339 o
523.13 124.654 o
529.659 130.014 o
536.188 135.439 o
542.716 140.913 o
549.245 146.452 o
555.773 152.055 o
562.302 157.726 o
568.831 163.468 o
575.359 169.288 o
581.888 175.191 o
588.416 181.185 o
594.945 187.268 o
601.474 193.446 o
608.002 199.733 o
614.531 206.134 o
621.059 212.654 o
627.588 219.309 o
634.117 226.105 o
640.645 233.057 o
647.174 240.178 o
653.702 247.483 o
660.231 254.995 o
666.76 262.728 o
673.288 270.712 o
679.817 278.979 o
686.345 287.563 o
692.874 296.51 o
699.403 305.876 o
705.931 315.734 o
712.46 326.177 o
718.988 337.334 o
725.517 349.386 o
732.046 362.602 o
738.574 377.424 o
745.103 394.652 o
751.631 416.141 o
758.16 453.116 o
grestore
gsave
/o {
gsave
newpath
translate
0.5 setlinewidth
1 setlinejoin
0 setlinecap
0 0 m
0 4 l
gsave
0.000 setgray
fill
grestore
stroke
grestore
} bind def
105.3 54 o
grestore
gsave
/o {
gsave
newpath
translate
0.5 setlinewidth
1 setlinejoin
0 setlinecap
0 0 m
0 -4 l
gsave
0.000 setgray
fill
grestore
stroke
grestore
} bind def
105.3 486 o
grestore
/BitstreamVeraSans-Roman findfont
12.000 scalefont
setfont
gsave
96.550000 40.921875 translate
0.000000 rotate
0.000000 0.171875 m /zero glyphshow
7.634766 0.171875 m /period glyphshow
11.449219 0.171875 m /zero glyphshow
grestore
gsave
/o {
gsave
newpath
translate
0.5 setlinewidth
1 setlinejoin
0 setlinecap
0 0 m
0 4 l
gsave
0.000 setgray
fill
grestore
stroke
grestore
} bind def
235.872 54 o
grestore
gsave
/o {
gsave
newpath
translate
0.5 setlinewidth
1 setlinejoin
0 setlinecap
0 0 m
0 -4 l
gsave
0.000 setgray
fill
grestore
stroke
grestore
} bind def
235.872 486 o
grestore
gsave
227.325125 40.921875 translate
0.000000 rotate
0.000000 0.171875 m /zero glyphshow
7.634766 0.171875 m /period glyphshow
11.449219 0.171875 m /two glyphshow
grestore
gsave
/o {
gsave
newpath
translate
0.5 setlinewidth
1 setlinejoin
0 setlinecap
0 0 m
0 4 l
gsave
0.000 setgray
fill
grestore
stroke
grestore
} bind def
366.444 54 o
grestore
gsave
/o {
gsave
newpath
translate
0.5 setlinewidth
1 setlinejoin
0 setlinecap
0 0 m
0 -4 l
gsave
0.000 setgray
fill
grestore
stroke
grestore
} bind def
366.444 486 o
grestore
gsave
357.631500 40.921875 translate
0.000000 rotate
0.000000 0.171875 m /zero glyphshow
7.634766 0.171875 m /period glyphshow
11.449219 0.171875 m /four glyphshow
grestore
gsave
/o {
gsave
newpath
translate
0.5 setlinewidth
1 setlinejoin
0 setlinecap
0 0 m
0 4 l
gsave
0.000 setgray
fill
grestore
stroke
grestore
} bind def
497.016 54 o
grestore
gsave
/o {
gsave
newpath
translate
0.5 setlinewidth
1 setlinejoin
0 setlinecap
0 0 m
0 -4 l
gsave
0.000 setgray
fill
grestore
stroke
grestore
} bind def
497.016 486 o
grestore
gsave
488.250375 40.921875 translate
0.000000 rotate
0.000000 0.171875 m /zero glyphshow
7.634766 0.171875 m /period glyphshow
11.449219 0.171875 m /six glyphshow
grestore
gsave
/o {
gsave
newpath
translate
0.5 setlinewidth
1 setlinejoin
0 setlinecap
0 0 m
0 4 l
gsave
0.000 setgray
fill
grestore
stroke
grestore
} bind def
627.588 54 o
grestore
gsave
/o {
gsave
newpath
translate
0.5 setlinewidth
1 setlinejoin
0 setlinecap
0 0 m
0 -4 l
gsave
0.000 setgray
fill
grestore
stroke
grestore
} bind def
627.588 486 o
grestore
gsave
618.853625 40.921875 translate
0.000000 rotate
0.000000 0.171875 m /zero glyphshow
7.634766 0.171875 m /period glyphshow
11.449219 0.171875 m /eight glyphshow
grestore
gsave
/o {
gsave
newpath
translate
0.5 setlinewidth
1 setlinejoin
0 setlinecap
0 0 m
0 4 l
gsave
0.000 setgray
fill
grestore
stroke
grestore
} bind def
758.16 54 o
grestore
gsave
/o {
gsave
newpath
translate
0.5 setlinewidth
1 setlinejoin
0 setlinecap
0 0 m
0 -4 l
gsave
0.000 setgray
fill
grestore
stroke
grestore
} bind def
758.16 486 o
grestore
gsave
749.667812 40.921875 translate
0.000000 rotate
0.000000 0.171875 m /one glyphshow
7.634766 0.171875 m /period glyphshow
11.449219 0.171875 m /zero glyphshow
grestore
gsave
397.964375 26.703125 translate
0.000000 rotate
0.000000 2.500000 m /q glyphshow
7.617188 2.500000 m /comma glyphshow
11.431641 2.500000 m /space glyphshow
15.246094 2.500000 m /q glyphshow
22.863281 2.500000 m /comma glyphshow
26.677734 2.500000 m /space glyphshow
30.492188 2.500000 m /q glyphshow
38.109375 2.500000 m /comma glyphshow
41.923828 2.500000 m /space glyphshow
45.738281 2.500000 m /q glyphshow
53.355469 2.500000 m /comma glyphshow
57.169922 2.500000 m /space glyphshow
60.984375 2.500000 m /q glyphshow
grestore
gsave
/o {
gsave
newpath
translate
0.5 setlinewidth
1 setlinejoin
0 setlinecap
0 0 m
4 0 l
gsave
0.000 setgray
fill
grestore
stroke
grestore
} bind def
105.3 54 o
grestore
gsave
/o {
gsave
newpath
translate
0.5 setlinewidth
1 setlinejoin
0 setlinecap
0 0 m
-4 0 l
gsave
0.000 setgray
fill
grestore
stroke
grestore
} bind def
758.16 54 o
grestore
gsave
83.800000 49.460937 translate
0.000000 rotate
0.000000 0.171875 m /zero glyphshow
7.634766 0.171875 m /period glyphshow
11.449219 0.171875 m /zero glyphshow
grestore
gsave
/o {
gsave
newpath
translate
0.5 setlinewidth
1 setlinejoin
0 setlinecap
0 0 m
4 0 l
gsave
0.000 setgray
fill
grestore
stroke
grestore
} bind def
105.3 140.4 o
grestore
gsave
/o {
gsave
newpath
translate
0.5 setlinewidth
1 setlinejoin
0 setlinecap
0 0 m
-4 0 l
gsave
0.000 setgray
fill
grestore
stroke
grestore
} bind def
758.16 140.4 o
grestore
gsave
84.206250 135.860937 translate
0.000000 rotate
0.000000 0.171875 m /zero glyphshow
7.634766 0.171875 m /period glyphshow
11.449219 0.171875 m /two glyphshow
grestore
gsave
/o {
gsave
newpath
translate
0.5 setlinewidth
1 setlinejoin
0 setlinecap
0 0 m
4 0 l
gsave
0.000 setgray
fill
grestore
stroke
grestore
} bind def
105.3 226.8 o
grestore
gsave
/o {
gsave
newpath
translate
0.5 setlinewidth
1 setlinejoin
0 setlinecap
0 0 m
-4 0 l
gsave
0.000 setgray
fill
grestore
stroke
grestore
} bind def
758.16 226.8 o
grestore
gsave
83.675000 222.260937 translate
0.000000 rotate
0.000000 0.171875 m /zero glyphshow
7.634766 0.171875 m /period glyphshow
11.449219 0.171875 m /four glyphshow
grestore
gsave
/o {
gsave
newpath
translate
0.5 setlinewidth
1 setlinejoin
0 setlinecap
0 0 m
4 0 l
gsave
0.000 setgray
fill
grestore
stroke
grestore
} bind def
105.3 313.2 o
grestore
gsave
/o {
gsave
newpath
translate
0.5 setlinewidth
1 setlinejoin
0 setlinecap
0 0 m
-4 0 l
gsave
0.000 setgray
fill
grestore
stroke
grestore
} bind def
758.16 313.2 o
grestore
gsave
83.768750 308.660938 translate
0.000000 rotate
0.000000 0.171875 m /zero glyphshow
7.634766 0.171875 m /period glyphshow
11.449219 0.171875 m /six glyphshow
grestore
gsave
/o {
gsave
newpath
translate
0.5 setlinewidth
1 setlinejoin
0 setlinecap
0 0 m
4 0 l
gsave
0.000 setgray
fill
grestore
stroke
grestore
} bind def
105.3 399.6 o
grestore
gsave
/o {
gsave
newpath
translate
0.5 setlinewidth
1 setlinejoin
0 setlinecap
0 0 m
-4 0 l
gsave
0.000 setgray
fill
grestore
stroke
grestore
} bind def
758.16 399.6 o
grestore
gsave
83.831250 395.060938 translate
0.000000 rotate
0.000000 0.171875 m /zero glyphshow
7.634766 0.171875 m /period glyphshow
11.449219 0.171875 m /eight glyphshow
grestore
gsave
/o {
gsave
newpath
translate
0.5 setlinewidth
1 setlinejoin
0 setlinecap
0 0 m
4 0 l
gsave
0.000 setgray
fill
grestore
stroke
grestore
} bind def
105.3 486 o
grestore
gsave
/o {
gsave
newpath
translate
0.5 setlinewidth
1 setlinejoin
0 setlinecap
0 0 m
-4 0 l
gsave
0.000 setgray
fill
grestore
stroke
grestore
} bind def
758.16 486 o
grestore
gsave
84.315625 481.460938 translate
0.000000 rotate
0.000000 0.171875 m /one glyphshow
7.634766 0.171875 m /period glyphshow
11.449219 0.171875 m /zero glyphshow
grestore
gsave
78.675000 228.429688 translate
90.000000 rotate
0.000000 2.500000 m /E glyphshow
7.582031 2.500000 m /n glyphshow
15.187500 2.500000 m /t glyphshow
19.892578 2.500000 m /a glyphshow
27.246094 2.500000 m /n glyphshow
34.851562 2.500000 m /g glyphshow
42.468750 2.500000 m /l glyphshow
45.802734 2.500000 m /e glyphshow
53.185547 2.500000 m /m glyphshow
64.875000 2.500000 m /e glyphshow
72.257812 2.500000 m /n glyphshow
79.863281 2.500000 m /t glyphshow
grestore
1.000 setlinewidth
2 setlinecap
gsave
105.3 486 m
758.16 486 l
stroke
grestore
gsave
758.16 54 m
758.16 486 l
stroke
grestore
gsave
105.3 54 m
758.16 54 l
stroke
grestore
gsave
105.3 54 m
105.3 486 l
stroke
grestore
/BitstreamVeraSans-Roman findfont
14.400 scalefont
setfont
gsave
381.948750 488.093750 translate
0.000000 rotate
0.000000 2.906250 m /E glyphshow
9.082642 2.906250 m /n glyphshow
18.193359 2.906250 m /t glyphshow
23.829651 2.906250 m /a glyphshow
32.638550 2.906250 m /n glyphshow
41.749268 2.906250 m /g glyphshow
50.874023 2.906250 m /l glyphshow
54.867859 2.906250 m /e glyphshow
63.711853 2.906250 m /m glyphshow
77.714844 2.906250 m /e glyphshow
86.558838 2.906250 m /n glyphshow
95.669556 2.906250 m /t glyphshow
grestore
gsave
250.177 370.746 m
613.283 370.746 l
613.283 478.8 l
250.177 478.8 l
250.177 370.746 l
cl
gsave
1.000 setgray
fill
grestore
stroke
grestore
0.000 0.000 1.000 setrgbcolor
gsave
260.257 467.439 m
280.417 467.439 l
stroke
grestore
0.500 setlinewidth
0 setlinecap
0.000 setgray
gsave
/o {
gsave
newpath
translate
0.5 setlinewidth
1 setlinejoin
0 setlinecap
0 -2.5 m
0.663008 -2.5 1.29895 -2.23658 1.76777 -1.76777 c
2.23658 -1.29895 2.5 -0.663008 2.5 0 c
2.5 0.663008 2.23658 1.29895 1.76777 1.76777 c
1.29895 2.23658 0.663008 2.5 0 2.5 c
-0.663008 2.5 -1.29895 2.23658 -1.76777 1.76777 c
-2.23658 1.29895 -2.5 0.663008 -2.5 0 c
-2.5 -0.663008 -2.23658 -1.29895 -1.76777 -1.76777 c
-1.29895 -2.23658 -0.663008 -2.5 0 -2.5 c
cl
gsave
0.000 0.000 1.000 setrgbcolor
fill
grestore
stroke
grestore
} bind def
260.257 467.439 o
280.417 467.439 o
grestore
gsave
296.257187 460.774375 translate
0.000000 rotate
0.000000 1.625000 m /s glyphshow
7.489319 1.625000 m /t glyphshow
13.125610 1.625000 m /a glyphshow
21.934509 1.625000 m /t glyphshow
27.570801 1.625000 m /e glyphshow
36.414795 1.625000 m /colon glyphshow
41.257935 1.625000 m /space glyphshow
45.827332 1.625000 m /H glyphshow
56.636658 1.625000 m /o glyphshow
65.431519 1.625000 m /r glyphshow
70.966553 1.625000 m /o glyphshow
79.761414 1.625000 m /d glyphshow
88.886169 1.625000 m /e glyphshow
97.730164 1.625000 m /c glyphshow
105.633606 1.625000 m /k glyphshow
113.958191 1.625000 m /i glyphshow
117.952026 1.625000 m /comma glyphshow
122.521423 1.625000 m /space glyphshow
127.090820 1.625000 m /m glyphshow
141.093811 1.625000 m /e glyphshow
149.937805 1.625000 m /a glyphshow
158.746704 1.625000 m /s glyphshow
166.236023 1.625000 m /u glyphshow
175.346741 1.625000 m /r glyphshow
180.881775 1.625000 m /e glyphshow
189.725769 1.625000 m /colon glyphshow
194.568909 1.625000 m /space glyphshow
199.138306 1.625000 m /B glyphshow
209.000061 1.625000 m /u glyphshow
218.110779 1.625000 m /r glyphshow
223.645813 1.625000 m /e glyphshow
232.489807 1.625000 m /s glyphshow
grestore
1.000 setlinewidth
2 setlinecap
0.000 0.500 0.000 setrgbcolor
gsave
260.257 446.693 m
280.417 446.693 l
stroke
grestore
0.500 setlinewidth
0 setlinecap
0.000 setgray
gsave
/o {
gsave
newpath
translate
0.5 setlinewidth
1 setlinejoin
0 setlinecap
0 -2.5 m
0.663008 -2.5 1.29895 -2.23658 1.76777 -1.76777 c
2.23658 -1.29895 2.5 -0.663008 2.5 0 c
2.5 0.663008 2.23658 1.29895 1.76777 1.76777 c
1.29895 2.23658 0.663008 2.5 0 2.5 c
-0.663008 2.5 -1.29895 2.23658 -1.76777 1.76777 c
-2.23658 1.29895 -2.5 0.663008 -2.5 0 c
-2.5 -0.663008 -2.23658 -1.29895 -1.76777 -1.76777 c
-1.29895 -2.23658 -0.663008 -2.5 0 -2.5 c
cl
gsave
0.000 0.500 0.000 setrgbcolor
fill
grestore
stroke
grestore
} bind def
260.257 446.693 o
280.417 446.693 o
grestore
gsave
296.257187 440.027500 translate
0.000000 rotate
0.000000 1.625000 m /s glyphshow
7.489319 1.625000 m /t glyphshow
13.125610 1.625000 m /a glyphshow
21.934509 1.625000 m /t glyphshow
27.570801 1.625000 m /e glyphshow
36.414795 1.625000 m /colon glyphshow
41.257935 1.625000 m /space glyphshow
45.827332 1.625000 m /H glyphshow
56.636658 1.625000 m /o glyphshow
65.431519 1.625000 m /r glyphshow
70.966553 1.625000 m /o glyphshow
79.761414 1.625000 m /d glyphshow
88.886169 1.625000 m /e glyphshow
97.730164 1.625000 m /c glyphshow
105.633606 1.625000 m /k glyphshow
113.958191 1.625000 m /i glyphshow
117.952026 1.625000 m /comma glyphshow
122.521423 1.625000 m /space glyphshow
127.090820 1.625000 m /m glyphshow
141.093811 1.625000 m /e glyphshow
149.937805 1.625000 m /a glyphshow
158.746704 1.625000 m /s glyphshow
166.236023 1.625000 m /u glyphshow
175.346741 1.625000 m /r glyphshow
180.881775 1.625000 m /e glyphshow
189.725769 1.625000 m /colon glyphshow
194.568909 1.625000 m /space glyphshow
199.138306 1.625000 m /H glyphshow
209.947632 1.625000 m /i glyphshow
213.941467 1.625000 m /l glyphshow
217.935303 1.625000 m /b glyphshow
227.060059 1.625000 m /e glyphshow
235.904053 1.625000 m /r glyphshow
241.814087 1.625000 m /t glyphshow
247.450378 1.625000 m /hyphen glyphshow
252.637451 1.625000 m /S glyphshow
261.762207 1.625000 m /c glyphshow
269.665649 1.625000 m /h glyphshow
278.776367 1.625000 m /m glyphshow
292.779358 1.625000 m /i glyphshow
296.773193 1.625000 m /d glyphshow
305.897949 1.625000 m /t glyphshow
grestore
1.000 setlinewidth
2 setlinecap
1.000 0.000 0.000 setrgbcolor
gsave
260.257 425.946 m
280.417 425.946 l
stroke
grestore
0.500 setlinewidth
0 setlinecap
0.000 setgray
gsave
/o {
gsave
newpath
translate
0.5 setlinewidth
1 setlinejoin
0 setlinecap
0 -2.5 m
0.663008 -2.5 1.29895 -2.23658 1.76777 -1.76777 c
2.23658 -1.29895 2.5 -0.663008 2.5 0 c
2.5 0.663008 2.23658 1.29895 1.76777 1.76777 c
1.29895 2.23658 0.663008 2.5 0 2.5 c
-0.663008 2.5 -1.29895 2.23658 -1.76777 1.76777 c
-2.23658 1.29895 -2.5 0.663008 -2.5 0 c
-2.5 -0.663008 -2.23658 -1.29895 -1.76777 -1.76777 c
-1.29895 -2.23658 -0.663008 -2.5 0 -2.5 c
cl
gsave
1.000 0.000 0.000 setrgbcolor
fill
grestore
stroke
grestore
} bind def
260.257 425.946 o
280.417 425.946 o
grestore
gsave
296.257187 419.280625 translate
0.000000 rotate
0.000000 1.625000 m /s glyphshow
7.489319 1.625000 m /t glyphshow
13.125610 1.625000 m /a glyphshow
21.934509 1.625000 m /t glyphshow
27.570801 1.625000 m /e glyphshow
36.414795 1.625000 m /colon glyphshow
41.257935 1.625000 m /space glyphshow
45.827332 1.625000 m /H glyphshow
56.636658 1.625000 m /o glyphshow
65.431519 1.625000 m /r glyphshow
70.966553 1.625000 m /o glyphshow
79.761414 1.625000 m /d glyphshow
88.886169 1.625000 m /e glyphshow
97.730164 1.625000 m /c glyphshow
105.633606 1.625000 m /k glyphshow
113.958191 1.625000 m /i glyphshow
117.952026 1.625000 m /comma glyphshow
122.521423 1.625000 m /space glyphshow
127.090820 1.625000 m /m glyphshow
141.093811 1.625000 m /e glyphshow
149.937805 1.625000 m /a glyphshow
158.746704 1.625000 m /s glyphshow
166.236023 1.625000 m /u glyphshow
175.346741 1.625000 m /r glyphshow
180.881775 1.625000 m /e glyphshow
189.725769 1.625000 m /colon glyphshow
194.568909 1.625000 m /space glyphshow
199.138306 1.625000 m /c glyphshow
207.041748 1.625000 m /o glyphshow
215.836609 1.625000 m /n glyphshow
224.947327 1.625000 m /c glyphshow
232.850769 1.625000 m /u glyphshow
241.961487 1.625000 m /r glyphshow
247.621521 1.625000 m /r glyphshow
253.156555 1.625000 m /e glyphshow
262.000549 1.625000 m /n glyphshow
271.111267 1.625000 m /c glyphshow
279.014709 1.625000 m /e glyphshow
grestore
1.000 setlinewidth
2 setlinecap
0.000 0.750 0.750 setrgbcolor
gsave
260.257 405.199 m
280.417 405.199 l
stroke
grestore
0.500 setlinewidth
0 setlinecap
0.000 setgray
gsave
/o {
gsave
newpath
translate
0.5 setlinewidth
1 setlinejoin
0 setlinecap
0 -2.5 m
0.663008 -2.5 1.29895 -2.23658 1.76777 -1.76777 c
2.23658 -1.29895 2.5 -0.663008 2.5 0 c
2.5 0.663008 2.23658 1.29895 1.76777 1.76777 c
1.29895 2.23658 0.663008 2.5 0 2.5 c
-0.663008 2.5 -1.29895 2.23658 -1.76777 1.76777 c
-2.23658 1.29895 -2.5 0.663008 -2.5 0 c
-2.5 -0.663008 -2.23658 -1.29895 -1.76777 -1.76777 c
-1.29895 -2.23658 -0.663008 -2.5 0 -2.5 c
cl
gsave
0.000 0.750 0.750 setrgbcolor
fill
grestore
stroke
grestore
} bind def
260.257 405.199 o
280.417 405.199 o
grestore
gsave
296.257187 397.252500 translate
0.000000 rotate
0.000000 2.906250 m /s glyphshow
7.489319 2.906250 m /t glyphshow
13.125610 2.906250 m /a glyphshow
21.934509 2.906250 m /t glyphshow
27.570801 2.906250 m /e glyphshow
36.414795 2.906250 m /colon glyphshow
41.257935 2.906250 m /space glyphshow
45.827332 2.906250 m /H glyphshow
56.636658 2.906250 m /o glyphshow
65.431519 2.906250 m /r glyphshow
70.966553 2.906250 m /o glyphshow
79.761414 2.906250 m /d glyphshow
88.886169 2.906250 m /e glyphshow
97.730164 2.906250 m /c glyphshow
105.633606 2.906250 m /k glyphshow
113.958191 2.906250 m /i glyphshow
117.952026 2.906250 m /comma glyphshow
122.521423 2.906250 m /space glyphshow
127.090820 2.906250 m /m glyphshow
141.093811 2.906250 m /e glyphshow
149.937805 2.906250 m /a glyphshow
158.746704 2.906250 m /s glyphshow
166.236023 2.906250 m /u glyphshow
175.346741 2.906250 m /r glyphshow
180.881775 2.906250 m /e glyphshow
189.725769 2.906250 m /colon glyphshow
194.568909 2.906250 m /space glyphshow
199.138306 2.906250 m /e glyphshow
207.982300 2.906250 m /n glyphshow
217.093018 2.906250 m /t glyphshow
222.729309 2.906250 m /r glyphshow
228.264343 2.906250 m /o glyphshow
237.059204 2.906250 m /p glyphshow
246.183960 2.906250 m /y glyphshow
grestore
1.000 setlinewidth
2 setlinecap
0.750 0.000 0.750 setrgbcolor
gsave
260.257 384.452 m
280.417 384.452 l
stroke
grestore
0.500 setlinewidth
0 setlinecap
0.000 setgray
gsave
/o {
gsave
newpath
translate
0.5 setlinewidth
1 setlinejoin
0 setlinecap
0 -2.5 m
0.663008 -2.5 1.29895 -2.23658 1.76777 -1.76777 c
2.23658 -1.29895 2.5 -0.663008 2.5 0 c
2.5 0.663008 2.23658 1.29895 1.76777 1.76777 c
1.29895 2.23658 0.663008 2.5 0 2.5 c
-0.663008 2.5 -1.29895 2.23658 -1.76777 1.76777 c
-2.23658 1.29895 -2.5 0.663008 -2.5 0 c
-2.5 -0.663008 -2.23658 -1.29895 -1.76777 -1.76777 c
-1.29895 -2.23658 -0.663008 -2.5 0 -2.5 c
cl
gsave
0.750 0.000 0.750 setrgbcolor
fill
grestore
stroke
grestore
} bind def
260.257 384.452 o
280.417 384.452 o
grestore
gsave
296.257187 376.505625 translate
0.000000 rotate
0.000000 2.906250 m /s glyphshow
7.489319 2.906250 m /t glyphshow
13.125610 2.906250 m /a glyphshow
21.934509 2.906250 m /t glyphshow
27.570801 2.906250 m /e glyphshow
36.414795 2.906250 m /colon glyphshow
41.257935 2.906250 m /space glyphshow
45.827332 2.906250 m /H glyphshow
56.636658 2.906250 m /o glyphshow
65.431519 2.906250 m /r glyphshow
70.966553 2.906250 m /o glyphshow
79.761414 2.906250 m /d glyphshow
88.886169 2.906250 m /e glyphshow
97.730164 2.906250 m /c glyphshow
105.633606 2.906250 m /k glyphshow
113.958191 2.906250 m /i glyphshow
117.952026 2.906250 m /comma glyphshow
122.521423 2.906250 m /space glyphshow
127.090820 2.906250 m /m glyphshow
141.093811 2.906250 m /e glyphshow
149.937805 2.906250 m /a glyphshow
158.746704 2.906250 m /s glyphshow
166.236023 2.906250 m /u glyphshow
175.346741 2.906250 m /r glyphshow
180.881775 2.906250 m /e glyphshow
189.725769 2.906250 m /colon glyphshow
194.568909 2.906250 m /space glyphshow
199.138306 2.906250 m /s glyphshow
206.627625 2.906250 m /u glyphshow
215.738342 2.906250 m /p glyphshow
224.863098 2.906250 m /e glyphshow
233.707092 2.906250 m /r glyphshow
239.617126 2.906250 m /f glyphshow
244.677856 2.906250 m /i glyphshow
248.671692 2.906250 m /d glyphshow
257.796448 2.906250 m /e glyphshow
266.640442 2.906250 m /l glyphshow
270.634277 2.906250 m /i glyphshow
274.628113 2.906250 m /t glyphshow
280.264404 2.906250 m /y glyphshow
grestore

end
showpage
