%!PS-Adobe-3.0 EPSF-3.0
%%Title: ['Werner.Bures.result', 'Werner.Hilbert-Schmidt.result', 'Werner.concurrence.result', 'Werner.entropy.result', 'Werner.superfidelity.result'].entanglement.eps
%%Creator: matplotlib version 1.2.1, http://matplotlib.org/
%%CreationDate: Fri Jun 14 14:51:03 2013
%%Orientation: portrait
%%BoundingBox: -115 126 727 666
%%EndComments
%%BeginProlog
/mpldict 8 dict def
mpldict begin
/m { moveto } bind def
/l { lineto } bind def
/r { rlineto } bind def
/c { curveto } bind def
/cl { closepath } bind def
/box {
m
1 index 0 r
0 exch r
neg 0 r
cl
} bind def
/clipbox {
box
clip
newpath
} bind def
%!PS-Adobe-3.0 Resource-Font
%%Title: Bitstream Vera Sans
%%Copyright: Copyright (c) 2003 by Bitstream, Inc. All Rights Reserved.
%%Creator: Converted from TrueType to type 3 by PPR
25 dict begin
/_d{bind def}bind def
/_m{moveto}_d
/_l{lineto}_d
/_cl{closepath eofill}_d
/_c{curveto}_d
/_sc{7 -1 roll{setcachedevice}{pop pop pop pop pop pop}ifelse}_d
/_e{exec}_d
/FontName /BitstreamVeraSans-Roman def
/PaintType 0 def
/FontMatrix[.001 0 0 .001 0 0]def
/FontBBox[-183 -236 1287 928]def
/FontType 3 def
/Encoding [ /space /comma /hyphen /period /zero /one /two /four /six /eight /colon /B /E /F /H /S /W /a /b /c /d /e /f /g /h /i /l /m /n /o /p /r /s /t /u /y ] def
/FontInfo 10 dict dup begin
/FamilyName (Bitstream Vera Sans) def
/FullName (Bitstream Vera Sans) def
/Notice (Copyright (c) 2003 by Bitstream, Inc. All Rights Reserved. Bitstream Vera is a trademark of Bitstream, Inc.) def
/Weight (Roman) def
/Version (Release 1.10) def
/ItalicAngle 0.0 def
/isFixedPitch false def
/UnderlinePosition -213 def
/UnderlineThickness 143 def
end readonly def
/CharStrings 36 dict dup begin
/space{318 0 0 0 0 0 _sc
}_d
/comma{318 0 77 -115 220 124 _sc
117 124 _m
220 124 _l
220 40 _l
140 -115 _l
77 -115 _l
117 40 _l
117 124 _l
_cl}_d
/hyphen{361 0 49 234 312 314 _sc
49 314 _m
312 314 _l
312 234 _l
49 234 _l
49 314 _l
_cl}_d
/period{318 0 107 0 210 124 _sc
107 124 _m
210 124 _l
210 0 _l
107 0 _l
107 124 _l
_cl}_d
/zero{636 0 66 -13 570 742 _sc
318 664 _m
267 664 229 639 203 589 _c
177 539 165 464 165 364 _c
165 264 177 189 203 139 _c
229 89 267 64 318 64 _c
369 64 407 89 433 139 _c
458 189 471 264 471 364 _c
471 464 458 539 433 589 _c
407 639 369 664 318 664 _c
318 742 _m
399 742 461 709 505 645 _c
548 580 570 486 570 364 _c
570 241 548 147 505 83 _c
461 19 399 -13 318 -13 _c
236 -13 173 19 130 83 _c
87 147 66 241 66 364 _c
66 486 87 580 130 645 _c
173 709 236 742 318 742 _c
_cl}_d
/one{636 0 110 0 544 729 _sc
124 83 _m
285 83 _l
285 639 _l
110 604 _l
110 694 _l
284 729 _l
383 729 _l
383 83 _l
544 83 _l
544 0 _l
124 0 _l
124 83 _l
_cl}_d
/two{{636 0 73 0 536 742 _sc
192 83 _m
536 83 _l
536 0 _l
73 0 _l
73 83 _l
110 121 161 173 226 239 _c
290 304 331 346 348 365 _c
380 400 402 430 414 455 _c
426 479 433 504 433 528 _c
433 566 419 598 392 622 _c
365 646 330 659 286 659 _c
255 659 222 653 188 643 _c
154 632 117 616 78 594 _c
78 694 _l
118 710 155 722 189 730 _c
223 738 255 742 284 742 _c
}_e{359 742 419 723 464 685 _c
509 647 532 597 532 534 _c
532 504 526 475 515 449 _c
504 422 484 390 454 354 _c
446 344 420 317 376 272 _c
332 227 271 164 192 83 _c
_cl}_e}_d
/four{636 0 49 0 580 729 _sc
378 643 _m
129 254 _l
378 254 _l
378 643 _l
352 729 _m
476 729 _l
476 254 _l
580 254 _l
580 172 _l
476 172 _l
476 0 _l
378 0 _l
378 172 _l
49 172 _l
49 267 _l
352 729 _l
_cl}_d
/six{{636 0 70 -13 573 742 _sc
330 404 _m
286 404 251 388 225 358 _c
199 328 186 286 186 234 _c
186 181 199 139 225 109 _c
251 79 286 64 330 64 _c
374 64 409 79 435 109 _c
461 139 474 181 474 234 _c
474 286 461 328 435 358 _c
409 388 374 404 330 404 _c
526 713 _m
526 623 _l
501 635 476 644 451 650 _c
425 656 400 659 376 659 _c
310 659 260 637 226 593 _c
}_e{192 549 172 482 168 394 _c
187 422 211 444 240 459 _c
269 474 301 482 336 482 _c
409 482 467 459 509 415 _c
551 371 573 310 573 234 _c
573 159 550 99 506 54 _c
462 9 403 -13 330 -13 _c
246 -13 181 19 137 83 _c
92 147 70 241 70 364 _c
70 479 97 571 152 639 _c
206 707 280 742 372 742 _c
396 742 421 739 447 735 _c
472 730 498 723 526 713 _c
_cl}_e}_d
/eight{{636 0 68 -13 568 742 _sc
318 346 _m
271 346 234 333 207 308 _c
180 283 167 249 167 205 _c
167 161 180 126 207 101 _c
234 76 271 64 318 64 _c
364 64 401 76 428 102 _c
455 127 469 161 469 205 _c
469 249 455 283 429 308 _c
402 333 365 346 318 346 _c
219 388 _m
177 398 144 418 120 447 _c
96 476 85 511 85 553 _c
85 611 105 657 147 691 _c
188 725 245 742 318 742 _c
}_e{390 742 447 725 489 691 _c
530 657 551 611 551 553 _c
551 511 539 476 515 447 _c
491 418 459 398 417 388 _c
464 377 501 355 528 323 _c
554 291 568 251 568 205 _c
568 134 546 80 503 43 _c
459 5 398 -13 318 -13 _c
237 -13 175 5 132 43 _c
89 80 68 134 68 205 _c
68 251 81 291 108 323 _c
134 355 171 377 219 388 _c
183 544 _m
183 506 194 476 218 455 _c
}_e{242 434 275 424 318 424 _c
360 424 393 434 417 455 _c
441 476 453 506 453 544 _c
453 582 441 611 417 632 _c
393 653 360 664 318 664 _c
275 664 242 653 218 632 _c
194 611 183 582 183 544 _c
_cl}_e}_d
/colon{337 0 117 0 220 517 _sc
117 124 _m
220 124 _l
220 0 _l
117 0 _l
117 124 _l
117 517 _m
220 517 _l
220 393 _l
117 393 _l
117 517 _l
_cl}_d
/B{{686 0 98 0 615 729 _sc
197 348 _m
197 81 _l
355 81 _l
408 81 447 92 473 114 _c
498 136 511 169 511 215 _c
511 260 498 293 473 315 _c
447 337 408 348 355 348 _c
197 348 _l
197 648 _m
197 428 _l
343 428 _l
391 428 426 437 450 455 _c
474 473 486 500 486 538 _c
486 574 474 602 450 620 _c
426 638 391 648 343 648 _c
197 648 _l
98 729 _m
350 729 _l
}_e{425 729 483 713 524 682 _c
564 650 585 606 585 549 _c
585 504 574 468 553 442 _c
532 416 502 399 462 393 _c
510 382 548 360 575 327 _c
601 294 615 253 615 204 _c
615 138 592 88 548 53 _c
504 17 441 0 360 0 _c
98 0 _l
98 729 _l
_cl}_e}_d
/E{632 0 98 0 568 729 _sc
98 729 _m
559 729 _l
559 646 _l
197 646 _l
197 430 _l
544 430 _l
544 347 _l
197 347 _l
197 83 _l
568 83 _l
568 0 _l
98 0 _l
98 729 _l
_cl}_d
/F{575 0 98 0 517 729 _sc
98 729 _m
517 729 _l
517 646 _l
197 646 _l
197 431 _l
486 431 _l
486 348 _l
197 348 _l
197 0 _l
98 0 _l
98 729 _l
_cl}_d
/H{752 0 98 0 654 729 _sc
98 729 _m
197 729 _l
197 430 _l
555 430 _l
555 729 _l
654 729 _l
654 0 _l
555 0 _l
555 347 _l
197 347 _l
197 0 _l
98 0 _l
98 729 _l
_cl}_d
/S{{635 0 66 -13 579 742 _sc
535 705 _m
535 609 _l
497 627 462 640 429 649 _c
395 657 363 662 333 662 _c
279 662 237 651 208 631 _c
179 610 165 580 165 542 _c
165 510 174 485 194 469 _c
213 452 250 439 304 429 _c
364 417 _l
437 403 491 378 526 343 _c
561 307 579 260 579 201 _c
579 130 555 77 508 41 _c
460 5 391 -13 300 -13 _c
265 -13 228 -9 189 -2 _c
}_e{150 5 110 16 69 32 _c
69 134 _l
109 111 148 94 186 83 _c
224 71 262 66 300 66 _c
356 66 399 77 430 99 _c
460 121 476 152 476 194 _c
476 230 465 258 443 278 _c
421 298 385 313 335 323 _c
275 335 _l
201 349 148 372 115 404 _c
82 435 66 478 66 534 _c
66 598 88 649 134 686 _c
179 723 242 742 322 742 _c
356 742 390 739 426 733 _c
461 727 497 717 535 705 _c
}_e{_cl}_e}_d
/W{989 0 33 0 956 729 _sc
33 729 _m
133 729 _l
286 113 _l
439 729 _l
550 729 _l
703 113 _l
856 729 _l
956 729 _l
773 0 _l
649 0 _l
495 633 _l
340 0 _l
216 0 _l
33 729 _l
_cl}_d
/a{{613 0 60 -13 522 560 _sc
343 275 _m
270 275 220 266 192 250 _c
164 233 150 205 150 165 _c
150 133 160 107 181 89 _c
202 70 231 61 267 61 _c
317 61 357 78 387 114 _c
417 149 432 196 432 255 _c
432 275 _l
343 275 _l
522 312 _m
522 0 _l
432 0 _l
432 83 _l
411 49 385 25 355 10 _c
325 -5 287 -13 243 -13 _c
187 -13 142 2 109 33 _c
76 64 60 106 60 159 _c
}_e{60 220 80 266 122 298 _c
163 329 224 345 306 345 _c
432 345 _l
432 354 _l
432 395 418 427 391 450 _c
364 472 326 484 277 484 _c
245 484 215 480 185 472 _c
155 464 127 453 100 439 _c
100 522 _l
132 534 164 544 195 550 _c
226 556 256 560 286 560 _c
365 560 424 539 463 498 _c
502 457 522 395 522 312 _c
_cl}_e}_d
/b{{635 0 91 -13 580 760 _sc
487 273 _m
487 339 473 390 446 428 _c
418 466 381 485 334 485 _c
286 485 249 466 222 428 _c
194 390 181 339 181 273 _c
181 207 194 155 222 117 _c
249 79 286 61 334 61 _c
381 61 418 79 446 117 _c
473 155 487 207 487 273 _c
181 464 _m
199 496 223 520 252 536 _c
281 552 316 560 356 560 _c
422 560 476 533 518 481 _c
559 428 580 359 580 273 _c
}_e{580 187 559 117 518 65 _c
476 13 422 -13 356 -13 _c
316 -13 281 -5 252 10 _c
223 25 199 49 181 82 _c
181 0 _l
91 0 _l
91 760 _l
181 760 _l
181 464 _l
_cl}_e}_d
/c{{550 0 55 -13 488 560 _sc
488 526 _m
488 442 _l
462 456 437 466 411 473 _c
385 480 360 484 334 484 _c
276 484 230 465 198 428 _c
166 391 150 339 150 273 _c
150 206 166 154 198 117 _c
230 80 276 62 334 62 _c
360 62 385 65 411 72 _c
437 79 462 90 488 104 _c
488 21 _l
462 9 436 0 410 -5 _c
383 -10 354 -13 324 -13 _c
242 -13 176 12 128 64 _c
}_e{79 115 55 185 55 273 _c
55 362 79 432 128 483 _c
177 534 244 560 330 560 _c
358 560 385 557 411 551 _c
437 545 463 537 488 526 _c
_cl}_e}_d
/d{{635 0 55 -13 544 760 _sc
454 464 _m
454 760 _l
544 760 _l
544 0 _l
454 0 _l
454 82 _l
435 49 411 25 382 10 _c
353 -5 319 -13 279 -13 _c
213 -13 159 13 117 65 _c
75 117 55 187 55 273 _c
55 359 75 428 117 481 _c
159 533 213 560 279 560 _c
319 560 353 552 382 536 _c
411 520 435 496 454 464 _c
148 273 _m
148 207 161 155 188 117 _c
215 79 253 61 301 61 _c
}_e{348 61 385 79 413 117 _c
440 155 454 207 454 273 _c
454 339 440 390 413 428 _c
385 466 348 485 301 485 _c
253 485 215 466 188 428 _c
161 390 148 339 148 273 _c
_cl}_e}_d
/e{{615 0 55 -13 562 560 _sc
562 296 _m
562 252 _l
149 252 _l
153 190 171 142 205 110 _c
238 78 284 62 344 62 _c
378 62 412 66 444 74 _c
476 82 509 95 541 113 _c
541 28 _l
509 14 476 3 442 -3 _c
408 -9 373 -13 339 -13 _c
251 -13 182 12 131 62 _c
80 112 55 181 55 268 _c
55 357 79 428 127 481 _c
175 533 241 560 323 560 _c
397 560 455 536 498 489 _c
}_e{540 441 562 377 562 296 _c
472 322 _m
471 371 457 410 431 440 _c
404 469 368 484 324 484 _c
274 484 234 469 204 441 _c
174 413 156 373 152 322 _c
472 322 _l
_cl}_e}_d
/f{352 0 23 0 371 760 _sc
371 760 _m
371 685 _l
285 685 _l
253 685 230 678 218 665 _c
205 652 199 629 199 595 _c
199 547 _l
347 547 _l
347 477 _l
199 477 _l
199 0 _l
109 0 _l
109 477 _l
23 477 _l
23 547 _l
109 547 _l
109 585 _l
109 645 123 690 151 718 _c
179 746 224 760 286 760 _c
371 760 _l
_cl}_d
/g{{635 0 55 -207 544 560 _sc
454 280 _m
454 344 440 395 414 431 _c
387 467 349 485 301 485 _c
253 485 215 467 188 431 _c
161 395 148 344 148 280 _c
148 215 161 165 188 129 _c
215 93 253 75 301 75 _c
349 75 387 93 414 129 _c
440 165 454 215 454 280 _c
544 68 _m
544 -24 523 -93 482 -139 _c
440 -184 377 -207 292 -207 _c
260 -207 231 -204 203 -200 _c
175 -195 147 -188 121 -178 _c
}_e{121 -91 _l
147 -105 173 -115 199 -122 _c
225 -129 251 -133 278 -133 _c
336 -133 380 -117 410 -87 _c
439 -56 454 -10 454 52 _c
454 96 _l
435 64 411 40 382 24 _c
353 8 319 0 279 0 _c
211 0 157 25 116 76 _c
75 127 55 195 55 280 _c
55 364 75 432 116 483 _c
157 534 211 560 279 560 _c
319 560 353 552 382 536 _c
411 520 435 496 454 464 _c
454 547 _l
544 547 _l
}_e{544 68 _l
_cl}_e}_d
/h{634 0 91 0 549 760 _sc
549 330 _m
549 0 _l
459 0 _l
459 327 _l
459 379 448 417 428 443 _c
408 469 378 482 338 482 _c
289 482 251 466 223 435 _c
195 404 181 362 181 309 _c
181 0 _l
91 0 _l
91 760 _l
181 760 _l
181 462 _l
202 494 227 519 257 535 _c
286 551 320 560 358 560 _c
420 560 468 540 500 501 _c
532 462 549 405 549 330 _c
_cl}_d
/i{278 0 94 0 184 760 _sc
94 547 _m
184 547 _l
184 0 _l
94 0 _l
94 547 _l
94 760 _m
184 760 _l
184 646 _l
94 646 _l
94 760 _l
_cl}_d
/l{278 0 94 0 184 760 _sc
94 760 _m
184 760 _l
184 0 _l
94 0 _l
94 760 _l
_cl}_d
/m{{974 0 91 0 889 560 _sc
520 442 _m
542 482 569 511 600 531 _c
631 550 668 560 711 560 _c
767 560 811 540 842 500 _c
873 460 889 403 889 330 _c
889 0 _l
799 0 _l
799 327 _l
799 379 789 418 771 444 _c
752 469 724 482 686 482 _c
639 482 602 466 575 435 _c
548 404 535 362 535 309 _c
535 0 _l
445 0 _l
445 327 _l
445 379 435 418 417 444 _c
398 469 369 482 331 482 _c
}_e{285 482 248 466 221 435 _c
194 404 181 362 181 309 _c
181 0 _l
91 0 _l
91 547 _l
181 547 _l
181 462 _l
201 495 226 520 255 536 _c
283 552 317 560 357 560 _c
397 560 430 550 458 530 _c
486 510 506 480 520 442 _c
_cl}_e}_d
/n{634 0 91 0 549 560 _sc
549 330 _m
549 0 _l
459 0 _l
459 327 _l
459 379 448 417 428 443 _c
408 469 378 482 338 482 _c
289 482 251 466 223 435 _c
195 404 181 362 181 309 _c
181 0 _l
91 0 _l
91 547 _l
181 547 _l
181 462 _l
202 494 227 519 257 535 _c
286 551 320 560 358 560 _c
420 560 468 540 500 501 _c
532 462 549 405 549 330 _c
_cl}_d
/o{612 0 55 -13 557 560 _sc
306 484 _m
258 484 220 465 192 427 _c
164 389 150 338 150 273 _c
150 207 163 156 191 118 _c
219 80 257 62 306 62 _c
354 62 392 80 420 118 _c
448 156 462 207 462 273 _c
462 337 448 389 420 427 _c
392 465 354 484 306 484 _c
306 560 _m
384 560 445 534 490 484 _c
534 433 557 363 557 273 _c
557 183 534 113 490 63 _c
445 12 384 -13 306 -13 _c
227 -13 165 12 121 63 _c
77 113 55 183 55 273 _c
55 363 77 433 121 484 _c
165 534 227 560 306 560 _c
_cl}_d
/p{{635 0 91 -207 580 560 _sc
181 82 _m
181 -207 _l
91 -207 _l
91 547 _l
181 547 _l
181 464 _l
199 496 223 520 252 536 _c
281 552 316 560 356 560 _c
422 560 476 533 518 481 _c
559 428 580 359 580 273 _c
580 187 559 117 518 65 _c
476 13 422 -13 356 -13 _c
316 -13 281 -5 252 10 _c
223 25 199 49 181 82 _c
487 273 _m
487 339 473 390 446 428 _c
418 466 381 485 334 485 _c
}_e{286 485 249 466 222 428 _c
194 390 181 339 181 273 _c
181 207 194 155 222 117 _c
249 79 286 61 334 61 _c
381 61 418 79 446 117 _c
473 155 487 207 487 273 _c
_cl}_e}_d
/r{411 0 91 0 411 560 _sc
411 463 _m
401 469 390 473 378 476 _c
366 478 353 480 339 480 _c
288 480 249 463 222 430 _c
194 397 181 350 181 288 _c
181 0 _l
91 0 _l
91 547 _l
181 547 _l
181 462 _l
199 495 224 520 254 536 _c
284 552 321 560 365 560 _c
371 560 378 559 386 559 _c
393 558 401 557 411 555 _c
411 463 _l
_cl}_d
/s{{521 0 54 -13 472 560 _sc
443 531 _m
443 446 _l
417 458 391 468 364 475 _c
336 481 308 485 279 485 _c
234 485 200 478 178 464 _c
156 450 145 430 145 403 _c
145 382 153 366 169 354 _c
185 342 217 330 265 320 _c
296 313 _l
360 299 405 279 432 255 _c
458 230 472 195 472 151 _c
472 100 452 60 412 31 _c
372 1 316 -13 246 -13 _c
216 -13 186 -10 154 -5 _c
}_e{122 0 89 8 54 20 _c
54 113 _l
87 95 120 82 152 74 _c
184 65 216 61 248 61 _c
290 61 323 68 346 82 _c
368 96 380 117 380 144 _c
380 168 371 187 355 200 _c
339 213 303 226 247 238 _c
216 245 _l
160 257 119 275 95 299 _c
70 323 58 356 58 399 _c
58 450 76 490 112 518 _c
148 546 200 560 268 560 _c
301 560 332 557 362 552 _c
391 547 418 540 443 531 _c
}_e{_cl}_e}_d
/t{392 0 27 0 368 702 _sc
183 702 _m
183 547 _l
368 547 _l
368 477 _l
183 477 _l
183 180 _l
183 135 189 106 201 94 _c
213 81 238 75 276 75 _c
368 75 _l
368 0 _l
276 0 _l
206 0 158 13 132 39 _c
106 65 93 112 93 180 _c
93 477 _l
27 477 _l
27 547 _l
93 547 _l
93 702 _l
183 702 _l
_cl}_d
/u{634 0 85 -13 543 547 _sc
85 216 _m
85 547 _l
175 547 _l
175 219 _l
175 167 185 129 205 103 _c
225 77 255 64 296 64 _c
344 64 383 79 411 110 _c
439 141 453 183 453 237 _c
453 547 _l
543 547 _l
543 0 _l
453 0 _l
453 84 _l
431 50 405 26 377 10 _c
348 -5 315 -13 277 -13 _c
214 -13 166 6 134 45 _c
101 83 85 140 85 216 _c
_cl}_d
/y{592 0 30 -207 562 547 _sc
322 -50 _m
296 -114 271 -157 247 -177 _c
223 -197 191 -207 151 -207 _c
79 -207 _l
79 -132 _l
132 -132 _l
156 -132 175 -126 189 -114 _c
203 -102 218 -75 235 -31 _c
251 9 _l
30 547 _l
125 547 _l
296 119 _l
467 547 _l
562 547 _l
322 -50 _l
_cl}_d
end readonly def

/BuildGlyph
 {exch begin
 CharStrings exch
 2 copy known not{pop /.notdef}if
 true 3 1 roll get exec
 end}_d

/BuildChar {
 1 index /Encoding get exch get
 1 index /BuildGlyph get exec
}_d

FontName currentdict end definefont pop
end
%%EndProlog
mpldict begin
-115.2 126 translate
842.4 540 0 0 clipbox
gsave
0 0 m
842.4 0 l
842.4 540 l
0 540 l
cl
1.000 setgray
fill
grestore
gsave
105.3 54 m
758.16 54 l
758.16 486 l
105.3 486 l
cl
1.000 setgray
fill
grestore
1.000 setlinewidth
1 setlinejoin
2 setlinecap
[] 0 setdash
0.000 0.000 1.000 setrgbcolor
gsave
652.9 432 105.3 54 clipbox
105.3 54.1808 m
111.829 54.0632 l
118.357 54.048 l
124.886 54.0622 l
131.414 54.0618 l
137.943 54.0341 l
144.472 54.0906 l
151 54.0515 l
157.529 54.061 l
164.057 54.0527 l
170.586 54.0498 l
177.115 54.0882 l
183.643 54.0451 l
190.172 54.0379 l
196.7 54.0964 l
203.229 54.0721 l
209.758 54.0554 l
216.286 54.0869 l
222.815 54.0783 l
229.343 54.0615 l
235.872 54.0656 l
242.401 54.2105 l
248.929 54.157 l
255.458 55.0301 l
261.986 58.0587 l
268.515 54.4453 l
275.044 56.7555 l
281.572 55.8223 l
288.101 55.193 l
294.629 55.3755 l
301.158 54.8691 l
307.687 54.2749 l
314.215 54.1245 l
320.744 54.1275 l
327.272 54.0749 l
333.801 54.0871 l
340.33 54.0606 l
346.858 54.0679 l
353.387 54.0624 l
359.915 54.0703 l
366.444 54.0511 l
372.973 54.0976 l
379.501 54.0945 l
386.03 54.0708 l
392.558 54.0641 l
399.087 54.0967 l
405.616 54.0703 l
412.144 54.2454 l
418.673 54.1963 l
425.201 54.9679 l
431.73 54.5789 l
438.259 59.6918 l
444.787 65.3148 l
451.316 70.9604 l
457.844 76.615 l
464.373 82.2794 l
470.902 87.955 l
477.43 93.6439 l
483.959 99.3458 l
490.487 105.07 l
497.016 110.812 l
503.545 116.576 l
510.073 122.366 l
516.602 128.183 l
523.13 134.031 l
529.659 139.912 l
536.188 145.83 l
542.716 151.789 l
549.245 157.79 l
555.773 163.838 l
562.302 169.937 l
568.831 176.091 l
575.359 182.303 l
581.888 188.581 l
588.416 194.928 l
594.945 201.35 l
601.474 207.853 l
608.002 214.445 l
614.531 221.132 l
621.059 227.924 l
627.588 234.827 l
634.117 241.855 l
640.645 249.018 l
647.174 256.33 l
653.702 263.806 l
660.231 271.464 l
666.76 279.325 l
673.288 287.412 l
679.817 295.757 l
686.345 304.392 l
692.874 313.363 l
699.403 322.724 l
705.931 332.546 l
712.46 342.922 l
718.988 353.981 l
725.517 365.908 l
732.046 378.989 l
738.574 393.701 l
745.103 410.981 l
751.631 433.246 l
758.16 486 l
stroke
grestore
0.500 setlinewidth
0 setlinecap
0.000 setgray
gsave
652.9 432 105.3 54 clipbox
/o {
gsave
newpath
translate
0.5 setlinewidth
1 setlinejoin
0 setlinecap
0 -2.5 m
0.663008 -2.5 1.29895 -2.23658 1.76777 -1.76777 c
2.23658 -1.29895 2.5 -0.663008 2.5 0 c
2.5 0.663008 2.23658 1.29895 1.76777 1.76777 c
1.29895 2.23658 0.663008 2.5 0 2.5 c
-0.663008 2.5 -1.29895 2.23658 -1.76777 1.76777 c
-2.23658 1.29895 -2.5 0.663008 -2.5 0 c
-2.5 -0.663008 -2.23658 -1.29895 -1.76777 -1.76777 c
-1.29895 -2.23658 -0.663008 -2.5 0 -2.5 c
cl
gsave
0.000 0.000 1.000 setrgbcolor
fill
grestore
stroke
grestore
} bind def
105.3 54.1808 o
111.829 54.0632 o
118.357 54.048 o
124.886 54.0622 o
131.414 54.0618 o
137.943 54.0341 o
144.472 54.0906 o
151 54.0515 o
157.529 54.061 o
164.057 54.0527 o
170.586 54.0498 o
177.115 54.0882 o
183.643 54.0451 o
190.172 54.0379 o
196.7 54.0964 o
203.229 54.0721 o
209.758 54.0554 o
216.286 54.0869 o
222.815 54.0783 o
229.343 54.0615 o
235.872 54.0656 o
242.401 54.2105 o
248.929 54.157 o
255.458 55.0301 o
261.986 58.0587 o
268.515 54.4453 o
275.044 56.7555 o
281.572 55.8223 o
288.101 55.193 o
294.629 55.3755 o
301.158 54.8691 o
307.687 54.2749 o
314.215 54.1245 o
320.744 54.1275 o
327.272 54.0749 o
333.801 54.0871 o
340.33 54.0606 o
346.858 54.0679 o
353.387 54.0624 o
359.915 54.0703 o
366.444 54.0511 o
372.973 54.0976 o
379.501 54.0945 o
386.03 54.0708 o
392.558 54.0641 o
399.087 54.0967 o
405.616 54.0703 o
412.144 54.2454 o
418.673 54.1963 o
425.201 54.9679 o
431.73 54.5789 o
438.259 59.6918 o
444.787 65.3148 o
451.316 70.9604 o
457.844 76.615 o
464.373 82.2794 o
470.902 87.955 o
477.43 93.6439 o
483.959 99.3458 o
490.487 105.07 o
497.016 110.812 o
503.545 116.576 o
510.073 122.366 o
516.602 128.183 o
523.13 134.031 o
529.659 139.912 o
536.188 145.83 o
542.716 151.789 o
549.245 157.79 o
555.773 163.838 o
562.302 169.937 o
568.831 176.091 o
575.359 182.303 o
581.888 188.581 o
588.416 194.928 o
594.945 201.35 o
601.474 207.853 o
608.002 214.445 o
614.531 221.132 o
621.059 227.924 o
627.588 234.827 o
634.117 241.855 o
640.645 249.018 o
647.174 256.33 o
653.702 263.806 o
660.231 271.464 o
666.76 279.325 o
673.288 287.412 o
679.817 295.757 o
686.345 304.392 o
692.874 313.363 o
699.403 322.724 o
705.931 332.546 o
712.46 342.922 o
718.988 353.981 o
725.517 365.908 o
732.046 378.989 o
738.574 393.701 o
745.103 410.981 o
751.631 433.246 o
758.16 486 o
grestore
1.000 setlinewidth
2 setlinecap
0.000 0.500 0.000 setrgbcolor
gsave
652.9 432 105.3 54 clipbox
105.3 60.2945 m
111.829 55.0654 l
118.357 54.4884 l
124.886 54.2279 l
131.414 54.5256 l
137.943 54.7661 l
144.472 54.2718 l
151 54.3524 l
157.529 54.3999 l
164.057 54.4119 l
170.586 54.3623 l
177.115 54.4651 l
183.643 54.3095 l
190.172 54.2985 l
196.7 54.471 l
203.229 54.3578 l
209.758 54.2606 l
216.286 54.4822 l
222.815 54.5262 l
229.343 55.7969 l
235.872 55.3455 l
242.401 55.7664 l
248.929 55.2342 l
255.458 57.669 l
261.986 56.0361 l
268.515 55.9397 l
275.044 55.7192 l
281.572 55.3463 l
288.101 54.4398 l
294.629 54.676 l
301.158 54.3839 l
307.687 54.5928 l
314.215 54.6151 l
320.744 54.295 l
327.272 54.3521 l
333.801 54.2242 l
340.33 54.5195 l
346.858 54.2939 l
353.387 54.5006 l
359.915 54.4489 l
366.444 54.4406 l
372.973 54.5389 l
379.501 54.4439 l
386.03 54.3979 l
392.558 54.4651 l
399.087 54.4311 l
405.616 54.4438 l
412.144 55.0829 l
418.673 55.1342 l
425.201 57.0607 l
431.73 55.6818 l
438.259 62.9189 l
444.787 71.4509 l
451.316 80.0097 l
457.844 88.6758 l
464.373 97.2823 l
470.902 105.917 l
477.43 114.554 l
483.959 123.192 l
490.487 131.828 l
497.016 140.463 l
503.545 149.09 l
510.073 157.725 l
516.602 166.361 l
523.13 174.999 l
529.659 183.638 l
536.188 192.277 l
542.716 200.916 l
549.245 209.555 l
555.773 218.192 l
562.302 226.831 l
568.831 235.47 l
575.359 244.109 l
581.888 252.748 l
588.416 261.385 l
594.945 270.024 l
601.474 278.663 l
608.002 287.303 l
614.531 295.942 l
621.059 304.582 l
627.588 313.221 l
634.117 321.86 l
640.645 330.5 l
647.174 339.139 l
653.702 347.778 l
660.231 356.418 l
666.76 365.057 l
673.288 373.697 l
679.817 382.337 l
686.345 390.977 l
692.874 399.616 l
699.403 408.254 l
705.931 416.894 l
712.46 425.536 l
718.988 434.185 l
725.517 442.826 l
732.046 451.465 l
738.574 460.105 l
745.103 468.745 l
751.631 477.384 l
758.16 486.024 l
stroke
grestore
0.500 setlinewidth
0 setlinecap
0.000 setgray
gsave
652.9 432 105.3 54 clipbox
/o {
gsave
newpath
translate
0.5 setlinewidth
1 setlinejoin
0 setlinecap
0 -2.5 m
0.663008 -2.5 1.29895 -2.23658 1.76777 -1.76777 c
2.23658 -1.29895 2.5 -0.663008 2.5 0 c
2.5 0.663008 2.23658 1.29895 1.76777 1.76777 c
1.29895 2.23658 0.663008 2.5 0 2.5 c
-0.663008 2.5 -1.29895 2.23658 -1.76777 1.76777 c
-2.23658 1.29895 -2.5 0.663008 -2.5 0 c
-2.5 -0.663008 -2.23658 -1.29895 -1.76777 -1.76777 c
-1.29895 -2.23658 -0.663008 -2.5 0 -2.5 c
cl
gsave
0.000 0.500 0.000 setrgbcolor
fill
grestore
stroke
grestore
} bind def
105.3 60.2945 o
111.829 55.0654 o
118.357 54.4884 o
124.886 54.2279 o
131.414 54.5256 o
137.943 54.7661 o
144.472 54.2718 o
151 54.3524 o
157.529 54.3999 o
164.057 54.4119 o
170.586 54.3623 o
177.115 54.4651 o
183.643 54.3095 o
190.172 54.2985 o
196.7 54.471 o
203.229 54.3578 o
209.758 54.2606 o
216.286 54.4822 o
222.815 54.5262 o
229.343 55.7969 o
235.872 55.3455 o
242.401 55.7664 o
248.929 55.2342 o
255.458 57.669 o
261.986 56.0361 o
268.515 55.9397 o
275.044 55.7192 o
281.572 55.3463 o
288.101 54.4398 o
294.629 54.676 o
301.158 54.3839 o
307.687 54.5928 o
314.215 54.6151 o
320.744 54.295 o
327.272 54.3521 o
333.801 54.2242 o
340.33 54.5195 o
346.858 54.2939 o
353.387 54.5006 o
359.915 54.4489 o
366.444 54.4406 o
372.973 54.5389 o
379.501 54.4439 o
386.03 54.3979 o
392.558 54.4651 o
399.087 54.4311 o
405.616 54.4438 o
412.144 55.0829 o
418.673 55.1342 o
425.201 57.0607 o
431.73 55.6818 o
438.259 62.9189 o
444.787 71.4509 o
451.316 80.0097 o
457.844 88.6758 o
464.373 97.2823 o
470.902 105.917 o
477.43 114.554 o
483.959 123.192 o
490.487 131.828 o
497.016 140.463 o
503.545 149.09 o
510.073 157.725 o
516.602 166.361 o
523.13 174.999 o
529.659 183.638 o
536.188 192.277 o
542.716 200.916 o
549.245 209.555 o
555.773 218.192 o
562.302 226.831 o
568.831 235.47 o
575.359 244.109 o
581.888 252.748 o
588.416 261.385 o
594.945 270.024 o
601.474 278.663 o
608.002 287.303 o
614.531 295.942 o
621.059 304.582 o
627.588 313.221 o
634.117 321.86 o
640.645 330.5 o
647.174 339.139 o
653.702 347.778 o
660.231 356.418 o
666.76 365.057 o
673.288 373.697 o
679.817 382.337 o
686.345 390.977 o
692.874 399.616 o
699.403 408.254 o
705.931 416.894 o
712.46 425.536 o
718.988 434.185 o
725.517 442.826 o
732.046 451.465 o
738.574 460.105 o
745.103 468.745 o
751.631 477.384 o
758.16 486.024 o
grestore
1.000 setlinewidth
2 setlinecap
1.000 0.000 0.000 setrgbcolor
gsave
652.9 432 105.3 54 clipbox
105.3 54 m
111.829 54 l
118.357 54 l
124.886 54 l
131.414 54 l
137.943 54 l
144.472 54 l
151 54 l
157.529 54 l
164.057 54 l
170.586 54 l
177.115 54 l
183.643 54 l
190.172 54 l
196.7 54 l
203.229 54 l
209.758 54 l
216.286 54 l
222.815 54 l
229.343 54 l
235.872 54 l
242.401 54 l
248.929 54 l
255.458 54 l
261.986 54 l
268.515 54 l
275.044 54 l
281.572 54 l
288.101 54 l
294.629 54 l
301.158 54 l
307.687 54 l
314.215 54 l
320.744 54 l
327.272 54 l
333.801 54 l
340.33 54 l
346.858 54 l
353.387 54 l
359.915 54 l
366.444 54 l
372.973 54 l
379.501 54 l
386.03 54 l
392.558 54 l
399.087 54 l
405.616 54 l
412.144 54 l
418.673 54 l
425.201 54 l
431.73 54 l
438.259 54.6364 l
444.787 56.2005 l
451.316 58.498 l
457.844 61.4264 l
464.373 64.915 l
470.902 68.9102 l
477.43 73.3689 l
483.959 78.2554 l
490.487 83.5394 l
497.016 89.1946 l
503.545 95.1978 l
510.073 101.529 l
516.602 108.169 l
523.13 115.102 l
529.659 122.313 l
536.188 129.789 l
542.716 137.516 l
549.245 145.483 l
555.773 153.68 l
562.302 162.097 l
568.831 170.725 l
575.359 179.554 l
581.888 188.578 l
588.416 197.788 l
594.945 207.178 l
601.474 216.741 l
608.002 226.471 l
614.531 236.362 l
621.059 246.409 l
627.588 256.606 l
634.117 266.949 l
640.645 277.432 l
647.174 288.051 l
653.702 298.803 l
660.231 309.682 l
666.76 320.686 l
673.288 331.811 l
679.817 343.052 l
686.345 354.407 l
692.874 365.873 l
699.403 377.446 l
705.931 389.124 l
712.46 400.904 l
718.988 412.783 l
725.517 424.758 l
732.046 436.827 l
738.574 448.989 l
745.103 461.239 l
751.631 473.577 l
758.16 486 l
stroke
grestore
0.500 setlinewidth
0 setlinecap
0.000 setgray
gsave
652.9 432 105.3 54 clipbox
/o {
gsave
newpath
translate
0.5 setlinewidth
1 setlinejoin
0 setlinecap
0 -2.5 m
0.663008 -2.5 1.29895 -2.23658 1.76777 -1.76777 c
2.23658 -1.29895 2.5 -0.663008 2.5 0 c
2.5 0.663008 2.23658 1.29895 1.76777 1.76777 c
1.29895 2.23658 0.663008 2.5 0 2.5 c
-0.663008 2.5 -1.29895 2.23658 -1.76777 1.76777 c
-2.23658 1.29895 -2.5 0.663008 -2.5 0 c
-2.5 -0.663008 -2.23658 -1.29895 -1.76777 -1.76777 c
-1.29895 -2.23658 -0.663008 -2.5 0 -2.5 c
cl
gsave
1.000 0.000 0.000 setrgbcolor
fill
grestore
stroke
grestore
} bind def
105.3 54 o
111.829 54 o
118.357 54 o
124.886 54 o
131.414 54 o
137.943 54 o
144.472 54 o
151 54 o
157.529 54 o
164.057 54 o
170.586 54 o
177.115 54 o
183.643 54 o
190.172 54 o
196.7 54 o
203.229 54 o
209.758 54 o
216.286 54 o
222.815 54 o
229.343 54 o
235.872 54 o
242.401 54 o
248.929 54 o
255.458 54 o
261.986 54 o
268.515 54 o
275.044 54 o
281.572 54 o
288.101 54 o
294.629 54 o
301.158 54 o
307.687 54 o
314.215 54 o
320.744 54 o
327.272 54 o
333.801 54 o
340.33 54 o
346.858 54 o
353.387 54 o
359.915 54 o
366.444 54 o
372.973 54 o
379.501 54 o
386.03 54 o
392.558 54 o
399.087 54 o
405.616 54 o
412.144 54 o
418.673 54 o
425.201 54 o
431.73 54 o
438.259 54.6364 o
444.787 56.2005 o
451.316 58.498 o
457.844 61.4264 o
464.373 64.915 o
470.902 68.9102 o
477.43 73.3689 o
483.959 78.2554 o
490.487 83.5394 o
497.016 89.1946 o
503.545 95.1978 o
510.073 101.529 o
516.602 108.169 o
523.13 115.102 o
529.659 122.313 o
536.188 129.789 o
542.716 137.516 o
549.245 145.483 o
555.773 153.68 o
562.302 162.097 o
568.831 170.725 o
575.359 179.554 o
581.888 188.578 o
588.416 197.788 o
594.945 207.178 o
601.474 216.741 o
608.002 226.471 o
614.531 236.362 o
621.059 246.409 o
627.588 256.606 o
634.117 266.949 o
640.645 277.432 o
647.174 288.051 o
653.702 298.803 o
660.231 309.682 o
666.76 320.686 o
673.288 331.811 o
679.817 343.052 o
686.345 354.407 o
692.874 365.873 o
699.403 377.446 o
705.931 389.124 o
712.46 400.904 o
718.988 412.783 o
725.517 424.758 o
732.046 436.827 o
738.574 448.989 o
745.103 461.239 o
751.631 473.577 o
758.16 486 o
grestore
1.000 setlinewidth
2 setlinecap
0.000 0.750 0.750 setrgbcolor
gsave
652.9 432 105.3 54 clipbox
105.3 55.0461 m
111.829 54.1877 l
118.357 54.1957 l
124.886 54.1889 l
131.414 54.3892 l
137.943 54.1998 l
144.472 54.1458 l
151 54.1009 l
157.529 54.0992 l
164.057 54.1407 l
170.586 54.177 l
177.115 54.1171 l
183.643 54.1084 l
190.172 54.1725 l
196.7 54.0882 l
203.229 54.0956 l
209.758 54.1671 l
216.286 54.133 l
222.815 54.2441 l
229.343 54.3792 l
235.872 54.245 l
242.401 54.192 l
248.929 54.398 l
255.458 54.1361 l
261.986 54.1273 l
268.515 54.1794 l
275.044 54.1368 l
281.572 54.1765 l
288.101 54.2137 l
294.629 54.1596 l
301.158 54.2095 l
307.687 54.1434 l
314.215 54.24 l
320.744 54.2386 l
327.272 54.3359 l
333.801 54.5093 l
340.33 54.2119 l
346.858 54.1791 l
353.387 54.0925 l
359.915 54.2705 l
366.444 54.1905 l
372.973 54.2393 l
379.501 54.2367 l
386.03 54.4009 l
392.558 54.7073 l
399.087 54.6207 l
405.616 54.4821 l
412.144 54.1864 l
418.673 54.1361 l
425.201 54.3192 l
431.73 54.485 l
438.259 54.6837 l
444.787 55.1319 l
451.316 55.7973 l
457.844 56.7132 l
464.373 57.7387 l
470.902 59.1558 l
477.43 60.8186 l
483.959 62.6495 l
490.487 64.8859 l
497.016 67.2158 l
503.545 69.8134 l
510.073 72.7402 l
516.602 75.9315 l
523.13 79.3565 l
529.659 83.0435 l
536.188 86.9786 l
542.716 91.2604 l
549.245 95.8241 l
555.773 100.673 l
562.302 105.814 l
568.831 111.33 l
575.359 117.135 l
581.888 123.139 l
588.416 129.401 l
594.945 136.189 l
601.474 143.208 l
608.002 150.57 l
614.531 158.283 l
621.059 166.36 l
627.588 174.844 l
634.117 183.599 l
640.645 192.85 l
647.174 202.524 l
653.702 212.639 l
660.231 223.209 l
666.76 234.27 l
673.288 245.755 l
679.817 257.981 l
686.345 270.737 l
692.874 284.088 l
699.403 298.128 l
705.931 312.938 l
712.46 328.596 l
718.988 345.207 l
725.517 363.046 l
732.046 382.145 l
738.574 402.824 l
745.103 425.684 l
751.631 451.869 l
758.16 486.419 l
stroke
grestore
0.500 setlinewidth
0 setlinecap
0.000 setgray
gsave
652.9 432 105.3 54 clipbox
/o {
gsave
newpath
translate
0.5 setlinewidth
1 setlinejoin
0 setlinecap
0 -2.5 m
0.663008 -2.5 1.29895 -2.23658 1.76777 -1.76777 c
2.23658 -1.29895 2.5 -0.663008 2.5 0 c
2.5 0.663008 2.23658 1.29895 1.76777 1.76777 c
1.29895 2.23658 0.663008 2.5 0 2.5 c
-0.663008 2.5 -1.29895 2.23658 -1.76777 1.76777 c
-2.23658 1.29895 -2.5 0.663008 -2.5 0 c
-2.5 -0.663008 -2.23658 -1.29895 -1.76777 -1.76777 c
-1.29895 -2.23658 -0.663008 -2.5 0 -2.5 c
cl
gsave
0.000 0.750 0.750 setrgbcolor
fill
grestore
stroke
grestore
} bind def
105.3 55.0461 o
111.829 54.1877 o
118.357 54.1957 o
124.886 54.1889 o
131.414 54.3892 o
137.943 54.1998 o
144.472 54.1458 o
151 54.1009 o
157.529 54.0992 o
164.057 54.1407 o
170.586 54.177 o
177.115 54.1171 o
183.643 54.1084 o
190.172 54.1725 o
196.7 54.0882 o
203.229 54.0956 o
209.758 54.1671 o
216.286 54.133 o
222.815 54.2441 o
229.343 54.3792 o
235.872 54.245 o
242.401 54.192 o
248.929 54.398 o
255.458 54.1361 o
261.986 54.1273 o
268.515 54.1794 o
275.044 54.1368 o
281.572 54.1765 o
288.101 54.2137 o
294.629 54.1596 o
301.158 54.2095 o
307.687 54.1434 o
314.215 54.24 o
320.744 54.2386 o
327.272 54.3359 o
333.801 54.5093 o
340.33 54.2119 o
346.858 54.1791 o
353.387 54.0925 o
359.915 54.2705 o
366.444 54.1905 o
372.973 54.2393 o
379.501 54.2367 o
386.03 54.4009 o
392.558 54.7073 o
399.087 54.6207 o
405.616 54.4821 o
412.144 54.1864 o
418.673 54.1361 o
425.201 54.3192 o
431.73 54.485 o
438.259 54.6837 o
444.787 55.1319 o
451.316 55.7973 o
457.844 56.7132 o
464.373 57.7387 o
470.902 59.1558 o
477.43 60.8186 o
483.959 62.6495 o
490.487 64.8859 o
497.016 67.2158 o
503.545 69.8134 o
510.073 72.7402 o
516.602 75.9315 o
523.13 79.3565 o
529.659 83.0435 o
536.188 86.9786 o
542.716 91.2604 o
549.245 95.8241 o
555.773 100.673 o
562.302 105.814 o
568.831 111.33 o
575.359 117.135 o
581.888 123.139 o
588.416 129.401 o
594.945 136.189 o
601.474 143.208 o
608.002 150.57 o
614.531 158.283 o
621.059 166.36 o
627.588 174.844 o
634.117 183.599 o
640.645 192.85 o
647.174 202.524 o
653.702 212.639 o
660.231 223.209 o
666.76 234.27 o
673.288 245.755 o
679.817 257.981 o
686.345 270.737 o
692.874 284.088 o
699.403 298.128 o
705.931 312.938 o
712.46 328.596 o
718.988 345.207 o
725.517 363.046 o
732.046 382.145 o
738.574 402.824 o
745.103 425.684 o
751.631 451.869 o
758.16 486.419 o
grestore
1.000 setlinewidth
2 setlinecap
0.750 0.000 0.750 setrgbcolor
gsave
652.9 432 105.3 54 clipbox
105.3 56.5788 m
111.829 54.1087 l
118.357 54.0188 l
124.886 54.0238 l
131.414 54.0127 l
137.943 54.0102 l
144.472 54.0166 l
151 54.0153 l
157.529 54.0092 l
164.057 54.0168 l
170.586 54.0128 l
177.115 54.0125 l
183.643 54.0136 l
190.172 54.011 l
196.7 54.0121 l
203.229 54.0761 l
209.758 54.1554 l
216.286 54.2338 l
222.815 54.8688 l
229.343 54.8687 l
235.872 54.7704 l
242.401 54.8163 l
248.929 54.7523 l
255.458 54.4616 l
261.986 56.8673 l
268.515 54.5499 l
275.044 54.7936 l
281.572 56.8922 l
288.101 54.6417 l
294.629 54.8498 l
301.158 54.8785 l
307.687 54.9097 l
314.215 54.4321 l
320.744 54.3498 l
327.272 54.0433 l
333.801 54.0435 l
340.33 54.0174 l
346.858 54.0091 l
353.387 54.0146 l
359.915 54.0215 l
366.444 54.0162 l
372.973 54.011 l
379.501 54.0164 l
386.03 54.0114 l
392.558 54.0122 l
399.087 54.0098 l
405.616 54.0103 l
412.144 54.0163 l
418.673 54.0277 l
425.201 54.201 l
431.73 54.2102 l
438.259 58.906 l
444.787 63.8297 l
451.316 68.7825 l
457.844 73.7644 l
464.373 78.7772 l
470.902 83.8222 l
477.43 88.901 l
483.959 94.0155 l
490.487 99.1677 l
497.016 104.36 l
503.545 109.593 l
510.073 114.871 l
516.602 120.196 l
523.13 125.57 l
529.659 130.995 l
536.188 136.476 l
542.716 142.014 l
549.245 147.614 l
555.773 153.279 l
562.302 159.012 l
568.831 164.819 l
575.359 170.704 l
581.888 176.672 l
588.416 182.728 l
594.945 188.878 l
601.474 195.129 l
608.002 201.488 l
614.531 207.964 l
621.059 214.565 l
627.588 221.302 l
634.117 228.185 l
640.645 235.229 l
647.174 242.447 l
653.702 249.856 l
660.231 257.477 l
666.76 265.333 l
673.288 273.45 l
679.817 281.862 l
686.345 290.609 l
692.874 299.739 l
699.403 309.315 l
705.931 319.417 l
712.46 330.15 l
718.988 341.661 l
725.517 354.162 l
732.046 367.975 l
738.574 383.65 l
745.103 402.257 l
751.631 426.574 l
758.16 486 l
stroke
grestore
0.500 setlinewidth
0 setlinecap
0.000 setgray
gsave
652.9 432 105.3 54 clipbox
/o {
gsave
newpath
translate
0.5 setlinewidth
1 setlinejoin
0 setlinecap
0 -2.5 m
0.663008 -2.5 1.29895 -2.23658 1.76777 -1.76777 c
2.23658 -1.29895 2.5 -0.663008 2.5 0 c
2.5 0.663008 2.23658 1.29895 1.76777 1.76777 c
1.29895 2.23658 0.663008 2.5 0 2.5 c
-0.663008 2.5 -1.29895 2.23658 -1.76777 1.76777 c
-2.23658 1.29895 -2.5 0.663008 -2.5 0 c
-2.5 -0.663008 -2.23658 -1.29895 -1.76777 -1.76777 c
-1.29895 -2.23658 -0.663008 -2.5 0 -2.5 c
cl
gsave
0.750 0.000 0.750 setrgbcolor
fill
grestore
stroke
grestore
} bind def
105.3 56.5788 o
111.829 54.1087 o
118.357 54.0188 o
124.886 54.0238 o
131.414 54.0127 o
137.943 54.0102 o
144.472 54.0166 o
151 54.0153 o
157.529 54.0092 o
164.057 54.0168 o
170.586 54.0128 o
177.115 54.0125 o
183.643 54.0136 o
190.172 54.011 o
196.7 54.0121 o
203.229 54.0761 o
209.758 54.1554 o
216.286 54.2338 o
222.815 54.8688 o
229.343 54.8687 o
235.872 54.7704 o
242.401 54.8163 o
248.929 54.7523 o
255.458 54.4616 o
261.986 56.8673 o
268.515 54.5499 o
275.044 54.7936 o
281.572 56.8922 o
288.101 54.6417 o
294.629 54.8498 o
301.158 54.8785 o
307.687 54.9097 o
314.215 54.4321 o
320.744 54.3498 o
327.272 54.0433 o
333.801 54.0435 o
340.33 54.0174 o
346.858 54.0091 o
353.387 54.0146 o
359.915 54.0215 o
366.444 54.0162 o
372.973 54.011 o
379.501 54.0164 o
386.03 54.0114 o
392.558 54.0122 o
399.087 54.0098 o
405.616 54.0103 o
412.144 54.0163 o
418.673 54.0277 o
425.201 54.201 o
431.73 54.2102 o
438.259 58.906 o
444.787 63.8297 o
451.316 68.7825 o
457.844 73.7644 o
464.373 78.7772 o
470.902 83.8222 o
477.43 88.901 o
483.959 94.0155 o
490.487 99.1677 o
497.016 104.36 o
503.545 109.593 o
510.073 114.871 o
516.602 120.196 o
523.13 125.57 o
529.659 130.995 o
536.188 136.476 o
542.716 142.014 o
549.245 147.614 o
555.773 153.279 o
562.302 159.012 o
568.831 164.819 o
575.359 170.704 o
581.888 176.672 o
588.416 182.728 o
594.945 188.878 o
601.474 195.129 o
608.002 201.488 o
614.531 207.964 o
621.059 214.565 o
627.588 221.302 o
634.117 228.185 o
640.645 235.229 o
647.174 242.447 o
653.702 249.856 o
660.231 257.477 o
666.76 265.333 o
673.288 273.45 o
679.817 281.862 o
686.345 290.609 o
692.874 299.739 o
699.403 309.315 o
705.931 319.417 o
712.46 330.15 o
718.988 341.661 o
725.517 354.162 o
732.046 367.975 o
738.574 383.65 o
745.103 402.257 o
751.631 426.574 o
758.16 486 o
grestore
gsave
/o {
gsave
newpath
translate
0.5 setlinewidth
1 setlinejoin
0 setlinecap
0 0 m
0 4 l
gsave
0.000 setgray
fill
grestore
stroke
grestore
} bind def
105.3 54 o
grestore
gsave
/o {
gsave
newpath
translate
0.5 setlinewidth
1 setlinejoin
0 setlinecap
0 0 m
0 -4 l
gsave
0.000 setgray
fill
grestore
stroke
grestore
} bind def
105.3 486 o
grestore
/BitstreamVeraSans-Roman findfont
12.000 scalefont
setfont
gsave
96.550000 40.921875 translate
0.000000 rotate
0.000000 0.171875 m /zero glyphshow
7.634766 0.171875 m /period glyphshow
11.449219 0.171875 m /zero glyphshow
grestore
gsave
/o {
gsave
newpath
translate
0.5 setlinewidth
1 setlinejoin
0 setlinecap
0 0 m
0 4 l
gsave
0.000 setgray
fill
grestore
stroke
grestore
} bind def
235.872 54 o
grestore
gsave
/o {
gsave
newpath
translate
0.5 setlinewidth
1 setlinejoin
0 setlinecap
0 0 m
0 -4 l
gsave
0.000 setgray
fill
grestore
stroke
grestore
} bind def
235.872 486 o
grestore
gsave
227.325125 40.921875 translate
0.000000 rotate
0.000000 0.171875 m /zero glyphshow
7.634766 0.171875 m /period glyphshow
11.449219 0.171875 m /two glyphshow
grestore
gsave
/o {
gsave
newpath
translate
0.5 setlinewidth
1 setlinejoin
0 setlinecap
0 0 m
0 4 l
gsave
0.000 setgray
fill
grestore
stroke
grestore
} bind def
366.444 54 o
grestore
gsave
/o {
gsave
newpath
translate
0.5 setlinewidth
1 setlinejoin
0 setlinecap
0 0 m
0 -4 l
gsave
0.000 setgray
fill
grestore
stroke
grestore
} bind def
366.444 486 o
grestore
gsave
357.631500 40.921875 translate
0.000000 rotate
0.000000 0.171875 m /zero glyphshow
7.634766 0.171875 m /period glyphshow
11.449219 0.171875 m /four glyphshow
grestore
gsave
/o {
gsave
newpath
translate
0.5 setlinewidth
1 setlinejoin
0 setlinecap
0 0 m
0 4 l
gsave
0.000 setgray
fill
grestore
stroke
grestore
} bind def
497.016 54 o
grestore
gsave
/o {
gsave
newpath
translate
0.5 setlinewidth
1 setlinejoin
0 setlinecap
0 0 m
0 -4 l
gsave
0.000 setgray
fill
grestore
stroke
grestore
} bind def
497.016 486 o
grestore
gsave
488.250375 40.921875 translate
0.000000 rotate
0.000000 0.171875 m /zero glyphshow
7.634766 0.171875 m /period glyphshow
11.449219 0.171875 m /six glyphshow
grestore
gsave
/o {
gsave
newpath
translate
0.5 setlinewidth
1 setlinejoin
0 setlinecap
0 0 m
0 4 l
gsave
0.000 setgray
fill
grestore
stroke
grestore
} bind def
627.588 54 o
grestore
gsave
/o {
gsave
newpath
translate
0.5 setlinewidth
1 setlinejoin
0 setlinecap
0 0 m
0 -4 l
gsave
0.000 setgray
fill
grestore
stroke
grestore
} bind def
627.588 486 o
grestore
gsave
618.853625 40.921875 translate
0.000000 rotate
0.000000 0.171875 m /zero glyphshow
7.634766 0.171875 m /period glyphshow
11.449219 0.171875 m /eight glyphshow
grestore
gsave
/o {
gsave
newpath
translate
0.5 setlinewidth
1 setlinejoin
0 setlinecap
0 0 m
0 4 l
gsave
0.000 setgray
fill
grestore
stroke
grestore
} bind def
758.16 54 o
grestore
gsave
/o {
gsave
newpath
translate
0.5 setlinewidth
1 setlinejoin
0 setlinecap
0 0 m
0 -4 l
gsave
0.000 setgray
fill
grestore
stroke
grestore
} bind def
758.16 486 o
grestore
gsave
749.667812 40.921875 translate
0.000000 rotate
0.000000 0.171875 m /one glyphshow
7.634766 0.171875 m /period glyphshow
11.449219 0.171875 m /zero glyphshow
grestore
gsave
399.565938 25.781250 translate
0.000000 rotate
0.000000 1.390625 m /F glyphshow
6.902344 1.390625 m /comma glyphshow
10.716797 1.390625 m /space glyphshow
14.531250 1.390625 m /F glyphshow
21.433594 1.390625 m /comma glyphshow
25.248047 1.390625 m /space glyphshow
29.062500 1.390625 m /F glyphshow
35.964844 1.390625 m /comma glyphshow
39.779297 1.390625 m /space glyphshow
43.593750 1.390625 m /F glyphshow
50.496094 1.390625 m /comma glyphshow
54.310547 1.390625 m /space glyphshow
58.125000 1.390625 m /F glyphshow
grestore
gsave
/o {
gsave
newpath
translate
0.5 setlinewidth
1 setlinejoin
0 setlinecap
0 0 m
4 0 l
gsave
0.000 setgray
fill
grestore
stroke
grestore
} bind def
105.3 54 o
grestore
gsave
/o {
gsave
newpath
translate
0.5 setlinewidth
1 setlinejoin
0 setlinecap
0 0 m
-4 0 l
gsave
0.000 setgray
fill
grestore
stroke
grestore
} bind def
758.16 54 o
grestore
gsave
83.800000 49.460937 translate
0.000000 rotate
0.000000 0.171875 m /zero glyphshow
7.634766 0.171875 m /period glyphshow
11.449219 0.171875 m /zero glyphshow
grestore
gsave
/o {
gsave
newpath
translate
0.5 setlinewidth
1 setlinejoin
0 setlinecap
0 0 m
4 0 l
gsave
0.000 setgray
fill
grestore
stroke
grestore
} bind def
105.3 140.4 o
grestore
gsave
/o {
gsave
newpath
translate
0.5 setlinewidth
1 setlinejoin
0 setlinecap
0 0 m
-4 0 l
gsave
0.000 setgray
fill
grestore
stroke
grestore
} bind def
758.16 140.4 o
grestore
gsave
84.206250 135.860937 translate
0.000000 rotate
0.000000 0.171875 m /zero glyphshow
7.634766 0.171875 m /period glyphshow
11.449219 0.171875 m /two glyphshow
grestore
gsave
/o {
gsave
newpath
translate
0.5 setlinewidth
1 setlinejoin
0 setlinecap
0 0 m
4 0 l
gsave
0.000 setgray
fill
grestore
stroke
grestore
} bind def
105.3 226.8 o
grestore
gsave
/o {
gsave
newpath
translate
0.5 setlinewidth
1 setlinejoin
0 setlinecap
0 0 m
-4 0 l
gsave
0.000 setgray
fill
grestore
stroke
grestore
} bind def
758.16 226.8 o
grestore
gsave
83.675000 222.260937 translate
0.000000 rotate
0.000000 0.171875 m /zero glyphshow
7.634766 0.171875 m /period glyphshow
11.449219 0.171875 m /four glyphshow
grestore
gsave
/o {
gsave
newpath
translate
0.5 setlinewidth
1 setlinejoin
0 setlinecap
0 0 m
4 0 l
gsave
0.000 setgray
fill
grestore
stroke
grestore
} bind def
105.3 313.2 o
grestore
gsave
/o {
gsave
newpath
translate
0.5 setlinewidth
1 setlinejoin
0 setlinecap
0 0 m
-4 0 l
gsave
0.000 setgray
fill
grestore
stroke
grestore
} bind def
758.16 313.2 o
grestore
gsave
83.768750 308.660938 translate
0.000000 rotate
0.000000 0.171875 m /zero glyphshow
7.634766 0.171875 m /period glyphshow
11.449219 0.171875 m /six glyphshow
grestore
gsave
/o {
gsave
newpath
translate
0.5 setlinewidth
1 setlinejoin
0 setlinecap
0 0 m
4 0 l
gsave
0.000 setgray
fill
grestore
stroke
grestore
} bind def
105.3 399.6 o
grestore
gsave
/o {
gsave
newpath
translate
0.5 setlinewidth
1 setlinejoin
0 setlinecap
0 0 m
-4 0 l
gsave
0.000 setgray
fill
grestore
stroke
grestore
} bind def
758.16 399.6 o
grestore
gsave
83.831250 395.060938 translate
0.000000 rotate
0.000000 0.171875 m /zero glyphshow
7.634766 0.171875 m /period glyphshow
11.449219 0.171875 m /eight glyphshow
grestore
gsave
/o {
gsave
newpath
translate
0.5 setlinewidth
1 setlinejoin
0 setlinecap
0 0 m
4 0 l
gsave
0.000 setgray
fill
grestore
stroke
grestore
} bind def
105.3 486 o
grestore
gsave
/o {
gsave
newpath
translate
0.5 setlinewidth
1 setlinejoin
0 setlinecap
0 0 m
-4 0 l
gsave
0.000 setgray
fill
grestore
stroke
grestore
} bind def
758.16 486 o
grestore
gsave
84.315625 481.460938 translate
0.000000 rotate
0.000000 0.171875 m /one glyphshow
7.634766 0.171875 m /period glyphshow
11.449219 0.171875 m /zero glyphshow
grestore
gsave
78.675000 228.429688 translate
90.000000 rotate
0.000000 2.500000 m /E glyphshow
7.582031 2.500000 m /n glyphshow
15.187500 2.500000 m /t glyphshow
19.892578 2.500000 m /a glyphshow
27.246094 2.500000 m /n glyphshow
34.851562 2.500000 m /g glyphshow
42.468750 2.500000 m /l glyphshow
45.802734 2.500000 m /e glyphshow
53.185547 2.500000 m /m glyphshow
64.875000 2.500000 m /e glyphshow
72.257812 2.500000 m /n glyphshow
79.863281 2.500000 m /t glyphshow
grestore
1.000 setlinewidth
2 setlinecap
gsave
105.3 486 m
758.16 486 l
stroke
grestore
gsave
758.16 54 m
758.16 486 l
stroke
grestore
gsave
105.3 54 m
758.16 54 l
stroke
grestore
gsave
105.3 54 m
105.3 486 l
stroke
grestore
/BitstreamVeraSans-Roman findfont
14.400 scalefont
setfont
gsave
381.948750 488.093750 translate
0.000000 rotate
0.000000 2.906250 m /E glyphshow
9.082642 2.906250 m /n glyphshow
18.193359 2.906250 m /t glyphshow
23.829651 2.906250 m /a glyphshow
32.638550 2.906250 m /n glyphshow
41.749268 2.906250 m /g glyphshow
50.874023 2.906250 m /l glyphshow
54.867859 2.906250 m /e glyphshow
63.711853 2.906250 m /m glyphshow
77.714844 2.906250 m /e glyphshow
86.558838 2.906250 m /n glyphshow
95.669556 2.906250 m /t glyphshow
grestore
gsave
112.5 370.746 m
455.168 370.746 l
455.168 478.8 l
112.5 478.8 l
112.5 370.746 l
cl
gsave
1.000 setgray
fill
grestore
stroke
grestore
0.000 0.000 1.000 setrgbcolor
gsave
122.58 467.439 m
142.74 467.439 l
stroke
grestore
0.500 setlinewidth
0 setlinecap
0.000 setgray
gsave
/o {
gsave
newpath
translate
0.5 setlinewidth
1 setlinejoin
0 setlinecap
0 -2.5 m
0.663008 -2.5 1.29895 -2.23658 1.76777 -1.76777 c
2.23658 -1.29895 2.5 -0.663008 2.5 0 c
2.5 0.663008 2.23658 1.29895 1.76777 1.76777 c
1.29895 2.23658 0.663008 2.5 0 2.5 c
-0.663008 2.5 -1.29895 2.23658 -1.76777 1.76777 c
-2.23658 1.29895 -2.5 0.663008 -2.5 0 c
-2.5 -0.663008 -2.23658 -1.29895 -1.76777 -1.76777 c
-1.29895 -2.23658 -0.663008 -2.5 0 -2.5 c
cl
gsave
0.000 0.000 1.000 setrgbcolor
fill
grestore
stroke
grestore
} bind def
122.58 467.439 o
142.74 467.439 o
grestore
gsave
158.580000 460.774375 translate
0.000000 rotate
0.000000 1.625000 m /s glyphshow
7.489319 1.625000 m /t glyphshow
13.125610 1.625000 m /a glyphshow
21.934509 1.625000 m /t glyphshow
27.570801 1.625000 m /e glyphshow
36.414795 1.625000 m /colon glyphshow
41.257935 1.625000 m /space glyphshow
45.827332 1.625000 m /W glyphshow
59.165894 1.625000 m /e glyphshow
68.009888 1.625000 m /r glyphshow
73.669922 1.625000 m /n glyphshow
82.780640 1.625000 m /e glyphshow
91.624634 1.625000 m /r glyphshow
97.534668 1.625000 m /comma glyphshow
102.104065 1.625000 m /space glyphshow
106.673462 1.625000 m /m glyphshow
120.676453 1.625000 m /e glyphshow
129.520447 1.625000 m /a glyphshow
138.329346 1.625000 m /s glyphshow
145.818665 1.625000 m /u glyphshow
154.929382 1.625000 m /r glyphshow
160.464417 1.625000 m /e glyphshow
169.308411 1.625000 m /colon glyphshow
174.151550 1.625000 m /space glyphshow
178.720947 1.625000 m /B glyphshow
188.582703 1.625000 m /u glyphshow
197.693420 1.625000 m /r glyphshow
203.228455 1.625000 m /e glyphshow
212.072449 1.625000 m /s glyphshow
grestore
1.000 setlinewidth
2 setlinecap
0.000 0.500 0.000 setrgbcolor
gsave
122.58 446.693 m
142.74 446.693 l
stroke
grestore
0.500 setlinewidth
0 setlinecap
0.000 setgray
gsave
/o {
gsave
newpath
translate
0.5 setlinewidth
1 setlinejoin
0 setlinecap
0 -2.5 m
0.663008 -2.5 1.29895 -2.23658 1.76777 -1.76777 c
2.23658 -1.29895 2.5 -0.663008 2.5 0 c
2.5 0.663008 2.23658 1.29895 1.76777 1.76777 c
1.29895 2.23658 0.663008 2.5 0 2.5 c
-0.663008 2.5 -1.29895 2.23658 -1.76777 1.76777 c
-2.23658 1.29895 -2.5 0.663008 -2.5 0 c
-2.5 -0.663008 -2.23658 -1.29895 -1.76777 -1.76777 c
-1.29895 -2.23658 -0.663008 -2.5 0 -2.5 c
cl
gsave
0.000 0.500 0.000 setrgbcolor
fill
grestore
stroke
grestore
} bind def
122.58 446.693 o
142.74 446.693 o
grestore
gsave
158.580000 440.027500 translate
0.000000 rotate
0.000000 1.625000 m /s glyphshow
7.489319 1.625000 m /t glyphshow
13.125610 1.625000 m /a glyphshow
21.934509 1.625000 m /t glyphshow
27.570801 1.625000 m /e glyphshow
36.414795 1.625000 m /colon glyphshow
41.257935 1.625000 m /space glyphshow
45.827332 1.625000 m /W glyphshow
59.165894 1.625000 m /e glyphshow
68.009888 1.625000 m /r glyphshow
73.669922 1.625000 m /n glyphshow
82.780640 1.625000 m /e glyphshow
91.624634 1.625000 m /r glyphshow
97.534668 1.625000 m /comma glyphshow
102.104065 1.625000 m /space glyphshow
106.673462 1.625000 m /m glyphshow
120.676453 1.625000 m /e glyphshow
129.520447 1.625000 m /a glyphshow
138.329346 1.625000 m /s glyphshow
145.818665 1.625000 m /u glyphshow
154.929382 1.625000 m /r glyphshow
160.464417 1.625000 m /e glyphshow
169.308411 1.625000 m /colon glyphshow
174.151550 1.625000 m /space glyphshow
178.720947 1.625000 m /H glyphshow
189.530273 1.625000 m /i glyphshow
193.524109 1.625000 m /l glyphshow
197.517944 1.625000 m /b glyphshow
206.642700 1.625000 m /e glyphshow
215.486694 1.625000 m /r glyphshow
221.396729 1.625000 m /t glyphshow
227.033020 1.625000 m /hyphen glyphshow
232.220093 1.625000 m /S glyphshow
241.344849 1.625000 m /c glyphshow
249.248291 1.625000 m /h glyphshow
258.359009 1.625000 m /m glyphshow
272.362000 1.625000 m /i glyphshow
276.355835 1.625000 m /d glyphshow
285.480591 1.625000 m /t glyphshow
grestore
1.000 setlinewidth
2 setlinecap
1.000 0.000 0.000 setrgbcolor
gsave
122.58 425.946 m
142.74 425.946 l
stroke
grestore
0.500 setlinewidth
0 setlinecap
0.000 setgray
gsave
/o {
gsave
newpath
translate
0.5 setlinewidth
1 setlinejoin
0 setlinecap
0 -2.5 m
0.663008 -2.5 1.29895 -2.23658 1.76777 -1.76777 c
2.23658 -1.29895 2.5 -0.663008 2.5 0 c
2.5 0.663008 2.23658 1.29895 1.76777 1.76777 c
1.29895 2.23658 0.663008 2.5 0 2.5 c
-0.663008 2.5 -1.29895 2.23658 -1.76777 1.76777 c
-2.23658 1.29895 -2.5 0.663008 -2.5 0 c
-2.5 -0.663008 -2.23658 -1.29895 -1.76777 -1.76777 c
-1.29895 -2.23658 -0.663008 -2.5 0 -2.5 c
cl
gsave
1.000 0.000 0.000 setrgbcolor
fill
grestore
stroke
grestore
} bind def
122.58 425.946 o
142.74 425.946 o
grestore
gsave
158.580000 419.280625 translate
0.000000 rotate
0.000000 1.625000 m /s glyphshow
7.489319 1.625000 m /t glyphshow
13.125610 1.625000 m /a glyphshow
21.934509 1.625000 m /t glyphshow
27.570801 1.625000 m /e glyphshow
36.414795 1.625000 m /colon glyphshow
41.257935 1.625000 m /space glyphshow
45.827332 1.625000 m /W glyphshow
59.165894 1.625000 m /e glyphshow
68.009888 1.625000 m /r glyphshow
73.669922 1.625000 m /n glyphshow
82.780640 1.625000 m /e glyphshow
91.624634 1.625000 m /r glyphshow
97.534668 1.625000 m /comma glyphshow
102.104065 1.625000 m /space glyphshow
106.673462 1.625000 m /m glyphshow
120.676453 1.625000 m /e glyphshow
129.520447 1.625000 m /a glyphshow
138.329346 1.625000 m /s glyphshow
145.818665 1.625000 m /u glyphshow
154.929382 1.625000 m /r glyphshow
160.464417 1.625000 m /e glyphshow
169.308411 1.625000 m /colon glyphshow
174.151550 1.625000 m /space glyphshow
178.720947 1.625000 m /c glyphshow
186.624390 1.625000 m /o glyphshow
195.419250 1.625000 m /n glyphshow
204.529968 1.625000 m /c glyphshow
212.433411 1.625000 m /u glyphshow
221.544128 1.625000 m /r glyphshow
227.204163 1.625000 m /r glyphshow
232.739197 1.625000 m /e glyphshow
241.583191 1.625000 m /n glyphshow
250.693909 1.625000 m /c glyphshow
258.597351 1.625000 m /e glyphshow
grestore
1.000 setlinewidth
2 setlinecap
0.000 0.750 0.750 setrgbcolor
gsave
122.58 405.199 m
142.74 405.199 l
stroke
grestore
0.500 setlinewidth
0 setlinecap
0.000 setgray
gsave
/o {
gsave
newpath
translate
0.5 setlinewidth
1 setlinejoin
0 setlinecap
0 -2.5 m
0.663008 -2.5 1.29895 -2.23658 1.76777 -1.76777 c
2.23658 -1.29895 2.5 -0.663008 2.5 0 c
2.5 0.663008 2.23658 1.29895 1.76777 1.76777 c
1.29895 2.23658 0.663008 2.5 0 2.5 c
-0.663008 2.5 -1.29895 2.23658 -1.76777 1.76777 c
-2.23658 1.29895 -2.5 0.663008 -2.5 0 c
-2.5 -0.663008 -2.23658 -1.29895 -1.76777 -1.76777 c
-1.29895 -2.23658 -0.663008 -2.5 0 -2.5 c
cl
gsave
0.000 0.750 0.750 setrgbcolor
fill
grestore
stroke
grestore
} bind def
122.58 405.199 o
142.74 405.199 o
grestore
gsave
158.580000 397.252500 translate
0.000000 rotate
0.000000 2.906250 m /s glyphshow
7.489319 2.906250 m /t glyphshow
13.125610 2.906250 m /a glyphshow
21.934509 2.906250 m /t glyphshow
27.570801 2.906250 m /e glyphshow
36.414795 2.906250 m /colon glyphshow
41.257935 2.906250 m /space glyphshow
45.827332 2.906250 m /W glyphshow
59.165894 2.906250 m /e glyphshow
68.009888 2.906250 m /r glyphshow
73.669922 2.906250 m /n glyphshow
82.780640 2.906250 m /e glyphshow
91.624634 2.906250 m /r glyphshow
97.534668 2.906250 m /comma glyphshow
102.104065 2.906250 m /space glyphshow
106.673462 2.906250 m /m glyphshow
120.676453 2.906250 m /e glyphshow
129.520447 2.906250 m /a glyphshow
138.329346 2.906250 m /s glyphshow
145.818665 2.906250 m /u glyphshow
154.929382 2.906250 m /r glyphshow
160.464417 2.906250 m /e glyphshow
169.308411 2.906250 m /colon glyphshow
174.151550 2.906250 m /space glyphshow
178.720947 2.906250 m /e glyphshow
187.564941 2.906250 m /n glyphshow
196.675659 2.906250 m /t glyphshow
202.311951 2.906250 m /r glyphshow
207.846985 2.906250 m /o glyphshow
216.641846 2.906250 m /p glyphshow
225.766602 2.906250 m /y glyphshow
grestore
1.000 setlinewidth
2 setlinecap
0.750 0.000 0.750 setrgbcolor
gsave
122.58 384.452 m
142.74 384.452 l
stroke
grestore
0.500 setlinewidth
0 setlinecap
0.000 setgray
gsave
/o {
gsave
newpath
translate
0.5 setlinewidth
1 setlinejoin
0 setlinecap
0 -2.5 m
0.663008 -2.5 1.29895 -2.23658 1.76777 -1.76777 c
2.23658 -1.29895 2.5 -0.663008 2.5 0 c
2.5 0.663008 2.23658 1.29895 1.76777 1.76777 c
1.29895 2.23658 0.663008 2.5 0 2.5 c
-0.663008 2.5 -1.29895 2.23658 -1.76777 1.76777 c
-2.23658 1.29895 -2.5 0.663008 -2.5 0 c
-2.5 -0.663008 -2.23658 -1.29895 -1.76777 -1.76777 c
-1.29895 -2.23658 -0.663008 -2.5 0 -2.5 c
cl
gsave
0.750 0.000 0.750 setrgbcolor
fill
grestore
stroke
grestore
} bind def
122.58 384.452 o
142.74 384.452 o
grestore
gsave
158.580000 376.505625 translate
0.000000 rotate
0.000000 2.906250 m /s glyphshow
7.489319 2.906250 m /t glyphshow
13.125610 2.906250 m /a glyphshow
21.934509 2.906250 m /t glyphshow
27.570801 2.906250 m /e glyphshow
36.414795 2.906250 m /colon glyphshow
41.257935 2.906250 m /space glyphshow
45.827332 2.906250 m /W glyphshow
59.165894 2.906250 m /e glyphshow
68.009888 2.906250 m /r glyphshow
73.669922 2.906250 m /n glyphshow
82.780640 2.906250 m /e glyphshow
91.624634 2.906250 m /r glyphshow
97.534668 2.906250 m /comma glyphshow
102.104065 2.906250 m /space glyphshow
106.673462 2.906250 m /m glyphshow
120.676453 2.906250 m /e glyphshow
129.520447 2.906250 m /a glyphshow
138.329346 2.906250 m /s glyphshow
145.818665 2.906250 m /u glyphshow
154.929382 2.906250 m /r glyphshow
160.464417 2.906250 m /e glyphshow
169.308411 2.906250 m /colon glyphshow
174.151550 2.906250 m /space glyphshow
178.720947 2.906250 m /s glyphshow
186.210266 2.906250 m /u glyphshow
195.320984 2.906250 m /p glyphshow
204.445740 2.906250 m /e glyphshow
213.289734 2.906250 m /r glyphshow
219.199768 2.906250 m /f glyphshow
224.260498 2.906250 m /i glyphshow
228.254333 2.906250 m /d glyphshow
237.379089 2.906250 m /e glyphshow
246.223083 2.906250 m /l glyphshow
250.216919 2.906250 m /i glyphshow
254.210754 2.906250 m /t glyphshow
259.847046 2.906250 m /y glyphshow
grestore

end
showpage
