%!PS-Adobe-3.0 EPSF-3.0
%%Title: Werner.superfidelity.result.entanglement.eps
%%Creator: matplotlib version 1.2.1, http://matplotlib.org/
%%CreationDate: Fri Jun 14 14:51:00 2013
%%Orientation: portrait
%%BoundingBox: -115 126 727 666
%%EndComments
%%BeginProlog
/mpldict 8 dict def
mpldict begin
/m { moveto } bind def
/l { lineto } bind def
/r { rlineto } bind def
/c { curveto } bind def
/cl { closepath } bind def
/box {
m
1 index 0 r
0 exch r
neg 0 r
cl
} bind def
/clipbox {
box
clip
newpath
} bind def
%!PS-Adobe-3.0 Resource-Font
%%Title: Bitstream Vera Sans
%%Copyright: Copyright (c) 2003 by Bitstream, Inc. All Rights Reserved.
%%Creator: Converted from TrueType to type 3 by PPR
25 dict begin
/_d{bind def}bind def
/_m{moveto}_d
/_l{lineto}_d
/_cl{closepath eofill}_d
/_c{curveto}_d
/_sc{7 -1 roll{setcachedevice}{pop pop pop pop pop pop}ifelse}_d
/_e{exec}_d
/FontName /BitstreamVeraSans-Roman def
/PaintType 0 def
/FontMatrix[.001 0 0 .001 0 0]def
/FontBBox[-183 -236 1287 928]def
/FontType 3 def
/Encoding [ /space /comma /period /zero /one /two /four /six /eight /colon /E /F /W /a /d /e /f /g /i /l /m /n /p /r /s /t /u /y ] def
/FontInfo 10 dict dup begin
/FamilyName (Bitstream Vera Sans) def
/FullName (Bitstream Vera Sans) def
/Notice (Copyright (c) 2003 by Bitstream, Inc. All Rights Reserved. Bitstream Vera is a trademark of Bitstream, Inc.) def
/Weight (Roman) def
/Version (Release 1.10) def
/ItalicAngle 0.0 def
/isFixedPitch false def
/UnderlinePosition -213 def
/UnderlineThickness 143 def
end readonly def
/CharStrings 28 dict dup begin
/space{318 0 0 0 0 0 _sc
}_d
/comma{318 0 77 -115 220 124 _sc
117 124 _m
220 124 _l
220 40 _l
140 -115 _l
77 -115 _l
117 40 _l
117 124 _l
_cl}_d
/period{318 0 107 0 210 124 _sc
107 124 _m
210 124 _l
210 0 _l
107 0 _l
107 124 _l
_cl}_d
/zero{636 0 66 -13 570 742 _sc
318 664 _m
267 664 229 639 203 589 _c
177 539 165 464 165 364 _c
165 264 177 189 203 139 _c
229 89 267 64 318 64 _c
369 64 407 89 433 139 _c
458 189 471 264 471 364 _c
471 464 458 539 433 589 _c
407 639 369 664 318 664 _c
318 742 _m
399 742 461 709 505 645 _c
548 580 570 486 570 364 _c
570 241 548 147 505 83 _c
461 19 399 -13 318 -13 _c
236 -13 173 19 130 83 _c
87 147 66 241 66 364 _c
66 486 87 580 130 645 _c
173 709 236 742 318 742 _c
_cl}_d
/one{636 0 110 0 544 729 _sc
124 83 _m
285 83 _l
285 639 _l
110 604 _l
110 694 _l
284 729 _l
383 729 _l
383 83 _l
544 83 _l
544 0 _l
124 0 _l
124 83 _l
_cl}_d
/two{{636 0 73 0 536 742 _sc
192 83 _m
536 83 _l
536 0 _l
73 0 _l
73 83 _l
110 121 161 173 226 239 _c
290 304 331 346 348 365 _c
380 400 402 430 414 455 _c
426 479 433 504 433 528 _c
433 566 419 598 392 622 _c
365 646 330 659 286 659 _c
255 659 222 653 188 643 _c
154 632 117 616 78 594 _c
78 694 _l
118 710 155 722 189 730 _c
223 738 255 742 284 742 _c
}_e{359 742 419 723 464 685 _c
509 647 532 597 532 534 _c
532 504 526 475 515 449 _c
504 422 484 390 454 354 _c
446 344 420 317 376 272 _c
332 227 271 164 192 83 _c
_cl}_e}_d
/four{636 0 49 0 580 729 _sc
378 643 _m
129 254 _l
378 254 _l
378 643 _l
352 729 _m
476 729 _l
476 254 _l
580 254 _l
580 172 _l
476 172 _l
476 0 _l
378 0 _l
378 172 _l
49 172 _l
49 267 _l
352 729 _l
_cl}_d
/six{{636 0 70 -13 573 742 _sc
330 404 _m
286 404 251 388 225 358 _c
199 328 186 286 186 234 _c
186 181 199 139 225 109 _c
251 79 286 64 330 64 _c
374 64 409 79 435 109 _c
461 139 474 181 474 234 _c
474 286 461 328 435 358 _c
409 388 374 404 330 404 _c
526 713 _m
526 623 _l
501 635 476 644 451 650 _c
425 656 400 659 376 659 _c
310 659 260 637 226 593 _c
}_e{192 549 172 482 168 394 _c
187 422 211 444 240 459 _c
269 474 301 482 336 482 _c
409 482 467 459 509 415 _c
551 371 573 310 573 234 _c
573 159 550 99 506 54 _c
462 9 403 -13 330 -13 _c
246 -13 181 19 137 83 _c
92 147 70 241 70 364 _c
70 479 97 571 152 639 _c
206 707 280 742 372 742 _c
396 742 421 739 447 735 _c
472 730 498 723 526 713 _c
_cl}_e}_d
/eight{{636 0 68 -13 568 742 _sc
318 346 _m
271 346 234 333 207 308 _c
180 283 167 249 167 205 _c
167 161 180 126 207 101 _c
234 76 271 64 318 64 _c
364 64 401 76 428 102 _c
455 127 469 161 469 205 _c
469 249 455 283 429 308 _c
402 333 365 346 318 346 _c
219 388 _m
177 398 144 418 120 447 _c
96 476 85 511 85 553 _c
85 611 105 657 147 691 _c
188 725 245 742 318 742 _c
}_e{390 742 447 725 489 691 _c
530 657 551 611 551 553 _c
551 511 539 476 515 447 _c
491 418 459 398 417 388 _c
464 377 501 355 528 323 _c
554 291 568 251 568 205 _c
568 134 546 80 503 43 _c
459 5 398 -13 318 -13 _c
237 -13 175 5 132 43 _c
89 80 68 134 68 205 _c
68 251 81 291 108 323 _c
134 355 171 377 219 388 _c
183 544 _m
183 506 194 476 218 455 _c
}_e{242 434 275 424 318 424 _c
360 424 393 434 417 455 _c
441 476 453 506 453 544 _c
453 582 441 611 417 632 _c
393 653 360 664 318 664 _c
275 664 242 653 218 632 _c
194 611 183 582 183 544 _c
_cl}_e}_d
/colon{337 0 117 0 220 517 _sc
117 124 _m
220 124 _l
220 0 _l
117 0 _l
117 124 _l
117 517 _m
220 517 _l
220 393 _l
117 393 _l
117 517 _l
_cl}_d
/E{632 0 98 0 568 729 _sc
98 729 _m
559 729 _l
559 646 _l
197 646 _l
197 430 _l
544 430 _l
544 347 _l
197 347 _l
197 83 _l
568 83 _l
568 0 _l
98 0 _l
98 729 _l
_cl}_d
/F{575 0 98 0 517 729 _sc
98 729 _m
517 729 _l
517 646 _l
197 646 _l
197 431 _l
486 431 _l
486 348 _l
197 348 _l
197 0 _l
98 0 _l
98 729 _l
_cl}_d
/W{989 0 33 0 956 729 _sc
33 729 _m
133 729 _l
286 113 _l
439 729 _l
550 729 _l
703 113 _l
856 729 _l
956 729 _l
773 0 _l
649 0 _l
495 633 _l
340 0 _l
216 0 _l
33 729 _l
_cl}_d
/a{{613 0 60 -13 522 560 _sc
343 275 _m
270 275 220 266 192 250 _c
164 233 150 205 150 165 _c
150 133 160 107 181 89 _c
202 70 231 61 267 61 _c
317 61 357 78 387 114 _c
417 149 432 196 432 255 _c
432 275 _l
343 275 _l
522 312 _m
522 0 _l
432 0 _l
432 83 _l
411 49 385 25 355 10 _c
325 -5 287 -13 243 -13 _c
187 -13 142 2 109 33 _c
76 64 60 106 60 159 _c
}_e{60 220 80 266 122 298 _c
163 329 224 345 306 345 _c
432 345 _l
432 354 _l
432 395 418 427 391 450 _c
364 472 326 484 277 484 _c
245 484 215 480 185 472 _c
155 464 127 453 100 439 _c
100 522 _l
132 534 164 544 195 550 _c
226 556 256 560 286 560 _c
365 560 424 539 463 498 _c
502 457 522 395 522 312 _c
_cl}_e}_d
/d{{635 0 55 -13 544 760 _sc
454 464 _m
454 760 _l
544 760 _l
544 0 _l
454 0 _l
454 82 _l
435 49 411 25 382 10 _c
353 -5 319 -13 279 -13 _c
213 -13 159 13 117 65 _c
75 117 55 187 55 273 _c
55 359 75 428 117 481 _c
159 533 213 560 279 560 _c
319 560 353 552 382 536 _c
411 520 435 496 454 464 _c
148 273 _m
148 207 161 155 188 117 _c
215 79 253 61 301 61 _c
}_e{348 61 385 79 413 117 _c
440 155 454 207 454 273 _c
454 339 440 390 413 428 _c
385 466 348 485 301 485 _c
253 485 215 466 188 428 _c
161 390 148 339 148 273 _c
_cl}_e}_d
/e{{615 0 55 -13 562 560 _sc
562 296 _m
562 252 _l
149 252 _l
153 190 171 142 205 110 _c
238 78 284 62 344 62 _c
378 62 412 66 444 74 _c
476 82 509 95 541 113 _c
541 28 _l
509 14 476 3 442 -3 _c
408 -9 373 -13 339 -13 _c
251 -13 182 12 131 62 _c
80 112 55 181 55 268 _c
55 357 79 428 127 481 _c
175 533 241 560 323 560 _c
397 560 455 536 498 489 _c
}_e{540 441 562 377 562 296 _c
472 322 _m
471 371 457 410 431 440 _c
404 469 368 484 324 484 _c
274 484 234 469 204 441 _c
174 413 156 373 152 322 _c
472 322 _l
_cl}_e}_d
/f{352 0 23 0 371 760 _sc
371 760 _m
371 685 _l
285 685 _l
253 685 230 678 218 665 _c
205 652 199 629 199 595 _c
199 547 _l
347 547 _l
347 477 _l
199 477 _l
199 0 _l
109 0 _l
109 477 _l
23 477 _l
23 547 _l
109 547 _l
109 585 _l
109 645 123 690 151 718 _c
179 746 224 760 286 760 _c
371 760 _l
_cl}_d
/g{{635 0 55 -207 544 560 _sc
454 280 _m
454 344 440 395 414 431 _c
387 467 349 485 301 485 _c
253 485 215 467 188 431 _c
161 395 148 344 148 280 _c
148 215 161 165 188 129 _c
215 93 253 75 301 75 _c
349 75 387 93 414 129 _c
440 165 454 215 454 280 _c
544 68 _m
544 -24 523 -93 482 -139 _c
440 -184 377 -207 292 -207 _c
260 -207 231 -204 203 -200 _c
175 -195 147 -188 121 -178 _c
}_e{121 -91 _l
147 -105 173 -115 199 -122 _c
225 -129 251 -133 278 -133 _c
336 -133 380 -117 410 -87 _c
439 -56 454 -10 454 52 _c
454 96 _l
435 64 411 40 382 24 _c
353 8 319 0 279 0 _c
211 0 157 25 116 76 _c
75 127 55 195 55 280 _c
55 364 75 432 116 483 _c
157 534 211 560 279 560 _c
319 560 353 552 382 536 _c
411 520 435 496 454 464 _c
454 547 _l
544 547 _l
}_e{544 68 _l
_cl}_e}_d
/i{278 0 94 0 184 760 _sc
94 547 _m
184 547 _l
184 0 _l
94 0 _l
94 547 _l
94 760 _m
184 760 _l
184 646 _l
94 646 _l
94 760 _l
_cl}_d
/l{278 0 94 0 184 760 _sc
94 760 _m
184 760 _l
184 0 _l
94 0 _l
94 760 _l
_cl}_d
/m{{974 0 91 0 889 560 _sc
520 442 _m
542 482 569 511 600 531 _c
631 550 668 560 711 560 _c
767 560 811 540 842 500 _c
873 460 889 403 889 330 _c
889 0 _l
799 0 _l
799 327 _l
799 379 789 418 771 444 _c
752 469 724 482 686 482 _c
639 482 602 466 575 435 _c
548 404 535 362 535 309 _c
535 0 _l
445 0 _l
445 327 _l
445 379 435 418 417 444 _c
398 469 369 482 331 482 _c
}_e{285 482 248 466 221 435 _c
194 404 181 362 181 309 _c
181 0 _l
91 0 _l
91 547 _l
181 547 _l
181 462 _l
201 495 226 520 255 536 _c
283 552 317 560 357 560 _c
397 560 430 550 458 530 _c
486 510 506 480 520 442 _c
_cl}_e}_d
/n{634 0 91 0 549 560 _sc
549 330 _m
549 0 _l
459 0 _l
459 327 _l
459 379 448 417 428 443 _c
408 469 378 482 338 482 _c
289 482 251 466 223 435 _c
195 404 181 362 181 309 _c
181 0 _l
91 0 _l
91 547 _l
181 547 _l
181 462 _l
202 494 227 519 257 535 _c
286 551 320 560 358 560 _c
420 560 468 540 500 501 _c
532 462 549 405 549 330 _c
_cl}_d
/p{{635 0 91 -207 580 560 _sc
181 82 _m
181 -207 _l
91 -207 _l
91 547 _l
181 547 _l
181 464 _l
199 496 223 520 252 536 _c
281 552 316 560 356 560 _c
422 560 476 533 518 481 _c
559 428 580 359 580 273 _c
580 187 559 117 518 65 _c
476 13 422 -13 356 -13 _c
316 -13 281 -5 252 10 _c
223 25 199 49 181 82 _c
487 273 _m
487 339 473 390 446 428 _c
418 466 381 485 334 485 _c
}_e{286 485 249 466 222 428 _c
194 390 181 339 181 273 _c
181 207 194 155 222 117 _c
249 79 286 61 334 61 _c
381 61 418 79 446 117 _c
473 155 487 207 487 273 _c
_cl}_e}_d
/r{411 0 91 0 411 560 _sc
411 463 _m
401 469 390 473 378 476 _c
366 478 353 480 339 480 _c
288 480 249 463 222 430 _c
194 397 181 350 181 288 _c
181 0 _l
91 0 _l
91 547 _l
181 547 _l
181 462 _l
199 495 224 520 254 536 _c
284 552 321 560 365 560 _c
371 560 378 559 386 559 _c
393 558 401 557 411 555 _c
411 463 _l
_cl}_d
/s{{521 0 54 -13 472 560 _sc
443 531 _m
443 446 _l
417 458 391 468 364 475 _c
336 481 308 485 279 485 _c
234 485 200 478 178 464 _c
156 450 145 430 145 403 _c
145 382 153 366 169 354 _c
185 342 217 330 265 320 _c
296 313 _l
360 299 405 279 432 255 _c
458 230 472 195 472 151 _c
472 100 452 60 412 31 _c
372 1 316 -13 246 -13 _c
216 -13 186 -10 154 -5 _c
}_e{122 0 89 8 54 20 _c
54 113 _l
87 95 120 82 152 74 _c
184 65 216 61 248 61 _c
290 61 323 68 346 82 _c
368 96 380 117 380 144 _c
380 168 371 187 355 200 _c
339 213 303 226 247 238 _c
216 245 _l
160 257 119 275 95 299 _c
70 323 58 356 58 399 _c
58 450 76 490 112 518 _c
148 546 200 560 268 560 _c
301 560 332 557 362 552 _c
391 547 418 540 443 531 _c
}_e{_cl}_e}_d
/t{392 0 27 0 368 702 _sc
183 702 _m
183 547 _l
368 547 _l
368 477 _l
183 477 _l
183 180 _l
183 135 189 106 201 94 _c
213 81 238 75 276 75 _c
368 75 _l
368 0 _l
276 0 _l
206 0 158 13 132 39 _c
106 65 93 112 93 180 _c
93 477 _l
27 477 _l
27 547 _l
93 547 _l
93 702 _l
183 702 _l
_cl}_d
/u{634 0 85 -13 543 547 _sc
85 216 _m
85 547 _l
175 547 _l
175 219 _l
175 167 185 129 205 103 _c
225 77 255 64 296 64 _c
344 64 383 79 411 110 _c
439 141 453 183 453 237 _c
453 547 _l
543 547 _l
543 0 _l
453 0 _l
453 84 _l
431 50 405 26 377 10 _c
348 -5 315 -13 277 -13 _c
214 -13 166 6 134 45 _c
101 83 85 140 85 216 _c
_cl}_d
/y{592 0 30 -207 562 547 _sc
322 -50 _m
296 -114 271 -157 247 -177 _c
223 -197 191 -207 151 -207 _c
79 -207 _l
79 -132 _l
132 -132 _l
156 -132 175 -126 189 -114 _c
203 -102 218 -75 235 -31 _c
251 9 _l
30 547 _l
125 547 _l
296 119 _l
467 547 _l
562 547 _l
322 -50 _l
_cl}_d
end readonly def

/BuildGlyph
 {exch begin
 CharStrings exch
 2 copy known not{pop /.notdef}if
 true 3 1 roll get exec
 end}_d

/BuildChar {
 1 index /Encoding get exch get
 1 index /BuildGlyph get exec
}_d

FontName currentdict end definefont pop
end
%%EndProlog
mpldict begin
-115.2 126 translate
842.4 540 0 0 clipbox
gsave
0 0 m
842.4 0 l
842.4 540 l
0 540 l
cl
1.000 setgray
fill
grestore
gsave
105.3 54 m
758.16 54 l
758.16 486 l
105.3 486 l
cl
1.000 setgray
fill
grestore
1.000 setlinewidth
1 setlinejoin
2 setlinecap
[] 0 setdash
0.000 0.000 1.000 setrgbcolor
gsave
652.9 432 105.3 54 clipbox
105.3 56.5788 m
111.829 54.1087 l
118.357 54.0188 l
124.886 54.0238 l
131.414 54.0127 l
137.943 54.0102 l
144.472 54.0166 l
151 54.0153 l
157.529 54.0092 l
164.057 54.0168 l
170.586 54.0128 l
177.115 54.0125 l
183.643 54.0136 l
190.172 54.011 l
196.7 54.0121 l
203.229 54.0761 l
209.758 54.1554 l
216.286 54.2338 l
222.815 54.8688 l
229.343 54.8687 l
235.872 54.7704 l
242.401 54.8163 l
248.929 54.7523 l
255.458 54.4616 l
261.986 56.8673 l
268.515 54.5499 l
275.044 54.7936 l
281.572 56.8922 l
288.101 54.6417 l
294.629 54.8498 l
301.158 54.8785 l
307.687 54.9097 l
314.215 54.4321 l
320.744 54.3498 l
327.272 54.0433 l
333.801 54.0435 l
340.33 54.0174 l
346.858 54.0091 l
353.387 54.0146 l
359.915 54.0215 l
366.444 54.0162 l
372.973 54.011 l
379.501 54.0164 l
386.03 54.0114 l
392.558 54.0122 l
399.087 54.0098 l
405.616 54.0103 l
412.144 54.0163 l
418.673 54.0277 l
425.201 54.201 l
431.73 54.2102 l
438.259 58.906 l
444.787 63.8297 l
451.316 68.7825 l
457.844 73.7644 l
464.373 78.7772 l
470.902 83.8222 l
477.43 88.901 l
483.959 94.0155 l
490.487 99.1677 l
497.016 104.36 l
503.545 109.593 l
510.073 114.871 l
516.602 120.196 l
523.13 125.57 l
529.659 130.995 l
536.188 136.476 l
542.716 142.014 l
549.245 147.614 l
555.773 153.279 l
562.302 159.012 l
568.831 164.819 l
575.359 170.704 l
581.888 176.672 l
588.416 182.728 l
594.945 188.878 l
601.474 195.129 l
608.002 201.488 l
614.531 207.964 l
621.059 214.565 l
627.588 221.302 l
634.117 228.185 l
640.645 235.229 l
647.174 242.447 l
653.702 249.856 l
660.231 257.477 l
666.76 265.333 l
673.288 273.45 l
679.817 281.862 l
686.345 290.609 l
692.874 299.739 l
699.403 309.315 l
705.931 319.417 l
712.46 330.15 l
718.988 341.661 l
725.517 354.162 l
732.046 367.975 l
738.574 383.65 l
745.103 402.257 l
751.631 426.574 l
758.16 486 l
stroke
grestore
0.500 setlinewidth
0 setlinecap
0.000 setgray
gsave
652.9 432 105.3 54 clipbox
/o {
gsave
newpath
translate
0.5 setlinewidth
1 setlinejoin
0 setlinecap
0 -2.5 m
0.663008 -2.5 1.29895 -2.23658 1.76777 -1.76777 c
2.23658 -1.29895 2.5 -0.663008 2.5 0 c
2.5 0.663008 2.23658 1.29895 1.76777 1.76777 c
1.29895 2.23658 0.663008 2.5 0 2.5 c
-0.663008 2.5 -1.29895 2.23658 -1.76777 1.76777 c
-2.23658 1.29895 -2.5 0.663008 -2.5 0 c
-2.5 -0.663008 -2.23658 -1.29895 -1.76777 -1.76777 c
-1.29895 -2.23658 -0.663008 -2.5 0 -2.5 c
cl
gsave
0.000 0.000 1.000 setrgbcolor
fill
grestore
stroke
grestore
} bind def
105.3 56.5788 o
111.829 54.1087 o
118.357 54.0188 o
124.886 54.0238 o
131.414 54.0127 o
137.943 54.0102 o
144.472 54.0166 o
151 54.0153 o
157.529 54.0092 o
164.057 54.0168 o
170.586 54.0128 o
177.115 54.0125 o
183.643 54.0136 o
190.172 54.011 o
196.7 54.0121 o
203.229 54.0761 o
209.758 54.1554 o
216.286 54.2338 o
222.815 54.8688 o
229.343 54.8687 o
235.872 54.7704 o
242.401 54.8163 o
248.929 54.7523 o
255.458 54.4616 o
261.986 56.8673 o
268.515 54.5499 o
275.044 54.7936 o
281.572 56.8922 o
288.101 54.6417 o
294.629 54.8498 o
301.158 54.8785 o
307.687 54.9097 o
314.215 54.4321 o
320.744 54.3498 o
327.272 54.0433 o
333.801 54.0435 o
340.33 54.0174 o
346.858 54.0091 o
353.387 54.0146 o
359.915 54.0215 o
366.444 54.0162 o
372.973 54.011 o
379.501 54.0164 o
386.03 54.0114 o
392.558 54.0122 o
399.087 54.0098 o
405.616 54.0103 o
412.144 54.0163 o
418.673 54.0277 o
425.201 54.201 o
431.73 54.2102 o
438.259 58.906 o
444.787 63.8297 o
451.316 68.7825 o
457.844 73.7644 o
464.373 78.7772 o
470.902 83.8222 o
477.43 88.901 o
483.959 94.0155 o
490.487 99.1677 o
497.016 104.36 o
503.545 109.593 o
510.073 114.871 o
516.602 120.196 o
523.13 125.57 o
529.659 130.995 o
536.188 136.476 o
542.716 142.014 o
549.245 147.614 o
555.773 153.279 o
562.302 159.012 o
568.831 164.819 o
575.359 170.704 o
581.888 176.672 o
588.416 182.728 o
594.945 188.878 o
601.474 195.129 o
608.002 201.488 o
614.531 207.964 o
621.059 214.565 o
627.588 221.302 o
634.117 228.185 o
640.645 235.229 o
647.174 242.447 o
653.702 249.856 o
660.231 257.477 o
666.76 265.333 o
673.288 273.45 o
679.817 281.862 o
686.345 290.609 o
692.874 299.739 o
699.403 309.315 o
705.931 319.417 o
712.46 330.15 o
718.988 341.661 o
725.517 354.162 o
732.046 367.975 o
738.574 383.65 o
745.103 402.257 o
751.631 426.574 o
758.16 486 o
grestore
gsave
/o {
gsave
newpath
translate
0.5 setlinewidth
1 setlinejoin
0 setlinecap
0 0 m
0 4 l
gsave
0.000 setgray
fill
grestore
stroke
grestore
} bind def
105.3 54 o
grestore
gsave
/o {
gsave
newpath
translate
0.5 setlinewidth
1 setlinejoin
0 setlinecap
0 0 m
0 -4 l
gsave
0.000 setgray
fill
grestore
stroke
grestore
} bind def
105.3 486 o
grestore
/BitstreamVeraSans-Roman findfont
12.000 scalefont
setfont
gsave
96.550000 40.921875 translate
0.000000 rotate
0.000000 0.171875 m /zero glyphshow
7.634766 0.171875 m /period glyphshow
11.449219 0.171875 m /zero glyphshow
grestore
gsave
/o {
gsave
newpath
translate
0.5 setlinewidth
1 setlinejoin
0 setlinecap
0 0 m
0 4 l
gsave
0.000 setgray
fill
grestore
stroke
grestore
} bind def
235.872 54 o
grestore
gsave
/o {
gsave
newpath
translate
0.5 setlinewidth
1 setlinejoin
0 setlinecap
0 0 m
0 -4 l
gsave
0.000 setgray
fill
grestore
stroke
grestore
} bind def
235.872 486 o
grestore
gsave
227.325125 40.921875 translate
0.000000 rotate
0.000000 0.171875 m /zero glyphshow
7.634766 0.171875 m /period glyphshow
11.449219 0.171875 m /two glyphshow
grestore
gsave
/o {
gsave
newpath
translate
0.5 setlinewidth
1 setlinejoin
0 setlinecap
0 0 m
0 4 l
gsave
0.000 setgray
fill
grestore
stroke
grestore
} bind def
366.444 54 o
grestore
gsave
/o {
gsave
newpath
translate
0.5 setlinewidth
1 setlinejoin
0 setlinecap
0 0 m
0 -4 l
gsave
0.000 setgray
fill
grestore
stroke
grestore
} bind def
366.444 486 o
grestore
gsave
357.631500 40.921875 translate
0.000000 rotate
0.000000 0.171875 m /zero glyphshow
7.634766 0.171875 m /period glyphshow
11.449219 0.171875 m /four glyphshow
grestore
gsave
/o {
gsave
newpath
translate
0.5 setlinewidth
1 setlinejoin
0 setlinecap
0 0 m
0 4 l
gsave
0.000 setgray
fill
grestore
stroke
grestore
} bind def
497.016 54 o
grestore
gsave
/o {
gsave
newpath
translate
0.5 setlinewidth
1 setlinejoin
0 setlinecap
0 0 m
0 -4 l
gsave
0.000 setgray
fill
grestore
stroke
grestore
} bind def
497.016 486 o
grestore
gsave
488.250375 40.921875 translate
0.000000 rotate
0.000000 0.171875 m /zero glyphshow
7.634766 0.171875 m /period glyphshow
11.449219 0.171875 m /six glyphshow
grestore
gsave
/o {
gsave
newpath
translate
0.5 setlinewidth
1 setlinejoin
0 setlinecap
0 0 m
0 4 l
gsave
0.000 setgray
fill
grestore
stroke
grestore
} bind def
627.588 54 o
grestore
gsave
/o {
gsave
newpath
translate
0.5 setlinewidth
1 setlinejoin
0 setlinecap
0 0 m
0 -4 l
gsave
0.000 setgray
fill
grestore
stroke
grestore
} bind def
627.588 486 o
grestore
gsave
618.853625 40.921875 translate
0.000000 rotate
0.000000 0.171875 m /zero glyphshow
7.634766 0.171875 m /period glyphshow
11.449219 0.171875 m /eight glyphshow
grestore
gsave
/o {
gsave
newpath
translate
0.5 setlinewidth
1 setlinejoin
0 setlinecap
0 0 m
0 4 l
gsave
0.000 setgray
fill
grestore
stroke
grestore
} bind def
758.16 54 o
grestore
gsave
/o {
gsave
newpath
translate
0.5 setlinewidth
1 setlinejoin
0 setlinecap
0 0 m
0 -4 l
gsave
0.000 setgray
fill
grestore
stroke
grestore
} bind def
758.16 486 o
grestore
gsave
749.667812 40.921875 translate
0.000000 rotate
0.000000 0.171875 m /one glyphshow
7.634766 0.171875 m /period glyphshow
11.449219 0.171875 m /zero glyphshow
grestore
gsave
429.214375 27.171875 translate
0.000000 rotate
0.000000 0.000000 m /F glyphshow
grestore
gsave
/o {
gsave
newpath
translate
0.5 setlinewidth
1 setlinejoin
0 setlinecap
0 0 m
4 0 l
gsave
0.000 setgray
fill
grestore
stroke
grestore
} bind def
105.3 54 o
grestore
gsave
/o {
gsave
newpath
translate
0.5 setlinewidth
1 setlinejoin
0 setlinecap
0 0 m
-4 0 l
gsave
0.000 setgray
fill
grestore
stroke
grestore
} bind def
758.16 54 o
grestore
gsave
83.800000 49.460937 translate
0.000000 rotate
0.000000 0.171875 m /zero glyphshow
7.634766 0.171875 m /period glyphshow
11.449219 0.171875 m /zero glyphshow
grestore
gsave
/o {
gsave
newpath
translate
0.5 setlinewidth
1 setlinejoin
0 setlinecap
0 0 m
4 0 l
gsave
0.000 setgray
fill
grestore
stroke
grestore
} bind def
105.3 140.4 o
grestore
gsave
/o {
gsave
newpath
translate
0.5 setlinewidth
1 setlinejoin
0 setlinecap
0 0 m
-4 0 l
gsave
0.000 setgray
fill
grestore
stroke
grestore
} bind def
758.16 140.4 o
grestore
gsave
84.206250 135.860937 translate
0.000000 rotate
0.000000 0.171875 m /zero glyphshow
7.634766 0.171875 m /period glyphshow
11.449219 0.171875 m /two glyphshow
grestore
gsave
/o {
gsave
newpath
translate
0.5 setlinewidth
1 setlinejoin
0 setlinecap
0 0 m
4 0 l
gsave
0.000 setgray
fill
grestore
stroke
grestore
} bind def
105.3 226.8 o
grestore
gsave
/o {
gsave
newpath
translate
0.5 setlinewidth
1 setlinejoin
0 setlinecap
0 0 m
-4 0 l
gsave
0.000 setgray
fill
grestore
stroke
grestore
} bind def
758.16 226.8 o
grestore
gsave
83.675000 222.260937 translate
0.000000 rotate
0.000000 0.171875 m /zero glyphshow
7.634766 0.171875 m /period glyphshow
11.449219 0.171875 m /four glyphshow
grestore
gsave
/o {
gsave
newpath
translate
0.5 setlinewidth
1 setlinejoin
0 setlinecap
0 0 m
4 0 l
gsave
0.000 setgray
fill
grestore
stroke
grestore
} bind def
105.3 313.2 o
grestore
gsave
/o {
gsave
newpath
translate
0.5 setlinewidth
1 setlinejoin
0 setlinecap
0 0 m
-4 0 l
gsave
0.000 setgray
fill
grestore
stroke
grestore
} bind def
758.16 313.2 o
grestore
gsave
83.768750 308.660938 translate
0.000000 rotate
0.000000 0.171875 m /zero glyphshow
7.634766 0.171875 m /period glyphshow
11.449219 0.171875 m /six glyphshow
grestore
gsave
/o {
gsave
newpath
translate
0.5 setlinewidth
1 setlinejoin
0 setlinecap
0 0 m
4 0 l
gsave
0.000 setgray
fill
grestore
stroke
grestore
} bind def
105.3 399.6 o
grestore
gsave
/o {
gsave
newpath
translate
0.5 setlinewidth
1 setlinejoin
0 setlinecap
0 0 m
-4 0 l
gsave
0.000 setgray
fill
grestore
stroke
grestore
} bind def
758.16 399.6 o
grestore
gsave
83.831250 395.060938 translate
0.000000 rotate
0.000000 0.171875 m /zero glyphshow
7.634766 0.171875 m /period glyphshow
11.449219 0.171875 m /eight glyphshow
grestore
gsave
/o {
gsave
newpath
translate
0.5 setlinewidth
1 setlinejoin
0 setlinecap
0 0 m
4 0 l
gsave
0.000 setgray
fill
grestore
stroke
grestore
} bind def
105.3 486 o
grestore
gsave
/o {
gsave
newpath
translate
0.5 setlinewidth
1 setlinejoin
0 setlinecap
0 0 m
-4 0 l
gsave
0.000 setgray
fill
grestore
stroke
grestore
} bind def
758.16 486 o
grestore
gsave
84.315625 481.460938 translate
0.000000 rotate
0.000000 0.171875 m /one glyphshow
7.634766 0.171875 m /period glyphshow
11.449219 0.171875 m /zero glyphshow
grestore
gsave
78.675000 228.429688 translate
90.000000 rotate
0.000000 2.500000 m /E glyphshow
7.582031 2.500000 m /n glyphshow
15.187500 2.500000 m /t glyphshow
19.892578 2.500000 m /a glyphshow
27.246094 2.500000 m /n glyphshow
34.851562 2.500000 m /g glyphshow
42.468750 2.500000 m /l glyphshow
45.802734 2.500000 m /e glyphshow
53.185547 2.500000 m /m glyphshow
64.875000 2.500000 m /e glyphshow
72.257812 2.500000 m /n glyphshow
79.863281 2.500000 m /t glyphshow
grestore
1.000 setlinewidth
2 setlinecap
gsave
105.3 486 m
758.16 486 l
stroke
grestore
gsave
758.16 54 m
758.16 486 l
stroke
grestore
gsave
105.3 54 m
758.16 54 l
stroke
grestore
gsave
105.3 54 m
105.3 486 l
stroke
grestore
/BitstreamVeraSans-Roman findfont
14.400 scalefont
setfont
gsave
381.948750 488.093750 translate
0.000000 rotate
0.000000 2.906250 m /E glyphshow
9.082642 2.906250 m /n glyphshow
18.193359 2.906250 m /t glyphshow
23.829651 2.906250 m /a glyphshow
32.638550 2.906250 m /n glyphshow
41.749268 2.906250 m /g glyphshow
50.874023 2.906250 m /l glyphshow
54.867859 2.906250 m /e glyphshow
63.711853 2.906250 m /m glyphshow
77.714844 2.906250 m /e glyphshow
86.558838 2.906250 m /n glyphshow
95.669556 2.906250 m /t glyphshow
grestore
gsave
112.5 453.733 m
432.309 453.733 l
432.309 478.8 l
112.5 478.8 l
112.5 453.733 l
cl
gsave
1.000 setgray
fill
grestore
stroke
grestore
0.000 0.000 1.000 setrgbcolor
gsave
122.58 467.439 m
142.74 467.439 l
stroke
grestore
0.500 setlinewidth
0 setlinecap
0.000 setgray
gsave
/o {
gsave
newpath
translate
0.5 setlinewidth
1 setlinejoin
0 setlinecap
0 -2.5 m
0.663008 -2.5 1.29895 -2.23658 1.76777 -1.76777 c
2.23658 -1.29895 2.5 -0.663008 2.5 0 c
2.5 0.663008 2.23658 1.29895 1.76777 1.76777 c
1.29895 2.23658 0.663008 2.5 0 2.5 c
-0.663008 2.5 -1.29895 2.23658 -1.76777 1.76777 c
-2.23658 1.29895 -2.5 0.663008 -2.5 0 c
-2.5 -0.663008 -2.23658 -1.29895 -1.76777 -1.76777 c
-1.29895 -2.23658 -0.663008 -2.5 0 -2.5 c
cl
gsave
0.000 0.000 1.000 setrgbcolor
fill
grestore
stroke
grestore
} bind def
122.58 467.439 o
142.74 467.439 o
grestore
gsave
158.580000 459.493125 translate
0.000000 rotate
0.000000 2.906250 m /s glyphshow
7.489319 2.906250 m /t glyphshow
13.125610 2.906250 m /a glyphshow
21.934509 2.906250 m /t glyphshow
27.570801 2.906250 m /e glyphshow
36.414795 2.906250 m /colon glyphshow
41.257935 2.906250 m /space glyphshow
45.827332 2.906250 m /W glyphshow
59.165894 2.906250 m /e glyphshow
68.009888 2.906250 m /r glyphshow
73.669922 2.906250 m /n glyphshow
82.780640 2.906250 m /e glyphshow
91.624634 2.906250 m /r glyphshow
97.534668 2.906250 m /comma glyphshow
102.104065 2.906250 m /space glyphshow
106.673462 2.906250 m /m glyphshow
120.676453 2.906250 m /e glyphshow
129.520447 2.906250 m /a glyphshow
138.329346 2.906250 m /s glyphshow
145.818665 2.906250 m /u glyphshow
154.929382 2.906250 m /r glyphshow
160.464417 2.906250 m /e glyphshow
169.308411 2.906250 m /colon glyphshow
174.151550 2.906250 m /space glyphshow
178.720947 2.906250 m /s glyphshow
186.210266 2.906250 m /u glyphshow
195.320984 2.906250 m /p glyphshow
204.445740 2.906250 m /e glyphshow
213.289734 2.906250 m /r glyphshow
219.199768 2.906250 m /f glyphshow
224.260498 2.906250 m /i glyphshow
228.254333 2.906250 m /d glyphshow
237.379089 2.906250 m /e glyphshow
246.223083 2.906250 m /l glyphshow
250.216919 2.906250 m /i glyphshow
254.210754 2.906250 m /t glyphshow
259.847046 2.906250 m /y glyphshow
grestore

end
showpage
