%!PS-Adobe-3.0 EPSF-3.0
%%Title: Werner.entropy.few.evolution.eps
%%Creator: matplotlib version 1.2.1, http://matplotlib.org/
%%CreationDate: Fri Aug 16 20:53:04 2013
%%Orientation: portrait
%%BoundingBox: -115 126 727 666
%%EndComments
%%BeginProlog
/mpldict 8 dict def
mpldict begin
/m { moveto } bind def
/l { lineto } bind def
/r { rlineto } bind def
/c { curveto } bind def
/cl { closepath } bind def
/box {
m
1 index 0 r
0 exch r
neg 0 r
cl
} bind def
/clipbox {
box
clip
newpath
} bind def
%!PS-Adobe-3.0 Resource-Font
%%Title: Bitstream Vera Sans
%%Copyright: Copyright (c) 2003 by Bitstream, Inc. All Rights Reserved.
%%Creator: Converted from TrueType to type 3 by PPR
25 dict begin
/_d{bind def}bind def
/_m{moveto}_d
/_l{lineto}_d
/_cl{closepath eofill}_d
/_c{curveto}_d
/_sc{7 -1 roll{setcachedevice}{pop pop pop pop pop pop}ifelse}_d
/_e{exec}_d
/FontName /BitstreamVeraSans-Roman def
/PaintType 0 def
/FontMatrix[.001 0 0 .001 0 0]def
/FontBBox[-183 -236 1287 928]def
/FontType 3 def
/Encoding [ /space /parenleft /parenright /hyphen /period /zero /one /two /three /four /five /six /seven /eight /nine /colon /equal /E /F /G /W /bracketleft /bracketright /a /e /f /g /h /i /l /m /n /o /p /r /s /t /u /v /w /y ] def
/FontInfo 10 dict dup begin
/FamilyName (Bitstream Vera Sans) def
/FullName (Bitstream Vera Sans) def
/Notice (Copyright (c) 2003 by Bitstream, Inc. All Rights Reserved. Bitstream Vera is a trademark of Bitstream, Inc.) def
/Weight (Roman) def
/Version (Release 1.10) def
/ItalicAngle 0.0 def
/isFixedPitch false def
/UnderlinePosition -213 def
/UnderlineThickness 143 def
end readonly def
/CharStrings 41 dict dup begin
/space{318 0 0 0 0 0 _sc
}_d
/parenleft{390 0 86 -131 310 759 _sc
310 759 _m
266 683 234 609 213 536 _c
191 463 181 389 181 314 _c
181 238 191 164 213 91 _c
234 17 266 -56 310 -131 _c
232 -131 _l
183 -54 146 20 122 94 _c
98 168 86 241 86 314 _c
86 386 98 459 122 533 _c
146 607 182 682 232 759 _c
310 759 _l
_cl}_d
/parenright{390 0 80 -131 304 759 _sc
80 759 _m
158 759 _l
206 682 243 607 267 533 _c
291 459 304 386 304 314 _c
304 241 291 168 267 94 _c
243 20 206 -54 158 -131 _c
80 -131 _l
123 -56 155 17 177 91 _c
198 164 209 238 209 314 _c
209 389 198 463 177 536 _c
155 609 123 683 80 759 _c
_cl}_d
/hyphen{361 0 49 234 312 314 _sc
49 314 _m
312 314 _l
312 234 _l
49 234 _l
49 314 _l
_cl}_d
/period{318 0 107 0 210 124 _sc
107 124 _m
210 124 _l
210 0 _l
107 0 _l
107 124 _l
_cl}_d
/zero{636 0 66 -13 570 742 _sc
318 664 _m
267 664 229 639 203 589 _c
177 539 165 464 165 364 _c
165 264 177 189 203 139 _c
229 89 267 64 318 64 _c
369 64 407 89 433 139 _c
458 189 471 264 471 364 _c
471 464 458 539 433 589 _c
407 639 369 664 318 664 _c
318 742 _m
399 742 461 709 505 645 _c
548 580 570 486 570 364 _c
570 241 548 147 505 83 _c
461 19 399 -13 318 -13 _c
236 -13 173 19 130 83 _c
87 147 66 241 66 364 _c
66 486 87 580 130 645 _c
173 709 236 742 318 742 _c
_cl}_d
/one{636 0 110 0 544 729 _sc
124 83 _m
285 83 _l
285 639 _l
110 604 _l
110 694 _l
284 729 _l
383 729 _l
383 83 _l
544 83 _l
544 0 _l
124 0 _l
124 83 _l
_cl}_d
/two{{636 0 73 0 536 742 _sc
192 83 _m
536 83 _l
536 0 _l
73 0 _l
73 83 _l
110 121 161 173 226 239 _c
290 304 331 346 348 365 _c
380 400 402 430 414 455 _c
426 479 433 504 433 528 _c
433 566 419 598 392 622 _c
365 646 330 659 286 659 _c
255 659 222 653 188 643 _c
154 632 117 616 78 594 _c
78 694 _l
118 710 155 722 189 730 _c
223 738 255 742 284 742 _c
}_e{359 742 419 723 464 685 _c
509 647 532 597 532 534 _c
532 504 526 475 515 449 _c
504 422 484 390 454 354 _c
446 344 420 317 376 272 _c
332 227 271 164 192 83 _c
_cl}_e}_d
/three{{636 0 76 -13 556 742 _sc
406 393 _m
453 383 490 362 516 330 _c
542 298 556 258 556 212 _c
556 140 531 84 482 45 _c
432 6 362 -13 271 -13 _c
240 -13 208 -10 176 -4 _c
144 1 110 10 76 22 _c
76 117 _l
103 101 133 89 166 81 _c
198 73 232 69 268 69 _c
330 69 377 81 409 105 _c
441 129 458 165 458 212 _c
458 254 443 288 413 312 _c
383 336 341 349 287 349 _c
}_e{202 349 _l
202 430 _l
291 430 _l
339 430 376 439 402 459 _c
428 478 441 506 441 543 _c
441 580 427 609 401 629 _c
374 649 336 659 287 659 _c
260 659 231 656 200 650 _c
169 644 135 635 98 623 _c
98 711 _l
135 721 170 729 203 734 _c
235 739 266 742 296 742 _c
370 742 429 725 473 691 _c
517 657 539 611 539 553 _c
539 513 527 479 504 451 _c
481 423 448 403 406 393 _c
_cl}_e}_d
/four{636 0 49 0 580 729 _sc
378 643 _m
129 254 _l
378 254 _l
378 643 _l
352 729 _m
476 729 _l
476 254 _l
580 254 _l
580 172 _l
476 172 _l
476 0 _l
378 0 _l
378 172 _l
49 172 _l
49 267 _l
352 729 _l
_cl}_d
/five{{636 0 77 -13 549 729 _sc
108 729 _m
495 729 _l
495 646 _l
198 646 _l
198 467 _l
212 472 227 476 241 478 _c
255 480 270 482 284 482 _c
365 482 429 459 477 415 _c
525 370 549 310 549 234 _c
549 155 524 94 475 51 _c
426 8 357 -13 269 -13 _c
238 -13 207 -10 175 -6 _c
143 -1 111 6 77 17 _c
77 116 _l
106 100 136 88 168 80 _c
199 72 232 69 267 69 _c
}_e{323 69 368 83 401 113 _c
433 143 450 183 450 234 _c
450 284 433 324 401 354 _c
368 384 323 399 267 399 _c
241 399 214 396 188 390 _c
162 384 135 375 108 363 _c
108 729 _l
_cl}_e}_d
/six{{636 0 70 -13 573 742 _sc
330 404 _m
286 404 251 388 225 358 _c
199 328 186 286 186 234 _c
186 181 199 139 225 109 _c
251 79 286 64 330 64 _c
374 64 409 79 435 109 _c
461 139 474 181 474 234 _c
474 286 461 328 435 358 _c
409 388 374 404 330 404 _c
526 713 _m
526 623 _l
501 635 476 644 451 650 _c
425 656 400 659 376 659 _c
310 659 260 637 226 593 _c
}_e{192 549 172 482 168 394 _c
187 422 211 444 240 459 _c
269 474 301 482 336 482 _c
409 482 467 459 509 415 _c
551 371 573 310 573 234 _c
573 159 550 99 506 54 _c
462 9 403 -13 330 -13 _c
246 -13 181 19 137 83 _c
92 147 70 241 70 364 _c
70 479 97 571 152 639 _c
206 707 280 742 372 742 _c
396 742 421 739 447 735 _c
472 730 498 723 526 713 _c
_cl}_e}_d
/seven{636 0 82 0 551 729 _sc
82 729 _m
551 729 _l
551 687 _l
286 0 _l
183 0 _l
432 646 _l
82 646 _l
82 729 _l
_cl}_d
/eight{{636 0 68 -13 568 742 _sc
318 346 _m
271 346 234 333 207 308 _c
180 283 167 249 167 205 _c
167 161 180 126 207 101 _c
234 76 271 64 318 64 _c
364 64 401 76 428 102 _c
455 127 469 161 469 205 _c
469 249 455 283 429 308 _c
402 333 365 346 318 346 _c
219 388 _m
177 398 144 418 120 447 _c
96 476 85 511 85 553 _c
85 611 105 657 147 691 _c
188 725 245 742 318 742 _c
}_e{390 742 447 725 489 691 _c
530 657 551 611 551 553 _c
551 511 539 476 515 447 _c
491 418 459 398 417 388 _c
464 377 501 355 528 323 _c
554 291 568 251 568 205 _c
568 134 546 80 503 43 _c
459 5 398 -13 318 -13 _c
237 -13 175 5 132 43 _c
89 80 68 134 68 205 _c
68 251 81 291 108 323 _c
134 355 171 377 219 388 _c
183 544 _m
183 506 194 476 218 455 _c
}_e{242 434 275 424 318 424 _c
360 424 393 434 417 455 _c
441 476 453 506 453 544 _c
453 582 441 611 417 632 _c
393 653 360 664 318 664 _c
275 664 242 653 218 632 _c
194 611 183 582 183 544 _c
_cl}_e}_d
/nine{{636 0 63 -13 566 742 _sc
110 15 _m
110 105 _l
134 93 159 84 185 78 _c
210 72 235 69 260 69 _c
324 69 374 90 408 134 _c
442 178 462 244 468 334 _c
448 306 424 284 396 269 _c
367 254 335 247 300 247 _c
226 247 168 269 126 313 _c
84 357 63 417 63 494 _c
63 568 85 628 129 674 _c
173 719 232 742 306 742 _c
390 742 455 709 499 645 _c
543 580 566 486 566 364 _c
}_e{566 248 538 157 484 89 _c
429 21 356 -13 264 -13 _c
239 -13 214 -10 189 -6 _c
163 -2 137 5 110 15 _c
306 324 _m
350 324 385 339 411 369 _c
437 399 450 441 450 494 _c
450 546 437 588 411 618 _c
385 648 350 664 306 664 _c
262 664 227 648 201 618 _c
175 588 162 546 162 494 _c
162 441 175 399 201 369 _c
227 339 262 324 306 324 _c
_cl}_e}_d
/colon{337 0 117 0 220 517 _sc
117 124 _m
220 124 _l
220 0 _l
117 0 _l
117 124 _l
117 517 _m
220 517 _l
220 393 _l
117 393 _l
117 517 _l
_cl}_d
/equal{838 0 106 172 732 454 _sc
106 454 _m
732 454 _l
732 372 _l
106 372 _l
106 454 _l
106 255 _m
732 255 _l
732 172 _l
106 172 _l
106 255 _l
_cl}_d
/E{632 0 98 0 568 729 _sc
98 729 _m
559 729 _l
559 646 _l
197 646 _l
197 430 _l
544 430 _l
544 347 _l
197 347 _l
197 83 _l
568 83 _l
568 0 _l
98 0 _l
98 729 _l
_cl}_d
/F{575 0 98 0 517 729 _sc
98 729 _m
517 729 _l
517 646 _l
197 646 _l
197 431 _l
486 431 _l
486 348 _l
197 348 _l
197 0 _l
98 0 _l
98 729 _l
_cl}_d
/G{{775 0 56 -13 693 742 _sc
595 104 _m
595 300 _l
434 300 _l
434 381 _l
693 381 _l
693 68 _l
655 40 613 20 567 7 _c
521 -6 472 -13 420 -13 _c
306 -13 216 20 152 86 _c
88 152 56 245 56 364 _c
56 482 88 575 152 642 _c
216 708 306 742 420 742 _c
467 742 512 736 555 724 _c
598 712 638 695 674 673 _c
674 568 _l
637 598 598 621 557 637 _c
516 653 473 661 428 661 _c
}_e{338 661 271 636 227 586 _c
182 536 160 462 160 364 _c
160 265 182 191 227 141 _c
271 91 338 67 428 67 _c
462 67 493 70 521 76 _c
549 82 573 91 595 104 _c
_cl}_e}_d
/W{989 0 33 0 956 729 _sc
33 729 _m
133 729 _l
286 113 _l
439 729 _l
550 729 _l
703 113 _l
856 729 _l
956 729 _l
773 0 _l
649 0 _l
495 633 _l
340 0 _l
216 0 _l
33 729 _l
_cl}_d
/bracketleft{390 0 86 -131 293 760 _sc
86 760 _m
293 760 _l
293 690 _l
176 690 _l
176 -61 _l
293 -61 _l
293 -131 _l
86 -131 _l
86 760 _l
_cl}_d
/bracketright{390 0 97 -131 304 760 _sc
304 760 _m
304 -131 _l
97 -131 _l
97 -61 _l
214 -61 _l
214 690 _l
97 690 _l
97 760 _l
304 760 _l
_cl}_d
/a{{613 0 60 -13 522 560 _sc
343 275 _m
270 275 220 266 192 250 _c
164 233 150 205 150 165 _c
150 133 160 107 181 89 _c
202 70 231 61 267 61 _c
317 61 357 78 387 114 _c
417 149 432 196 432 255 _c
432 275 _l
343 275 _l
522 312 _m
522 0 _l
432 0 _l
432 83 _l
411 49 385 25 355 10 _c
325 -5 287 -13 243 -13 _c
187 -13 142 2 109 33 _c
76 64 60 106 60 159 _c
}_e{60 220 80 266 122 298 _c
163 329 224 345 306 345 _c
432 345 _l
432 354 _l
432 395 418 427 391 450 _c
364 472 326 484 277 484 _c
245 484 215 480 185 472 _c
155 464 127 453 100 439 _c
100 522 _l
132 534 164 544 195 550 _c
226 556 256 560 286 560 _c
365 560 424 539 463 498 _c
502 457 522 395 522 312 _c
_cl}_e}_d
/e{{615 0 55 -13 562 560 _sc
562 296 _m
562 252 _l
149 252 _l
153 190 171 142 205 110 _c
238 78 284 62 344 62 _c
378 62 412 66 444 74 _c
476 82 509 95 541 113 _c
541 28 _l
509 14 476 3 442 -3 _c
408 -9 373 -13 339 -13 _c
251 -13 182 12 131 62 _c
80 112 55 181 55 268 _c
55 357 79 428 127 481 _c
175 533 241 560 323 560 _c
397 560 455 536 498 489 _c
}_e{540 441 562 377 562 296 _c
472 322 _m
471 371 457 410 431 440 _c
404 469 368 484 324 484 _c
274 484 234 469 204 441 _c
174 413 156 373 152 322 _c
472 322 _l
_cl}_e}_d
/f{352 0 23 0 371 760 _sc
371 760 _m
371 685 _l
285 685 _l
253 685 230 678 218 665 _c
205 652 199 629 199 595 _c
199 547 _l
347 547 _l
347 477 _l
199 477 _l
199 0 _l
109 0 _l
109 477 _l
23 477 _l
23 547 _l
109 547 _l
109 585 _l
109 645 123 690 151 718 _c
179 746 224 760 286 760 _c
371 760 _l
_cl}_d
/g{{635 0 55 -207 544 560 _sc
454 280 _m
454 344 440 395 414 431 _c
387 467 349 485 301 485 _c
253 485 215 467 188 431 _c
161 395 148 344 148 280 _c
148 215 161 165 188 129 _c
215 93 253 75 301 75 _c
349 75 387 93 414 129 _c
440 165 454 215 454 280 _c
544 68 _m
544 -24 523 -93 482 -139 _c
440 -184 377 -207 292 -207 _c
260 -207 231 -204 203 -200 _c
175 -195 147 -188 121 -178 _c
}_e{121 -91 _l
147 -105 173 -115 199 -122 _c
225 -129 251 -133 278 -133 _c
336 -133 380 -117 410 -87 _c
439 -56 454 -10 454 52 _c
454 96 _l
435 64 411 40 382 24 _c
353 8 319 0 279 0 _c
211 0 157 25 116 76 _c
75 127 55 195 55 280 _c
55 364 75 432 116 483 _c
157 534 211 560 279 560 _c
319 560 353 552 382 536 _c
411 520 435 496 454 464 _c
454 547 _l
544 547 _l
}_e{544 68 _l
_cl}_e}_d
/h{634 0 91 0 549 760 _sc
549 330 _m
549 0 _l
459 0 _l
459 327 _l
459 379 448 417 428 443 _c
408 469 378 482 338 482 _c
289 482 251 466 223 435 _c
195 404 181 362 181 309 _c
181 0 _l
91 0 _l
91 760 _l
181 760 _l
181 462 _l
202 494 227 519 257 535 _c
286 551 320 560 358 560 _c
420 560 468 540 500 501 _c
532 462 549 405 549 330 _c
_cl}_d
/i{278 0 94 0 184 760 _sc
94 547 _m
184 547 _l
184 0 _l
94 0 _l
94 547 _l
94 760 _m
184 760 _l
184 646 _l
94 646 _l
94 760 _l
_cl}_d
/l{278 0 94 0 184 760 _sc
94 760 _m
184 760 _l
184 0 _l
94 0 _l
94 760 _l
_cl}_d
/m{{974 0 91 0 889 560 _sc
520 442 _m
542 482 569 511 600 531 _c
631 550 668 560 711 560 _c
767 560 811 540 842 500 _c
873 460 889 403 889 330 _c
889 0 _l
799 0 _l
799 327 _l
799 379 789 418 771 444 _c
752 469 724 482 686 482 _c
639 482 602 466 575 435 _c
548 404 535 362 535 309 _c
535 0 _l
445 0 _l
445 327 _l
445 379 435 418 417 444 _c
398 469 369 482 331 482 _c
}_e{285 482 248 466 221 435 _c
194 404 181 362 181 309 _c
181 0 _l
91 0 _l
91 547 _l
181 547 _l
181 462 _l
201 495 226 520 255 536 _c
283 552 317 560 357 560 _c
397 560 430 550 458 530 _c
486 510 506 480 520 442 _c
_cl}_e}_d
/n{634 0 91 0 549 560 _sc
549 330 _m
549 0 _l
459 0 _l
459 327 _l
459 379 448 417 428 443 _c
408 469 378 482 338 482 _c
289 482 251 466 223 435 _c
195 404 181 362 181 309 _c
181 0 _l
91 0 _l
91 547 _l
181 547 _l
181 462 _l
202 494 227 519 257 535 _c
286 551 320 560 358 560 _c
420 560 468 540 500 501 _c
532 462 549 405 549 330 _c
_cl}_d
/o{612 0 55 -13 557 560 _sc
306 484 _m
258 484 220 465 192 427 _c
164 389 150 338 150 273 _c
150 207 163 156 191 118 _c
219 80 257 62 306 62 _c
354 62 392 80 420 118 _c
448 156 462 207 462 273 _c
462 337 448 389 420 427 _c
392 465 354 484 306 484 _c
306 560 _m
384 560 445 534 490 484 _c
534 433 557 363 557 273 _c
557 183 534 113 490 63 _c
445 12 384 -13 306 -13 _c
227 -13 165 12 121 63 _c
77 113 55 183 55 273 _c
55 363 77 433 121 484 _c
165 534 227 560 306 560 _c
_cl}_d
/p{{635 0 91 -207 580 560 _sc
181 82 _m
181 -207 _l
91 -207 _l
91 547 _l
181 547 _l
181 464 _l
199 496 223 520 252 536 _c
281 552 316 560 356 560 _c
422 560 476 533 518 481 _c
559 428 580 359 580 273 _c
580 187 559 117 518 65 _c
476 13 422 -13 356 -13 _c
316 -13 281 -5 252 10 _c
223 25 199 49 181 82 _c
487 273 _m
487 339 473 390 446 428 _c
418 466 381 485 334 485 _c
}_e{286 485 249 466 222 428 _c
194 390 181 339 181 273 _c
181 207 194 155 222 117 _c
249 79 286 61 334 61 _c
381 61 418 79 446 117 _c
473 155 487 207 487 273 _c
_cl}_e}_d
/r{411 0 91 0 411 560 _sc
411 463 _m
401 469 390 473 378 476 _c
366 478 353 480 339 480 _c
288 480 249 463 222 430 _c
194 397 181 350 181 288 _c
181 0 _l
91 0 _l
91 547 _l
181 547 _l
181 462 _l
199 495 224 520 254 536 _c
284 552 321 560 365 560 _c
371 560 378 559 386 559 _c
393 558 401 557 411 555 _c
411 463 _l
_cl}_d
/s{{521 0 54 -13 472 560 _sc
443 531 _m
443 446 _l
417 458 391 468 364 475 _c
336 481 308 485 279 485 _c
234 485 200 478 178 464 _c
156 450 145 430 145 403 _c
145 382 153 366 169 354 _c
185 342 217 330 265 320 _c
296 313 _l
360 299 405 279 432 255 _c
458 230 472 195 472 151 _c
472 100 452 60 412 31 _c
372 1 316 -13 246 -13 _c
216 -13 186 -10 154 -5 _c
}_e{122 0 89 8 54 20 _c
54 113 _l
87 95 120 82 152 74 _c
184 65 216 61 248 61 _c
290 61 323 68 346 82 _c
368 96 380 117 380 144 _c
380 168 371 187 355 200 _c
339 213 303 226 247 238 _c
216 245 _l
160 257 119 275 95 299 _c
70 323 58 356 58 399 _c
58 450 76 490 112 518 _c
148 546 200 560 268 560 _c
301 560 332 557 362 552 _c
391 547 418 540 443 531 _c
}_e{_cl}_e}_d
/t{392 0 27 0 368 702 _sc
183 702 _m
183 547 _l
368 547 _l
368 477 _l
183 477 _l
183 180 _l
183 135 189 106 201 94 _c
213 81 238 75 276 75 _c
368 75 _l
368 0 _l
276 0 _l
206 0 158 13 132 39 _c
106 65 93 112 93 180 _c
93 477 _l
27 477 _l
27 547 _l
93 547 _l
93 702 _l
183 702 _l
_cl}_d
/u{634 0 85 -13 543 547 _sc
85 216 _m
85 547 _l
175 547 _l
175 219 _l
175 167 185 129 205 103 _c
225 77 255 64 296 64 _c
344 64 383 79 411 110 _c
439 141 453 183 453 237 _c
453 547 _l
543 547 _l
543 0 _l
453 0 _l
453 84 _l
431 50 405 26 377 10 _c
348 -5 315 -13 277 -13 _c
214 -13 166 6 134 45 _c
101 83 85 140 85 216 _c
_cl}_d
/v{592 0 30 0 562 547 _sc
30 547 _m
125 547 _l
296 88 _l
467 547 _l
562 547 _l
357 0 _l
235 0 _l
30 547 _l
_cl}_d
/w{818 0 42 0 776 547 _sc
42 547 _m
132 547 _l
244 120 _l
356 547 _l
462 547 _l
574 120 _l
686 547 _l
776 547 _l
633 0 _l
527 0 _l
409 448 _l
291 0 _l
185 0 _l
42 547 _l
_cl}_d
/y{592 0 30 -207 562 547 _sc
322 -50 _m
296 -114 271 -157 247 -177 _c
223 -197 191 -207 151 -207 _c
79 -207 _l
79 -132 _l
132 -132 _l
156 -132 175 -126 189 -114 _c
203 -102 218 -75 235 -31 _c
251 9 _l
30 547 _l
125 547 _l
296 119 _l
467 547 _l
562 547 _l
322 -50 _l
_cl}_d
end readonly def

/BuildGlyph
 {exch begin
 CharStrings exch
 2 copy known not{pop /.notdef}if
 true 3 1 roll get exec
 end}_d

/BuildChar {
 1 index /Encoding get exch get
 1 index /BuildGlyph get exec
}_d

FontName currentdict end definefont pop
end
%%EndProlog
mpldict begin
-115.2 126 translate
842.4 540 0 0 clipbox
gsave
0 0 m
842.4 0 l
842.4 540 l
0 540 l
cl
1.000 setgray
fill
grestore
gsave
105.3 54 m
758.16 54 l
758.16 486 l
105.3 486 l
cl
1.000 setgray
fill
grestore
1.000 setlinewidth
1 setlinejoin
2 setlinecap
[] 0 setdash
0.000 0.000 1.000 setrgbcolor
gsave
652.9 432 105.3 54 clipbox
105.3 117.431 m
108.564 117.431 l
111.829 114.189 l
115.093 114.189 l
118.357 108.696 l
121.621 107.148 l
124.886 107.148 l
128.15 105.543 l
131.414 96.1176 l
144.472 96.1176 l
147.736 95.2428 l
164.057 95.1479 l
167.322 95.1479 l
170.586 92.8811 l
190.172 92.8811 l
193.436 91.6866 l
199.965 90.4874 l
203.229 87.5167 l
209.758 87.5167 l
213.022 85.1821 l
216.286 81.4744 l
219.55 79.4364 l
222.815 75.9554 l
226.079 74.3864 l
229.343 73.8176 l
232.608 73.8176 l
235.872 71.6503 l
239.136 68.4547 l
242.401 68.4547 l
245.665 66.232 l
248.929 64.793 l
252.194 64.3977 l
258.722 64.3977 l
261.986 62.3133 l
265.251 61.1672 l
268.515 61.0679 l
271.779 58.7757 l
275.044 58.3437 l
278.308 57.5464 l
284.837 57.0855 l
291.365 55.7635 l
327.272 55.74 l
330.537 55.4625 l
346.858 55.4625 l
350.123 55.2217 l
353.387 55.2217 l
356.651 54.5602 l
376.237 54.5602 l
379.501 54.358 l
386.03 54.358 l
389.294 54.2184 l
448.051 54.1121 l
483.959 54.0446 l
758.16 54.0008 l
758.16 54.0008 l
stroke
grestore
0.000 0.500 0.000 setrgbcolor
gsave
652.9 432 105.3 54 clipbox
105.3 334.447 m
108.564 137.725 l
111.829 130.583 l
115.093 129.63 l
131.414 129.63 l
134.679 129.359 l
137.943 126.212 l
141.207 126.212 l
144.472 122.001 l
147.736 122.001 l
151 121.239 l
154.264 121.239 l
157.529 119.792 l
173.85 119.792 l
177.115 118.143 l
180.379 117.635 l
183.643 115.855 l
186.907 113.641 l
190.172 112.914 l
193.436 109.62 l
196.7 105.398 l
203.229 105.398 l
206.493 103.755 l
209.758 99.0362 l
213.022 98.9219 l
216.286 96.667 l
219.55 88.7999 l
222.815 88.6138 l
226.079 88.6138 l
229.343 86.5879 l
232.608 86.3132 l
235.872 83.9955 l
239.136 79.869 l
242.401 79.8575 l
245.665 78.3352 l
248.929 78.193 l
252.194 76.1075 l
255.458 75.3524 l
258.722 73.52 l
261.986 72.7893 l
265.251 71.3902 l
268.515 69.3274 l
271.779 68.9525 l
275.044 68.9525 l
278.308 67.3007 l
281.572 65.4621 l
284.837 64.5764 l
307.687 64.5764 l
310.951 64.0911 l
317.479 64.0911 l
324.008 62.9829 l
327.272 62.9325 l
330.537 62.5287 l
337.065 62.5287 l
340.33 62.3897 l
343.594 62.0037 l
346.858 62.0037 l
350.123 61.018 l
372.973 61.0155 l
376.237 60.8863 l
395.823 60.7824 l
399.087 60.6686 l
425.201 60.6592 l
428.466 60.5217 l
448.051 60.424 l
461.109 60.3587 l
637.381 60.2515 l
673.288 60.2401 l
758.16 60.2228 l
758.16 60.2228 l
stroke
grestore
1.000 0.000 0.000 setrgbcolor
gsave
652.9 432 105.3 54 clipbox
105.3 165.258 m
108.564 163.788 l
115.093 163.788 l
118.357 157.858 l
134.679 157.858 l
137.943 157.409 l
141.207 157.096 l
144.472 156.464 l
147.736 156.464 l
154.264 150.26 l
164.057 150.26 l
167.322 149.149 l
173.85 149.149 l
177.115 148.987 l
180.379 144.019 l
183.643 139.775 l
186.907 138.648 l
190.172 136.068 l
193.436 136.068 l
196.7 135.852 l
199.965 130.333 l
203.229 130.333 l
206.493 127.771 l
209.758 121.337 l
213.022 116.001 l
219.55 116.001 l
222.815 113.774 l
226.079 109.016 l
229.343 107.6 l
232.608 104.604 l
239.136 104.604 l
242.401 104.276 l
245.665 104.276 l
248.929 101.042 l
252.194 100.292 l
255.458 97.3334 l
258.722 95.393 l
261.986 92.0578 l
265.251 91.2984 l
268.515 91.2984 l
271.779 89.5001 l
275.044 89.5001 l
278.308 89.3529 l
281.572 89.0454 l
284.837 86.9618 l
288.101 86.1771 l
301.158 86.1771 l
304.422 84.1744 l
310.951 84.1744 l
314.215 83.651 l
317.479 83.2909 l
320.744 83.2909 l
324.008 81.6979 l
333.801 81.6979 l
337.065 81.2257 l
340.33 81.2257 l
343.594 80.2635 l
366.444 80.255 l
372.973 80.1464 l
382.765 80.0387 l
470.902 79.4547 l
578.624 79.3578 l
604.738 79.2784 l
640.645 79.2463 l
758.16 79.2276 l
758.16 79.2276 l
stroke
grestore
0.000 0.750 0.750 setrgbcolor
gsave
652.9 432 105.3 54 clipbox
105.3 323.902 m
108.564 213.956 l
111.829 200.135 l
131.414 200.109 l
134.679 199.059 l
137.943 193.595 l
141.207 191.766 l
144.472 191.766 l
147.736 191.234 l
167.322 191.234 l
170.586 188.67 l
173.85 188.67 l
177.115 182.302 l
183.643 182.302 l
186.907 180.318 l
193.436 180.318 l
196.7 179.061 l
199.965 177.112 l
203.229 169.124 l
206.493 162.935 l
209.758 162.935 l
213.022 156.825 l
216.286 155.115 l
219.55 150.913 l
222.815 150.001 l
226.079 140.105 l
229.343 140.105 l
235.872 139.621 l
239.136 139.621 l
242.401 138.244 l
245.665 138.244 l
248.929 133.966 l
255.458 133.966 l
258.722 132.594 l
261.986 128.073 l
265.251 128.073 l
268.515 125.935 l
271.779 125.935 l
275.044 125.153 l
278.308 125.153 l
281.572 124.984 l
284.837 122.133 l
288.101 121.446 l
294.629 121.446 l
297.894 118.281 l
304.422 118.281 l
307.687 117.793 l
310.951 117.1 l
314.215 117.1 l
317.479 114.89 l
327.272 114.89 l
330.537 114.471 l
343.594 114.471 l
346.858 113.532 l
369.708 113.429 l
392.558 113.254 l
395.823 113.129 l
405.616 113.05 l
421.937 112.815 l
431.73 112.709 l
666.76 112.267 l
758.16 112.253 l
758.16 112.253 l
stroke
grestore
0.750 0.000 0.750 setrgbcolor
gsave
652.9 432 105.3 54 clipbox
105.3 374.328 m
108.564 256.853 l
111.829 256.853 l
115.093 253.218 l
124.886 253.218 l
128.15 252.341 l
131.414 247.108 l
134.679 247.108 l
137.943 238.227 l
157.529 238.227 l
160.793 237.364 l
164.057 237.364 l
167.322 236.74 l
170.586 232.998 l
180.379 232.998 l
183.643 228.823 l
190.172 228.823 l
193.436 218.772 l
196.7 217.563 l
199.965 216.605 l
203.229 216.405 l
206.493 212.993 l
209.758 212.993 l
213.022 208.194 l
216.286 208.194 l
219.55 204.883 l
222.815 201.966 l
226.079 198.373 l
229.343 191.718 l
232.608 190.78 l
235.872 190.643 l
239.136 188.903 l
242.401 188.903 l
245.665 186.764 l
248.929 184.997 l
252.194 184.184 l
255.458 180.427 l
258.722 180.427 l
261.986 177.993 l
265.251 175.764 l
275.044 175.712 l
278.308 173.146 l
281.572 173.146 l
284.837 171.765 l
288.101 171.485 l
291.365 169.123 l
297.894 169.123 l
301.158 168.628 l
307.687 168.566 l
310.951 164.818 l
320.744 164.818 l
324.008 164.452 l
340.33 164.452 l
343.594 164.044 l
346.858 164.044 l
350.123 163.537 l
366.444 163.442 l
369.708 163.324 l
386.03 163.281 l
389.294 163.06 l
399.087 163.007 l
408.88 162.914 l
412.144 162.914 l
415.409 162.71 l
431.73 162.636 l
438.259 162.493 l
461.109 162.386 l
637.381 162.033 l
758.16 162.014 l
758.16 162.014 l
stroke
grestore
0.750 0.750 0.000 setrgbcolor
gsave
652.9 432 105.3 54 clipbox
105.3 463.018 m
108.564 347.379 l
111.829 332.049 l
115.093 305.514 l
124.886 305.514 l
128.15 292.851 l
137.943 292.851 l
141.207 292.668 l
144.472 291.739 l
164.057 291.739 l
167.322 291.212 l
170.586 291.074 l
173.85 289.154 l
177.115 287.471 l
180.379 286.988 l
183.643 283.158 l
186.907 283.158 l
190.172 282.317 l
196.7 282.317 l
199.965 280.047 l
203.229 277.98 l
209.758 277.98 l
213.022 274.775 l
216.286 273.202 l
219.55 272.9 l
222.815 272.9 l
226.079 271.706 l
229.343 268.74 l
235.872 264.099 l
239.136 263.929 l
242.401 261.141 l
245.665 261.141 l
248.929 258.122 l
252.194 257.254 l
255.458 256.209 l
258.722 251.58 l
265.251 251.58 l
268.515 247.518 l
271.779 247.323 l
275.044 247.323 l
278.308 247.114 l
281.572 246.273 l
284.837 243.411 l
288.101 242.991 l
294.629 242.991 l
297.894 242.271 l
301.158 241.825 l
310.951 241.762 l
314.215 237.874 l
324.008 237.874 l
327.272 237.561 l
343.594 237.561 l
346.858 236.904 l
359.915 236.592 l
386.03 236.463 l
389.294 236.122 l
402.351 236.04 l
408.88 235.95 l
415.409 235.906 l
418.673 235.661 l
434.994 235.645 l
441.523 235.386 l
490.487 235.282 l
497.016 235.217 l
555.773 235.085 l
637.381 234.921 l
758.16 234.903 l
758.16 234.903 l
stroke
grestore
0.000 setgray
gsave
652.9 432 105.3 54 clipbox
105.3 386.266 m
108.564 386.266 l
111.829 385.082 l
115.093 385.082 l
118.357 383.555 l
121.621 375.835 l
137.943 375.835 l
141.207 375.144 l
144.472 373.056 l
147.736 373.056 l
151 372.656 l
154.264 368.828 l
167.322 368.733 l
170.586 367.791 l
180.379 367.791 l
183.643 367.161 l
186.907 365.965 l
196.7 365.965 l
199.965 365.137 l
213.022 365.109 l
216.286 364.45 l
242.401 364.364 l
245.665 363.355 l
268.515 363.355 l
271.779 363.089 l
278.308 363.032 l
284.837 362.96 l
314.215 362.96 l
317.479 362.763 l
399.087 362.679 l
408.88 362.633 l
758.16 362.587 l
758.16 362.587 l
stroke
grestore
0.500 setlinewidth
0 setlinecap
gsave
/o {
gsave
newpath
translate
0.5 setlinewidth
1 setlinejoin
0 setlinecap
0 0 m
0 4 l
gsave
0.000 setgray
fill
grestore
stroke
grestore
} bind def
105.3 54 o
grestore
gsave
/o {
gsave
newpath
translate
0.5 setlinewidth
1 setlinejoin
0 setlinecap
0 0 m
0 -4 l
gsave
0.000 setgray
fill
grestore
stroke
grestore
} bind def
105.3 486 o
grestore
/BitstreamVeraSans-Roman findfont
12.000 scalefont
setfont
gsave
102.276562 40.921875 translate
0.000000 rotate
0.000000 0.171875 m /zero glyphshow
grestore
gsave
/o {
gsave
newpath
translate
0.5 setlinewidth
1 setlinejoin
0 setlinecap
0 0 m
0 4 l
gsave
0.000 setgray
fill
grestore
stroke
grestore
} bind def
268.515 54 o
grestore
gsave
/o {
gsave
newpath
translate
0.5 setlinewidth
1 setlinejoin
0 setlinecap
0 0 m
0 -4 l
gsave
0.000 setgray
fill
grestore
stroke
grestore
} bind def
268.515 486 o
grestore
gsave
261.733750 40.921875 translate
0.000000 rotate
0.000000 0.171875 m /five glyphshow
7.634766 0.171875 m /zero glyphshow
grestore
gsave
/o {
gsave
newpath
translate
0.5 setlinewidth
1 setlinejoin
0 setlinecap
0 0 m
0 4 l
gsave
0.000 setgray
fill
grestore
stroke
grestore
} bind def
431.73 54 o
grestore
gsave
/o {
gsave
newpath
translate
0.5 setlinewidth
1 setlinejoin
0 setlinecap
0 0 m
0 -4 l
gsave
0.000 setgray
fill
grestore
stroke
grestore
} bind def
431.73 486 o
grestore
gsave
421.323750 40.921875 translate
0.000000 rotate
0.000000 0.171875 m /one glyphshow
7.634766 0.171875 m /zero glyphshow
15.269531 0.171875 m /zero glyphshow
grestore
gsave
/o {
gsave
newpath
translate
0.5 setlinewidth
1 setlinejoin
0 setlinecap
0 0 m
0 4 l
gsave
0.000 setgray
fill
grestore
stroke
grestore
} bind def
594.945 54 o
grestore
gsave
/o {
gsave
newpath
translate
0.5 setlinewidth
1 setlinejoin
0 setlinecap
0 0 m
0 -4 l
gsave
0.000 setgray
fill
grestore
stroke
grestore
} bind def
594.945 486 o
grestore
gsave
584.538750 40.921875 translate
0.000000 rotate
0.000000 0.171875 m /one glyphshow
7.634766 0.171875 m /five glyphshow
15.269531 0.171875 m /zero glyphshow
grestore
gsave
/o {
gsave
newpath
translate
0.5 setlinewidth
1 setlinejoin
0 setlinecap
0 0 m
0 4 l
gsave
0.000 setgray
fill
grestore
stroke
grestore
} bind def
758.16 54 o
grestore
gsave
/o {
gsave
newpath
translate
0.5 setlinewidth
1 setlinejoin
0 setlinecap
0 0 m
0 -4 l
gsave
0.000 setgray
fill
grestore
stroke
grestore
} bind def
758.16 486 o
grestore
gsave
747.535000 40.921875 translate
0.000000 rotate
0.000000 0.171875 m /two glyphshow
7.634766 0.171875 m /zero glyphshow
15.269531 0.171875 m /zero glyphshow
grestore
gsave
399.089375 26.625000 translate
0.000000 rotate
0.000000 0.171875 m /G glyphshow
9.298828 0.171875 m /e glyphshow
16.681641 0.171875 m /n glyphshow
24.287109 0.171875 m /e glyphshow
31.669922 0.171875 m /r glyphshow
36.603516 0.171875 m /a glyphshow
43.957031 0.171875 m /t glyphshow
48.662109 0.171875 m /i glyphshow
51.996094 0.171875 m /o glyphshow
59.337891 0.171875 m /n glyphshow
grestore
gsave
/o {
gsave
newpath
translate
0.5 setlinewidth
1 setlinejoin
0 setlinecap
0 0 m
4 0 l
gsave
0.000 setgray
fill
grestore
stroke
grestore
} bind def
105.3 54 o
grestore
gsave
/o {
gsave
newpath
translate
0.5 setlinewidth
1 setlinejoin
0 setlinecap
0 0 m
-4 0 l
gsave
0.000 setgray
fill
grestore
stroke
grestore
} bind def
758.16 54 o
grestore
gsave
83.800000 49.460937 translate
0.000000 rotate
0.000000 0.171875 m /zero glyphshow
7.634766 0.171875 m /period glyphshow
11.449219 0.171875 m /zero glyphshow
grestore
gsave
/o {
gsave
newpath
translate
0.5 setlinewidth
1 setlinejoin
0 setlinecap
0 0 m
4 0 l
gsave
0.000 setgray
fill
grestore
stroke
grestore
} bind def
105.3 115.714 o
grestore
gsave
/o {
gsave
newpath
translate
0.5 setlinewidth
1 setlinejoin
0 setlinecap
0 0 m
-4 0 l
gsave
0.000 setgray
fill
grestore
stroke
grestore
} bind def
758.16 115.714 o
grestore
gsave
84.206250 111.175223 translate
0.000000 rotate
0.000000 0.171875 m /zero glyphshow
7.634766 0.171875 m /period glyphshow
11.449219 0.171875 m /two glyphshow
grestore
gsave
/o {
gsave
newpath
translate
0.5 setlinewidth
1 setlinejoin
0 setlinecap
0 0 m
4 0 l
gsave
0.000 setgray
fill
grestore
stroke
grestore
} bind def
105.3 177.429 o
grestore
gsave
/o {
gsave
newpath
translate
0.5 setlinewidth
1 setlinejoin
0 setlinecap
0 0 m
-4 0 l
gsave
0.000 setgray
fill
grestore
stroke
grestore
} bind def
758.16 177.429 o
grestore
gsave
83.675000 172.889509 translate
0.000000 rotate
0.000000 0.171875 m /zero glyphshow
7.634766 0.171875 m /period glyphshow
11.449219 0.171875 m /four glyphshow
grestore
gsave
/o {
gsave
newpath
translate
0.5 setlinewidth
1 setlinejoin
0 setlinecap
0 0 m
4 0 l
gsave
0.000 setgray
fill
grestore
stroke
grestore
} bind def
105.3 239.143 o
grestore
gsave
/o {
gsave
newpath
translate
0.5 setlinewidth
1 setlinejoin
0 setlinecap
0 0 m
-4 0 l
gsave
0.000 setgray
fill
grestore
stroke
grestore
} bind def
758.16 239.143 o
grestore
gsave
83.768750 234.603795 translate
0.000000 rotate
0.000000 0.171875 m /zero glyphshow
7.634766 0.171875 m /period glyphshow
11.449219 0.171875 m /six glyphshow
grestore
gsave
/o {
gsave
newpath
translate
0.5 setlinewidth
1 setlinejoin
0 setlinecap
0 0 m
4 0 l
gsave
0.000 setgray
fill
grestore
stroke
grestore
} bind def
105.3 300.857 o
grestore
gsave
/o {
gsave
newpath
translate
0.5 setlinewidth
1 setlinejoin
0 setlinecap
0 0 m
-4 0 l
gsave
0.000 setgray
fill
grestore
stroke
grestore
} bind def
758.16 300.857 o
grestore
gsave
83.831250 296.318080 translate
0.000000 rotate
0.000000 0.171875 m /zero glyphshow
7.634766 0.171875 m /period glyphshow
11.449219 0.171875 m /eight glyphshow
grestore
gsave
/o {
gsave
newpath
translate
0.5 setlinewidth
1 setlinejoin
0 setlinecap
0 0 m
4 0 l
gsave
0.000 setgray
fill
grestore
stroke
grestore
} bind def
105.3 362.571 o
grestore
gsave
/o {
gsave
newpath
translate
0.5 setlinewidth
1 setlinejoin
0 setlinecap
0 0 m
-4 0 l
gsave
0.000 setgray
fill
grestore
stroke
grestore
} bind def
758.16 362.571 o
grestore
gsave
84.315625 358.032366 translate
0.000000 rotate
0.000000 0.171875 m /one glyphshow
7.634766 0.171875 m /period glyphshow
11.449219 0.171875 m /zero glyphshow
grestore
gsave
/o {
gsave
newpath
translate
0.5 setlinewidth
1 setlinejoin
0 setlinecap
0 0 m
4 0 l
gsave
0.000 setgray
fill
grestore
stroke
grestore
} bind def
105.3 424.286 o
grestore
gsave
/o {
gsave
newpath
translate
0.5 setlinewidth
1 setlinejoin
0 setlinecap
0 0 m
-4 0 l
gsave
0.000 setgray
fill
grestore
stroke
grestore
} bind def
758.16 424.286 o
grestore
gsave
84.721875 419.832589 translate
0.000000 rotate
0.000000 0.000000 m /one glyphshow
7.634766 0.000000 m /period glyphshow
11.449219 0.000000 m /two glyphshow
grestore
gsave
/o {
gsave
newpath
translate
0.5 setlinewidth
1 setlinejoin
0 setlinecap
0 0 m
4 0 l
gsave
0.000 setgray
fill
grestore
stroke
grestore
} bind def
105.3 486 o
grestore
gsave
/o {
gsave
newpath
translate
0.5 setlinewidth
1 setlinejoin
0 setlinecap
0 0 m
-4 0 l
gsave
0.000 setgray
fill
grestore
stroke
grestore
} bind def
758.16 486 o
grestore
gsave
84.190625 481.625000 translate
0.000000 rotate
0.000000 0.000000 m /one glyphshow
7.634766 0.000000 m /period glyphshow
11.449219 0.000000 m /four glyphshow
grestore
gsave
78.675000 228.429688 translate
90.000000 rotate
0.000000 2.500000 m /E glyphshow
7.582031 2.500000 m /n glyphshow
15.187500 2.500000 m /t glyphshow
19.892578 2.500000 m /a glyphshow
27.246094 2.500000 m /n glyphshow
34.851562 2.500000 m /g glyphshow
42.468750 2.500000 m /l glyphshow
45.802734 2.500000 m /e glyphshow
53.185547 2.500000 m /m glyphshow
64.875000 2.500000 m /e glyphshow
72.257812 2.500000 m /n glyphshow
79.863281 2.500000 m /t glyphshow
grestore
1.000 setlinewidth
2 setlinecap
gsave
105.3 486 m
758.16 486 l
stroke
grestore
gsave
758.16 54 m
758.16 486 l
stroke
grestore
gsave
105.3 54 m
758.16 54 l
stroke
grestore
gsave
105.3 54 m
105.3 486 l
stroke
grestore
/BitstreamVeraSans-Roman findfont
14.400 scalefont
setfont
gsave
187.589375 488.093750 translate
0.000000 rotate
0.000000 2.906250 m /E glyphshow
9.082642 2.906250 m /v glyphshow
17.589722 2.906250 m /o glyphshow
26.384583 2.906250 m /l glyphshow
30.378418 2.906250 m /u glyphshow
39.489136 2.906250 m /t glyphshow
45.125427 2.906250 m /i glyphshow
49.119263 2.906250 m /o glyphshow
57.914124 2.906250 m /n glyphshow
67.024841 2.906250 m /space glyphshow
71.594238 2.906250 m /o glyphshow
80.389099 2.906250 m /f glyphshow
85.449829 2.906250 m /space glyphshow
90.019226 2.906250 m /W glyphshow
103.357788 2.906250 m /e glyphshow
112.201782 2.906250 m /r glyphshow
117.861816 2.906250 m /n glyphshow
126.972534 2.906250 m /e glyphshow
135.816528 2.906250 m /r glyphshow
141.726562 2.906250 m /space glyphshow
146.295959 2.906250 m /bracketleft glyphshow
151.904175 2.906250 m /w glyphshow
163.661072 2.906250 m /i glyphshow
167.654907 2.906250 m /t glyphshow
173.291199 2.906250 m /h glyphshow
182.401917 2.906250 m /space glyphshow
186.971313 2.906250 m /n glyphshow
196.082031 2.906250 m /o glyphshow
204.876892 2.906250 m /i glyphshow
208.870728 2.906250 m /s glyphshow
216.360046 2.906250 m /e glyphshow
225.204041 2.906250 m /space glyphshow
229.773438 2.906250 m /hyphen glyphshow
234.960510 2.906250 m /space glyphshow
239.529907 2.906250 m /one glyphshow
248.675720 2.906250 m /period glyphshow
253.245117 2.906250 m /zero glyphshow
262.390930 2.906250 m /zero glyphshow
271.536743 2.906250 m /zero glyphshow
280.682556 2.906250 m /zero glyphshow
289.828369 2.906250 m /zero glyphshow
298.974182 2.906250 m /zero glyphshow
308.119995 2.906250 m /e glyphshow
316.963989 2.906250 m /hyphen glyphshow
322.151062 2.906250 m /one glyphshow
331.296875 2.906250 m /six glyphshow
340.442688 2.906250 m /bracketright glyphshow
346.050903 2.906250 m /space glyphshow
350.620300 2.906250 m /parenleft glyphshow
356.228516 2.906250 m /m glyphshow
370.231506 2.906250 m /e glyphshow
379.075500 2.906250 m /a glyphshow
387.884399 2.906250 m /s glyphshow
395.373718 2.906250 m /u glyphshow
404.484436 2.906250 m /r glyphshow
410.019470 2.906250 m /e glyphshow
418.863464 2.906250 m /colon glyphshow
423.706604 2.906250 m /space glyphshow
428.276001 2.906250 m /e glyphshow
437.119995 2.906250 m /n glyphshow
446.230713 2.906250 m /t glyphshow
451.867004 2.906250 m /r glyphshow
457.402039 2.906250 m /o glyphshow
466.196899 2.906250 m /p glyphshow
475.321655 2.906250 m /y glyphshow
483.828735 2.906250 m /parenright glyphshow
grestore
gsave
602.042 331.955 m
750.96 331.955 l
750.96 478.8 l
602.042 478.8 l
602.042 331.955 l
cl
gsave
1.000 setgray
fill
grestore
stroke
grestore
0.000 0.000 1.000 setrgbcolor
gsave
612.122 467.439 m
632.282 467.439 l
stroke
grestore
0.000 setgray
gsave
648.121875 462.196250 translate
0.000000 rotate
0.000000 0.203125 m /F glyphshow
8.268433 0.203125 m /space glyphshow
12.837830 0.203125 m /equal glyphshow
24.882507 0.203125 m /space glyphshow
29.451904 0.203125 m /zero glyphshow
38.597717 0.203125 m /period glyphshow
43.167114 0.203125 m /five glyphshow
52.312927 0.203125 m /zero glyphshow
61.458740 0.203125 m /zero glyphshow
70.604553 0.203125 m /zero glyphshow
79.750366 0.203125 m /zero glyphshow
88.896179 0.203125 m /zero glyphshow
grestore
0.000 0.500 0.000 setrgbcolor
gsave
612.122 446.692 m
632.282 446.692 l
stroke
grestore
0.000 setgray
gsave
648.121875 441.449375 translate
0.000000 rotate
0.000000 0.203125 m /F glyphshow
8.268433 0.203125 m /space glyphshow
12.837830 0.203125 m /equal glyphshow
24.882507 0.203125 m /space glyphshow
29.451904 0.203125 m /zero glyphshow
38.597717 0.203125 m /period glyphshow
43.167114 0.203125 m /five glyphshow
52.312927 0.203125 m /eight glyphshow
61.458740 0.203125 m /three glyphshow
70.604553 0.203125 m /three glyphshow
79.750366 0.203125 m /three glyphshow
88.896179 0.203125 m /three glyphshow
grestore
1.000 0.000 0.000 setrgbcolor
gsave
612.122 425.946 m
632.282 425.946 l
stroke
grestore
0.000 setgray
gsave
648.121875 420.702500 translate
0.000000 rotate
0.000000 0.203125 m /F glyphshow
8.268433 0.203125 m /space glyphshow
12.837830 0.203125 m /equal glyphshow
24.882507 0.203125 m /space glyphshow
29.451904 0.203125 m /zero glyphshow
38.597717 0.203125 m /period glyphshow
43.167114 0.203125 m /six glyphshow
52.312927 0.203125 m /six glyphshow
61.458740 0.203125 m /six glyphshow
70.604553 0.203125 m /six glyphshow
79.750366 0.203125 m /six glyphshow
88.896179 0.203125 m /seven glyphshow
grestore
0.000 0.750 0.750 setrgbcolor
gsave
612.122 405.199 m
632.282 405.199 l
stroke
grestore
0.000 setgray
gsave
648.121875 399.955625 translate
0.000000 rotate
0.000000 0.203125 m /F glyphshow
8.268433 0.203125 m /space glyphshow
12.837830 0.203125 m /equal glyphshow
24.882507 0.203125 m /space glyphshow
29.451904 0.203125 m /zero glyphshow
38.597717 0.203125 m /period glyphshow
43.167114 0.203125 m /seven glyphshow
52.312927 0.203125 m /five glyphshow
61.458740 0.203125 m /zero glyphshow
70.604553 0.203125 m /zero glyphshow
79.750366 0.203125 m /zero glyphshow
88.896179 0.203125 m /zero glyphshow
grestore
0.750 0.000 0.750 setrgbcolor
gsave
612.122 384.452 m
632.282 384.452 l
stroke
grestore
0.000 setgray
gsave
648.121875 379.208750 translate
0.000000 rotate
0.000000 0.203125 m /F glyphshow
8.268433 0.203125 m /space glyphshow
12.837830 0.203125 m /equal glyphshow
24.882507 0.203125 m /space glyphshow
29.451904 0.203125 m /zero glyphshow
38.597717 0.203125 m /period glyphshow
43.167114 0.203125 m /eight glyphshow
52.312927 0.203125 m /three glyphshow
61.458740 0.203125 m /three glyphshow
70.604553 0.203125 m /three glyphshow
79.750366 0.203125 m /three glyphshow
88.896179 0.203125 m /three glyphshow
grestore
0.750 0.750 0.000 setrgbcolor
gsave
612.122 363.705 m
632.282 363.705 l
stroke
grestore
0.000 setgray
gsave
648.121875 358.461875 translate
0.000000 rotate
0.000000 0.203125 m /F glyphshow
8.268433 0.203125 m /space glyphshow
12.837830 0.203125 m /equal glyphshow
24.882507 0.203125 m /space glyphshow
29.451904 0.203125 m /zero glyphshow
38.597717 0.203125 m /period glyphshow
43.167114 0.203125 m /nine glyphshow
52.312927 0.203125 m /one glyphshow
61.458740 0.203125 m /six glyphshow
70.604553 0.203125 m /six glyphshow
79.750366 0.203125 m /six glyphshow
88.896179 0.203125 m /seven glyphshow
grestore
gsave
612.122 342.958 m
632.282 342.958 l
stroke
grestore
gsave
648.121875 337.715000 translate
0.000000 rotate
0.000000 0.203125 m /F glyphshow
8.268433 0.203125 m /space glyphshow
12.837830 0.203125 m /equal glyphshow
24.882507 0.203125 m /space glyphshow
29.451904 0.203125 m /one glyphshow
38.597717 0.203125 m /period glyphshow
43.167114 0.203125 m /zero glyphshow
52.312927 0.203125 m /zero glyphshow
61.458740 0.203125 m /zero glyphshow
70.604553 0.203125 m /zero glyphshow
79.750366 0.203125 m /zero glyphshow
88.896179 0.203125 m /zero glyphshow
grestore

end
showpage
