%!PS-Adobe-3.0 EPSF-3.0
%%Title: Werner.entropy.evolution.evolution.eps
%%Creator: matplotlib version 1.2.1, http://matplotlib.org/
%%CreationDate: Fri Aug 16 20:53:10 2013
%%Orientation: portrait
%%BoundingBox: -115 126 727 666
%%EndComments
%%BeginProlog
/mpldict 8 dict def
mpldict begin
/m { moveto } bind def
/l { lineto } bind def
/r { rlineto } bind def
/c { curveto } bind def
/cl { closepath } bind def
/box {
m
1 index 0 r
0 exch r
neg 0 r
cl
} bind def
/clipbox {
box
clip
newpath
} bind def
%!PS-Adobe-3.0 Resource-Font
%%Title: Bitstream Vera Sans
%%Copyright: Copyright (c) 2003 by Bitstream, Inc. All Rights Reserved.
%%Creator: Converted from TrueType to type 3 by PPR
25 dict begin
/_d{bind def}bind def
/_m{moveto}_d
/_l{lineto}_d
/_cl{closepath eofill}_d
/_c{curveto}_d
/_sc{7 -1 roll{setcachedevice}{pop pop pop pop pop pop}ifelse}_d
/_e{exec}_d
/FontName /BitstreamVeraSans-Roman def
/PaintType 0 def
/FontMatrix[.001 0 0 .001 0 0]def
/FontBBox[-183 -236 1287 928]def
/FontType 3 def
/Encoding [ /space /parenleft /parenright /hyphen /period /zero /one /two /three /four /six /eight /colon /E /G /W /bracketleft /bracketright /a /b /d /e /f /g /h /i /l /m /n /o /p /r /s /t /u /v /w /y ] def
/FontInfo 10 dict dup begin
/FamilyName (Bitstream Vera Sans) def
/FullName (Bitstream Vera Sans) def
/Notice (Copyright (c) 2003 by Bitstream, Inc. All Rights Reserved. Bitstream Vera is a trademark of Bitstream, Inc.) def
/Weight (Roman) def
/Version (Release 1.10) def
/ItalicAngle 0.0 def
/isFixedPitch false def
/UnderlinePosition -213 def
/UnderlineThickness 143 def
end readonly def
/CharStrings 38 dict dup begin
/space{318 0 0 0 0 0 _sc
}_d
/parenleft{390 0 86 -131 310 759 _sc
310 759 _m
266 683 234 609 213 536 _c
191 463 181 389 181 314 _c
181 238 191 164 213 91 _c
234 17 266 -56 310 -131 _c
232 -131 _l
183 -54 146 20 122 94 _c
98 168 86 241 86 314 _c
86 386 98 459 122 533 _c
146 607 182 682 232 759 _c
310 759 _l
_cl}_d
/parenright{390 0 80 -131 304 759 _sc
80 759 _m
158 759 _l
206 682 243 607 267 533 _c
291 459 304 386 304 314 _c
304 241 291 168 267 94 _c
243 20 206 -54 158 -131 _c
80 -131 _l
123 -56 155 17 177 91 _c
198 164 209 238 209 314 _c
209 389 198 463 177 536 _c
155 609 123 683 80 759 _c
_cl}_d
/hyphen{361 0 49 234 312 314 _sc
49 314 _m
312 314 _l
312 234 _l
49 234 _l
49 314 _l
_cl}_d
/period{318 0 107 0 210 124 _sc
107 124 _m
210 124 _l
210 0 _l
107 0 _l
107 124 _l
_cl}_d
/zero{636 0 66 -13 570 742 _sc
318 664 _m
267 664 229 639 203 589 _c
177 539 165 464 165 364 _c
165 264 177 189 203 139 _c
229 89 267 64 318 64 _c
369 64 407 89 433 139 _c
458 189 471 264 471 364 _c
471 464 458 539 433 589 _c
407 639 369 664 318 664 _c
318 742 _m
399 742 461 709 505 645 _c
548 580 570 486 570 364 _c
570 241 548 147 505 83 _c
461 19 399 -13 318 -13 _c
236 -13 173 19 130 83 _c
87 147 66 241 66 364 _c
66 486 87 580 130 645 _c
173 709 236 742 318 742 _c
_cl}_d
/one{636 0 110 0 544 729 _sc
124 83 _m
285 83 _l
285 639 _l
110 604 _l
110 694 _l
284 729 _l
383 729 _l
383 83 _l
544 83 _l
544 0 _l
124 0 _l
124 83 _l
_cl}_d
/two{{636 0 73 0 536 742 _sc
192 83 _m
536 83 _l
536 0 _l
73 0 _l
73 83 _l
110 121 161 173 226 239 _c
290 304 331 346 348 365 _c
380 400 402 430 414 455 _c
426 479 433 504 433 528 _c
433 566 419 598 392 622 _c
365 646 330 659 286 659 _c
255 659 222 653 188 643 _c
154 632 117 616 78 594 _c
78 694 _l
118 710 155 722 189 730 _c
223 738 255 742 284 742 _c
}_e{359 742 419 723 464 685 _c
509 647 532 597 532 534 _c
532 504 526 475 515 449 _c
504 422 484 390 454 354 _c
446 344 420 317 376 272 _c
332 227 271 164 192 83 _c
_cl}_e}_d
/three{{636 0 76 -13 556 742 _sc
406 393 _m
453 383 490 362 516 330 _c
542 298 556 258 556 212 _c
556 140 531 84 482 45 _c
432 6 362 -13 271 -13 _c
240 -13 208 -10 176 -4 _c
144 1 110 10 76 22 _c
76 117 _l
103 101 133 89 166 81 _c
198 73 232 69 268 69 _c
330 69 377 81 409 105 _c
441 129 458 165 458 212 _c
458 254 443 288 413 312 _c
383 336 341 349 287 349 _c
}_e{202 349 _l
202 430 _l
291 430 _l
339 430 376 439 402 459 _c
428 478 441 506 441 543 _c
441 580 427 609 401 629 _c
374 649 336 659 287 659 _c
260 659 231 656 200 650 _c
169 644 135 635 98 623 _c
98 711 _l
135 721 170 729 203 734 _c
235 739 266 742 296 742 _c
370 742 429 725 473 691 _c
517 657 539 611 539 553 _c
539 513 527 479 504 451 _c
481 423 448 403 406 393 _c
_cl}_e}_d
/four{636 0 49 0 580 729 _sc
378 643 _m
129 254 _l
378 254 _l
378 643 _l
352 729 _m
476 729 _l
476 254 _l
580 254 _l
580 172 _l
476 172 _l
476 0 _l
378 0 _l
378 172 _l
49 172 _l
49 267 _l
352 729 _l
_cl}_d
/six{{636 0 70 -13 573 742 _sc
330 404 _m
286 404 251 388 225 358 _c
199 328 186 286 186 234 _c
186 181 199 139 225 109 _c
251 79 286 64 330 64 _c
374 64 409 79 435 109 _c
461 139 474 181 474 234 _c
474 286 461 328 435 358 _c
409 388 374 404 330 404 _c
526 713 _m
526 623 _l
501 635 476 644 451 650 _c
425 656 400 659 376 659 _c
310 659 260 637 226 593 _c
}_e{192 549 172 482 168 394 _c
187 422 211 444 240 459 _c
269 474 301 482 336 482 _c
409 482 467 459 509 415 _c
551 371 573 310 573 234 _c
573 159 550 99 506 54 _c
462 9 403 -13 330 -13 _c
246 -13 181 19 137 83 _c
92 147 70 241 70 364 _c
70 479 97 571 152 639 _c
206 707 280 742 372 742 _c
396 742 421 739 447 735 _c
472 730 498 723 526 713 _c
_cl}_e}_d
/eight{{636 0 68 -13 568 742 _sc
318 346 _m
271 346 234 333 207 308 _c
180 283 167 249 167 205 _c
167 161 180 126 207 101 _c
234 76 271 64 318 64 _c
364 64 401 76 428 102 _c
455 127 469 161 469 205 _c
469 249 455 283 429 308 _c
402 333 365 346 318 346 _c
219 388 _m
177 398 144 418 120 447 _c
96 476 85 511 85 553 _c
85 611 105 657 147 691 _c
188 725 245 742 318 742 _c
}_e{390 742 447 725 489 691 _c
530 657 551 611 551 553 _c
551 511 539 476 515 447 _c
491 418 459 398 417 388 _c
464 377 501 355 528 323 _c
554 291 568 251 568 205 _c
568 134 546 80 503 43 _c
459 5 398 -13 318 -13 _c
237 -13 175 5 132 43 _c
89 80 68 134 68 205 _c
68 251 81 291 108 323 _c
134 355 171 377 219 388 _c
183 544 _m
183 506 194 476 218 455 _c
}_e{242 434 275 424 318 424 _c
360 424 393 434 417 455 _c
441 476 453 506 453 544 _c
453 582 441 611 417 632 _c
393 653 360 664 318 664 _c
275 664 242 653 218 632 _c
194 611 183 582 183 544 _c
_cl}_e}_d
/colon{337 0 117 0 220 517 _sc
117 124 _m
220 124 _l
220 0 _l
117 0 _l
117 124 _l
117 517 _m
220 517 _l
220 393 _l
117 393 _l
117 517 _l
_cl}_d
/E{632 0 98 0 568 729 _sc
98 729 _m
559 729 _l
559 646 _l
197 646 _l
197 430 _l
544 430 _l
544 347 _l
197 347 _l
197 83 _l
568 83 _l
568 0 _l
98 0 _l
98 729 _l
_cl}_d
/G{{775 0 56 -13 693 742 _sc
595 104 _m
595 300 _l
434 300 _l
434 381 _l
693 381 _l
693 68 _l
655 40 613 20 567 7 _c
521 -6 472 -13 420 -13 _c
306 -13 216 20 152 86 _c
88 152 56 245 56 364 _c
56 482 88 575 152 642 _c
216 708 306 742 420 742 _c
467 742 512 736 555 724 _c
598 712 638 695 674 673 _c
674 568 _l
637 598 598 621 557 637 _c
516 653 473 661 428 661 _c
}_e{338 661 271 636 227 586 _c
182 536 160 462 160 364 _c
160 265 182 191 227 141 _c
271 91 338 67 428 67 _c
462 67 493 70 521 76 _c
549 82 573 91 595 104 _c
_cl}_e}_d
/W{989 0 33 0 956 729 _sc
33 729 _m
133 729 _l
286 113 _l
439 729 _l
550 729 _l
703 113 _l
856 729 _l
956 729 _l
773 0 _l
649 0 _l
495 633 _l
340 0 _l
216 0 _l
33 729 _l
_cl}_d
/bracketleft{390 0 86 -131 293 760 _sc
86 760 _m
293 760 _l
293 690 _l
176 690 _l
176 -61 _l
293 -61 _l
293 -131 _l
86 -131 _l
86 760 _l
_cl}_d
/bracketright{390 0 97 -131 304 760 _sc
304 760 _m
304 -131 _l
97 -131 _l
97 -61 _l
214 -61 _l
214 690 _l
97 690 _l
97 760 _l
304 760 _l
_cl}_d
/a{{613 0 60 -13 522 560 _sc
343 275 _m
270 275 220 266 192 250 _c
164 233 150 205 150 165 _c
150 133 160 107 181 89 _c
202 70 231 61 267 61 _c
317 61 357 78 387 114 _c
417 149 432 196 432 255 _c
432 275 _l
343 275 _l
522 312 _m
522 0 _l
432 0 _l
432 83 _l
411 49 385 25 355 10 _c
325 -5 287 -13 243 -13 _c
187 -13 142 2 109 33 _c
76 64 60 106 60 159 _c
}_e{60 220 80 266 122 298 _c
163 329 224 345 306 345 _c
432 345 _l
432 354 _l
432 395 418 427 391 450 _c
364 472 326 484 277 484 _c
245 484 215 480 185 472 _c
155 464 127 453 100 439 _c
100 522 _l
132 534 164 544 195 550 _c
226 556 256 560 286 560 _c
365 560 424 539 463 498 _c
502 457 522 395 522 312 _c
_cl}_e}_d
/b{{635 0 91 -13 580 760 _sc
487 273 _m
487 339 473 390 446 428 _c
418 466 381 485 334 485 _c
286 485 249 466 222 428 _c
194 390 181 339 181 273 _c
181 207 194 155 222 117 _c
249 79 286 61 334 61 _c
381 61 418 79 446 117 _c
473 155 487 207 487 273 _c
181 464 _m
199 496 223 520 252 536 _c
281 552 316 560 356 560 _c
422 560 476 533 518 481 _c
559 428 580 359 580 273 _c
}_e{580 187 559 117 518 65 _c
476 13 422 -13 356 -13 _c
316 -13 281 -5 252 10 _c
223 25 199 49 181 82 _c
181 0 _l
91 0 _l
91 760 _l
181 760 _l
181 464 _l
_cl}_e}_d
/d{{635 0 55 -13 544 760 _sc
454 464 _m
454 760 _l
544 760 _l
544 0 _l
454 0 _l
454 82 _l
435 49 411 25 382 10 _c
353 -5 319 -13 279 -13 _c
213 -13 159 13 117 65 _c
75 117 55 187 55 273 _c
55 359 75 428 117 481 _c
159 533 213 560 279 560 _c
319 560 353 552 382 536 _c
411 520 435 496 454 464 _c
148 273 _m
148 207 161 155 188 117 _c
215 79 253 61 301 61 _c
}_e{348 61 385 79 413 117 _c
440 155 454 207 454 273 _c
454 339 440 390 413 428 _c
385 466 348 485 301 485 _c
253 485 215 466 188 428 _c
161 390 148 339 148 273 _c
_cl}_e}_d
/e{{615 0 55 -13 562 560 _sc
562 296 _m
562 252 _l
149 252 _l
153 190 171 142 205 110 _c
238 78 284 62 344 62 _c
378 62 412 66 444 74 _c
476 82 509 95 541 113 _c
541 28 _l
509 14 476 3 442 -3 _c
408 -9 373 -13 339 -13 _c
251 -13 182 12 131 62 _c
80 112 55 181 55 268 _c
55 357 79 428 127 481 _c
175 533 241 560 323 560 _c
397 560 455 536 498 489 _c
}_e{540 441 562 377 562 296 _c
472 322 _m
471 371 457 410 431 440 _c
404 469 368 484 324 484 _c
274 484 234 469 204 441 _c
174 413 156 373 152 322 _c
472 322 _l
_cl}_e}_d
/f{352 0 23 0 371 760 _sc
371 760 _m
371 685 _l
285 685 _l
253 685 230 678 218 665 _c
205 652 199 629 199 595 _c
199 547 _l
347 547 _l
347 477 _l
199 477 _l
199 0 _l
109 0 _l
109 477 _l
23 477 _l
23 547 _l
109 547 _l
109 585 _l
109 645 123 690 151 718 _c
179 746 224 760 286 760 _c
371 760 _l
_cl}_d
/g{{635 0 55 -207 544 560 _sc
454 280 _m
454 344 440 395 414 431 _c
387 467 349 485 301 485 _c
253 485 215 467 188 431 _c
161 395 148 344 148 280 _c
148 215 161 165 188 129 _c
215 93 253 75 301 75 _c
349 75 387 93 414 129 _c
440 165 454 215 454 280 _c
544 68 _m
544 -24 523 -93 482 -139 _c
440 -184 377 -207 292 -207 _c
260 -207 231 -204 203 -200 _c
175 -195 147 -188 121 -178 _c
}_e{121 -91 _l
147 -105 173 -115 199 -122 _c
225 -129 251 -133 278 -133 _c
336 -133 380 -117 410 -87 _c
439 -56 454 -10 454 52 _c
454 96 _l
435 64 411 40 382 24 _c
353 8 319 0 279 0 _c
211 0 157 25 116 76 _c
75 127 55 195 55 280 _c
55 364 75 432 116 483 _c
157 534 211 560 279 560 _c
319 560 353 552 382 536 _c
411 520 435 496 454 464 _c
454 547 _l
544 547 _l
}_e{544 68 _l
_cl}_e}_d
/h{634 0 91 0 549 760 _sc
549 330 _m
549 0 _l
459 0 _l
459 327 _l
459 379 448 417 428 443 _c
408 469 378 482 338 482 _c
289 482 251 466 223 435 _c
195 404 181 362 181 309 _c
181 0 _l
91 0 _l
91 760 _l
181 760 _l
181 462 _l
202 494 227 519 257 535 _c
286 551 320 560 358 560 _c
420 560 468 540 500 501 _c
532 462 549 405 549 330 _c
_cl}_d
/i{278 0 94 0 184 760 _sc
94 547 _m
184 547 _l
184 0 _l
94 0 _l
94 547 _l
94 760 _m
184 760 _l
184 646 _l
94 646 _l
94 760 _l
_cl}_d
/l{278 0 94 0 184 760 _sc
94 760 _m
184 760 _l
184 0 _l
94 0 _l
94 760 _l
_cl}_d
/m{{974 0 91 0 889 560 _sc
520 442 _m
542 482 569 511 600 531 _c
631 550 668 560 711 560 _c
767 560 811 540 842 500 _c
873 460 889 403 889 330 _c
889 0 _l
799 0 _l
799 327 _l
799 379 789 418 771 444 _c
752 469 724 482 686 482 _c
639 482 602 466 575 435 _c
548 404 535 362 535 309 _c
535 0 _l
445 0 _l
445 327 _l
445 379 435 418 417 444 _c
398 469 369 482 331 482 _c
}_e{285 482 248 466 221 435 _c
194 404 181 362 181 309 _c
181 0 _l
91 0 _l
91 547 _l
181 547 _l
181 462 _l
201 495 226 520 255 536 _c
283 552 317 560 357 560 _c
397 560 430 550 458 530 _c
486 510 506 480 520 442 _c
_cl}_e}_d
/n{634 0 91 0 549 560 _sc
549 330 _m
549 0 _l
459 0 _l
459 327 _l
459 379 448 417 428 443 _c
408 469 378 482 338 482 _c
289 482 251 466 223 435 _c
195 404 181 362 181 309 _c
181 0 _l
91 0 _l
91 547 _l
181 547 _l
181 462 _l
202 494 227 519 257 535 _c
286 551 320 560 358 560 _c
420 560 468 540 500 501 _c
532 462 549 405 549 330 _c
_cl}_d
/o{612 0 55 -13 557 560 _sc
306 484 _m
258 484 220 465 192 427 _c
164 389 150 338 150 273 _c
150 207 163 156 191 118 _c
219 80 257 62 306 62 _c
354 62 392 80 420 118 _c
448 156 462 207 462 273 _c
462 337 448 389 420 427 _c
392 465 354 484 306 484 _c
306 560 _m
384 560 445 534 490 484 _c
534 433 557 363 557 273 _c
557 183 534 113 490 63 _c
445 12 384 -13 306 -13 _c
227 -13 165 12 121 63 _c
77 113 55 183 55 273 _c
55 363 77 433 121 484 _c
165 534 227 560 306 560 _c
_cl}_d
/p{{635 0 91 -207 580 560 _sc
181 82 _m
181 -207 _l
91 -207 _l
91 547 _l
181 547 _l
181 464 _l
199 496 223 520 252 536 _c
281 552 316 560 356 560 _c
422 560 476 533 518 481 _c
559 428 580 359 580 273 _c
580 187 559 117 518 65 _c
476 13 422 -13 356 -13 _c
316 -13 281 -5 252 10 _c
223 25 199 49 181 82 _c
487 273 _m
487 339 473 390 446 428 _c
418 466 381 485 334 485 _c
}_e{286 485 249 466 222 428 _c
194 390 181 339 181 273 _c
181 207 194 155 222 117 _c
249 79 286 61 334 61 _c
381 61 418 79 446 117 _c
473 155 487 207 487 273 _c
_cl}_e}_d
/r{411 0 91 0 411 560 _sc
411 463 _m
401 469 390 473 378 476 _c
366 478 353 480 339 480 _c
288 480 249 463 222 430 _c
194 397 181 350 181 288 _c
181 0 _l
91 0 _l
91 547 _l
181 547 _l
181 462 _l
199 495 224 520 254 536 _c
284 552 321 560 365 560 _c
371 560 378 559 386 559 _c
393 558 401 557 411 555 _c
411 463 _l
_cl}_d
/s{{521 0 54 -13 472 560 _sc
443 531 _m
443 446 _l
417 458 391 468 364 475 _c
336 481 308 485 279 485 _c
234 485 200 478 178 464 _c
156 450 145 430 145 403 _c
145 382 153 366 169 354 _c
185 342 217 330 265 320 _c
296 313 _l
360 299 405 279 432 255 _c
458 230 472 195 472 151 _c
472 100 452 60 412 31 _c
372 1 316 -13 246 -13 _c
216 -13 186 -10 154 -5 _c
}_e{122 0 89 8 54 20 _c
54 113 _l
87 95 120 82 152 74 _c
184 65 216 61 248 61 _c
290 61 323 68 346 82 _c
368 96 380 117 380 144 _c
380 168 371 187 355 200 _c
339 213 303 226 247 238 _c
216 245 _l
160 257 119 275 95 299 _c
70 323 58 356 58 399 _c
58 450 76 490 112 518 _c
148 546 200 560 268 560 _c
301 560 332 557 362 552 _c
391 547 418 540 443 531 _c
}_e{_cl}_e}_d
/t{392 0 27 0 368 702 _sc
183 702 _m
183 547 _l
368 547 _l
368 477 _l
183 477 _l
183 180 _l
183 135 189 106 201 94 _c
213 81 238 75 276 75 _c
368 75 _l
368 0 _l
276 0 _l
206 0 158 13 132 39 _c
106 65 93 112 93 180 _c
93 477 _l
27 477 _l
27 547 _l
93 547 _l
93 702 _l
183 702 _l
_cl}_d
/u{634 0 85 -13 543 547 _sc
85 216 _m
85 547 _l
175 547 _l
175 219 _l
175 167 185 129 205 103 _c
225 77 255 64 296 64 _c
344 64 383 79 411 110 _c
439 141 453 183 453 237 _c
453 547 _l
543 547 _l
543 0 _l
453 0 _l
453 84 _l
431 50 405 26 377 10 _c
348 -5 315 -13 277 -13 _c
214 -13 166 6 134 45 _c
101 83 85 140 85 216 _c
_cl}_d
/v{592 0 30 0 562 547 _sc
30 547 _m
125 547 _l
296 88 _l
467 547 _l
562 547 _l
357 0 _l
235 0 _l
30 547 _l
_cl}_d
/w{818 0 42 0 776 547 _sc
42 547 _m
132 547 _l
244 120 _l
356 547 _l
462 547 _l
574 120 _l
686 547 _l
776 547 _l
633 0 _l
527 0 _l
409 448 _l
291 0 _l
185 0 _l
42 547 _l
_cl}_d
/y{592 0 30 -207 562 547 _sc
322 -50 _m
296 -114 271 -157 247 -177 _c
223 -197 191 -207 151 -207 _c
79 -207 _l
79 -132 _l
132 -132 _l
156 -132 175 -126 189 -114 _c
203 -102 218 -75 235 -31 _c
251 9 _l
30 547 _l
125 547 _l
296 119 _l
467 547 _l
562 547 _l
322 -50 _l
_cl}_d
end readonly def

/BuildGlyph
 {exch begin
 CharStrings exch
 2 copy known not{pop /.notdef}if
 true 3 1 roll get exec
 end}_d

/BuildChar {
 1 index /Encoding get exch get
 1 index /BuildGlyph get exec
}_d

FontName currentdict end definefont pop
end
%%EndProlog
mpldict begin
-115.2 126 translate
842.4 540 0 0 clipbox
gsave
0 0 m
842.4 0 l
842.4 540 l
0 540 l
cl
1.000 setgray
fill
grestore
gsave
105.3 54 m
758.16 54 l
758.16 486 l
105.3 486 l
cl
1.000 setgray
fill
grestore
1.000 setlinewidth
1 setlinejoin
2 setlinecap
[] 0 setdash
0.000 0.000 1.000 setrgbcolor
gsave
652.9 432 105.3 54 clipbox
105.3 450.216 m
111.829 436.445 l
118.357 422.024 l
124.886 412.242 l
131.414 402.018 l
137.943 394.488 l
144.472 387.591 l
151 381.377 l
157.529 374.28 l
164.057 367.976 l
170.586 361.227 l
177.115 356.851 l
183.643 351.036 l
190.172 345.981 l
196.7 340.497 l
203.229 334.395 l
209.758 328.396 l
216.286 322.952 l
222.815 316.901 l
229.343 310.751 l
235.872 306.005 l
242.401 300.762 l
248.929 296.695 l
255.458 293.012 l
261.986 290.139 l
268.515 285.627 l
275.044 281.856 l
281.572 279.135 l
288.101 275.694 l
294.629 273.395 l
301.158 269.176 l
307.687 266.518 l
314.215 262.812 l
320.744 259.61 l
327.272 255.046 l
333.801 250.322 l
340.33 246.557 l
346.858 243.268 l
353.387 241.249 l
359.915 238.268 l
366.444 236.284 l
372.973 233.073 l
379.501 231.45 l
386.03 230.139 l
392.558 226.875 l
399.087 223.963 l
405.616 221.903 l
412.144 217.926 l
418.673 214.625 l
425.201 212.951 l
431.73 210.3 l
438.259 208.051 l
444.787 206.187 l
451.316 204.338 l
457.844 201.198 l
464.373 199.03 l
470.902 196.098 l
477.43 193.855 l
483.959 190.57 l
490.487 189.205 l
497.016 183.894 l
503.545 182.323 l
510.073 180.619 l
516.602 178.773 l
523.13 177.485 l
529.659 175.388 l
536.188 173.18 l
542.716 169.914 l
549.245 167.183 l
555.773 163.903 l
562.302 161.752 l
568.831 159.662 l
575.359 155.952 l
581.888 154.079 l
588.416 151.919 l
594.945 149.163 l
601.474 147.895 l
608.002 145.291 l
614.531 142.873 l
621.059 140.851 l
627.588 139.632 l
634.117 136.849 l
640.645 135.259 l
647.174 132.3 l
653.702 130.348 l
660.231 127.507 l
666.76 123.982 l
673.288 121.257 l
679.817 119.351 l
686.345 116.617 l
692.874 114.683 l
699.403 113.499 l
705.931 111.243 l
712.46 109.48 l
718.988 106.696 l
725.517 105.407 l
732.046 103.091 l
738.574 100.797 l
745.103 99.1774 l
751.631 96.8998 l
758.16 94.5973 l
stroke
grestore
0.000 0.500 0.000 setrgbcolor
gsave
652.9 432 105.3 54 clipbox
105.3 450.972 m
111.829 438.811 l
118.357 423.559 l
124.886 414.023 l
131.414 405.617 l
137.943 398.011 l
144.472 390.006 l
151 383.825 l
157.529 376.077 l
164.057 369.015 l
170.586 362.768 l
177.115 357.733 l
183.643 354.138 l
190.172 349.631 l
196.7 345.643 l
203.229 341.936 l
209.758 337.811 l
216.286 333.835 l
222.815 330.051 l
229.343 327.619 l
235.872 323.801 l
242.401 320.813 l
248.929 318.345 l
255.458 314.541 l
261.986 311.532 l
268.515 307.79 l
275.044 302.052 l
281.572 298.955 l
288.101 295.259 l
294.629 294.037 l
301.158 290.652 l
307.687 288.88 l
314.215 285.016 l
320.744 281.79 l
327.272 280.497 l
333.801 277.88 l
340.33 274.298 l
346.858 271.741 l
353.387 268.801 l
359.915 264.89 l
366.444 262.159 l
372.973 260.532 l
379.501 259.301 l
386.03 255.604 l
392.558 252.926 l
399.087 250.556 l
405.616 248.371 l
412.144 246.378 l
418.673 242.643 l
425.201 240.209 l
431.73 239.091 l
438.259 236.159 l
444.787 233.213 l
451.316 230.905 l
457.844 228.259 l
464.373 225.371 l
470.902 222.931 l
477.43 222.162 l
483.959 220.157 l
490.487 218.385 l
497.016 215.095 l
503.545 213.903 l
510.073 209.692 l
516.602 208.003 l
523.13 206.15 l
529.659 204.135 l
536.188 200.4 l
542.716 198.257 l
549.245 195.73 l
555.773 193.59 l
562.302 191.011 l
568.831 188.485 l
575.359 187.274 l
581.888 185.858 l
588.416 183.921 l
594.945 182.296 l
601.474 180.643 l
608.002 178.399 l
614.531 175.418 l
621.059 172.356 l
627.588 170.351 l
634.117 169.244 l
640.645 168.049 l
647.174 166.464 l
653.702 160.563 l
660.231 159.583 l
666.76 156.994 l
673.288 155.066 l
679.817 152.743 l
686.345 151.33 l
692.874 150.471 l
699.403 148.746 l
705.931 147.136 l
712.46 146.114 l
718.988 143.939 l
725.517 142.652 l
732.046 141.306 l
738.574 138.779 l
745.103 136.907 l
751.631 135.905 l
758.16 134.802 l
stroke
grestore
1.000 0.000 0.000 setrgbcolor
gsave
652.9 432 105.3 54 clipbox
105.3 451.245 m
111.829 434.806 l
118.357 421.872 l
124.886 410.485 l
131.414 400.409 l
137.943 390.994 l
144.472 381.931 l
151 374.254 l
157.529 366.899 l
164.057 360.13 l
170.586 354.069 l
177.115 347.088 l
183.643 340.633 l
190.172 336.518 l
196.7 331.673 l
203.229 328.017 l
209.758 324.215 l
216.286 320.453 l
222.815 315.585 l
229.343 311.471 l
235.872 308.244 l
242.401 304.332 l
248.929 300.254 l
255.458 294.412 l
261.986 289.639 l
268.515 286.052 l
275.044 281.511 l
281.572 278.333 l
288.101 273.828 l
294.629 270.199 l
301.158 265.753 l
307.687 262.559 l
314.215 258.548 l
320.744 255.743 l
327.272 253.408 l
333.801 251.092 l
340.33 248.994 l
346.858 245.625 l
353.387 242.272 l
359.915 239.769 l
366.444 236.354 l
372.973 233.332 l
379.501 230.606 l
386.03 227.519 l
392.558 225.014 l
399.087 222.261 l
405.616 219.616 l
412.144 217.705 l
418.673 216.431 l
425.201 213.692 l
431.73 212.053 l
438.259 208.327 l
444.787 207.115 l
451.316 205.538 l
457.844 202.458 l
464.373 198.123 l
470.902 196.042 l
477.43 192.394 l
483.959 191.046 l
490.487 188.71 l
497.016 185.208 l
503.545 183.82 l
510.073 182.065 l
516.602 179.885 l
523.13 178.324 l
529.659 176.251 l
536.188 174.735 l
542.716 172.933 l
549.245 170.826 l
555.773 168.466 l
562.302 164.906 l
568.831 161.298 l
575.359 158.865 l
581.888 156.489 l
588.416 153.609 l
594.945 152.102 l
601.474 149.909 l
608.002 148.744 l
614.531 147.115 l
621.059 145.305 l
627.588 142.855 l
634.117 141.308 l
640.645 139.621 l
647.174 137.391 l
653.702 135.664 l
660.231 133.6 l
666.76 130.903 l
673.288 127.833 l
679.817 126.075 l
686.345 123.766 l
692.874 120.712 l
699.403 119.868 l
705.931 118.478 l
712.46 115.71 l
718.988 113.56 l
725.517 111.226 l
732.046 109.58 l
738.574 107.356 l
745.103 105.099 l
751.631 102.95 l
758.16 101.763 l
stroke
grestore
0.000 0.750 0.750 setrgbcolor
gsave
652.9 432 105.3 54 clipbox
105.3 450.634 m
111.829 434.272 l
118.357 421.815 l
124.886 410.331 l
131.414 401.248 l
137.943 392.285 l
144.472 384.544 l
151 377.132 l
157.529 371.881 l
164.057 365.786 l
170.586 360.269 l
177.115 354.25 l
183.643 349.351 l
190.172 343.283 l
196.7 338.704 l
203.229 334.085 l
209.758 330.231 l
216.286 325.281 l
222.815 321.274 l
229.343 317.064 l
235.872 313.066 l
242.401 309.711 l
248.929 306.748 l
255.458 303.542 l
261.986 299.646 l
268.515 296.943 l
275.044 292.801 l
281.572 290.636 l
288.101 287.56 l
294.629 285.791 l
301.158 283.19 l
307.687 280.729 l
314.215 278.087 l
320.744 274.512 l
327.272 271.334 l
333.801 268.414 l
340.33 264.421 l
346.858 261.745 l
353.387 258.205 l
359.915 256.566 l
366.444 253.453 l
372.973 251.107 l
379.501 247.265 l
386.03 244.985 l
392.558 242.53 l
399.087 240.774 l
405.616 236.173 l
412.144 233.576 l
418.673 230.45 l
425.201 228.09 l
431.73 227.057 l
438.259 224.177 l
444.787 222.852 l
451.316 218.283 l
457.844 214.707 l
464.373 211.705 l
470.902 209.379 l
477.43 207.002 l
483.959 205.459 l
490.487 201.36 l
497.016 200.108 l
503.545 198.015 l
510.073 196.288 l
516.602 195.024 l
523.13 193.913 l
529.659 192.588 l
536.188 190.832 l
542.716 189.763 l
549.245 189.127 l
555.773 188.138 l
562.302 187.192 l
568.831 186.313 l
575.359 185.659 l
581.888 185.261 l
588.416 181.953 l
594.945 181.44 l
601.474 181.412 l
608.002 181.358 l
614.531 181.236 l
621.059 180.516 l
627.588 179.815 l
634.117 179.06 l
640.645 178.57 l
647.174 177.632 l
653.702 177.339 l
660.231 176.66 l
666.76 175.989 l
673.288 174.55 l
679.817 173.478 l
686.345 172.991 l
692.874 172.286 l
699.403 171.408 l
705.931 171.177 l
712.46 171.105 l
718.988 170.747 l
725.517 169.816 l
732.046 169.506 l
738.574 169.403 l
745.103 169.114 l
751.631 169.041 l
758.16 168.798 l
stroke
grestore
0.750 0.000 0.750 setrgbcolor
gsave
652.9 432 105.3 54 clipbox
105.3 451.207 m
111.829 434.459 l
118.357 419.728 l
124.886 409.892 l
131.414 400.277 l
137.943 392.052 l
144.472 385.045 l
151 377.241 l
157.529 370.418 l
164.057 364.237 l
170.586 357.996 l
177.115 351.802 l
183.643 346.987 l
190.172 341.618 l
196.7 338.185 l
203.229 333.211 l
209.758 327.327 l
216.286 321.328 l
222.815 316.803 l
229.343 313.117 l
235.872 310.231 l
242.401 307.051 l
248.929 302.481 l
255.458 298.73 l
261.986 293.404 l
268.515 288.876 l
275.044 283.196 l
281.572 281.325 l
288.101 276.938 l
294.629 272.851 l
301.158 267.867 l
307.687 265.305 l
314.215 261.864 l
320.744 258.952 l
327.272 255.434 l
333.801 253.221 l
340.33 250.293 l
346.858 248.144 l
353.387 245.181 l
359.915 241.892 l
366.444 240.135 l
372.973 238.1 l
379.501 236.372 l
386.03 232.578 l
392.558 230.327 l
399.087 227.384 l
405.616 226.034 l
412.144 223.872 l
418.673 222.06 l
425.201 219.4 l
431.73 216.899 l
438.259 215.345 l
444.787 212.426 l
451.316 210.52 l
457.844 207.292 l
464.373 204.414 l
470.902 201.572 l
477.43 199.833 l
483.959 195.227 l
490.487 190.987 l
497.016 189.199 l
503.545 186.871 l
510.073 184.365 l
516.602 181.703 l
523.13 178.961 l
529.659 177.519 l
536.188 175.712 l
542.716 174.164 l
549.245 169.645 l
555.773 167.847 l
562.302 166.01 l
568.831 164.289 l
575.359 160.297 l
581.888 158.028 l
588.416 155.488 l
594.945 151.942 l
601.474 148.218 l
608.002 144.903 l
614.531 142.143 l
621.059 138.079 l
627.588 133.67 l
634.117 131.113 l
640.645 129.377 l
647.174 127.371 l
653.702 125.295 l
660.231 122.815 l
666.76 121.661 l
673.288 119.711 l
679.817 117.042 l
686.345 113.298 l
692.874 109.416 l
699.403 106.245 l
705.931 104.487 l
712.46 101.84 l
718.988 98.5603 l
725.517 96.6965 l
732.046 92.7247 l
738.574 89.5994 l
745.103 88.9806 l
751.631 86.2018 l
758.16 84.3062 l
stroke
grestore
0.500 setlinewidth
0 setlinecap
0.000 setgray
gsave
/o {
gsave
newpath
translate
0.5 setlinewidth
1 setlinejoin
0 setlinecap
0 0 m
0 4 l
gsave
0.000 setgray
fill
grestore
stroke
grestore
} bind def
105.3 54 o
grestore
gsave
/o {
gsave
newpath
translate
0.5 setlinewidth
1 setlinejoin
0 setlinecap
0 0 m
0 -4 l
gsave
0.000 setgray
fill
grestore
stroke
grestore
} bind def
105.3 486 o
grestore
/BitstreamVeraSans-Roman findfont
12.000 scalefont
setfont
gsave
102.276562 40.921875 translate
0.000000 rotate
0.000000 0.171875 m /zero glyphshow
grestore
gsave
/o {
gsave
newpath
translate
0.5 setlinewidth
1 setlinejoin
0 setlinecap
0 0 m
0 4 l
gsave
0.000 setgray
fill
grestore
stroke
grestore
} bind def
235.872 54 o
grestore
gsave
/o {
gsave
newpath
translate
0.5 setlinewidth
1 setlinejoin
0 setlinecap
0 0 m
0 -4 l
gsave
0.000 setgray
fill
grestore
stroke
grestore
} bind def
235.872 486 o
grestore
gsave
229.067312 40.921875 translate
0.000000 rotate
0.000000 0.171875 m /two glyphshow
7.634766 0.171875 m /zero glyphshow
grestore
gsave
/o {
gsave
newpath
translate
0.5 setlinewidth
1 setlinejoin
0 setlinecap
0 0 m
0 4 l
gsave
0.000 setgray
fill
grestore
stroke
grestore
} bind def
366.444 54 o
grestore
gsave
/o {
gsave
newpath
translate
0.5 setlinewidth
1 setlinejoin
0 setlinecap
0 0 m
0 -4 l
gsave
0.000 setgray
fill
grestore
stroke
grestore
} bind def
366.444 486 o
grestore
gsave
359.498688 40.921875 translate
0.000000 rotate
0.000000 0.171875 m /four glyphshow
7.634766 0.171875 m /zero glyphshow
grestore
gsave
/o {
gsave
newpath
translate
0.5 setlinewidth
1 setlinejoin
0 setlinecap
0 0 m
0 4 l
gsave
0.000 setgray
fill
grestore
stroke
grestore
} bind def
497.016 54 o
grestore
gsave
/o {
gsave
newpath
translate
0.5 setlinewidth
1 setlinejoin
0 setlinecap
0 0 m
0 -4 l
gsave
0.000 setgray
fill
grestore
stroke
grestore
} bind def
497.016 486 o
grestore
gsave
490.195688 40.921875 translate
0.000000 rotate
0.000000 0.171875 m /six glyphshow
7.634766 0.171875 m /zero glyphshow
grestore
gsave
/o {
gsave
newpath
translate
0.5 setlinewidth
1 setlinejoin
0 setlinecap
0 0 m
0 4 l
gsave
0.000 setgray
fill
grestore
stroke
grestore
} bind def
627.588 54 o
grestore
gsave
/o {
gsave
newpath
translate
0.5 setlinewidth
1 setlinejoin
0 setlinecap
0 0 m
0 -4 l
gsave
0.000 setgray
fill
grestore
stroke
grestore
} bind def
627.588 486 o
grestore
gsave
620.752062 40.921875 translate
0.000000 rotate
0.000000 0.171875 m /eight glyphshow
7.634766 0.171875 m /zero glyphshow
grestore
gsave
/o {
gsave
newpath
translate
0.5 setlinewidth
1 setlinejoin
0 setlinecap
0 0 m
0 4 l
gsave
0.000 setgray
fill
grestore
stroke
grestore
} bind def
758.16 54 o
grestore
gsave
/o {
gsave
newpath
translate
0.5 setlinewidth
1 setlinejoin
0 setlinecap
0 0 m
0 -4 l
gsave
0.000 setgray
fill
grestore
stroke
grestore
} bind def
758.16 486 o
grestore
gsave
747.753750 40.921875 translate
0.000000 rotate
0.000000 0.171875 m /one glyphshow
7.634766 0.171875 m /zero glyphshow
15.269531 0.171875 m /zero glyphshow
grestore
gsave
399.089375 26.625000 translate
0.000000 rotate
0.000000 0.171875 m /G glyphshow
9.298828 0.171875 m /e glyphshow
16.681641 0.171875 m /n glyphshow
24.287109 0.171875 m /e glyphshow
31.669922 0.171875 m /r glyphshow
36.603516 0.171875 m /a glyphshow
43.957031 0.171875 m /t glyphshow
48.662109 0.171875 m /i glyphshow
51.996094 0.171875 m /o glyphshow
59.337891 0.171875 m /n glyphshow
grestore
gsave
/o {
gsave
newpath
translate
0.5 setlinewidth
1 setlinejoin
0 setlinecap
0 0 m
4 0 l
gsave
0.000 setgray
fill
grestore
stroke
grestore
} bind def
105.3 54 o
grestore
gsave
/o {
gsave
newpath
translate
0.5 setlinewidth
1 setlinejoin
0 setlinecap
0 0 m
-4 0 l
gsave
0.000 setgray
fill
grestore
stroke
grestore
} bind def
758.16 54 o
grestore
gsave
74.300000 47.000000 translate
0.000000 rotate
/BitstreamVeraSans-Roman findfont
12.0 scalefont
setfont
0.000000 1.575000 moveto
/one glyphshow

7.634766 1.575000 moveto
/zero glyphshow

/BitstreamVeraSans-Roman findfont
8.4 scalefont
setfont
15.269531 7.875000 moveto
/hyphen glyphshow

18.300586 7.875000 moveto
/four glyphshow


grestore
gsave
/o {
gsave
newpath
translate
0.5 setlinewidth
1 setlinejoin
0 setlinecap
0 0 m
4 0 l
gsave
0.000 setgray
fill
grestore
stroke
grestore
} bind def
105.3 162 o
grestore
gsave
/o {
gsave
newpath
translate
0.5 setlinewidth
1 setlinejoin
0 setlinecap
0 0 m
-4 0 l
gsave
0.000 setgray
fill
grestore
stroke
grestore
} bind def
758.16 162 o
grestore
gsave
74.300000 155.000000 translate
0.000000 rotate
/BitstreamVeraSans-Roman findfont
12.0 scalefont
setfont
0.000000 1.465625 moveto
/one glyphshow

7.634766 1.465625 moveto
/zero glyphshow

/BitstreamVeraSans-Roman findfont
8.4 scalefont
setfont
15.269531 7.765625 moveto
/hyphen glyphshow

18.300586 7.765625 moveto
/three glyphshow


grestore
gsave
/o {
gsave
newpath
translate
0.5 setlinewidth
1 setlinejoin
0 setlinecap
0 0 m
4 0 l
gsave
0.000 setgray
fill
grestore
stroke
grestore
} bind def
105.3 270 o
grestore
gsave
/o {
gsave
newpath
translate
0.5 setlinewidth
1 setlinejoin
0 setlinecap
0 0 m
-4 0 l
gsave
0.000 setgray
fill
grestore
stroke
grestore
} bind def
758.16 270 o
grestore
gsave
74.300000 263.000000 translate
0.000000 rotate
/BitstreamVeraSans-Roman findfont
12.0 scalefont
setfont
0.000000 1.465625 moveto
/one glyphshow

7.634766 1.465625 moveto
/zero glyphshow

/BitstreamVeraSans-Roman findfont
8.4 scalefont
setfont
15.269531 7.765625 moveto
/hyphen glyphshow

18.300586 7.765625 moveto
/two glyphshow


grestore
gsave
/o {
gsave
newpath
translate
0.5 setlinewidth
1 setlinejoin
0 setlinecap
0 0 m
4 0 l
gsave
0.000 setgray
fill
grestore
stroke
grestore
} bind def
105.3 378 o
grestore
gsave
/o {
gsave
newpath
translate
0.5 setlinewidth
1 setlinejoin
0 setlinecap
0 0 m
-4 0 l
gsave
0.000 setgray
fill
grestore
stroke
grestore
} bind def
758.16 378 o
grestore
gsave
74.300000 371.000000 translate
0.000000 rotate
/BitstreamVeraSans-Roman findfont
12.0 scalefont
setfont
0.000000 1.575000 moveto
/one glyphshow

7.634766 1.575000 moveto
/zero glyphshow

/BitstreamVeraSans-Roman findfont
8.4 scalefont
setfont
15.269531 7.875000 moveto
/hyphen glyphshow

18.300586 7.875000 moveto
/one glyphshow


grestore
gsave
/o {
gsave
newpath
translate
0.5 setlinewidth
1 setlinejoin
0 setlinecap
0 0 m
4 0 l
gsave
0.000 setgray
fill
grestore
stroke
grestore
} bind def
105.3 486 o
grestore
gsave
/o {
gsave
newpath
translate
0.5 setlinewidth
1 setlinejoin
0 setlinecap
0 0 m
-4 0 l
gsave
0.000 setgray
fill
grestore
stroke
grestore
} bind def
758.16 486 o
grestore
gsave
77.300000 479.000000 translate
0.000000 rotate
/BitstreamVeraSans-Roman findfont
12.0 scalefont
setfont
0.000000 1.465625 moveto
/one glyphshow

7.634766 1.465625 moveto
/zero glyphshow

/BitstreamVeraSans-Roman findfont
8.4 scalefont
setfont
15.269531 7.765625 moveto
/zero glyphshow


grestore
gsave
/o {
gsave
newpath
translate
0.5 setlinewidth
1 setlinejoin
0 setlinecap
0 0 m
2 0 l
gsave
0.000 setgray
fill
grestore
stroke
grestore
} bind def
105.3 86.5112 o
grestore
gsave
/o {
gsave
newpath
translate
0.5 setlinewidth
1 setlinejoin
0 setlinecap
0 0 m
-2 0 l
gsave
0.000 setgray
fill
grestore
stroke
grestore
} bind def
758.16 86.5112 o
grestore
gsave
/o {
gsave
newpath
translate
0.5 setlinewidth
1 setlinejoin
0 setlinecap
0 0 m
2 0 l
gsave
0.000 setgray
fill
grestore
stroke
grestore
} bind def
105.3 105.529 o
grestore
gsave
/o {
gsave
newpath
translate
0.5 setlinewidth
1 setlinejoin
0 setlinecap
0 0 m
-2 0 l
gsave
0.000 setgray
fill
grestore
stroke
grestore
} bind def
758.16 105.529 o
grestore
gsave
/o {
gsave
newpath
translate
0.5 setlinewidth
1 setlinejoin
0 setlinecap
0 0 m
2 0 l
gsave
0.000 setgray
fill
grestore
stroke
grestore
} bind def
105.3 119.022 o
grestore
gsave
/o {
gsave
newpath
translate
0.5 setlinewidth
1 setlinejoin
0 setlinecap
0 0 m
-2 0 l
gsave
0.000 setgray
fill
grestore
stroke
grestore
} bind def
758.16 119.022 o
grestore
gsave
/o {
gsave
newpath
translate
0.5 setlinewidth
1 setlinejoin
0 setlinecap
0 0 m
2 0 l
gsave
0.000 setgray
fill
grestore
stroke
grestore
} bind def
105.3 129.489 o
grestore
gsave
/o {
gsave
newpath
translate
0.5 setlinewidth
1 setlinejoin
0 setlinecap
0 0 m
-2 0 l
gsave
0.000 setgray
fill
grestore
stroke
grestore
} bind def
758.16 129.489 o
grestore
gsave
/o {
gsave
newpath
translate
0.5 setlinewidth
1 setlinejoin
0 setlinecap
0 0 m
2 0 l
gsave
0.000 setgray
fill
grestore
stroke
grestore
} bind def
105.3 138.04 o
grestore
gsave
/o {
gsave
newpath
translate
0.5 setlinewidth
1 setlinejoin
0 setlinecap
0 0 m
-2 0 l
gsave
0.000 setgray
fill
grestore
stroke
grestore
} bind def
758.16 138.04 o
grestore
gsave
/o {
gsave
newpath
translate
0.5 setlinewidth
1 setlinejoin
0 setlinecap
0 0 m
2 0 l
gsave
0.000 setgray
fill
grestore
stroke
grestore
} bind def
105.3 145.271 o
grestore
gsave
/o {
gsave
newpath
translate
0.5 setlinewidth
1 setlinejoin
0 setlinecap
0 0 m
-2 0 l
gsave
0.000 setgray
fill
grestore
stroke
grestore
} bind def
758.16 145.271 o
grestore
gsave
/o {
gsave
newpath
translate
0.5 setlinewidth
1 setlinejoin
0 setlinecap
0 0 m
2 0 l
gsave
0.000 setgray
fill
grestore
stroke
grestore
} bind def
105.3 151.534 o
grestore
gsave
/o {
gsave
newpath
translate
0.5 setlinewidth
1 setlinejoin
0 setlinecap
0 0 m
-2 0 l
gsave
0.000 setgray
fill
grestore
stroke
grestore
} bind def
758.16 151.534 o
grestore
gsave
/o {
gsave
newpath
translate
0.5 setlinewidth
1 setlinejoin
0 setlinecap
0 0 m
2 0 l
gsave
0.000 setgray
fill
grestore
stroke
grestore
} bind def
105.3 157.058 o
grestore
gsave
/o {
gsave
newpath
translate
0.5 setlinewidth
1 setlinejoin
0 setlinecap
0 0 m
-2 0 l
gsave
0.000 setgray
fill
grestore
stroke
grestore
} bind def
758.16 157.058 o
grestore
gsave
/o {
gsave
newpath
translate
0.5 setlinewidth
1 setlinejoin
0 setlinecap
0 0 m
2 0 l
gsave
0.000 setgray
fill
grestore
stroke
grestore
} bind def
105.3 194.511 o
grestore
gsave
/o {
gsave
newpath
translate
0.5 setlinewidth
1 setlinejoin
0 setlinecap
0 0 m
-2 0 l
gsave
0.000 setgray
fill
grestore
stroke
grestore
} bind def
758.16 194.511 o
grestore
gsave
/o {
gsave
newpath
translate
0.5 setlinewidth
1 setlinejoin
0 setlinecap
0 0 m
2 0 l
gsave
0.000 setgray
fill
grestore
stroke
grestore
} bind def
105.3 213.529 o
grestore
gsave
/o {
gsave
newpath
translate
0.5 setlinewidth
1 setlinejoin
0 setlinecap
0 0 m
-2 0 l
gsave
0.000 setgray
fill
grestore
stroke
grestore
} bind def
758.16 213.529 o
grestore
gsave
/o {
gsave
newpath
translate
0.5 setlinewidth
1 setlinejoin
0 setlinecap
0 0 m
2 0 l
gsave
0.000 setgray
fill
grestore
stroke
grestore
} bind def
105.3 227.022 o
grestore
gsave
/o {
gsave
newpath
translate
0.5 setlinewidth
1 setlinejoin
0 setlinecap
0 0 m
-2 0 l
gsave
0.000 setgray
fill
grestore
stroke
grestore
} bind def
758.16 227.022 o
grestore
gsave
/o {
gsave
newpath
translate
0.5 setlinewidth
1 setlinejoin
0 setlinecap
0 0 m
2 0 l
gsave
0.000 setgray
fill
grestore
stroke
grestore
} bind def
105.3 237.489 o
grestore
gsave
/o {
gsave
newpath
translate
0.5 setlinewidth
1 setlinejoin
0 setlinecap
0 0 m
-2 0 l
gsave
0.000 setgray
fill
grestore
stroke
grestore
} bind def
758.16 237.489 o
grestore
gsave
/o {
gsave
newpath
translate
0.5 setlinewidth
1 setlinejoin
0 setlinecap
0 0 m
2 0 l
gsave
0.000 setgray
fill
grestore
stroke
grestore
} bind def
105.3 246.04 o
grestore
gsave
/o {
gsave
newpath
translate
0.5 setlinewidth
1 setlinejoin
0 setlinecap
0 0 m
-2 0 l
gsave
0.000 setgray
fill
grestore
stroke
grestore
} bind def
758.16 246.04 o
grestore
gsave
/o {
gsave
newpath
translate
0.5 setlinewidth
1 setlinejoin
0 setlinecap
0 0 m
2 0 l
gsave
0.000 setgray
fill
grestore
stroke
grestore
} bind def
105.3 253.271 o
grestore
gsave
/o {
gsave
newpath
translate
0.5 setlinewidth
1 setlinejoin
0 setlinecap
0 0 m
-2 0 l
gsave
0.000 setgray
fill
grestore
stroke
grestore
} bind def
758.16 253.271 o
grestore
gsave
/o {
gsave
newpath
translate
0.5 setlinewidth
1 setlinejoin
0 setlinecap
0 0 m
2 0 l
gsave
0.000 setgray
fill
grestore
stroke
grestore
} bind def
105.3 259.534 o
grestore
gsave
/o {
gsave
newpath
translate
0.5 setlinewidth
1 setlinejoin
0 setlinecap
0 0 m
-2 0 l
gsave
0.000 setgray
fill
grestore
stroke
grestore
} bind def
758.16 259.534 o
grestore
gsave
/o {
gsave
newpath
translate
0.5 setlinewidth
1 setlinejoin
0 setlinecap
0 0 m
2 0 l
gsave
0.000 setgray
fill
grestore
stroke
grestore
} bind def
105.3 265.058 o
grestore
gsave
/o {
gsave
newpath
translate
0.5 setlinewidth
1 setlinejoin
0 setlinecap
0 0 m
-2 0 l
gsave
0.000 setgray
fill
grestore
stroke
grestore
} bind def
758.16 265.058 o
grestore
gsave
/o {
gsave
newpath
translate
0.5 setlinewidth
1 setlinejoin
0 setlinecap
0 0 m
2 0 l
gsave
0.000 setgray
fill
grestore
stroke
grestore
} bind def
105.3 302.511 o
grestore
gsave
/o {
gsave
newpath
translate
0.5 setlinewidth
1 setlinejoin
0 setlinecap
0 0 m
-2 0 l
gsave
0.000 setgray
fill
grestore
stroke
grestore
} bind def
758.16 302.511 o
grestore
gsave
/o {
gsave
newpath
translate
0.5 setlinewidth
1 setlinejoin
0 setlinecap
0 0 m
2 0 l
gsave
0.000 setgray
fill
grestore
stroke
grestore
} bind def
105.3 321.529 o
grestore
gsave
/o {
gsave
newpath
translate
0.5 setlinewidth
1 setlinejoin
0 setlinecap
0 0 m
-2 0 l
gsave
0.000 setgray
fill
grestore
stroke
grestore
} bind def
758.16 321.529 o
grestore
gsave
/o {
gsave
newpath
translate
0.5 setlinewidth
1 setlinejoin
0 setlinecap
0 0 m
2 0 l
gsave
0.000 setgray
fill
grestore
stroke
grestore
} bind def
105.3 335.022 o
grestore
gsave
/o {
gsave
newpath
translate
0.5 setlinewidth
1 setlinejoin
0 setlinecap
0 0 m
-2 0 l
gsave
0.000 setgray
fill
grestore
stroke
grestore
} bind def
758.16 335.022 o
grestore
gsave
/o {
gsave
newpath
translate
0.5 setlinewidth
1 setlinejoin
0 setlinecap
0 0 m
2 0 l
gsave
0.000 setgray
fill
grestore
stroke
grestore
} bind def
105.3 345.489 o
grestore
gsave
/o {
gsave
newpath
translate
0.5 setlinewidth
1 setlinejoin
0 setlinecap
0 0 m
-2 0 l
gsave
0.000 setgray
fill
grestore
stroke
grestore
} bind def
758.16 345.489 o
grestore
gsave
/o {
gsave
newpath
translate
0.5 setlinewidth
1 setlinejoin
0 setlinecap
0 0 m
2 0 l
gsave
0.000 setgray
fill
grestore
stroke
grestore
} bind def
105.3 354.04 o
grestore
gsave
/o {
gsave
newpath
translate
0.5 setlinewidth
1 setlinejoin
0 setlinecap
0 0 m
-2 0 l
gsave
0.000 setgray
fill
grestore
stroke
grestore
} bind def
758.16 354.04 o
grestore
gsave
/o {
gsave
newpath
translate
0.5 setlinewidth
1 setlinejoin
0 setlinecap
0 0 m
2 0 l
gsave
0.000 setgray
fill
grestore
stroke
grestore
} bind def
105.3 361.271 o
grestore
gsave
/o {
gsave
newpath
translate
0.5 setlinewidth
1 setlinejoin
0 setlinecap
0 0 m
-2 0 l
gsave
0.000 setgray
fill
grestore
stroke
grestore
} bind def
758.16 361.271 o
grestore
gsave
/o {
gsave
newpath
translate
0.5 setlinewidth
1 setlinejoin
0 setlinecap
0 0 m
2 0 l
gsave
0.000 setgray
fill
grestore
stroke
grestore
} bind def
105.3 367.534 o
grestore
gsave
/o {
gsave
newpath
translate
0.5 setlinewidth
1 setlinejoin
0 setlinecap
0 0 m
-2 0 l
gsave
0.000 setgray
fill
grestore
stroke
grestore
} bind def
758.16 367.534 o
grestore
gsave
/o {
gsave
newpath
translate
0.5 setlinewidth
1 setlinejoin
0 setlinecap
0 0 m
2 0 l
gsave
0.000 setgray
fill
grestore
stroke
grestore
} bind def
105.3 373.058 o
grestore
gsave
/o {
gsave
newpath
translate
0.5 setlinewidth
1 setlinejoin
0 setlinecap
0 0 m
-2 0 l
gsave
0.000 setgray
fill
grestore
stroke
grestore
} bind def
758.16 373.058 o
grestore
gsave
/o {
gsave
newpath
translate
0.5 setlinewidth
1 setlinejoin
0 setlinecap
0 0 m
2 0 l
gsave
0.000 setgray
fill
grestore
stroke
grestore
} bind def
105.3 410.511 o
grestore
gsave
/o {
gsave
newpath
translate
0.5 setlinewidth
1 setlinejoin
0 setlinecap
0 0 m
-2 0 l
gsave
0.000 setgray
fill
grestore
stroke
grestore
} bind def
758.16 410.511 o
grestore
gsave
/o {
gsave
newpath
translate
0.5 setlinewidth
1 setlinejoin
0 setlinecap
0 0 m
2 0 l
gsave
0.000 setgray
fill
grestore
stroke
grestore
} bind def
105.3 429.529 o
grestore
gsave
/o {
gsave
newpath
translate
0.5 setlinewidth
1 setlinejoin
0 setlinecap
0 0 m
-2 0 l
gsave
0.000 setgray
fill
grestore
stroke
grestore
} bind def
758.16 429.529 o
grestore
gsave
/o {
gsave
newpath
translate
0.5 setlinewidth
1 setlinejoin
0 setlinecap
0 0 m
2 0 l
gsave
0.000 setgray
fill
grestore
stroke
grestore
} bind def
105.3 443.022 o
grestore
gsave
/o {
gsave
newpath
translate
0.5 setlinewidth
1 setlinejoin
0 setlinecap
0 0 m
-2 0 l
gsave
0.000 setgray
fill
grestore
stroke
grestore
} bind def
758.16 443.022 o
grestore
gsave
/o {
gsave
newpath
translate
0.5 setlinewidth
1 setlinejoin
0 setlinecap
0 0 m
2 0 l
gsave
0.000 setgray
fill
grestore
stroke
grestore
} bind def
105.3 453.489 o
grestore
gsave
/o {
gsave
newpath
translate
0.5 setlinewidth
1 setlinejoin
0 setlinecap
0 0 m
-2 0 l
gsave
0.000 setgray
fill
grestore
stroke
grestore
} bind def
758.16 453.489 o
grestore
gsave
/o {
gsave
newpath
translate
0.5 setlinewidth
1 setlinejoin
0 setlinecap
0 0 m
2 0 l
gsave
0.000 setgray
fill
grestore
stroke
grestore
} bind def
105.3 462.04 o
grestore
gsave
/o {
gsave
newpath
translate
0.5 setlinewidth
1 setlinejoin
0 setlinecap
0 0 m
-2 0 l
gsave
0.000 setgray
fill
grestore
stroke
grestore
} bind def
758.16 462.04 o
grestore
gsave
/o {
gsave
newpath
translate
0.5 setlinewidth
1 setlinejoin
0 setlinecap
0 0 m
2 0 l
gsave
0.000 setgray
fill
grestore
stroke
grestore
} bind def
105.3 469.271 o
grestore
gsave
/o {
gsave
newpath
translate
0.5 setlinewidth
1 setlinejoin
0 setlinecap
0 0 m
-2 0 l
gsave
0.000 setgray
fill
grestore
stroke
grestore
} bind def
758.16 469.271 o
grestore
gsave
/o {
gsave
newpath
translate
0.5 setlinewidth
1 setlinejoin
0 setlinecap
0 0 m
2 0 l
gsave
0.000 setgray
fill
grestore
stroke
grestore
} bind def
105.3 475.534 o
grestore
gsave
/o {
gsave
newpath
translate
0.5 setlinewidth
1 setlinejoin
0 setlinecap
0 0 m
-2 0 l
gsave
0.000 setgray
fill
grestore
stroke
grestore
} bind def
758.16 475.534 o
grestore
gsave
/o {
gsave
newpath
translate
0.5 setlinewidth
1 setlinejoin
0 setlinecap
0 0 m
2 0 l
gsave
0.000 setgray
fill
grestore
stroke
grestore
} bind def
105.3 481.058 o
grestore
gsave
/o {
gsave
newpath
translate
0.5 setlinewidth
1 setlinejoin
0 setlinecap
0 0 m
-2 0 l
gsave
0.000 setgray
fill
grestore
stroke
grestore
} bind def
758.16 481.058 o
grestore
gsave
69.300000 228.429688 translate
90.000000 rotate
0.000000 2.500000 m /E glyphshow
7.582031 2.500000 m /n glyphshow
15.187500 2.500000 m /t glyphshow
19.892578 2.500000 m /a glyphshow
27.246094 2.500000 m /n glyphshow
34.851562 2.500000 m /g glyphshow
42.468750 2.500000 m /l glyphshow
45.802734 2.500000 m /e glyphshow
53.185547 2.500000 m /m glyphshow
64.875000 2.500000 m /e glyphshow
72.257812 2.500000 m /n glyphshow
79.863281 2.500000 m /t glyphshow
grestore
1.000 setlinewidth
2 setlinecap
gsave
105.3 486 m
758.16 486 l
stroke
grestore
gsave
758.16 54 m
758.16 486 l
stroke
grestore
gsave
105.3 54 m
758.16 54 l
stroke
grestore
gsave
105.3 54 m
105.3 486 l
stroke
grestore
/BitstreamVeraSans-Roman findfont
14.400 scalefont
setfont
gsave
187.589375 488.093750 translate
0.000000 rotate
0.000000 2.906250 m /E glyphshow
9.082642 2.906250 m /v glyphshow
17.589722 2.906250 m /o glyphshow
26.384583 2.906250 m /l glyphshow
30.378418 2.906250 m /u glyphshow
39.489136 2.906250 m /t glyphshow
45.125427 2.906250 m /i glyphshow
49.119263 2.906250 m /o glyphshow
57.914124 2.906250 m /n glyphshow
67.024841 2.906250 m /space glyphshow
71.594238 2.906250 m /o glyphshow
80.389099 2.906250 m /f glyphshow
85.449829 2.906250 m /space glyphshow
90.019226 2.906250 m /W glyphshow
103.357788 2.906250 m /e glyphshow
112.201782 2.906250 m /r glyphshow
117.861816 2.906250 m /n glyphshow
126.972534 2.906250 m /e glyphshow
135.816528 2.906250 m /r glyphshow
141.726562 2.906250 m /space glyphshow
146.295959 2.906250 m /bracketleft glyphshow
151.904175 2.906250 m /w glyphshow
163.661072 2.906250 m /i glyphshow
167.654907 2.906250 m /t glyphshow
173.291199 2.906250 m /h glyphshow
182.401917 2.906250 m /space glyphshow
186.971313 2.906250 m /n glyphshow
196.082031 2.906250 m /o glyphshow
204.876892 2.906250 m /i glyphshow
208.870728 2.906250 m /s glyphshow
216.360046 2.906250 m /e glyphshow
225.204041 2.906250 m /space glyphshow
229.773438 2.906250 m /hyphen glyphshow
234.960510 2.906250 m /space glyphshow
239.529907 2.906250 m /one glyphshow
248.675720 2.906250 m /period glyphshow
253.245117 2.906250 m /zero glyphshow
262.390930 2.906250 m /zero glyphshow
271.536743 2.906250 m /zero glyphshow
280.682556 2.906250 m /zero glyphshow
289.828369 2.906250 m /zero glyphshow
298.974182 2.906250 m /zero glyphshow
308.119995 2.906250 m /e glyphshow
316.963989 2.906250 m /hyphen glyphshow
322.151062 2.906250 m /one glyphshow
331.296875 2.906250 m /six glyphshow
340.442688 2.906250 m /bracketright glyphshow
346.050903 2.906250 m /space glyphshow
350.620300 2.906250 m /parenleft glyphshow
356.228516 2.906250 m /m glyphshow
370.231506 2.906250 m /e glyphshow
379.075500 2.906250 m /a glyphshow
387.884399 2.906250 m /s glyphshow
395.373718 2.906250 m /u glyphshow
404.484436 2.906250 m /r glyphshow
410.019470 2.906250 m /e glyphshow
418.863464 2.906250 m /colon glyphshow
423.706604 2.906250 m /space glyphshow
428.276001 2.906250 m /e glyphshow
437.119995 2.906250 m /n glyphshow
446.230713 2.906250 m /t glyphshow
451.867004 2.906250 m /r glyphshow
457.402039 2.906250 m /o glyphshow
466.196899 2.906250 m /p glyphshow
475.321655 2.906250 m /y glyphshow
483.828735 2.906250 m /parenright glyphshow
grestore
gsave
525.229 370.746 m
750.96 370.746 l
750.96 478.8 l
525.229 478.8 l
525.229 370.746 l
cl
gsave
1.000 setgray
fill
grestore
stroke
grestore
0.000 0.000 1.000 setrgbcolor
gsave
535.309 467.439 m
555.469 467.439 l
stroke
grestore
0.000 setgray
gsave
571.309375 462.196250 translate
0.000000 rotate
0.000000 0.203125 m /n glyphshow
9.110718 0.203125 m /o glyphshow
17.905579 0.203125 m /r glyphshow
23.565613 0.203125 m /m glyphshow
37.568604 0.203125 m /a glyphshow
46.377502 0.203125 m /l glyphshow
grestore
0.000 0.500 0.000 setrgbcolor
gsave
535.309 446.693 m
555.469 446.693 l
stroke
grestore
0.000 setgray
gsave
571.309375 441.449375 translate
0.000000 rotate
0.000000 0.203125 m /d glyphshow
9.124756 0.203125 m /o glyphshow
17.919617 0.203125 m /space glyphshow
22.489014 0.203125 m /n glyphshow
31.599731 0.203125 m /o glyphshow
40.394592 0.203125 m /t glyphshow
46.030884 0.203125 m /space glyphshow
50.600281 0.203125 m /s glyphshow
58.089600 0.203125 m /h glyphshow
67.200317 0.203125 m /a glyphshow
76.009216 0.203125 m /r glyphshow
81.544250 0.203125 m /e glyphshow
90.388245 0.203125 m /space glyphshow
94.957642 0.203125 m /b glyphshow
104.082397 0.203125 m /e glyphshow
112.926392 0.203125 m /s glyphshow
120.415710 0.203125 m /t glyphshow
126.052002 0.203125 m /space glyphshow
130.621399 0.203125 m /s glyphshow
138.110718 0.203125 m /t glyphshow
143.747009 0.203125 m /a glyphshow
152.555908 0.203125 m /t glyphshow
158.192200 0.203125 m /e glyphshow
grestore
1.000 0.000 0.000 setrgbcolor
gsave
535.309 425.946 m
555.469 425.946 l
stroke
grestore
0.000 setgray
gsave
571.309375 417.999375 translate
0.000000 rotate
0.000000 2.906250 m /r glyphshow
5.910034 2.906250 m /a glyphshow
14.718933 2.906250 m /n glyphshow
23.829651 2.906250 m /d glyphshow
32.954407 2.906250 m /o glyphshow
41.749268 2.906250 m /m glyphshow
55.752258 2.906250 m /space glyphshow
60.321655 2.906250 m /p glyphshow
69.446411 2.906250 m /u glyphshow
78.557129 2.906250 m /r glyphshow
84.092163 2.906250 m /e glyphshow
92.936157 2.906250 m /space glyphshow
97.505554 2.906250 m /s glyphshow
104.994873 2.906250 m /t glyphshow
110.631165 2.906250 m /a glyphshow
119.440063 2.906250 m /t glyphshow
125.076355 2.906250 m /e glyphshow
133.920349 2.906250 m /s glyphshow
grestore
0.000 0.750 0.750 setrgbcolor
gsave
535.309 405.199 m
555.469 405.199 l
stroke
grestore
0.000 setgray
gsave
571.309375 397.252500 translate
0.000000 rotate
0.000000 2.906250 m /n glyphshow
9.110718 2.906250 m /o glyphshow
17.905579 2.906250 m /space glyphshow
22.474976 2.906250 m /e glyphshow
31.318970 2.906250 m /v glyphshow
39.826050 2.906250 m /o glyphshow
48.620911 2.906250 m /l glyphshow
52.614746 2.906250 m /u glyphshow
61.725464 2.906250 m /t glyphshow
67.361755 2.906250 m /i glyphshow
71.355591 2.906250 m /o glyphshow
80.150452 2.906250 m /n glyphshow
89.261169 2.906250 m /space glyphshow
93.830566 2.906250 m /p glyphshow
102.955322 2.906250 m /a glyphshow
111.764221 2.906250 m /r glyphshow
117.674255 2.906250 m /a glyphshow
126.483154 2.906250 m /m glyphshow
140.486145 2.906250 m /e glyphshow
149.330139 2.906250 m /t glyphshow
154.966431 2.906250 m /e glyphshow
163.810425 2.906250 m /r glyphshow
grestore
0.750 0.000 0.750 setrgbcolor
gsave
535.309 384.452 m
555.469 384.452 l
stroke
grestore
0.000 setgray
gsave
571.309375 376.505625 translate
0.000000 rotate
0.000000 2.906250 m /m glyphshow
14.002991 2.906250 m /u glyphshow
23.113708 2.906250 m /t glyphshow
28.750000 2.906250 m /a glyphshow
37.558899 2.906250 m /t glyphshow
43.195190 2.906250 m /e glyphshow
52.039185 2.906250 m /space glyphshow
56.608582 2.906250 m /w glyphshow
68.365479 2.906250 m /h glyphshow
77.476196 2.906250 m /o glyphshow
86.271057 2.906250 m /l glyphshow
90.264893 2.906250 m /e glyphshow
99.108887 2.906250 m /space glyphshow
103.678284 2.906250 m /p glyphshow
112.803040 2.906250 m /o glyphshow
121.597900 2.906250 m /l glyphshow
125.591736 2.906250 m /u glyphshow
134.702454 2.906250 m /l glyphshow
138.696289 2.906250 m /a glyphshow
147.505188 2.906250 m /t glyphshow
153.141479 2.906250 m /i glyphshow
157.135315 2.906250 m /o glyphshow
165.930176 2.906250 m /n glyphshow
grestore

end
showpage
