%!PS-Adobe-3.0 EPSF-3.0
%%Title: Chen.entropy.example.evolution.eps
%%Creator: matplotlib version 1.1.0, http://matplotlib.sourceforge.net/
%%CreationDate: Wed Dec  5 22:39:53 2012
%%Orientation: portrait
%%BoundingBox: -115 97 727 694
%%EndComments
%%BeginProlog
/mpldict 10 dict def
mpldict begin
/m { moveto } bind def
/l { lineto } bind def
/r { rlineto } bind def
/c { curveto } bind def
/cl { closepath } bind def
/box {
m
1 index 0 r
0 exch r
neg 0 r
cl
} bind def
/clipbox {
box
clip
newpath
} bind def
%!PS-Adobe-3.0 Resource-Font
%%Title: Bitstream Vera Sans
%%Copyright: Copyright (c) 2003 by Bitstream, Inc. All Rights Reserved.
%%Creator: Converted from TrueType to type 3 by PPR
25 dict begin
/_d{bind def}bind def
/_m{moveto}_d
/_l{lineto}_d
/_cl{closepath eofill}_d
/_c{curveto}_d
/_sc{7 -1 roll{setcachedevice}{pop pop pop pop pop pop}ifelse}_d
/_e{exec}_d
/FontName /BitstreamVeraSans-Roman def
/PaintType 0 def
/FontMatrix[.001 0 0 .001 0 0]def
/FontBBox[-183 -236 1287 928]def
/FontType 3 def
/Encoding [ /space /parenleft /parenright /period /zero /one /two /three /four /five /six /seven /eight /nine /colon /equal /C /E /G /a /e /f /g /h /i /l /m /n /o /p /r /s /t /u /v /y ] def
/FontInfo 10 dict dup begin
/FamilyName (Bitstream Vera Sans) def
/FullName (Bitstream Vera Sans) def
/Notice (Copyright (c) 2003 by Bitstream, Inc. All Rights Reserved. Bitstream Vera is a trademark of Bitstream, Inc.) def
/Weight (Roman) def
/Version (Release 1.10) def
/ItalicAngle 0.0 def
/isFixedPitch false def
/UnderlinePosition -213 def
/UnderlineThickness 143 def
end readonly def
/CharStrings 36 dict dup begin
/space{318 0 0 0 0 0 _sc
}_d
/parenleft{390 0 86 -131 310 759 _sc
310 759 _m
266 683 234 609 213 536 _c
191 463 181 389 181 314 _c
181 238 191 164 213 91 _c
234 17 266 -56 310 -131 _c
232 -131 _l
183 -54 146 20 122 94 _c
98 168 86 241 86 314 _c
86 386 98 459 122 533 _c
146 607 182 682 232 759 _c
310 759 _l
_cl}_d
/parenright{390 0 80 -131 304 759 _sc
80 759 _m
158 759 _l
206 682 243 607 267 533 _c
291 459 304 386 304 314 _c
304 241 291 168 267 94 _c
243 20 206 -54 158 -131 _c
80 -131 _l
123 -56 155 17 177 91 _c
198 164 209 238 209 314 _c
209 389 198 463 177 536 _c
155 609 123 683 80 759 _c
_cl}_d
/period{318 0 107 0 210 124 _sc
107 124 _m
210 124 _l
210 0 _l
107 0 _l
107 124 _l
_cl}_d
/zero{636 0 66 -13 570 742 _sc
318 664 _m
267 664 229 639 203 589 _c
177 539 165 464 165 364 _c
165 264 177 189 203 139 _c
229 89 267 64 318 64 _c
369 64 407 89 433 139 _c
458 189 471 264 471 364 _c
471 464 458 539 433 589 _c
407 639 369 664 318 664 _c
318 742 _m
399 742 461 709 505 645 _c
548 580 570 486 570 364 _c
570 241 548 147 505 83 _c
461 19 399 -13 318 -13 _c
236 -13 173 19 130 83 _c
87 147 66 241 66 364 _c
66 486 87 580 130 645 _c
173 709 236 742 318 742 _c
_cl}_d
/one{636 0 110 0 544 729 _sc
124 83 _m
285 83 _l
285 639 _l
110 604 _l
110 694 _l
284 729 _l
383 729 _l
383 83 _l
544 83 _l
544 0 _l
124 0 _l
124 83 _l
_cl}_d
/two{{636 0 73 0 536 742 _sc
192 83 _m
536 83 _l
536 0 _l
73 0 _l
73 83 _l
110 121 161 173 226 239 _c
290 304 331 346 348 365 _c
380 400 402 430 414 455 _c
426 479 433 504 433 528 _c
433 566 419 598 392 622 _c
365 646 330 659 286 659 _c
255 659 222 653 188 643 _c
154 632 117 616 78 594 _c
78 694 _l
118 710 155 722 189 730 _c
223 738 255 742 284 742 _c
359 742 419 723 464 685 _c
509 647 532 597 532 534 _c
532 504 526 475 515 449 _c
504 422 484 390 454 354 _c
446 344 420 317 376 272 _c
332 227 271 164 192 83 _c
_cl}_e}_d
/three{{636 0 76 -13 556 742 _sc
406 393 _m
453 383 490 362 516 330 _c
542 298 556 258 556 212 _c
556 140 531 84 482 45 _c
432 6 362 -13 271 -13 _c
240 -13 208 -10 176 -4 _c
144 1 110 10 76 22 _c
76 117 _l
103 101 133 89 166 81 _c
198 73 232 69 268 69 _c
330 69 377 81 409 105 _c
441 129 458 165 458 212 _c
458 254 443 288 413 312 _c
383 336 341 349 287 349 _c
202 349 _l
202 430 _l
291 430 _l
339 430 376 439 402 459 _c
428 478 441 506 441 543 _c
441 580 427 609 401 629 _c
374 649 336 659 287 659 _c
260 659 231 656 200 650 _c
169 644 135 635 98 623 _c
98 711 _l
135 721 170 729 203 734 _c
235 739 266 742 296 742 _c
}_e{370 742 429 725 473 691 _c
517 657 539 611 539 553 _c
539 513 527 479 504 451 _c
481 423 448 403 406 393 _c
_cl}_e}_d
/four{636 0 49 0 580 729 _sc
378 643 _m
129 254 _l
378 254 _l
378 643 _l
352 729 _m
476 729 _l
476 254 _l
580 254 _l
580 172 _l
476 172 _l
476 0 _l
378 0 _l
378 172 _l
49 172 _l
49 267 _l
352 729 _l
_cl}_d
/five{{636 0 77 -13 549 729 _sc
108 729 _m
495 729 _l
495 646 _l
198 646 _l
198 467 _l
212 472 227 476 241 478 _c
255 480 270 482 284 482 _c
365 482 429 459 477 415 _c
525 370 549 310 549 234 _c
549 155 524 94 475 51 _c
426 8 357 -13 269 -13 _c
238 -13 207 -10 175 -6 _c
143 -1 111 6 77 17 _c
77 116 _l
106 100 136 88 168 80 _c
199 72 232 69 267 69 _c
323 69 368 83 401 113 _c
433 143 450 183 450 234 _c
450 284 433 324 401 354 _c
368 384 323 399 267 399 _c
241 399 214 396 188 390 _c
162 384 135 375 108 363 _c
108 729 _l
_cl}_e}_d
/six{{636 0 70 -13 573 742 _sc
330 404 _m
286 404 251 388 225 358 _c
199 328 186 286 186 234 _c
186 181 199 139 225 109 _c
251 79 286 64 330 64 _c
374 64 409 79 435 109 _c
461 139 474 181 474 234 _c
474 286 461 328 435 358 _c
409 388 374 404 330 404 _c
526 713 _m
526 623 _l
501 635 476 644 451 650 _c
425 656 400 659 376 659 _c
310 659 260 637 226 593 _c
192 549 172 482 168 394 _c
187 422 211 444 240 459 _c
269 474 301 482 336 482 _c
409 482 467 459 509 415 _c
551 371 573 310 573 234 _c
573 159 550 99 506 54 _c
462 9 403 -13 330 -13 _c
246 -13 181 19 137 83 _c
92 147 70 241 70 364 _c
70 479 97 571 152 639 _c
206 707 280 742 372 742 _c
}_e{396 742 421 739 447 735 _c
472 730 498 723 526 713 _c
_cl}_e}_d
/seven{636 0 82 0 551 729 _sc
82 729 _m
551 729 _l
551 687 _l
286 0 _l
183 0 _l
432 646 _l
82 646 _l
82 729 _l
_cl}_d
/eight{{636 0 68 -13 568 742 _sc
318 346 _m
271 346 234 333 207 308 _c
180 283 167 249 167 205 _c
167 161 180 126 207 101 _c
234 76 271 64 318 64 _c
364 64 401 76 428 102 _c
455 127 469 161 469 205 _c
469 249 455 283 429 308 _c
402 333 365 346 318 346 _c
219 388 _m
177 398 144 418 120 447 _c
96 476 85 511 85 553 _c
85 611 105 657 147 691 _c
188 725 245 742 318 742 _c
390 742 447 725 489 691 _c
530 657 551 611 551 553 _c
551 511 539 476 515 447 _c
491 418 459 398 417 388 _c
464 377 501 355 528 323 _c
554 291 568 251 568 205 _c
568 134 546 80 503 43 _c
459 5 398 -13 318 -13 _c
237 -13 175 5 132 43 _c
89 80 68 134 68 205 _c
68 251 81 291 108 323 _c
134 355 171 377 219 388 _c
}_e{183 544 _m
183 506 194 476 218 455 _c
242 434 275 424 318 424 _c
360 424 393 434 417 455 _c
441 476 453 506 453 544 _c
453 582 441 611 417 632 _c
393 653 360 664 318 664 _c
275 664 242 653 218 632 _c
194 611 183 582 183 544 _c
_cl}_e}_d
/nine{{636 0 63 -13 566 742 _sc
110 15 _m
110 105 _l
134 93 159 84 185 78 _c
210 72 235 69 260 69 _c
324 69 374 90 408 134 _c
442 178 462 244 468 334 _c
448 306 424 284 396 269 _c
367 254 335 247 300 247 _c
226 247 168 269 126 313 _c
84 357 63 417 63 494 _c
63 568 85 628 129 674 _c
173 719 232 742 306 742 _c
390 742 455 709 499 645 _c
543 580 566 486 566 364 _c
566 248 538 157 484 89 _c
429 21 356 -13 264 -13 _c
239 -13 214 -10 189 -6 _c
163 -2 137 5 110 15 _c
306 324 _m
350 324 385 339 411 369 _c
437 399 450 441 450 494 _c
450 546 437 588 411 618 _c
385 648 350 664 306 664 _c
262 664 227 648 201 618 _c
175 588 162 546 162 494 _c
}_e{162 441 175 399 201 369 _c
227 339 262 324 306 324 _c
_cl}_e}_d
/colon{337 0 117 0 220 517 _sc
117 124 _m
220 124 _l
220 0 _l
117 0 _l
117 124 _l
117 517 _m
220 517 _l
220 393 _l
117 393 _l
117 517 _l
_cl}_d
/equal{838 0 106 172 732 454 _sc
106 454 _m
732 454 _l
732 372 _l
106 372 _l
106 454 _l
106 255 _m
732 255 _l
732 172 _l
106 172 _l
106 255 _l
_cl}_d
/C{{698 0 56 -13 644 742 _sc
644 673 _m
644 569 _l
610 599 575 622 537 638 _c
499 653 460 661 418 661 _c
334 661 270 635 226 584 _c
182 533 160 460 160 364 _c
160 268 182 194 226 143 _c
270 92 334 67 418 67 _c
460 67 499 74 537 90 _c
575 105 610 128 644 159 _c
644 56 _l
609 32 572 15 534 4 _c
496 -7 455 -13 412 -13 _c
302 -13 215 20 151 87 _c
87 154 56 246 56 364 _c
56 481 87 573 151 641 _c
215 708 302 742 412 742 _c
456 742 497 736 535 725 _c
573 713 610 696 644 673 _c
_cl}_e}_d
/E{632 0 98 0 568 729 _sc
98 729 _m
559 729 _l
559 646 _l
197 646 _l
197 430 _l
544 430 _l
544 347 _l
197 347 _l
197 83 _l
568 83 _l
568 0 _l
98 0 _l
98 729 _l
_cl}_d
/G{{775 0 56 -13 693 742 _sc
595 104 _m
595 300 _l
434 300 _l
434 381 _l
693 381 _l
693 68 _l
655 40 613 20 567 7 _c
521 -6 472 -13 420 -13 _c
306 -13 216 20 152 86 _c
88 152 56 245 56 364 _c
56 482 88 575 152 642 _c
216 708 306 742 420 742 _c
467 742 512 736 555 724 _c
598 712 638 695 674 673 _c
674 568 _l
637 598 598 621 557 637 _c
516 653 473 661 428 661 _c
338 661 271 636 227 586 _c
182 536 160 462 160 364 _c
160 265 182 191 227 141 _c
271 91 338 67 428 67 _c
462 67 493 70 521 76 _c
549 82 573 91 595 104 _c
_cl}_e}_d
/a{{613 0 60 -13 522 560 _sc
343 275 _m
270 275 220 266 192 250 _c
164 233 150 205 150 165 _c
150 133 160 107 181 89 _c
202 70 231 61 267 61 _c
317 61 357 78 387 114 _c
417 149 432 196 432 255 _c
432 275 _l
343 275 _l
522 312 _m
522 0 _l
432 0 _l
432 83 _l
411 49 385 25 355 10 _c
325 -5 287 -13 243 -13 _c
187 -13 142 2 109 33 _c
76 64 60 106 60 159 _c
60 220 80 266 122 298 _c
163 329 224 345 306 345 _c
432 345 _l
432 354 _l
432 395 418 427 391 450 _c
364 472 326 484 277 484 _c
245 484 215 480 185 472 _c
155 464 127 453 100 439 _c
100 522 _l
}_e{132 534 164 544 195 550 _c
226 556 256 560 286 560 _c
365 560 424 539 463 498 _c
502 457 522 395 522 312 _c
_cl}_e}_d
/e{{615 0 55 -13 562 560 _sc
562 296 _m
562 252 _l
149 252 _l
153 190 171 142 205 110 _c
238 78 284 62 344 62 _c
378 62 412 66 444 74 _c
476 82 509 95 541 113 _c
541 28 _l
509 14 476 3 442 -3 _c
408 -9 373 -13 339 -13 _c
251 -13 182 12 131 62 _c
80 112 55 181 55 268 _c
55 357 79 428 127 481 _c
175 533 241 560 323 560 _c
397 560 455 536 498 489 _c
540 441 562 377 562 296 _c
472 322 _m
471 371 457 410 431 440 _c
404 469 368 484 324 484 _c
274 484 234 469 204 441 _c
174 413 156 373 152 322 _c
472 322 _l
_cl}_e}_d
/f{352 0 23 0 371 760 _sc
371 760 _m
371 685 _l
285 685 _l
253 685 230 678 218 665 _c
205 652 199 629 199 595 _c
199 547 _l
347 547 _l
347 477 _l
199 477 _l
199 0 _l
109 0 _l
109 477 _l
23 477 _l
23 547 _l
109 547 _l
109 585 _l
109 645 123 690 151 718 _c
179 746 224 760 286 760 _c
371 760 _l
_cl}_d
/g{{635 0 55 -207 544 560 _sc
454 280 _m
454 344 440 395 414 431 _c
387 467 349 485 301 485 _c
253 485 215 467 188 431 _c
161 395 148 344 148 280 _c
148 215 161 165 188 129 _c
215 93 253 75 301 75 _c
349 75 387 93 414 129 _c
440 165 454 215 454 280 _c
544 68 _m
544 -24 523 -93 482 -139 _c
440 -184 377 -207 292 -207 _c
260 -207 231 -204 203 -200 _c
175 -195 147 -188 121 -178 _c
121 -91 _l
147 -105 173 -115 199 -122 _c
225 -129 251 -133 278 -133 _c
336 -133 380 -117 410 -87 _c
439 -56 454 -10 454 52 _c
454 96 _l
435 64 411 40 382 24 _c
353 8 319 0 279 0 _c
211 0 157 25 116 76 _c
75 127 55 195 55 280 _c
55 364 75 432 116 483 _c
157 534 211 560 279 560 _c
}_e{319 560 353 552 382 536 _c
411 520 435 496 454 464 _c
454 547 _l
544 547 _l
544 68 _l
_cl}_e}_d
/h{634 0 91 0 549 760 _sc
549 330 _m
549 0 _l
459 0 _l
459 327 _l
459 379 448 417 428 443 _c
408 469 378 482 338 482 _c
289 482 251 466 223 435 _c
195 404 181 362 181 309 _c
181 0 _l
91 0 _l
91 760 _l
181 760 _l
181 462 _l
202 494 227 519 257 535 _c
286 551 320 560 358 560 _c
420 560 468 540 500 501 _c
532 462 549 405 549 330 _c
_cl}_d
/i{278 0 94 0 184 760 _sc
94 547 _m
184 547 _l
184 0 _l
94 0 _l
94 547 _l
94 760 _m
184 760 _l
184 646 _l
94 646 _l
94 760 _l
_cl}_d
/l{278 0 94 0 184 760 _sc
94 760 _m
184 760 _l
184 0 _l
94 0 _l
94 760 _l
_cl}_d
/m{{974 0 91 0 889 560 _sc
520 442 _m
542 482 569 511 600 531 _c
631 550 668 560 711 560 _c
767 560 811 540 842 500 _c
873 460 889 403 889 330 _c
889 0 _l
799 0 _l
799 327 _l
799 379 789 418 771 444 _c
752 469 724 482 686 482 _c
639 482 602 466 575 435 _c
548 404 535 362 535 309 _c
535 0 _l
445 0 _l
445 327 _l
445 379 435 418 417 444 _c
398 469 369 482 331 482 _c
285 482 248 466 221 435 _c
194 404 181 362 181 309 _c
181 0 _l
91 0 _l
91 547 _l
181 547 _l
181 462 _l
201 495 226 520 255 536 _c
283 552 317 560 357 560 _c
397 560 430 550 458 530 _c
486 510 506 480 520 442 _c
}_e{_cl}_e}_d
/n{634 0 91 0 549 560 _sc
549 330 _m
549 0 _l
459 0 _l
459 327 _l
459 379 448 417 428 443 _c
408 469 378 482 338 482 _c
289 482 251 466 223 435 _c
195 404 181 362 181 309 _c
181 0 _l
91 0 _l
91 547 _l
181 547 _l
181 462 _l
202 494 227 519 257 535 _c
286 551 320 560 358 560 _c
420 560 468 540 500 501 _c
532 462 549 405 549 330 _c
_cl}_d
/o{612 0 55 -13 557 560 _sc
306 484 _m
258 484 220 465 192 427 _c
164 389 150 338 150 273 _c
150 207 163 156 191 118 _c
219 80 257 62 306 62 _c
354 62 392 80 420 118 _c
448 156 462 207 462 273 _c
462 337 448 389 420 427 _c
392 465 354 484 306 484 _c
306 560 _m
384 560 445 534 490 484 _c
534 433 557 363 557 273 _c
557 183 534 113 490 63 _c
445 12 384 -13 306 -13 _c
227 -13 165 12 121 63 _c
77 113 55 183 55 273 _c
55 363 77 433 121 484 _c
165 534 227 560 306 560 _c
_cl}_d
/p{{635 0 91 -207 580 560 _sc
181 82 _m
181 -207 _l
91 -207 _l
91 547 _l
181 547 _l
181 464 _l
199 496 223 520 252 536 _c
281 552 316 560 356 560 _c
422 560 476 533 518 481 _c
559 428 580 359 580 273 _c
580 187 559 117 518 65 _c
476 13 422 -13 356 -13 _c
316 -13 281 -5 252 10 _c
223 25 199 49 181 82 _c
487 273 _m
487 339 473 390 446 428 _c
418 466 381 485 334 485 _c
286 485 249 466 222 428 _c
194 390 181 339 181 273 _c
181 207 194 155 222 117 _c
249 79 286 61 334 61 _c
381 61 418 79 446 117 _c
473 155 487 207 487 273 _c
_cl}_e}_d
/r{411 0 91 0 411 560 _sc
411 463 _m
401 469 390 473 378 476 _c
366 478 353 480 339 480 _c
288 480 249 463 222 430 _c
194 397 181 350 181 288 _c
181 0 _l
91 0 _l
91 547 _l
181 547 _l
181 462 _l
199 495 224 520 254 536 _c
284 552 321 560 365 560 _c
371 560 378 559 386 559 _c
393 558 401 557 411 555 _c
411 463 _l
_cl}_d
/s{{521 0 54 -13 472 560 _sc
443 531 _m
443 446 _l
417 458 391 468 364 475 _c
336 481 308 485 279 485 _c
234 485 200 478 178 464 _c
156 450 145 430 145 403 _c
145 382 153 366 169 354 _c
185 342 217 330 265 320 _c
296 313 _l
360 299 405 279 432 255 _c
458 230 472 195 472 151 _c
472 100 452 60 412 31 _c
372 1 316 -13 246 -13 _c
216 -13 186 -10 154 -5 _c
122 0 89 8 54 20 _c
54 113 _l
87 95 120 82 152 74 _c
184 65 216 61 248 61 _c
290 61 323 68 346 82 _c
368 96 380 117 380 144 _c
380 168 371 187 355 200 _c
339 213 303 226 247 238 _c
216 245 _l
160 257 119 275 95 299 _c
70 323 58 356 58 399 _c
58 450 76 490 112 518 _c
148 546 200 560 268 560 _c
}_e{301 560 332 557 362 552 _c
391 547 418 540 443 531 _c
_cl}_e}_d
/t{392 0 27 0 368 702 _sc
183 702 _m
183 547 _l
368 547 _l
368 477 _l
183 477 _l
183 180 _l
183 135 189 106 201 94 _c
213 81 238 75 276 75 _c
368 75 _l
368 0 _l
276 0 _l
206 0 158 13 132 39 _c
106 65 93 112 93 180 _c
93 477 _l
27 477 _l
27 547 _l
93 547 _l
93 702 _l
183 702 _l
_cl}_d
/u{634 0 85 -13 543 547 _sc
85 216 _m
85 547 _l
175 547 _l
175 219 _l
175 167 185 129 205 103 _c
225 77 255 64 296 64 _c
344 64 383 79 411 110 _c
439 141 453 183 453 237 _c
453 547 _l
543 547 _l
543 0 _l
453 0 _l
453 84 _l
431 50 405 26 377 10 _c
348 -5 315 -13 277 -13 _c
214 -13 166 6 134 45 _c
101 83 85 140 85 216 _c
_cl}_d
/v{592 0 30 0 562 547 _sc
30 547 _m
125 547 _l
296 88 _l
467 547 _l
562 547 _l
357 0 _l
235 0 _l
30 547 _l
_cl}_d
/y{592 0 30 -207 562 547 _sc
322 -50 _m
296 -114 271 -157 247 -177 _c
223 -197 191 -207 151 -207 _c
79 -207 _l
79 -132 _l
132 -132 _l
156 -132 175 -126 189 -114 _c
203 -102 218 -75 235 -31 _c
251 9 _l
30 547 _l
125 547 _l
296 119 _l
467 547 _l
562 547 _l
322 -50 _l
_cl}_d
end readonly def

/BuildGlyph
 {exch begin
 CharStrings exch
 2 copy known not{pop /.notdef}if
 true 3 1 roll get exec
 end}_d

/BuildChar {
 1 index /Encoding get exch get
 1 index /BuildGlyph get exec
}_d

FontName currentdict end definefont pop
%!PS-Adobe-3.0 Resource-Font
%%Title: cmr10
%%Copyright: Copyright (C) 1994, Basil K. Malyshev. All Rights Reserved.012BaKoMa Fonts Collection, Level-B.
%%Creator: Converted from TrueType to type 3 by PPR
25 dict begin
/_d{bind def}bind def
/_m{moveto}_d
/_l{lineto}_d
/_cl{closepath eofill}_d
/_c{curveto}_d
/_sc{7 -1 roll{setcachedevice}{pop pop pop pop pop pop}ifelse}_d
/_e{exec}_d
/FontName /Cmr10 def
/PaintType 0 def
/FontMatrix[.001 0 0 .001 0 0]def
/FontBBox[-44 -250 1009 750]def
/FontType 3 def
/Encoding [ /three ] def
/FontInfo 10 dict dup begin
/FamilyName (cmr10) def
/FullName (cmr10) def
/Notice (Copyright (C) 1994, Basil K. Malyshev. All Rights Reserved.012BaKoMa Fonts Collection, Level-B. ) def
/Weight (Regular) def
/Version (1.1/12-Nov-94) def
/ItalicAngle 0.0 def
/isFixedPitch false def
/UnderlinePosition -133 def
/UnderlineThickness 20 def
end readonly def
/CharStrings 1 dict dup begin
/three{{500 0 42 -21 457 666 _sc
95 77 _m
111 54 132 37 158 26 _c
184 15 213 10 243 10 _c
281 10 309 26 325 59 _c
341 92 350 130 350 172 _c
350 190 348 209 345 228 _c
341 247 335 265 327 281 _c
319 297 308 310 294 320 _c
280 330 262 335 242 335 _c
176 335 _l
170 335 167 338 167 344 _c
167 353 _l
167 358 170 361 176 361 _c
231 365 _l
254 365 273 373 289 391 _c
305 409 316 430 323 456 _c
330 481 334 505 334 528 _c
334 560 326 586 311 606 _c
296 626 273 637 243 637 _c
217 637 193 632 170 622 _c
147 612 129 598 115 579 _c
116 579 117 580 118 580 _c
119 580 120 580 122 580 _c
137 580 150 574 160 564 _c
170 554 175 541 175 527 _c
175 512 170 499 160 489 _c
150 479 137 474 122 474 _c
}_e{107 474 94 479 84 489 _c
74 499 69 512 69 527 _c
69 555 77 580 95 601 _c
112 622 134 638 161 649 _c
188 660 215 666 243 666 _c
263 666 284 663 307 657 _c
329 651 350 642 368 631 _c
386 619 401 605 413 588 _c
424 570 430 550 430 528 _c
430 500 423 474 411 450 _c
399 426 382 406 360 389 _c
338 371 314 358 288 350 _c
317 344 345 333 371 317 _c
397 301 417 280 433 255 _c
449 229 457 202 457 173 _c
457 136 446 103 426 73 _c
406 43 379 19 347 3 _c
314 -13 279 -21 243 -21 _c
211 -21 180 -15 149 -3 _c
117 8 92 25 72 49 _c
52 73 42 101 42 135 _c
42 151 47 165 58 176 _c
69 187 83 193 100 193 _c
110 193 120 190 129 185 _c
138 180 145 173 150 164 _c
155 154 158 145 158 135 _c
158 118 152 104 141 93 _c
129 82 116 77 100 77 _c
95 77 _l
_cl}_e}_d
end readonly def

/BuildGlyph
 {exch begin
 CharStrings exch
 2 copy known not{pop /.notdef}if
 true 3 1 roll get exec
 end}_d

/BuildChar {
 1 index /Encoding get exch get
 1 index /BuildGlyph get exec
}_d

FontName currentdict end definefont pop
%!PS-Adobe-3.0 Resource-Font
%%Title: cmmi10
%%Copyright: Copyright (C) 1994, Basil K. Malyshev. All Rights Reserved.012BaKoMa Fonts Collection, Level-B.
%%Creator: Converted from TrueType to type 3 by PPR
25 dict begin
/_d{bind def}bind def
/_m{moveto}_d
/_l{lineto}_d
/_cl{closepath eofill}_d
/_c{curveto}_d
/_sc{7 -1 roll{setcachedevice}{pop pop pop pop pop pop}ifelse}_d
/_e{exec}_d
/FontName /Cmmi10 def
/PaintType 0 def
/FontMatrix[.001 0 0 .001 0 0]def
/FontBBox[-34 -250 1048 750]def
/FontType 3 def
/Encoding [ /lambda ] def
/FontInfo 10 dict dup begin
/FamilyName (cmmi10) def
/FullName (cmmi10) def
/Notice (Copyright (C) 1994, Basil K. Malyshev. All Rights Reserved.012BaKoMa Fonts Collection, Level-B. ) def
/Weight (Regular) def
/Version (1.1/12-Nov-94) def
/ItalicAngle 0.0 def
/isFixedPitch false def
/UnderlinePosition -133 def
/UnderlineThickness 20 def
end readonly def
/CharStrings 1 dict dup begin
/lambda{{583 0 51 -12 550 694 _sc
51 17 _m
51 27 55 36 64 45 _c
345 321 _l
246 599 _l
238 620 229 637 221 649 _c
212 661 200 668 184 668 _c
176 668 173 672 173 681 _c
173 685 175 688 178 690 _c
180 692 184 694 188 694 _c
258 694 300 673 315 632 _c
518 65 _l
526 36 535 17 545 8 _c
548 2 550 0 550 -1 _c
550 -7 547 -10 542 -10 _c
488 -10 _l
471 -5 458 8 448 32 _c
357 288 _l
115 4 _l
103 -6 92 -12 83 -12 _c
}_e{74 -12 66 -9 60 -4 _c
54 1 51 8 51 17 _c
_cl}_e}_d
end readonly def

/BuildGlyph
 {exch begin
 CharStrings exch
 2 copy known not{pop /.notdef}if
 true 3 1 roll get exec
 end}_d

/BuildChar {
 1 index /Encoding get exch get
 1 index /BuildGlyph get exec
}_d

FontName currentdict end definefont pop
end
%%EndProlog
mpldict begin
-115.2 97.2 translate
842.4 597.6 0 0 clipbox
gsave
0 0 m
842.4 0 l
842.4 597.6 l
0 597.6 l
cl
1.000 setgray
fill
grestore
gsave
105.3 59.76 m
758.16 59.76 l
758.16 537.84 l
105.3 537.84 l
cl
1.000 setgray
fill
grestore
1.000 setlinewidth
1 setlinejoin
2 setlinecap
[] 0 setdash
0.000 0.000 1.000 setrgbcolor
gsave
652.9 478.1 105.3 59.76 clipbox
105.3 123.559 m
106.932 63.1738 l
116.725 63.1442 l
118.357 62.2415 l
119.989 61.6001 l
121.621 61.6001 l
123.254 60.585 l
131.414 60.4752 l
133.047 60.2278 l
137.943 60.1622 l
155.897 60.0658 l
162.425 60.0329 l
170.586 59.9656 l
173.85 59.9094 l
208.125 59.7984 l
216.286 59.7644 l
756.528 59.76 l
756.528 59.76 l
stroke
grestore
0.000 0.500 0.000 setrgbcolor
gsave
652.9 478.1 105.3 59.76 clipbox
105.3 234.512 m
106.932 148.859 l
108.564 145.944 l
110.196 119.506 l
111.829 111.743 l
113.461 93.1137 l
119.989 93.1137 l
121.621 92.5773 l
123.254 81.108 l
124.886 76.3271 l
131.414 76.3271 l
133.047 75.596 l
134.679 73.5 l
136.311 73.16 l
137.943 72.0696 l
146.104 72.0696 l
147.736 71.3689 l
149.368 70.5152 l
157.529 70.5113 l
159.161 69.4971 l
160.793 68.7654 l
162.425 67.1212 l
185.275 67.0759 l
186.907 66.5645 l
190.172 66.5645 l
191.804 66.049 l
195.068 66.049 l
196.7 65.6612 l
199.965 65.6612 l
203.229 65.4259 l
204.861 65.1194 l
206.493 64.9372 l
213.022 64.9372 l
214.654 64.7806 l
217.918 64.7066 l
219.55 64.2735 l
232.608 64.1873 l
239.136 63.9939 l
244.033 63.9778 l
245.665 63.8265 l
250.561 63.7297 l
255.458 63.4796 l
257.09 63.4796 l
258.722 63.3392 l
268.515 63.2329 l
271.779 63.1307 l
275.044 63.0321 l
288.101 62.7964 l
296.262 62.6864 l
325.64 62.3837 l
335.433 62.2768 l
351.755 62.1729 l
418.673 61.8351 l
430.098 61.7465 l
464.373 61.6389 l
529.659 61.4495 l
627.588 61.3126 l
691.242 61.2423 l
756.528 61.1926 l
756.528 61.1926 l
stroke
grestore
1.000 0.000 0.000 setrgbcolor
gsave
652.9 478.1 105.3 59.76 clipbox
105.3 244.482 m
106.932 195.339 l
108.564 165.359 l
110.196 138.976 l
111.829 138.976 l
113.461 116.777 l
115.093 113.409 l
116.725 113.409 l
118.357 113.07 l
119.989 113.057 l
121.621 109.035 l
123.254 104.419 l
124.886 102.75 l
126.518 101.819 l
128.15 92.9995 l
129.782 92.9995 l
131.414 91.7403 l
133.047 91.7403 l
134.679 90.9053 l
136.311 90.4585 l
141.207 90.4585 l
142.839 86.5321 l
144.472 86.5321 l
146.104 83.8906 l
147.736 83.8906 l
149.368 83.7305 l
151 77.3544 l
160.793 77.3437 l
162.425 76.9244 l
168.954 76.9244 l
170.586 74.8268 l
172.218 73.8456 l
175.482 73.8074 l
177.115 73.5354 l
178.747 72.419 l
183.643 72.2584 l
186.907 72.2584 l
188.54 71.1097 l
191.804 70.9999 l
193.436 70.9999 l
195.068 70.4874 l
198.333 70.4705 l
199.965 70.2059 l
201.597 69.4764 l
203.229 69.4764 l
204.861 69.3561 l
209.758 69.3561 l
211.39 69.0138 l
216.286 69.0138 l
217.918 68.6656 l
219.55 68.4847 l
222.815 68.4847 l
224.447 68.3627 l
226.079 67.77 l
234.24 67.7033 l
235.872 67.5748 l
237.504 66.7337 l
245.665 66.6391 l
253.826 66.0434 l
260.354 65.8161 l
261.986 65.8128 l
263.619 65.6878 l
266.883 65.6248 l
270.147 65.4848 l
273.411 65.3952 l
276.676 65.1799 l
284.837 65.1092 l
291.365 64.9933 l
294.629 64.8961 l
299.526 64.6958 l
307.687 64.634 l
310.951 64.553 l
328.905 64.4463 l
368.076 64.2297 l
413.776 64.1195 l
474.166 64.0605 l
756.528 64.0271 l
756.528 64.0271 l
stroke
grestore
0.000 0.750 0.750 setrgbcolor
gsave
652.9 478.1 105.3 59.76 clipbox
105.3 220.134 m
106.932 157.592 l
110.196 157.592 l
111.829 155.46 l
118.357 155.41 l
119.989 142.674 l
121.621 135.448 l
124.886 135.432 l
126.518 133.781 l
128.15 117.831 l
133.047 117.831 l
134.679 112.084 l
136.311 109.328 l
137.943 104.751 l
139.575 104.722 l
141.207 102.205 l
142.839 102.205 l
144.472 95.0277 l
146.104 94.5716 l
147.736 92.4809 l
149.368 92.1943 l
151 92.1943 l
152.632 88.9895 l
154.264 86.1167 l
155.897 81.8843 l
157.529 80.9081 l
159.161 80.4002 l
167.322 80.4002 l
168.954 79.8055 l
172.218 79.8055 l
173.85 77.8472 l
175.482 77.5429 l
178.747 77.5429 l
180.379 76.7046 l
183.643 76.7046 l
185.275 76.1764 l
191.804 76.1764 l
193.436 75.9537 l
195.068 75.1404 l
196.7 75.1404 l
199.965 72.5005 l
204.861 72.3927 l
211.39 72.2362 l
213.022 71.7918 l
214.654 71.7918 l
216.286 71.2889 l
217.918 70.922 l
232.608 70.922 l
234.24 70.7436 l
237.504 70.7424 l
239.136 70.62 l
245.665 70.62 l
248.929 70.4852 l
255.458 70.4081 l
258.722 70.2902 l
279.94 70.177 l
283.204 70.1006 l
358.283 69.9895 l
397.455 69.9704 l
756.528 69.9568 l
756.528 69.9568 l
stroke
grestore
0.750 0.000 0.750 setrgbcolor
gsave
652.9 478.1 105.3 59.76 clipbox
105.3 252.304 m
106.932 251.597 l
108.564 194.721 l
111.829 194.721 l
115.093 185.277 l
116.725 176.339 l
118.357 176.339 l
119.989 169.955 l
121.621 169.955 l
123.254 164.347 l
124.886 164.347 l
126.518 154.244 l
128.15 154.244 l
129.782 148.497 l
131.414 131.228 l
133.047 130.12 l
134.679 119.336 l
136.311 114.942 l
137.943 111.829 l
141.207 111.829 l
142.839 110.589 l
144.472 108.334 l
146.104 104.325 l
147.736 101.365 l
149.368 100.203 l
151 96.0282 l
164.057 96.0282 l
165.69 95.0546 l
167.322 95.0546 l
172.218 92.1181 l
173.85 92.1181 l
175.482 87.8008 l
185.275 87.8008 l
186.907 87.5216 l
188.54 84.2243 l
190.172 84.2243 l
191.804 82.3932 l
193.436 81.3619 l
199.965 81.2382 l
201.597 80.4787 l
230.976 80.3677 l
240.768 80.0596 l
244.033 80.056 l
247.297 79.8622 l
250.561 79.8622 l
253.826 79.5886 l
270.147 79.496 l
273.411 79.4285 l
299.526 79.2158 l
756.528 79.1295 l
756.528 79.1295 l
stroke
grestore
0.750 0.750 0.000 setrgbcolor
gsave
652.9 478.1 105.3 59.76 clipbox
105.3 350.937 m
106.932 302.567 l
108.564 268.492 l
111.829 227.807 l
115.093 227.807 l
116.725 184.996 l
129.782 184.996 l
131.414 173.059 l
133.047 166.469 l
134.679 147.701 l
136.311 147.701 l
137.943 136.841 l
139.575 133.103 l
141.207 133.103 l
142.839 128.173 l
146.104 128.173 l
147.736 124.252 l
149.368 122.544 l
151 118.274 l
152.632 118.274 l
154.264 111.836 l
155.897 111.836 l
157.529 109.253 l
160.793 105.596 l
164.057 105.596 l
165.69 105.441 l
167.322 105.1 l
168.954 102.628 l
170.586 101.418 l
172.218 99.6911 l
186.907 99.643 l
188.54 99.1083 l
193.436 99.1083 l
198.333 98.7256 l
199.965 98.3568 l
201.597 98.3568 l
203.229 97.342 l
204.861 97.342 l
206.493 95.8441 l
208.125 95.4204 l
213.022 95.4204 l
214.654 94.9249 l
217.918 94.8538 l
219.55 94.2574 l
230.976 94.2574 l
232.608 93.9802 l
234.24 93.8222 l
235.872 93.7985 l
237.504 93.5103 l
240.768 93.4065 l
242.401 93.3941 l
244.033 93.2467 l
253.826 93.2074 l
260.354 92.9479 l
279.94 92.8787 l
283.204 92.7965 l
289.733 92.6542 l
292.997 92.5877 l
320.744 92.4912 l
337.065 92.4257 l
756.528 92.3275 l
756.528 92.3275 l
stroke
grestore
0.000 setgray
gsave
652.9 478.1 105.3 59.76 clipbox
105.3 380.682 m
106.932 368.698 l
108.564 346.693 l
110.196 275.129 l
111.829 263.036 l
113.461 237.027 l
116.725 237.027 l
118.357 207.79 l
124.886 207.79 l
126.518 193.455 l
129.782 193.455 l
131.414 173.231 l
133.047 173.231 l
134.679 172.699 l
137.943 172.699 l
139.575 135.752 l
142.839 135.752 l
144.472 135.154 l
146.104 134.933 l
147.736 130.108 l
149.368 130.108 l
151 128.142 l
152.632 128.142 l
154.264 125.801 l
155.897 124.838 l
157.529 120.313 l
168.954 120.228 l
172.218 116.276 l
186.907 116.276 l
188.54 115.5 l
191.804 115.25 l
195.068 113.919 l
199.965 113.919 l
201.597 113.14 l
204.861 113.107 l
206.493 112.856 l
216.286 112.856 l
217.918 112.498 l
221.183 112.498 l
224.447 111.796 l
227.711 111.796 l
229.343 111.655 l
235.872 111.564 l
237.504 111.44 l
244.033 111.44 l
247.297 111.171 l
253.826 111.171 l
257.09 111.059 l
265.251 110.947 l
266.883 110.817 l
319.112 110.711 l
343.594 110.695 l
756.528 110.661 l
756.528 110.661 l
stroke
grestore
0.000 0.000 1.000 setrgbcolor
gsave
652.9 478.1 105.3 59.76 clipbox
105.3 405.033 m
106.932 319.456 l
110.196 296.356 l
111.829 254.029 l
115.093 254.029 l
116.725 248.036 l
118.357 223.476 l
121.621 223.476 l
123.254 208.659 l
126.518 208.659 l
128.15 206.357 l
129.782 200.717 l
131.414 191.403 l
134.679 191.403 l
136.311 158.548 l
141.207 158.548 l
142.839 156.275 l
144.472 151.274 l
146.104 149.163 l
147.736 149.163 l
151 148.971 l
155.897 148.971 l
157.529 147.32 l
159.161 146.49 l
160.793 146.49 l
162.425 145.886 l
164.057 145.886 l
165.69 145.594 l
167.322 144.578 l
168.954 144.578 l
170.586 143.453 l
175.482 143.388 l
177.115 142.818 l
178.747 142.818 l
180.379 142.087 l
182.011 142.087 l
183.643 141.239 l
188.54 141.239 l
190.172 139.98 l
196.7 139.632 l
198.333 138.62 l
206.493 138.601 l
211.39 138.254 l
213.022 138 l
219.55 138 l
221.183 137.529 l
227.711 137.449 l
230.976 137.34 l
237.504 137.1 l
239.136 136.817 l
247.297 136.709 l
248.929 136.537 l
255.458 136.455 l
260.354 136.4 l
266.883 136.361 l
270.147 136.259 l
288.101 136.169 l
292.997 136.131 l
335.433 136.02 l
374.605 135.971 l
756.528 135.948 l
756.528 135.948 l
stroke
grestore
0.000 0.500 0.000 setrgbcolor
gsave
652.9 478.1 105.3 59.76 clipbox
105.3 395.094 m
106.932 352.692 l
108.564 277.11 l
111.829 277.11 l
113.461 268.338 l
115.093 257.142 l
116.725 239.856 l
123.254 239.856 l
124.886 236.232 l
126.518 229.018 l
128.15 217.349 l
131.414 217.349 l
133.047 199.858 l
136.311 199.858 l
137.943 195.264 l
139.575 194.214 l
141.207 188.499 l
142.839 184.439 l
144.472 184.439 l
146.104 184.274 l
157.529 184.223 l
159.161 183.038 l
160.793 182.128 l
162.425 181.781 l
164.057 180.472 l
165.69 180.472 l
167.322 178.182 l
175.482 178.097 l
177.115 176.844 l
182.011 176.719 l
186.907 176.719 l
188.54 175.368 l
190.172 175.368 l
191.804 174.527 l
196.7 174.527 l
198.333 174.301 l
199.965 173.936 l
204.861 173.824 l
206.493 173.527 l
211.39 173.527 l
213.022 173.326 l
214.654 173.319 l
216.286 172.846 l
224.447 172.846 l
226.079 172.623 l
230.976 172.619 l
232.608 172.426 l
237.504 172.426 l
239.136 172.222 l
240.768 172.222 l
242.401 172.075 l
253.826 171.991 l
257.09 171.898 l
261.986 171.844 l
265.251 171.694 l
278.308 171.611 l
286.469 171.467 l
756.528 171.306 l
756.528 171.306 l
stroke
grestore
1.000 0.000 0.000 setrgbcolor
gsave
652.9 478.1 105.3 59.76 clipbox
105.3 514.197 m
106.932 446.166 l
108.564 368.551 l
110.196 325.045 l
113.461 325.045 l
115.093 313.493 l
116.725 305.196 l
118.357 266.498 l
129.782 266.498 l
131.414 261.17 l
133.047 260.785 l
134.679 260.785 l
136.311 256.167 l
137.943 254.41 l
139.575 246.009 l
142.839 240.211 l
149.368 240.211 l
151 234.125 l
152.632 232.632 l
164.057 232.632 l
165.69 231.077 l
170.586 231.077 l
172.218 228.955 l
177.115 228.955 l
178.747 228.314 l
185.275 228.312 l
186.907 227.954 l
188.54 227.954 l
190.172 226.969 l
191.804 226.193 l
198.333 226.193 l
199.965 225.895 l
201.597 225.895 l
204.861 225.582 l
206.493 225.197 l
211.39 225.086 l
213.022 224.86 l
216.286 224.86 l
217.918 224.739 l
227.711 224.71 l
229.343 224.503 l
232.608 224.503 l
237.504 224.224 l
247.297 224.137 l
257.09 223.927 l
263.619 223.844 l
268.515 223.8 l
271.779 223.8 l
273.411 223.689 l
297.894 223.604 l
304.422 223.575 l
376.237 223.525 l
756.528 223.517 l
756.528 223.517 l
stroke
grestore
0.000 0.750 0.750 setrgbcolor
gsave
652.9 478.1 105.3 59.76 clipbox
105.3 506.285 m
106.932 382.149 l
108.564 382.149 l
110.196 362.065 l
111.829 362.065 l
113.461 345.641 l
115.093 345.641 l
116.725 343.72 l
118.357 338.489 l
119.989 338.489 l
121.621 334.979 l
123.254 334.861 l
128.15 334.861 l
129.782 332.734 l
133.047 332.734 l
134.679 330.361 l
139.575 330.361 l
141.207 329.028 l
146.104 329.027 l
147.736 328.865 l
159.161 328.865 l
160.793 327.094 l
165.69 327.092 l
168.954 326.819 l
170.586 326.692 l
182.011 326.605 l
183.643 326.41 l
193.436 326.321 l
195.068 326.076 l
196.7 326.076 l
198.333 325.883 l
211.39 325.83 l
213.022 325.625 l
217.918 325.56 l
306.054 325.382 l
756.528 325.367 l
756.528 325.367 l
stroke
grestore
0.500 setlinewidth
0 setlinecap
0.000 setgray
gsave
/o {
gsave
newpath
translate
0 0 m
0 4 l
gsave
0.000 setgray
fill
grestore
stroke
grestore
} bind def
105.3 59.76 o
grestore
gsave
/o {
gsave
newpath
translate
0 0 m
0 -4 l
gsave
0.000 setgray
fill
grestore
stroke
grestore
} bind def
105.3 537.84 o
grestore
/BitstreamVeraSans-Roman findfont
12.000 scalefont
setfont
gsave
102.276562 46.681875 translate
0.000000 rotate
0.000000 0.171875 m /zero glyphshow
grestore
gsave
/o {
gsave
newpath
translate
0 0 m
0 4 l
gsave
0.000 setgray
fill
grestore
stroke
grestore
} bind def
186.907 59.76 o
grestore
gsave
/o {
gsave
newpath
translate
0 0 m
0 -4 l
gsave
0.000 setgray
fill
grestore
stroke
grestore
} bind def
186.907 537.84 o
grestore
gsave
180.126250 46.681875 translate
0.000000 rotate
0.000000 0.171875 m /five glyphshow
7.634766 0.171875 m /zero glyphshow
grestore
gsave
/o {
gsave
newpath
translate
0 0 m
0 4 l
gsave
0.000 setgray
fill
grestore
stroke
grestore
} bind def
268.515 59.76 o
grestore
gsave
/o {
gsave
newpath
translate
0 0 m
0 -4 l
gsave
0.000 setgray
fill
grestore
stroke
grestore
} bind def
268.515 537.84 o
grestore
gsave
258.108750 46.681875 translate
0.000000 rotate
0.000000 0.171875 m /one glyphshow
7.634766 0.171875 m /zero glyphshow
15.269531 0.171875 m /zero glyphshow
grestore
gsave
/o {
gsave
newpath
translate
0 0 m
0 4 l
gsave
0.000 setgray
fill
grestore
stroke
grestore
} bind def
350.123 59.76 o
grestore
gsave
/o {
gsave
newpath
translate
0 0 m
0 -4 l
gsave
0.000 setgray
fill
grestore
stroke
grestore
} bind def
350.123 537.84 o
grestore
gsave
339.716250 46.681875 translate
0.000000 rotate
0.000000 0.171875 m /one glyphshow
7.634766 0.171875 m /five glyphshow
15.269531 0.171875 m /zero glyphshow
grestore
gsave
/o {
gsave
newpath
translate
0 0 m
0 4 l
gsave
0.000 setgray
fill
grestore
stroke
grestore
} bind def
431.73 59.76 o
grestore
gsave
/o {
gsave
newpath
translate
0 0 m
0 -4 l
gsave
0.000 setgray
fill
grestore
stroke
grestore
} bind def
431.73 537.84 o
grestore
gsave
421.105000 46.681875 translate
0.000000 rotate
0.000000 0.171875 m /two glyphshow
7.634766 0.171875 m /zero glyphshow
15.269531 0.171875 m /zero glyphshow
grestore
gsave
/o {
gsave
newpath
translate
0 0 m
0 4 l
gsave
0.000 setgray
fill
grestore
stroke
grestore
} bind def
513.337 59.76 o
grestore
gsave
/o {
gsave
newpath
translate
0 0 m
0 -4 l
gsave
0.000 setgray
fill
grestore
stroke
grestore
} bind def
513.337 537.84 o
grestore
gsave
502.712500 46.681875 translate
0.000000 rotate
0.000000 0.171875 m /two glyphshow
7.634766 0.171875 m /five glyphshow
15.269531 0.171875 m /zero glyphshow
grestore
gsave
/o {
gsave
newpath
translate
0 0 m
0 4 l
gsave
0.000 setgray
fill
grestore
stroke
grestore
} bind def
594.945 59.76 o
grestore
gsave
/o {
gsave
newpath
translate
0 0 m
0 -4 l
gsave
0.000 setgray
fill
grestore
stroke
grestore
} bind def
594.945 537.84 o
grestore
gsave
584.343438 46.681875 translate
0.000000 rotate
0.000000 0.171875 m /three glyphshow
7.634766 0.171875 m /zero glyphshow
15.269531 0.171875 m /zero glyphshow
grestore
gsave
/o {
gsave
newpath
translate
0 0 m
0 4 l
gsave
0.000 setgray
fill
grestore
stroke
grestore
} bind def
676.553 59.76 o
grestore
gsave
/o {
gsave
newpath
translate
0 0 m
0 -4 l
gsave
0.000 setgray
fill
grestore
stroke
grestore
} bind def
676.553 537.84 o
grestore
gsave
665.950938 46.681875 translate
0.000000 rotate
0.000000 0.171875 m /three glyphshow
7.634766 0.171875 m /five glyphshow
15.269531 0.171875 m /zero glyphshow
grestore
gsave
/o {
gsave
newpath
translate
0 0 m
0 4 l
gsave
0.000 setgray
fill
grestore
stroke
grestore
} bind def
758.16 59.76 o
grestore
gsave
/o {
gsave
newpath
translate
0 0 m
0 -4 l
gsave
0.000 setgray
fill
grestore
stroke
grestore
} bind def
758.16 537.84 o
grestore
gsave
747.394375 46.681875 translate
0.000000 rotate
0.000000 0.171875 m /four glyphshow
7.634766 0.171875 m /zero glyphshow
15.269531 0.171875 m /zero glyphshow
grestore
gsave
399.089375 32.385000 translate
0.000000 rotate
0.000000 0.171875 m /G glyphshow
9.298828 0.171875 m /e glyphshow
16.681641 0.171875 m /n glyphshow
24.287109 0.171875 m /e glyphshow
31.669922 0.171875 m /r glyphshow
36.603516 0.171875 m /a glyphshow
43.957031 0.171875 m /t glyphshow
48.662109 0.171875 m /i glyphshow
51.996094 0.171875 m /o glyphshow
59.337891 0.171875 m /n glyphshow
grestore
gsave
/o {
gsave
newpath
translate
0 0 m
4 0 l
gsave
0.000 setgray
fill
grestore
stroke
grestore
} bind def
105.3 59.76 o
grestore
gsave
/o {
gsave
newpath
translate
0 0 m
-4 0 l
gsave
0.000 setgray
fill
grestore
stroke
grestore
} bind def
758.16 59.76 o
grestore
gsave
83.800000 55.220937 translate
0.000000 rotate
0.000000 0.171875 m /zero glyphshow
7.634766 0.171875 m /period glyphshow
11.449219 0.171875 m /zero glyphshow
grestore
gsave
/o {
gsave
newpath
translate
0 0 m
4 0 l
gsave
0.000 setgray
fill
grestore
stroke
grestore
} bind def
105.3 112.88 o
grestore
gsave
/o {
gsave
newpath
translate
0 0 m
-4 0 l
gsave
0.000 setgray
fill
grestore
stroke
grestore
} bind def
758.16 112.88 o
grestore
gsave
84.206250 108.340937 translate
0.000000 rotate
0.000000 0.171875 m /zero glyphshow
7.634766 0.171875 m /period glyphshow
11.449219 0.171875 m /two glyphshow
grestore
gsave
/o {
gsave
newpath
translate
0 0 m
4 0 l
gsave
0.000 setgray
fill
grestore
stroke
grestore
} bind def
105.3 166 o
grestore
gsave
/o {
gsave
newpath
translate
0 0 m
-4 0 l
gsave
0.000 setgray
fill
grestore
stroke
grestore
} bind def
758.16 166 o
grestore
gsave
83.675000 161.460938 translate
0.000000 rotate
0.000000 0.171875 m /zero glyphshow
7.634766 0.171875 m /period glyphshow
11.449219 0.171875 m /four glyphshow
grestore
gsave
/o {
gsave
newpath
translate
0 0 m
4 0 l
gsave
0.000 setgray
fill
grestore
stroke
grestore
} bind def
105.3 219.12 o
grestore
gsave
/o {
gsave
newpath
translate
0 0 m
-4 0 l
gsave
0.000 setgray
fill
grestore
stroke
grestore
} bind def
758.16 219.12 o
grestore
gsave
83.768750 214.580938 translate
0.000000 rotate
0.000000 0.171875 m /zero glyphshow
7.634766 0.171875 m /period glyphshow
11.449219 0.171875 m /six glyphshow
grestore
gsave
/o {
gsave
newpath
translate
0 0 m
4 0 l
gsave
0.000 setgray
fill
grestore
stroke
grestore
} bind def
105.3 272.24 o
grestore
gsave
/o {
gsave
newpath
translate
0 0 m
-4 0 l
gsave
0.000 setgray
fill
grestore
stroke
grestore
} bind def
758.16 272.24 o
grestore
gsave
83.831250 267.700938 translate
0.000000 rotate
0.000000 0.171875 m /zero glyphshow
7.634766 0.171875 m /period glyphshow
11.449219 0.171875 m /eight glyphshow
grestore
gsave
/o {
gsave
newpath
translate
0 0 m
4 0 l
gsave
0.000 setgray
fill
grestore
stroke
grestore
} bind def
105.3 325.36 o
grestore
gsave
/o {
gsave
newpath
translate
0 0 m
-4 0 l
gsave
0.000 setgray
fill
grestore
stroke
grestore
} bind def
758.16 325.36 o
grestore
gsave
84.315625 320.820938 translate
0.000000 rotate
0.000000 0.171875 m /one glyphshow
7.634766 0.171875 m /period glyphshow
11.449219 0.171875 m /zero glyphshow
grestore
gsave
/o {
gsave
newpath
translate
0 0 m
4 0 l
gsave
0.000 setgray
fill
grestore
stroke
grestore
} bind def
105.3 378.48 o
grestore
gsave
/o {
gsave
newpath
translate
0 0 m
-4 0 l
gsave
0.000 setgray
fill
grestore
stroke
grestore
} bind def
758.16 378.48 o
grestore
gsave
84.721875 374.026875 translate
0.000000 rotate
0.000000 0.000000 m /one glyphshow
7.634766 0.000000 m /period glyphshow
11.449219 0.000000 m /two glyphshow
grestore
gsave
/o {
gsave
newpath
translate
0 0 m
4 0 l
gsave
0.000 setgray
fill
grestore
stroke
grestore
} bind def
105.3 431.6 o
grestore
gsave
/o {
gsave
newpath
translate
0 0 m
-4 0 l
gsave
0.000 setgray
fill
grestore
stroke
grestore
} bind def
758.16 431.6 o
grestore
gsave
84.190625 427.225000 translate
0.000000 rotate
0.000000 0.000000 m /one glyphshow
7.634766 0.000000 m /period glyphshow
11.449219 0.000000 m /four glyphshow
grestore
gsave
/o {
gsave
newpath
translate
0 0 m
4 0 l
gsave
0.000 setgray
fill
grestore
stroke
grestore
} bind def
105.3 484.72 o
grestore
gsave
/o {
gsave
newpath
translate
0 0 m
-4 0 l
gsave
0.000 setgray
fill
grestore
stroke
grestore
} bind def
758.16 484.72 o
grestore
gsave
84.284375 480.180938 translate
0.000000 rotate
0.000000 0.171875 m /one glyphshow
7.634766 0.171875 m /period glyphshow
11.449219 0.171875 m /six glyphshow
grestore
gsave
/o {
gsave
newpath
translate
0 0 m
4 0 l
gsave
0.000 setgray
fill
grestore
stroke
grestore
} bind def
105.3 537.84 o
grestore
gsave
/o {
gsave
newpath
translate
0 0 m
-4 0 l
gsave
0.000 setgray
fill
grestore
stroke
grestore
} bind def
758.16 537.84 o
grestore
gsave
84.346875 533.300938 translate
0.000000 rotate
0.000000 0.171875 m /one glyphshow
7.634766 0.171875 m /period glyphshow
11.449219 0.171875 m /eight glyphshow
grestore
gsave
78.675000 257.229688 translate
90.000000 rotate
0.000000 2.500000 m /E glyphshow
7.582031 2.500000 m /n glyphshow
15.187500 2.500000 m /t glyphshow
19.892578 2.500000 m /a glyphshow
27.246094 2.500000 m /n glyphshow
34.851562 2.500000 m /g glyphshow
42.468750 2.500000 m /l glyphshow
45.802734 2.500000 m /e glyphshow
53.185547 2.500000 m /m glyphshow
64.875000 2.500000 m /e glyphshow
72.257812 2.500000 m /n glyphshow
79.863281 2.500000 m /t glyphshow
grestore
1.000 setlinewidth
2 setlinecap
gsave
105.3 537.84 m
758.16 537.84 l
stroke
grestore
gsave
758.16 59.76 m
758.16 537.84 l
stroke
grestore
gsave
105.3 59.76 m
758.16 59.76 l
stroke
grestore
gsave
105.3 59.76 m
105.3 537.84 l
stroke
grestore
/BitstreamVeraSans-Roman findfont
14.400 scalefont
setfont
gsave
297.065938 539.933750 translate
0.000000 rotate
0.000000 2.906250 m /E glyphshow
9.082642 2.906250 m /v glyphshow
17.589722 2.906250 m /o glyphshow
26.384583 2.906250 m /l glyphshow
30.378418 2.906250 m /u glyphshow
39.489136 2.906250 m /t glyphshow
45.125427 2.906250 m /i glyphshow
49.119263 2.906250 m /o glyphshow
57.914124 2.906250 m /n glyphshow
67.024841 2.906250 m /space glyphshow
71.594238 2.906250 m /o glyphshow
80.389099 2.906250 m /f glyphshow
85.449829 2.906250 m /space glyphshow
90.019226 2.906250 m /C glyphshow
100.056458 2.906250 m /h glyphshow
109.167175 2.906250 m /e glyphshow
118.011169 2.906250 m /n glyphshow
127.121887 2.906250 m /space glyphshow
131.691284 2.906250 m /parenleft glyphshow
137.299500 2.906250 m /m glyphshow
151.302490 2.906250 m /e glyphshow
160.146484 2.906250 m /a glyphshow
168.955383 2.906250 m /s glyphshow
176.444702 2.906250 m /u glyphshow
185.555420 2.906250 m /r glyphshow
191.090454 2.906250 m /e glyphshow
199.934448 2.906250 m /colon glyphshow
204.777588 2.906250 m /space glyphshow
209.346985 2.906250 m /e glyphshow
218.190979 2.906250 m /n glyphshow
227.301697 2.906250 m /t glyphshow
232.937988 2.906250 m /r glyphshow
238.473022 2.906250 m /o glyphshow
247.267883 2.906250 m /p glyphshow
256.392639 2.906250 m /y glyphshow
264.899719 2.906250 m /parenright glyphshow
grestore
gsave
593.12 282.12 m
750.96 282.12 l
750.96 530.64 l
593.12 530.64 l
593.12 282.12 l
cl
gsave
1.000 setgray
fill
grestore
stroke
grestore
0.000 0.000 1.000 setrgbcolor
gsave
603.2 518.92 m
623.36 518.92 l
stroke
grestore
0.000 setgray
gsave
639.200000 509.880000 translate
0.000000 rotate
/Cmmi10 findfont
14.4 scalefont
setfont
0.000000 4.609375 moveto
/lambda glyphshow

/Cmr10 findfont
10.08 scalefont
setfont
8.389847 0.936025 moveto
/three glyphshow

/BitstreamVeraSans-Roman findfont
14.4 scalefont
setfont
15.585159 4.609375 moveto
/space glyphshow

20.154556 4.609375 moveto
/equal glyphshow

32.199234 4.609375 moveto
/space glyphshow

36.768631 4.609375 moveto
/zero glyphshow

45.914444 4.609375 moveto
/period glyphshow

50.483841 4.609375 moveto
/zero glyphshow

59.629654 4.609375 moveto
/zero glyphshow

68.775467 4.609375 moveto
/zero glyphshow

77.921280 4.609375 moveto
/zero glyphshow

87.067093 4.609375 moveto
/zero glyphshow

96.212906 4.609375 moveto
/zero glyphshow


grestore
0.000 0.500 0.000 setrgbcolor
gsave
603.2 496.72 m
623.36 496.72 l
stroke
grestore
0.000 setgray
gsave
639.200000 487.680000 translate
0.000000 rotate
/Cmmi10 findfont
14.4 scalefont
setfont
0.000000 4.609375 moveto
/lambda glyphshow

/Cmr10 findfont
10.08 scalefont
setfont
8.389847 0.936025 moveto
/three glyphshow

/BitstreamVeraSans-Roman findfont
14.4 scalefont
setfont
15.585159 4.609375 moveto
/space glyphshow

20.154556 4.609375 moveto
/equal glyphshow

32.199234 4.609375 moveto
/space glyphshow

36.768631 4.609375 moveto
/zero glyphshow

45.914444 4.609375 moveto
/period glyphshow

50.483841 4.609375 moveto
/one glyphshow

59.629654 4.609375 moveto
/zero glyphshow

68.775467 4.609375 moveto
/zero glyphshow

77.921280 4.609375 moveto
/zero glyphshow

87.067093 4.609375 moveto
/zero glyphshow

96.212906 4.609375 moveto
/zero glyphshow


grestore
1.000 0.000 0.000 setrgbcolor
gsave
603.2 474.52 m
623.36 474.52 l
stroke
grestore
0.000 setgray
gsave
639.200000 465.480000 translate
0.000000 rotate
/Cmmi10 findfont
14.4 scalefont
setfont
0.000000 4.609375 moveto
/lambda glyphshow

/Cmr10 findfont
10.08 scalefont
setfont
8.389847 0.936025 moveto
/three glyphshow

/BitstreamVeraSans-Roman findfont
14.4 scalefont
setfont
15.585159 4.609375 moveto
/space glyphshow

20.154556 4.609375 moveto
/equal glyphshow

32.199234 4.609375 moveto
/space glyphshow

36.768631 4.609375 moveto
/zero glyphshow

45.914444 4.609375 moveto
/period glyphshow

49.733841 4.609375 moveto
/two glyphshow

58.879654 4.609375 moveto
/zero glyphshow

68.025467 4.609375 moveto
/zero glyphshow

77.171280 4.609375 moveto
/zero glyphshow

86.317093 4.609375 moveto
/zero glyphshow

95.462906 4.609375 moveto
/zero glyphshow


grestore
0.000 0.750 0.750 setrgbcolor
gsave
603.2 452.32 m
623.36 452.32 l
stroke
grestore
0.000 setgray
gsave
639.200000 443.280000 translate
0.000000 rotate
/Cmmi10 findfont
14.4 scalefont
setfont
0.000000 4.609375 moveto
/lambda glyphshow

/Cmr10 findfont
10.08 scalefont
setfont
8.389847 0.936025 moveto
/three glyphshow

/BitstreamVeraSans-Roman findfont
14.4 scalefont
setfont
15.585159 4.609375 moveto
/space glyphshow

20.154556 4.609375 moveto
/equal glyphshow

32.199234 4.609375 moveto
/space glyphshow

36.768631 4.609375 moveto
/zero glyphshow

45.914444 4.609375 moveto
/period glyphshow

50.483841 4.609375 moveto
/three glyphshow

59.629654 4.609375 moveto
/zero glyphshow

68.775467 4.609375 moveto
/zero glyphshow

77.921280 4.609375 moveto
/zero glyphshow

87.067093 4.609375 moveto
/zero glyphshow

96.212906 4.609375 moveto
/zero glyphshow


grestore
0.750 0.000 0.750 setrgbcolor
gsave
603.2 430.12 m
623.36 430.12 l
stroke
grestore
0.000 setgray
gsave
639.200000 421.080000 translate
0.000000 rotate
/Cmmi10 findfont
14.4 scalefont
setfont
0.000000 4.609375 moveto
/lambda glyphshow

/Cmr10 findfont
10.08 scalefont
setfont
8.389847 0.936025 moveto
/three glyphshow

/BitstreamVeraSans-Roman findfont
14.4 scalefont
setfont
15.585159 4.609375 moveto
/space glyphshow

20.154556 4.609375 moveto
/equal glyphshow

32.199234 4.609375 moveto
/space glyphshow

36.768631 4.609375 moveto
/zero glyphshow

45.914444 4.609375 moveto
/period glyphshow

50.483841 4.609375 moveto
/four glyphshow

59.629654 4.609375 moveto
/zero glyphshow

68.775467 4.609375 moveto
/zero glyphshow

77.921280 4.609375 moveto
/zero glyphshow

87.067093 4.609375 moveto
/zero glyphshow

96.212906 4.609375 moveto
/zero glyphshow


grestore
0.750 0.750 0.000 setrgbcolor
gsave
603.2 407.92 m
623.36 407.92 l
stroke
grestore
0.000 setgray
gsave
639.200000 398.880000 translate
0.000000 rotate
/Cmmi10 findfont
14.4 scalefont
setfont
0.000000 4.609375 moveto
/lambda glyphshow

/Cmr10 findfont
10.08 scalefont
setfont
8.389847 0.936025 moveto
/three glyphshow

/BitstreamVeraSans-Roman findfont
14.4 scalefont
setfont
15.585159 4.609375 moveto
/space glyphshow

20.154556 4.609375 moveto
/equal glyphshow

32.199234 4.609375 moveto
/space glyphshow

36.768631 4.609375 moveto
/zero glyphshow

45.914444 4.609375 moveto
/period glyphshow

50.483841 4.609375 moveto
/five glyphshow

59.629654 4.609375 moveto
/zero glyphshow

68.775467 4.609375 moveto
/zero glyphshow

77.921280 4.609375 moveto
/zero glyphshow

87.067093 4.609375 moveto
/zero glyphshow

96.212906 4.609375 moveto
/zero glyphshow


grestore
gsave
603.2 385.72 m
623.36 385.72 l
stroke
grestore
gsave
639.200000 376.680000 translate
0.000000 rotate
/Cmmi10 findfont
14.4 scalefont
setfont
0.000000 4.609375 moveto
/lambda glyphshow

/Cmr10 findfont
10.08 scalefont
setfont
8.389847 0.936025 moveto
/three glyphshow

/BitstreamVeraSans-Roman findfont
14.4 scalefont
setfont
15.585159 4.609375 moveto
/space glyphshow

20.154556 4.609375 moveto
/equal glyphshow

32.199234 4.609375 moveto
/space glyphshow

36.768631 4.609375 moveto
/zero glyphshow

45.914444 4.609375 moveto
/period glyphshow

50.483841 4.609375 moveto
/six glyphshow

59.629654 4.609375 moveto
/zero glyphshow

68.775467 4.609375 moveto
/zero glyphshow

77.921280 4.609375 moveto
/zero glyphshow

87.067093 4.609375 moveto
/zero glyphshow

96.212906 4.609375 moveto
/zero glyphshow


grestore
0.000 0.000 1.000 setrgbcolor
gsave
603.2 363.52 m
623.36 363.52 l
stroke
grestore
0.000 setgray
gsave
639.200000 354.480000 translate
0.000000 rotate
/Cmmi10 findfont
14.4 scalefont
setfont
0.000000 4.609375 moveto
/lambda glyphshow

/Cmr10 findfont
10.08 scalefont
setfont
8.389847 0.936025 moveto
/three glyphshow

/BitstreamVeraSans-Roman findfont
14.4 scalefont
setfont
15.585159 4.609375 moveto
/space glyphshow

20.154556 4.609375 moveto
/equal glyphshow

32.199234 4.609375 moveto
/space glyphshow

36.768631 4.609375 moveto
/zero glyphshow

45.914444 4.609375 moveto
/period glyphshow

49.358841 4.609375 moveto
/seven glyphshow

58.504654 4.609375 moveto
/zero glyphshow

67.650467 4.609375 moveto
/zero glyphshow

76.796280 4.609375 moveto
/zero glyphshow

85.942093 4.609375 moveto
/zero glyphshow

95.087906 4.609375 moveto
/zero glyphshow


grestore
0.000 0.500 0.000 setrgbcolor
gsave
603.2 341.32 m
623.36 341.32 l
stroke
grestore
0.000 setgray
gsave
639.200000 332.280000 translate
0.000000 rotate
/Cmmi10 findfont
14.4 scalefont
setfont
0.000000 4.609375 moveto
/lambda glyphshow

/Cmr10 findfont
10.08 scalefont
setfont
8.389847 0.936025 moveto
/three glyphshow

/BitstreamVeraSans-Roman findfont
14.4 scalefont
setfont
15.585159 4.609375 moveto
/space glyphshow

20.154556 4.609375 moveto
/equal glyphshow

32.199234 4.609375 moveto
/space glyphshow

36.768631 4.609375 moveto
/zero glyphshow

45.914444 4.609375 moveto
/period glyphshow

50.108841 4.609375 moveto
/eight glyphshow

59.254654 4.609375 moveto
/zero glyphshow

68.400467 4.609375 moveto
/zero glyphshow

77.546280 4.609375 moveto
/zero glyphshow

86.692093 4.609375 moveto
/zero glyphshow

95.837906 4.609375 moveto
/zero glyphshow


grestore
1.000 0.000 0.000 setrgbcolor
gsave
603.2 319.12 m
623.36 319.12 l
stroke
grestore
0.000 setgray
gsave
639.200000 310.080000 translate
0.000000 rotate
/Cmmi10 findfont
14.4 scalefont
setfont
0.000000 4.609375 moveto
/lambda glyphshow

/Cmr10 findfont
10.08 scalefont
setfont
8.389847 0.936025 moveto
/three glyphshow

/BitstreamVeraSans-Roman findfont
14.4 scalefont
setfont
15.585159 4.609375 moveto
/space glyphshow

20.154556 4.609375 moveto
/equal glyphshow

32.199234 4.609375 moveto
/space glyphshow

36.768631 4.609375 moveto
/zero glyphshow

45.914444 4.609375 moveto
/period glyphshow

50.483841 4.609375 moveto
/nine glyphshow

59.629654 4.609375 moveto
/zero glyphshow

68.775467 4.609375 moveto
/zero glyphshow

77.921280 4.609375 moveto
/zero glyphshow

87.067093 4.609375 moveto
/zero glyphshow

96.212906 4.609375 moveto
/zero glyphshow


grestore
0.000 0.750 0.750 setrgbcolor
gsave
603.2 296.92 m
623.36 296.92 l
stroke
grestore
0.000 setgray
gsave
639.200000 287.880000 translate
0.000000 rotate
/Cmmi10 findfont
14.4 scalefont
setfont
0.000000 4.609375 moveto
/lambda glyphshow

/Cmr10 findfont
10.08 scalefont
setfont
8.389847 0.936025 moveto
/three glyphshow

/BitstreamVeraSans-Roman findfont
14.4 scalefont
setfont
15.585159 4.609375 moveto
/space glyphshow

20.154556 4.609375 moveto
/equal glyphshow

32.199234 4.609375 moveto
/space glyphshow

36.768631 4.609375 moveto
/one glyphshow

45.914444 4.609375 moveto
/period glyphshow

50.483841 4.609375 moveto
/zero glyphshow

59.629654 4.609375 moveto
/zero glyphshow

68.775467 4.609375 moveto
/zero glyphshow

77.921280 4.609375 moveto
/zero glyphshow

87.067093 4.609375 moveto
/zero glyphshow

96.212906 4.609375 moveto
/zero glyphshow


grestore

end
showpage
