%!PS-Adobe-3.0 EPSF-3.0
%%Title: Chen.Hilbert-Schmidt.example.evolution.eps
%%Creator: matplotlib version 1.1.0, http://matplotlib.sourceforge.net/
%%CreationDate: Wed Dec  5 22:39:53 2012
%%Orientation: portrait
%%BoundingBox: -115 97 727 694
%%EndComments
%%BeginProlog
/mpldict 10 dict def
mpldict begin
/m { moveto } bind def
/l { lineto } bind def
/r { rlineto } bind def
/c { curveto } bind def
/cl { closepath } bind def
/box {
m
1 index 0 r
0 exch r
neg 0 r
cl
} bind def
/clipbox {
box
clip
newpath
} bind def
%!PS-Adobe-3.0 Resource-Font
%%Title: Bitstream Vera Sans
%%Copyright: Copyright (c) 2003 by Bitstream, Inc. All Rights Reserved.
%%Creator: Converted from TrueType to type 3 by PPR
25 dict begin
/_d{bind def}bind def
/_m{moveto}_d
/_l{lineto}_d
/_cl{closepath eofill}_d
/_c{curveto}_d
/_sc{7 -1 roll{setcachedevice}{pop pop pop pop pop pop}ifelse}_d
/_e{exec}_d
/FontName /BitstreamVeraSans-Roman def
/PaintType 0 def
/FontMatrix[.001 0 0 .001 0 0]def
/FontBBox[-183 -236 1287 928]def
/FontType 3 def
/Encoding [ /space /parenleft /parenright /hyphen /period /zero /one /two /three /four /five /six /seven /eight /nine /colon /equal /C /E /G /H /S /a /b /c /d /e /f /g /h /i /l /m /n /o /r /s /t /u /v ] def
/FontInfo 10 dict dup begin
/FamilyName (Bitstream Vera Sans) def
/FullName (Bitstream Vera Sans) def
/Notice (Copyright (c) 2003 by Bitstream, Inc. All Rights Reserved. Bitstream Vera is a trademark of Bitstream, Inc.) def
/Weight (Roman) def
/Version (Release 1.10) def
/ItalicAngle 0.0 def
/isFixedPitch false def
/UnderlinePosition -213 def
/UnderlineThickness 143 def
end readonly def
/CharStrings 40 dict dup begin
/space{318 0 0 0 0 0 _sc
}_d
/parenleft{390 0 86 -131 310 759 _sc
310 759 _m
266 683 234 609 213 536 _c
191 463 181 389 181 314 _c
181 238 191 164 213 91 _c
234 17 266 -56 310 -131 _c
232 -131 _l
183 -54 146 20 122 94 _c
98 168 86 241 86 314 _c
86 386 98 459 122 533 _c
146 607 182 682 232 759 _c
310 759 _l
_cl}_d
/parenright{390 0 80 -131 304 759 _sc
80 759 _m
158 759 _l
206 682 243 607 267 533 _c
291 459 304 386 304 314 _c
304 241 291 168 267 94 _c
243 20 206 -54 158 -131 _c
80 -131 _l
123 -56 155 17 177 91 _c
198 164 209 238 209 314 _c
209 389 198 463 177 536 _c
155 609 123 683 80 759 _c
_cl}_d
/hyphen{361 0 49 234 312 314 _sc
49 314 _m
312 314 _l
312 234 _l
49 234 _l
49 314 _l
_cl}_d
/period{318 0 107 0 210 124 _sc
107 124 _m
210 124 _l
210 0 _l
107 0 _l
107 124 _l
_cl}_d
/zero{636 0 66 -13 570 742 _sc
318 664 _m
267 664 229 639 203 589 _c
177 539 165 464 165 364 _c
165 264 177 189 203 139 _c
229 89 267 64 318 64 _c
369 64 407 89 433 139 _c
458 189 471 264 471 364 _c
471 464 458 539 433 589 _c
407 639 369 664 318 664 _c
318 742 _m
399 742 461 709 505 645 _c
548 580 570 486 570 364 _c
570 241 548 147 505 83 _c
461 19 399 -13 318 -13 _c
236 -13 173 19 130 83 _c
87 147 66 241 66 364 _c
66 486 87 580 130 645 _c
173 709 236 742 318 742 _c
_cl}_d
/one{636 0 110 0 544 729 _sc
124 83 _m
285 83 _l
285 639 _l
110 604 _l
110 694 _l
284 729 _l
383 729 _l
383 83 _l
544 83 _l
544 0 _l
124 0 _l
124 83 _l
_cl}_d
/two{{636 0 73 0 536 742 _sc
192 83 _m
536 83 _l
536 0 _l
73 0 _l
73 83 _l
110 121 161 173 226 239 _c
290 304 331 346 348 365 _c
380 400 402 430 414 455 _c
426 479 433 504 433 528 _c
433 566 419 598 392 622 _c
365 646 330 659 286 659 _c
255 659 222 653 188 643 _c
154 632 117 616 78 594 _c
78 694 _l
118 710 155 722 189 730 _c
223 738 255 742 284 742 _c
359 742 419 723 464 685 _c
509 647 532 597 532 534 _c
532 504 526 475 515 449 _c
504 422 484 390 454 354 _c
446 344 420 317 376 272 _c
332 227 271 164 192 83 _c
_cl}_e}_d
/three{{636 0 76 -13 556 742 _sc
406 393 _m
453 383 490 362 516 330 _c
542 298 556 258 556 212 _c
556 140 531 84 482 45 _c
432 6 362 -13 271 -13 _c
240 -13 208 -10 176 -4 _c
144 1 110 10 76 22 _c
76 117 _l
103 101 133 89 166 81 _c
198 73 232 69 268 69 _c
330 69 377 81 409 105 _c
441 129 458 165 458 212 _c
458 254 443 288 413 312 _c
383 336 341 349 287 349 _c
202 349 _l
202 430 _l
291 430 _l
339 430 376 439 402 459 _c
428 478 441 506 441 543 _c
441 580 427 609 401 629 _c
374 649 336 659 287 659 _c
260 659 231 656 200 650 _c
169 644 135 635 98 623 _c
98 711 _l
135 721 170 729 203 734 _c
235 739 266 742 296 742 _c
}_e{370 742 429 725 473 691 _c
517 657 539 611 539 553 _c
539 513 527 479 504 451 _c
481 423 448 403 406 393 _c
_cl}_e}_d
/four{636 0 49 0 580 729 _sc
378 643 _m
129 254 _l
378 254 _l
378 643 _l
352 729 _m
476 729 _l
476 254 _l
580 254 _l
580 172 _l
476 172 _l
476 0 _l
378 0 _l
378 172 _l
49 172 _l
49 267 _l
352 729 _l
_cl}_d
/five{{636 0 77 -13 549 729 _sc
108 729 _m
495 729 _l
495 646 _l
198 646 _l
198 467 _l
212 472 227 476 241 478 _c
255 480 270 482 284 482 _c
365 482 429 459 477 415 _c
525 370 549 310 549 234 _c
549 155 524 94 475 51 _c
426 8 357 -13 269 -13 _c
238 -13 207 -10 175 -6 _c
143 -1 111 6 77 17 _c
77 116 _l
106 100 136 88 168 80 _c
199 72 232 69 267 69 _c
323 69 368 83 401 113 _c
433 143 450 183 450 234 _c
450 284 433 324 401 354 _c
368 384 323 399 267 399 _c
241 399 214 396 188 390 _c
162 384 135 375 108 363 _c
108 729 _l
_cl}_e}_d
/six{{636 0 70 -13 573 742 _sc
330 404 _m
286 404 251 388 225 358 _c
199 328 186 286 186 234 _c
186 181 199 139 225 109 _c
251 79 286 64 330 64 _c
374 64 409 79 435 109 _c
461 139 474 181 474 234 _c
474 286 461 328 435 358 _c
409 388 374 404 330 404 _c
526 713 _m
526 623 _l
501 635 476 644 451 650 _c
425 656 400 659 376 659 _c
310 659 260 637 226 593 _c
192 549 172 482 168 394 _c
187 422 211 444 240 459 _c
269 474 301 482 336 482 _c
409 482 467 459 509 415 _c
551 371 573 310 573 234 _c
573 159 550 99 506 54 _c
462 9 403 -13 330 -13 _c
246 -13 181 19 137 83 _c
92 147 70 241 70 364 _c
70 479 97 571 152 639 _c
206 707 280 742 372 742 _c
}_e{396 742 421 739 447 735 _c
472 730 498 723 526 713 _c
_cl}_e}_d
/seven{636 0 82 0 551 729 _sc
82 729 _m
551 729 _l
551 687 _l
286 0 _l
183 0 _l
432 646 _l
82 646 _l
82 729 _l
_cl}_d
/eight{{636 0 68 -13 568 742 _sc
318 346 _m
271 346 234 333 207 308 _c
180 283 167 249 167 205 _c
167 161 180 126 207 101 _c
234 76 271 64 318 64 _c
364 64 401 76 428 102 _c
455 127 469 161 469 205 _c
469 249 455 283 429 308 _c
402 333 365 346 318 346 _c
219 388 _m
177 398 144 418 120 447 _c
96 476 85 511 85 553 _c
85 611 105 657 147 691 _c
188 725 245 742 318 742 _c
390 742 447 725 489 691 _c
530 657 551 611 551 553 _c
551 511 539 476 515 447 _c
491 418 459 398 417 388 _c
464 377 501 355 528 323 _c
554 291 568 251 568 205 _c
568 134 546 80 503 43 _c
459 5 398 -13 318 -13 _c
237 -13 175 5 132 43 _c
89 80 68 134 68 205 _c
68 251 81 291 108 323 _c
134 355 171 377 219 388 _c
}_e{183 544 _m
183 506 194 476 218 455 _c
242 434 275 424 318 424 _c
360 424 393 434 417 455 _c
441 476 453 506 453 544 _c
453 582 441 611 417 632 _c
393 653 360 664 318 664 _c
275 664 242 653 218 632 _c
194 611 183 582 183 544 _c
_cl}_e}_d
/nine{{636 0 63 -13 566 742 _sc
110 15 _m
110 105 _l
134 93 159 84 185 78 _c
210 72 235 69 260 69 _c
324 69 374 90 408 134 _c
442 178 462 244 468 334 _c
448 306 424 284 396 269 _c
367 254 335 247 300 247 _c
226 247 168 269 126 313 _c
84 357 63 417 63 494 _c
63 568 85 628 129 674 _c
173 719 232 742 306 742 _c
390 742 455 709 499 645 _c
543 580 566 486 566 364 _c
566 248 538 157 484 89 _c
429 21 356 -13 264 -13 _c
239 -13 214 -10 189 -6 _c
163 -2 137 5 110 15 _c
306 324 _m
350 324 385 339 411 369 _c
437 399 450 441 450 494 _c
450 546 437 588 411 618 _c
385 648 350 664 306 664 _c
262 664 227 648 201 618 _c
175 588 162 546 162 494 _c
}_e{162 441 175 399 201 369 _c
227 339 262 324 306 324 _c
_cl}_e}_d
/colon{337 0 117 0 220 517 _sc
117 124 _m
220 124 _l
220 0 _l
117 0 _l
117 124 _l
117 517 _m
220 517 _l
220 393 _l
117 393 _l
117 517 _l
_cl}_d
/equal{838 0 106 172 732 454 _sc
106 454 _m
732 454 _l
732 372 _l
106 372 _l
106 454 _l
106 255 _m
732 255 _l
732 172 _l
106 172 _l
106 255 _l
_cl}_d
/C{{698 0 56 -13 644 742 _sc
644 673 _m
644 569 _l
610 599 575 622 537 638 _c
499 653 460 661 418 661 _c
334 661 270 635 226 584 _c
182 533 160 460 160 364 _c
160 268 182 194 226 143 _c
270 92 334 67 418 67 _c
460 67 499 74 537 90 _c
575 105 610 128 644 159 _c
644 56 _l
609 32 572 15 534 4 _c
496 -7 455 -13 412 -13 _c
302 -13 215 20 151 87 _c
87 154 56 246 56 364 _c
56 481 87 573 151 641 _c
215 708 302 742 412 742 _c
456 742 497 736 535 725 _c
573 713 610 696 644 673 _c
_cl}_e}_d
/E{632 0 98 0 568 729 _sc
98 729 _m
559 729 _l
559 646 _l
197 646 _l
197 430 _l
544 430 _l
544 347 _l
197 347 _l
197 83 _l
568 83 _l
568 0 _l
98 0 _l
98 729 _l
_cl}_d
/G{{775 0 56 -13 693 742 _sc
595 104 _m
595 300 _l
434 300 _l
434 381 _l
693 381 _l
693 68 _l
655 40 613 20 567 7 _c
521 -6 472 -13 420 -13 _c
306 -13 216 20 152 86 _c
88 152 56 245 56 364 _c
56 482 88 575 152 642 _c
216 708 306 742 420 742 _c
467 742 512 736 555 724 _c
598 712 638 695 674 673 _c
674 568 _l
637 598 598 621 557 637 _c
516 653 473 661 428 661 _c
338 661 271 636 227 586 _c
182 536 160 462 160 364 _c
160 265 182 191 227 141 _c
271 91 338 67 428 67 _c
462 67 493 70 521 76 _c
549 82 573 91 595 104 _c
_cl}_e}_d
/H{752 0 98 0 654 729 _sc
98 729 _m
197 729 _l
197 430 _l
555 430 _l
555 729 _l
654 729 _l
654 0 _l
555 0 _l
555 347 _l
197 347 _l
197 0 _l
98 0 _l
98 729 _l
_cl}_d
/S{{635 0 66 -13 579 742 _sc
535 705 _m
535 609 _l
497 627 462 640 429 649 _c
395 657 363 662 333 662 _c
279 662 237 651 208 631 _c
179 610 165 580 165 542 _c
165 510 174 485 194 469 _c
213 452 250 439 304 429 _c
364 417 _l
437 403 491 378 526 343 _c
561 307 579 260 579 201 _c
579 130 555 77 508 41 _c
460 5 391 -13 300 -13 _c
265 -13 228 -9 189 -2 _c
150 5 110 16 69 32 _c
69 134 _l
109 111 148 94 186 83 _c
224 71 262 66 300 66 _c
356 66 399 77 430 99 _c
460 121 476 152 476 194 _c
476 230 465 258 443 278 _c
421 298 385 313 335 323 _c
275 335 _l
201 349 148 372 115 404 _c
82 435 66 478 66 534 _c
66 598 88 649 134 686 _c
179 723 242 742 322 742 _c
}_e{356 742 390 739 426 733 _c
461 727 497 717 535 705 _c
_cl}_e}_d
/a{{613 0 60 -13 522 560 _sc
343 275 _m
270 275 220 266 192 250 _c
164 233 150 205 150 165 _c
150 133 160 107 181 89 _c
202 70 231 61 267 61 _c
317 61 357 78 387 114 _c
417 149 432 196 432 255 _c
432 275 _l
343 275 _l
522 312 _m
522 0 _l
432 0 _l
432 83 _l
411 49 385 25 355 10 _c
325 -5 287 -13 243 -13 _c
187 -13 142 2 109 33 _c
76 64 60 106 60 159 _c
60 220 80 266 122 298 _c
163 329 224 345 306 345 _c
432 345 _l
432 354 _l
432 395 418 427 391 450 _c
364 472 326 484 277 484 _c
245 484 215 480 185 472 _c
155 464 127 453 100 439 _c
100 522 _l
}_e{132 534 164 544 195 550 _c
226 556 256 560 286 560 _c
365 560 424 539 463 498 _c
502 457 522 395 522 312 _c
_cl}_e}_d
/b{{635 0 91 -13 580 760 _sc
487 273 _m
487 339 473 390 446 428 _c
418 466 381 485 334 485 _c
286 485 249 466 222 428 _c
194 390 181 339 181 273 _c
181 207 194 155 222 117 _c
249 79 286 61 334 61 _c
381 61 418 79 446 117 _c
473 155 487 207 487 273 _c
181 464 _m
199 496 223 520 252 536 _c
281 552 316 560 356 560 _c
422 560 476 533 518 481 _c
559 428 580 359 580 273 _c
580 187 559 117 518 65 _c
476 13 422 -13 356 -13 _c
316 -13 281 -5 252 10 _c
223 25 199 49 181 82 _c
181 0 _l
91 0 _l
91 760 _l
181 760 _l
181 464 _l
_cl}_e}_d
/c{{550 0 55 -13 488 560 _sc
488 526 _m
488 442 _l
462 456 437 466 411 473 _c
385 480 360 484 334 484 _c
276 484 230 465 198 428 _c
166 391 150 339 150 273 _c
150 206 166 154 198 117 _c
230 80 276 62 334 62 _c
360 62 385 65 411 72 _c
437 79 462 90 488 104 _c
488 21 _l
462 9 436 0 410 -5 _c
383 -10 354 -13 324 -13 _c
242 -13 176 12 128 64 _c
79 115 55 185 55 273 _c
55 362 79 432 128 483 _c
177 534 244 560 330 560 _c
358 560 385 557 411 551 _c
437 545 463 537 488 526 _c
_cl}_e}_d
/d{{635 0 55 -13 544 760 _sc
454 464 _m
454 760 _l
544 760 _l
544 0 _l
454 0 _l
454 82 _l
435 49 411 25 382 10 _c
353 -5 319 -13 279 -13 _c
213 -13 159 13 117 65 _c
75 117 55 187 55 273 _c
55 359 75 428 117 481 _c
159 533 213 560 279 560 _c
319 560 353 552 382 536 _c
411 520 435 496 454 464 _c
148 273 _m
148 207 161 155 188 117 _c
215 79 253 61 301 61 _c
348 61 385 79 413 117 _c
440 155 454 207 454 273 _c
454 339 440 390 413 428 _c
385 466 348 485 301 485 _c
253 485 215 466 188 428 _c
161 390 148 339 148 273 _c
_cl}_e}_d
/e{{615 0 55 -13 562 560 _sc
562 296 _m
562 252 _l
149 252 _l
153 190 171 142 205 110 _c
238 78 284 62 344 62 _c
378 62 412 66 444 74 _c
476 82 509 95 541 113 _c
541 28 _l
509 14 476 3 442 -3 _c
408 -9 373 -13 339 -13 _c
251 -13 182 12 131 62 _c
80 112 55 181 55 268 _c
55 357 79 428 127 481 _c
175 533 241 560 323 560 _c
397 560 455 536 498 489 _c
540 441 562 377 562 296 _c
472 322 _m
471 371 457 410 431 440 _c
404 469 368 484 324 484 _c
274 484 234 469 204 441 _c
174 413 156 373 152 322 _c
472 322 _l
_cl}_e}_d
/f{352 0 23 0 371 760 _sc
371 760 _m
371 685 _l
285 685 _l
253 685 230 678 218 665 _c
205 652 199 629 199 595 _c
199 547 _l
347 547 _l
347 477 _l
199 477 _l
199 0 _l
109 0 _l
109 477 _l
23 477 _l
23 547 _l
109 547 _l
109 585 _l
109 645 123 690 151 718 _c
179 746 224 760 286 760 _c
371 760 _l
_cl}_d
/g{{635 0 55 -207 544 560 _sc
454 280 _m
454 344 440 395 414 431 _c
387 467 349 485 301 485 _c
253 485 215 467 188 431 _c
161 395 148 344 148 280 _c
148 215 161 165 188 129 _c
215 93 253 75 301 75 _c
349 75 387 93 414 129 _c
440 165 454 215 454 280 _c
544 68 _m
544 -24 523 -93 482 -139 _c
440 -184 377 -207 292 -207 _c
260 -207 231 -204 203 -200 _c
175 -195 147 -188 121 -178 _c
121 -91 _l
147 -105 173 -115 199 -122 _c
225 -129 251 -133 278 -133 _c
336 -133 380 -117 410 -87 _c
439 -56 454 -10 454 52 _c
454 96 _l
435 64 411 40 382 24 _c
353 8 319 0 279 0 _c
211 0 157 25 116 76 _c
75 127 55 195 55 280 _c
55 364 75 432 116 483 _c
157 534 211 560 279 560 _c
}_e{319 560 353 552 382 536 _c
411 520 435 496 454 464 _c
454 547 _l
544 547 _l
544 68 _l
_cl}_e}_d
/h{634 0 91 0 549 760 _sc
549 330 _m
549 0 _l
459 0 _l
459 327 _l
459 379 448 417 428 443 _c
408 469 378 482 338 482 _c
289 482 251 466 223 435 _c
195 404 181 362 181 309 _c
181 0 _l
91 0 _l
91 760 _l
181 760 _l
181 462 _l
202 494 227 519 257 535 _c
286 551 320 560 358 560 _c
420 560 468 540 500 501 _c
532 462 549 405 549 330 _c
_cl}_d
/i{278 0 94 0 184 760 _sc
94 547 _m
184 547 _l
184 0 _l
94 0 _l
94 547 _l
94 760 _m
184 760 _l
184 646 _l
94 646 _l
94 760 _l
_cl}_d
/l{278 0 94 0 184 760 _sc
94 760 _m
184 760 _l
184 0 _l
94 0 _l
94 760 _l
_cl}_d
/m{{974 0 91 0 889 560 _sc
520 442 _m
542 482 569 511 600 531 _c
631 550 668 560 711 560 _c
767 560 811 540 842 500 _c
873 460 889 403 889 330 _c
889 0 _l
799 0 _l
799 327 _l
799 379 789 418 771 444 _c
752 469 724 482 686 482 _c
639 482 602 466 575 435 _c
548 404 535 362 535 309 _c
535 0 _l
445 0 _l
445 327 _l
445 379 435 418 417 444 _c
398 469 369 482 331 482 _c
285 482 248 466 221 435 _c
194 404 181 362 181 309 _c
181 0 _l
91 0 _l
91 547 _l
181 547 _l
181 462 _l
201 495 226 520 255 536 _c
283 552 317 560 357 560 _c
397 560 430 550 458 530 _c
486 510 506 480 520 442 _c
}_e{_cl}_e}_d
/n{634 0 91 0 549 560 _sc
549 330 _m
549 0 _l
459 0 _l
459 327 _l
459 379 448 417 428 443 _c
408 469 378 482 338 482 _c
289 482 251 466 223 435 _c
195 404 181 362 181 309 _c
181 0 _l
91 0 _l
91 547 _l
181 547 _l
181 462 _l
202 494 227 519 257 535 _c
286 551 320 560 358 560 _c
420 560 468 540 500 501 _c
532 462 549 405 549 330 _c
_cl}_d
/o{612 0 55 -13 557 560 _sc
306 484 _m
258 484 220 465 192 427 _c
164 389 150 338 150 273 _c
150 207 163 156 191 118 _c
219 80 257 62 306 62 _c
354 62 392 80 420 118 _c
448 156 462 207 462 273 _c
462 337 448 389 420 427 _c
392 465 354 484 306 484 _c
306 560 _m
384 560 445 534 490 484 _c
534 433 557 363 557 273 _c
557 183 534 113 490 63 _c
445 12 384 -13 306 -13 _c
227 -13 165 12 121 63 _c
77 113 55 183 55 273 _c
55 363 77 433 121 484 _c
165 534 227 560 306 560 _c
_cl}_d
/r{411 0 91 0 411 560 _sc
411 463 _m
401 469 390 473 378 476 _c
366 478 353 480 339 480 _c
288 480 249 463 222 430 _c
194 397 181 350 181 288 _c
181 0 _l
91 0 _l
91 547 _l
181 547 _l
181 462 _l
199 495 224 520 254 536 _c
284 552 321 560 365 560 _c
371 560 378 559 386 559 _c
393 558 401 557 411 555 _c
411 463 _l
_cl}_d
/s{{521 0 54 -13 472 560 _sc
443 531 _m
443 446 _l
417 458 391 468 364 475 _c
336 481 308 485 279 485 _c
234 485 200 478 178 464 _c
156 450 145 430 145 403 _c
145 382 153 366 169 354 _c
185 342 217 330 265 320 _c
296 313 _l
360 299 405 279 432 255 _c
458 230 472 195 472 151 _c
472 100 452 60 412 31 _c
372 1 316 -13 246 -13 _c
216 -13 186 -10 154 -5 _c
122 0 89 8 54 20 _c
54 113 _l
87 95 120 82 152 74 _c
184 65 216 61 248 61 _c
290 61 323 68 346 82 _c
368 96 380 117 380 144 _c
380 168 371 187 355 200 _c
339 213 303 226 247 238 _c
216 245 _l
160 257 119 275 95 299 _c
70 323 58 356 58 399 _c
58 450 76 490 112 518 _c
148 546 200 560 268 560 _c
}_e{301 560 332 557 362 552 _c
391 547 418 540 443 531 _c
_cl}_e}_d
/t{392 0 27 0 368 702 _sc
183 702 _m
183 547 _l
368 547 _l
368 477 _l
183 477 _l
183 180 _l
183 135 189 106 201 94 _c
213 81 238 75 276 75 _c
368 75 _l
368 0 _l
276 0 _l
206 0 158 13 132 39 _c
106 65 93 112 93 180 _c
93 477 _l
27 477 _l
27 547 _l
93 547 _l
93 702 _l
183 702 _l
_cl}_d
/u{634 0 85 -13 543 547 _sc
85 216 _m
85 547 _l
175 547 _l
175 219 _l
175 167 185 129 205 103 _c
225 77 255 64 296 64 _c
344 64 383 79 411 110 _c
439 141 453 183 453 237 _c
453 547 _l
543 547 _l
543 0 _l
453 0 _l
453 84 _l
431 50 405 26 377 10 _c
348 -5 315 -13 277 -13 _c
214 -13 166 6 134 45 _c
101 83 85 140 85 216 _c
_cl}_d
/v{592 0 30 0 562 547 _sc
30 547 _m
125 547 _l
296 88 _l
467 547 _l
562 547 _l
357 0 _l
235 0 _l
30 547 _l
_cl}_d
end readonly def

/BuildGlyph
 {exch begin
 CharStrings exch
 2 copy known not{pop /.notdef}if
 true 3 1 roll get exec
 end}_d

/BuildChar {
 1 index /Encoding get exch get
 1 index /BuildGlyph get exec
}_d

FontName currentdict end definefont pop
%!PS-Adobe-3.0 Resource-Font
%%Title: cmr10
%%Copyright: Copyright (C) 1994, Basil K. Malyshev. All Rights Reserved.012BaKoMa Fonts Collection, Level-B.
%%Creator: Converted from TrueType to type 3 by PPR
25 dict begin
/_d{bind def}bind def
/_m{moveto}_d
/_l{lineto}_d
/_cl{closepath eofill}_d
/_c{curveto}_d
/_sc{7 -1 roll{setcachedevice}{pop pop pop pop pop pop}ifelse}_d
/_e{exec}_d
/FontName /Cmr10 def
/PaintType 0 def
/FontMatrix[.001 0 0 .001 0 0]def
/FontBBox[-44 -250 1009 750]def
/FontType 3 def
/Encoding [ /three ] def
/FontInfo 10 dict dup begin
/FamilyName (cmr10) def
/FullName (cmr10) def
/Notice (Copyright (C) 1994, Basil K. Malyshev. All Rights Reserved.012BaKoMa Fonts Collection, Level-B. ) def
/Weight (Regular) def
/Version (1.1/12-Nov-94) def
/ItalicAngle 0.0 def
/isFixedPitch false def
/UnderlinePosition -133 def
/UnderlineThickness 20 def
end readonly def
/CharStrings 1 dict dup begin
/three{{500 0 42 -21 457 666 _sc
95 77 _m
111 54 132 37 158 26 _c
184 15 213 10 243 10 _c
281 10 309 26 325 59 _c
341 92 350 130 350 172 _c
350 190 348 209 345 228 _c
341 247 335 265 327 281 _c
319 297 308 310 294 320 _c
280 330 262 335 242 335 _c
176 335 _l
170 335 167 338 167 344 _c
167 353 _l
167 358 170 361 176 361 _c
231 365 _l
254 365 273 373 289 391 _c
305 409 316 430 323 456 _c
330 481 334 505 334 528 _c
334 560 326 586 311 606 _c
296 626 273 637 243 637 _c
217 637 193 632 170 622 _c
147 612 129 598 115 579 _c
116 579 117 580 118 580 _c
119 580 120 580 122 580 _c
137 580 150 574 160 564 _c
170 554 175 541 175 527 _c
175 512 170 499 160 489 _c
150 479 137 474 122 474 _c
}_e{107 474 94 479 84 489 _c
74 499 69 512 69 527 _c
69 555 77 580 95 601 _c
112 622 134 638 161 649 _c
188 660 215 666 243 666 _c
263 666 284 663 307 657 _c
329 651 350 642 368 631 _c
386 619 401 605 413 588 _c
424 570 430 550 430 528 _c
430 500 423 474 411 450 _c
399 426 382 406 360 389 _c
338 371 314 358 288 350 _c
317 344 345 333 371 317 _c
397 301 417 280 433 255 _c
449 229 457 202 457 173 _c
457 136 446 103 426 73 _c
406 43 379 19 347 3 _c
314 -13 279 -21 243 -21 _c
211 -21 180 -15 149 -3 _c
117 8 92 25 72 49 _c
52 73 42 101 42 135 _c
42 151 47 165 58 176 _c
69 187 83 193 100 193 _c
110 193 120 190 129 185 _c
138 180 145 173 150 164 _c
155 154 158 145 158 135 _c
158 118 152 104 141 93 _c
129 82 116 77 100 77 _c
95 77 _l
_cl}_e}_d
end readonly def

/BuildGlyph
 {exch begin
 CharStrings exch
 2 copy known not{pop /.notdef}if
 true 3 1 roll get exec
 end}_d

/BuildChar {
 1 index /Encoding get exch get
 1 index /BuildGlyph get exec
}_d

FontName currentdict end definefont pop
%!PS-Adobe-3.0 Resource-Font
%%Title: cmmi10
%%Copyright: Copyright (C) 1994, Basil K. Malyshev. All Rights Reserved.012BaKoMa Fonts Collection, Level-B.
%%Creator: Converted from TrueType to type 3 by PPR
25 dict begin
/_d{bind def}bind def
/_m{moveto}_d
/_l{lineto}_d
/_cl{closepath eofill}_d
/_c{curveto}_d
/_sc{7 -1 roll{setcachedevice}{pop pop pop pop pop pop}ifelse}_d
/_e{exec}_d
/FontName /Cmmi10 def
/PaintType 0 def
/FontMatrix[.001 0 0 .001 0 0]def
/FontBBox[-34 -250 1048 750]def
/FontType 3 def
/Encoding [ /lambda ] def
/FontInfo 10 dict dup begin
/FamilyName (cmmi10) def
/FullName (cmmi10) def
/Notice (Copyright (C) 1994, Basil K. Malyshev. All Rights Reserved.012BaKoMa Fonts Collection, Level-B. ) def
/Weight (Regular) def
/Version (1.1/12-Nov-94) def
/ItalicAngle 0.0 def
/isFixedPitch false def
/UnderlinePosition -133 def
/UnderlineThickness 20 def
end readonly def
/CharStrings 1 dict dup begin
/lambda{{583 0 51 -12 550 694 _sc
51 17 _m
51 27 55 36 64 45 _c
345 321 _l
246 599 _l
238 620 229 637 221 649 _c
212 661 200 668 184 668 _c
176 668 173 672 173 681 _c
173 685 175 688 178 690 _c
180 692 184 694 188 694 _c
258 694 300 673 315 632 _c
518 65 _l
526 36 535 17 545 8 _c
548 2 550 0 550 -1 _c
550 -7 547 -10 542 -10 _c
488 -10 _l
471 -5 458 8 448 32 _c
357 288 _l
115 4 _l
103 -6 92 -12 83 -12 _c
}_e{74 -12 66 -9 60 -4 _c
54 1 51 8 51 17 _c
_cl}_e}_d
end readonly def

/BuildGlyph
 {exch begin
 CharStrings exch
 2 copy known not{pop /.notdef}if
 true 3 1 roll get exec
 end}_d

/BuildChar {
 1 index /Encoding get exch get
 1 index /BuildGlyph get exec
}_d

FontName currentdict end definefont pop
end
%%EndProlog
mpldict begin
-115.2 97.2 translate
842.4 597.6 0 0 clipbox
gsave
0 0 m
842.4 0 l
842.4 597.6 l
0 597.6 l
cl
1.000 setgray
fill
grestore
gsave
105.3 59.76 m
758.16 59.76 l
758.16 537.84 l
105.3 537.84 l
cl
1.000 setgray
fill
grestore
1.000 setlinewidth
1 setlinejoin
2 setlinecap
[] 0 setdash
0.000 0.000 1.000 setrgbcolor
gsave
652.9 478.1 105.3 59.76 clipbox
105.3 343.057 m
106.932 175.171 l
108.564 94.3978 l
113.461 94.3978 l
115.093 84.2604 l
116.725 84.2604 l
118.357 79.6182 l
119.989 69.0754 l
124.886 69.0754 l
126.518 66.4919 l
141.207 66.2729 l
152.632 66.1847 l
154.264 61.0644 l
172.218 61.0098 l
193.436 61.0096 l
195.068 60.4563 l
206.493 60.4272 l
208.125 60.1705 l
275.044 60.0602 l
278.308 60 l
307.687 59.8906 l
319.112 59.8732 l
756.528 59.7628 l
756.528 59.7628 l
stroke
grestore
0.000 0.500 0.000 setrgbcolor
gsave
652.9 478.1 105.3 59.76 clipbox
105.3 162.235 m
106.932 145.686 l
108.564 145.686 l
110.196 132.16 l
111.829 123.7 l
113.461 119.215 l
115.093 119.215 l
116.725 110.409 l
118.357 107.088 l
129.782 107.088 l
131.414 97.7532 l
149.368 97.7532 l
151 94.4364 l
178.747 94.4364 l
180.379 92.5189 l
191.804 92.5189 l
196.7 92.2577 l
198.333 91.8699 l
201.597 91.8699 l
203.229 91.7141 l
208.125 91.7141 l
211.39 91.4905 l
216.286 91.4191 l
217.918 91.2006 l
224.447 90.9836 l
226.079 90.6391 l
229.343 90.5296 l
235.872 90.4186 l
242.401 90.349 l
245.665 90.2631 l
265.251 89.7245 l
270.147 89.2911 l
279.94 89.1812 l
286.469 89.0249 l
289.733 88.9233 l
310.951 88.3235 l
312.583 88.1865 l
319.112 88.083 l
371.34 86.9903 l
376.237 86.8717 l
390.926 86.5019 l
397.455 86.3948 l
407.248 86.2345 l
426.834 85.7286 l
438.259 85.538 l
444.787 85.3965 l
449.684 85.3258 l
452.948 85.2578 l
469.269 85.0687 l
472.534 84.9709 l
483.959 84.8694 l
519.866 84.4115 l
536.188 84.2658 l
544.348 84.1141 l
572.095 83.7823 l
585.152 83.676 l
591.681 83.5789 l
692.874 82.4899 l
697.77 82.4015 l
712.46 82.2743 l
720.621 82.1888 l
754.896 81.8446 l
756.528 81.805 l
756.528 81.805 l
stroke
grestore
1.000 0.000 0.000 setrgbcolor
gsave
652.9 478.1 105.3 59.76 clipbox
105.3 209.794 m
106.932 188.068 l
108.564 188.068 l
110.196 173.709 l
111.829 166.744 l
113.461 166.308 l
115.093 154.041 l
116.725 149.964 l
123.254 149.964 l
124.886 149.711 l
129.782 149.711 l
131.414 139.605 l
137.943 139.605 l
139.575 135.13 l
141.207 127.676 l
142.839 122.066 l
151 122.066 l
152.632 120.698 l
157.529 120.698 l
159.161 117.738 l
160.793 116.786 l
162.425 116.786 l
164.057 113.984 l
165.69 112.929 l
167.322 112.929 l
168.954 110.068 l
170.586 110.068 l
172.218 107.251 l
173.85 105.38 l
175.482 105.38 l
177.115 103.048 l
182.011 103.027 l
183.643 102.308 l
188.54 102.308 l
190.172 100.376 l
195.068 100.376 l
196.7 99.8481 l
198.333 99.6489 l
199.965 97.7547 l
203.229 97.7547 l
204.861 95.65 l
213.022 95.6297 l
214.654 94.7216 l
216.286 93.9612 l
217.918 92.2633 l
219.55 90.3997 l
222.815 90.3997 l
226.079 90.1081 l
227.711 88.6055 l
229.343 88.6055 l
232.608 87.9051 l
234.24 87.0383 l
237.504 87.0383 l
239.136 85.2209 l
242.401 85.2209 l
244.033 85.1035 l
245.665 85.1035 l
247.297 84.5311 l
248.929 84.5311 l
250.561 84.3333 l
252.194 83.3457 l
253.826 83.3457 l
255.458 83.2169 l
257.09 82.3958 l
260.354 82.3958 l
261.986 82.2015 l
263.619 81.1482 l
270.147 81.1482 l
271.779 80.5642 l
275.044 80.5642 l
276.676 79.8239 l
281.572 79.3051 l
283.204 79.3051 l
284.837 78.5406 l
286.469 78.2213 l
289.733 78.149 l
291.365 77.9291 l
292.997 77.1386 l
294.629 76.6792 l
296.262 76.6792 l
299.526 75.9506 l
306.054 75.9217 l
307.687 75.6756 l
309.319 75.6756 l
310.951 75.4171 l
312.583 75.4171 l
319.112 74.889 l
322.376 74.736 l
324.008 74.6553 l
325.64 74.3617 l
330.537 74.3169 l
332.169 73.895 l
335.433 73.895 l
337.065 73.006 l
343.594 72.7348 l
348.49 72.6828 l
356.651 72.0483 l
358.283 72.0483 l
359.915 71.9198 l
361.548 71.9198 l
363.18 71.8066 l
364.812 71.4435 l
372.973 71.4052 l
374.605 71.2387 l
381.133 71.1462 l
384.398 71.0472 l
386.03 70.843 l
390.926 70.7647 l
394.191 70.5746 l
395.823 70.5744 l
397.455 70.4222 l
407.248 70.2942 l
412.144 70.168 l
448.051 69.6522 l
459.477 69.5474 l
464.373 69.4969 l
475.798 69.433 l
480.695 69.372 l
518.234 69.0852 l
570.463 68.8918 l
594.945 68.8432 l
756.528 68.7004 l
756.528 68.7004 l
stroke
grestore
0.000 0.750 0.750 setrgbcolor
gsave
652.9 478.1 105.3 59.76 clipbox
105.3 263.755 m
106.932 256.485 l
108.564 215.525 l
110.196 207.054 l
111.829 204.158 l
113.461 194.646 l
116.725 194.646 l
119.989 182.706 l
123.254 182.706 l
124.886 169.039 l
126.518 166.04 l
128.15 156.733 l
134.679 156.733 l
136.311 138.316 l
137.943 138.316 l
139.575 138.198 l
149.368 138.198 l
151 132.724 l
152.632 130.392 l
155.897 130.392 l
157.529 126.902 l
159.161 126.759 l
160.793 122.854 l
164.057 122.854 l
167.322 122.501 l
168.954 115.247 l
170.586 114.575 l
173.85 114.569 l
175.482 109.708 l
178.747 109.708 l
180.379 107.705 l
188.54 107.705 l
190.172 106.178 l
191.804 101.609 l
195.068 101.609 l
196.7 99.2802 l
206.493 99.2802 l
208.125 98.811 l
209.758 98.1555 l
213.022 98.112 l
214.654 95.4103 l
216.286 93.0477 l
222.815 92.9509 l
224.447 92.6826 l
226.079 91.5096 l
227.711 91.5096 l
229.343 91.3984 l
230.976 89.3472 l
234.24 89.3472 l
235.872 88.7476 l
237.504 87.352 l
239.136 87.1819 l
240.768 86.7999 l
245.665 86.7999 l
247.297 85.7897 l
253.826 85.7897 l
255.458 84.5782 l
263.619 84.5649 l
265.251 84.4449 l
266.883 84.1177 l
273.411 84.0728 l
275.044 83.8735 l
276.676 83.8735 l
278.308 83.3722 l
284.837 83.2661 l
286.469 82.9463 l
288.101 82.9463 l
289.733 82.6969 l
292.997 82.6941 l
294.629 82.5518 l
297.894 82.5332 l
299.526 82.3961 l
301.158 82.3961 l
302.79 82.2665 l
320.744 82.21 l
322.376 81.9134 l
330.537 81.7869 l
332.169 81.6588 l
338.697 81.5427 l
341.962 81.4795 l
366.444 81.3809 l
372.973 81.3501 l
405.616 81.2104 l
415.409 81.1748 l
539.452 81.0641 l
756.528 81.0072 l
756.528 81.0072 l
stroke
grestore
0.750 0.000 0.750 setrgbcolor
gsave
652.9 478.1 105.3 59.76 clipbox
105.3 301.264 m
106.932 301.264 l
108.564 260.162 l
110.196 233.406 l
111.829 233.406 l
113.461 232.017 l
115.093 215.196 l
118.357 213.475 l
119.989 213.475 l
121.621 203.016 l
123.254 187.067 l
126.518 187.067 l
128.15 185.519 l
129.782 181.898 l
131.414 179.823 l
133.047 173.638 l
137.943 173.638 l
139.575 166.104 l
141.207 159.772 l
142.839 154.662 l
144.472 132.705 l
152.632 132.705 l
154.264 128.164 l
155.897 125.949 l
164.057 125.949 l
165.69 123.359 l
168.954 123.359 l
170.586 120.723 l
172.218 115.847 l
175.482 115.847 l
177.115 114.846 l
180.379 114.846 l
182.011 114.68 l
183.643 113.631 l
186.907 113.586 l
188.54 112.074 l
191.804 112.074 l
193.436 111.889 l
196.7 111.866 l
198.333 109.942 l
199.965 109.033 l
201.597 107.055 l
211.39 107.055 l
213.022 106.499 l
214.654 106.301 l
216.286 105.434 l
217.918 105.178 l
229.343 105.081 l
230.976 104.859 l
232.608 104.419 l
237.504 104.313 l
239.136 104.253 l
240.768 103.476 l
242.401 103.077 l
245.665 102.874 l
255.458 102.874 l
257.09 102.754 l
258.722 102.754 l
260.354 102.619 l
271.779 102.578 l
273.411 102.376 l
279.94 102.367 l
281.572 102.25 l
292.997 102.141 l
310.951 101.773 l
322.376 101.702 l
327.272 101.659 l
346.858 101.573 l
351.755 101.531 l
377.869 101.422 l
392.558 101.367 l
756.528 101.191 l
756.528 101.191 l
stroke
grestore
0.750 0.750 0.000 setrgbcolor
gsave
652.9 478.1 105.3 59.76 clipbox
105.3 327.255 m
106.932 297.763 l
108.564 275.416 l
111.829 275.416 l
113.461 268.543 l
115.093 268.543 l
116.725 252.508 l
121.621 252.508 l
123.254 245.863 l
124.886 235.894 l
126.518 228.625 l
128.15 219.088 l
129.782 205.213 l
131.414 205.213 l
133.047 200.475 l
134.679 192.702 l
139.575 192.702 l
141.207 176.032 l
142.839 174.773 l
144.472 174.773 l
146.104 173.419 l
149.368 173.419 l
151 167.488 l
152.632 156.221 l
160.793 156.221 l
162.425 154.171 l
164.057 153.9 l
165.69 153.449 l
167.322 147.624 l
177.115 147.552 l
178.747 147.308 l
180.379 147.308 l
182.011 144.277 l
183.643 144.277 l
185.275 140.421 l
190.172 140.421 l
191.804 139.015 l
203.229 138.904 l
204.861 137.66 l
208.125 137.66 l
209.758 137.02 l
211.39 135.828 l
213.022 135.474 l
214.654 135.474 l
216.286 135.338 l
217.918 134.171 l
219.55 134.12 l
221.183 133.519 l
224.447 133.441 l
226.079 133.277 l
234.24 133.277 l
237.504 132.726 l
242.401 132.682 l
245.665 132.682 l
247.297 132.354 l
248.929 132.354 l
250.561 132.023 l
252.194 132.023 l
257.09 131.617 l
260.354 131.549 l
265.251 131.549 l
266.883 131.412 l
275.044 131.399 l
276.676 131.2 l
288.101 131.098 l
291.365 131.034 l
301.158 130.925 l
332.169 130.774 l
340.33 130.747 l
402.351 130.636 l
606.37 130.56 l
756.528 130.544 l
756.528 130.544 l
stroke
grestore
0.000 setgray
gsave
652.9 478.1 105.3 59.76 clipbox
105.3 353.197 m
106.932 353.197 l
108.564 331.277 l
110.196 324.662 l
111.829 324.662 l
113.461 306.579 l
115.093 302.884 l
116.725 289.019 l
118.357 279.565 l
119.989 277.091 l
121.621 277.091 l
123.254 262.631 l
124.886 244.229 l
128.15 244.229 l
129.782 240.289 l
131.414 224.371 l
137.943 224.371 l
139.575 217.052 l
141.207 211.496 l
142.839 211.496 l
144.472 210.473 l
146.104 210.366 l
147.736 205.419 l
149.368 205.419 l
151 200.984 l
152.632 200.27 l
154.264 193.223 l
155.897 192.301 l
157.529 188.552 l
159.161 185.974 l
160.793 185.974 l
162.425 185.04 l
164.057 185.04 l
165.69 184.677 l
167.322 184.677 l
168.954 181.731 l
170.586 181.731 l
172.218 181.086 l
173.85 181.086 l
175.482 178.57 l
180.379 178.57 l
182.011 178.06 l
183.643 177.212 l
190.172 177.212 l
191.804 175.813 l
193.436 175.813 l
195.068 174.933 l
196.7 174.933 l
198.333 174.532 l
199.965 174.351 l
201.597 174.351 l
203.229 174.044 l
206.493 173.721 l
208.125 173.068 l
211.39 173.068 l
213.022 172.503 l
221.183 172.503 l
222.815 172.062 l
227.711 172.044 l
230.976 171.59 l
232.608 171.361 l
239.136 171.329 l
242.401 170.49 l
248.929 170.378 l
250.561 170.21 l
258.722 170.164 l
261.986 170.04 l
273.411 169.943 l
278.308 169.885 l
281.572 169.885 l
283.204 169.725 l
296.262 169.666 l
299.526 169.591 l
332.169 169.481 l
346.858 169.446 l
756.528 169.415 l
756.528 169.415 l
stroke
grestore
0.000 0.000 1.000 setrgbcolor
gsave
652.9 478.1 105.3 59.76 clipbox
105.3 395.405 m
106.932 389.163 l
108.564 389.163 l
110.196 352.19 l
113.461 352.19 l
115.093 341.17 l
116.725 341.17 l
118.357 324.252 l
119.989 324.252 l
121.621 283.849 l
123.254 283.849 l
124.886 283.436 l
126.518 281.715 l
131.414 281.715 l
133.047 280.298 l
134.679 279.568 l
136.311 271.672 l
137.943 271.15 l
144.472 271.15 l
146.104 265.29 l
147.736 264.665 l
149.368 263.781 l
151 253.689 l
152.632 249.057 l
154.264 246.616 l
155.897 238.501 l
157.529 236.54 l
159.161 236.54 l
160.793 234.871 l
162.425 234.871 l
164.057 234.138 l
167.322 232.905 l
168.954 229.506 l
170.586 228.082 l
172.218 227.955 l
180.379 227.955 l
182.011 227.384 l
183.643 224.841 l
190.172 224.841 l
191.804 224.621 l
193.436 221.909 l
195.068 221.909 l
198.333 221.54 l
201.597 221.54 l
203.229 221.255 l
204.861 220.475 l
208.125 220.475 l
209.758 219.601 l
214.654 219.601 l
216.286 219.248 l
232.608 219.194 l
234.24 219.094 l
235.872 218.481 l
239.136 218.481 l
240.768 218.348 l
247.297 218.249 l
248.929 218.083 l
257.09 218.006 l
258.722 217.795 l
278.308 217.707 l
283.204 217.644 l
317.479 217.481 l
756.528 217.382 l
756.528 217.382 l
stroke
grestore
0.000 0.500 0.000 setrgbcolor
gsave
652.9 478.1 105.3 59.76 clipbox
105.3 456.082 m
106.932 403.661 l
111.829 403.661 l
113.461 397.998 l
115.093 361.534 l
116.725 361.534 l
118.357 351.062 l
119.989 344.89 l
121.621 340.924 l
123.254 322.995 l
126.518 322.995 l
128.15 320.894 l
133.047 320.894 l
134.679 318.779 l
137.943 318.779 l
139.575 311.816 l
141.207 311.816 l
142.839 311.442 l
144.472 309.222 l
146.104 309.125 l
147.736 306.687 l
149.368 306.687 l
151 300.159 l
152.632 295.201 l
154.264 291.676 l
155.897 291.644 l
157.529 290.391 l
162.425 290.391 l
164.057 289.557 l
168.954 289.557 l
170.586 286.327 l
175.482 286.327 l
177.115 285.082 l
178.747 282.966 l
180.379 282.966 l
182.011 281.18 l
183.643 280.744 l
185.275 280.595 l
190.172 280.594 l
191.804 280.125 l
193.436 279.152 l
195.068 278.972 l
196.7 278.972 l
198.333 278.653 l
203.229 278.653 l
204.861 276.905 l
208.125 276.905 l
209.758 276.245 l
214.654 276.245 l
219.55 275.665 l
221.183 274.805 l
229.343 274.697 l
237.504 274.674 l
239.136 274.674 l
240.768 274.34 l
242.401 274.34 l
244.033 274.18 l
245.665 274.18 l
247.297 274.057 l
248.929 273.763 l
250.561 273.763 l
252.194 273.624 l
265.251 273.527 l
270.147 273.375 l
283.204 273.2 l
756.528 273.059 l
756.528 273.059 l
stroke
grestore
1.000 0.000 0.000 setrgbcolor
gsave
652.9 478.1 105.3 59.76 clipbox
105.3 481.799 m
106.932 476.959 l
108.564 462.105 l
110.196 451.021 l
111.829 404.783 l
113.461 404.783 l
115.093 402.746 l
116.725 399.308 l
118.357 387.342 l
119.989 381.186 l
121.621 380.827 l
123.254 377.662 l
124.886 377.662 l
126.518 371.869 l
128.15 369.55 l
129.782 369.55 l
131.414 364.653 l
134.679 364.653 l
136.311 362.628 l
137.943 360.082 l
144.472 360.082 l
146.104 358.52 l
147.736 353.948 l
149.368 353.948 l
151 353.275 l
154.264 353.275 l
155.897 352.429 l
157.529 349.79 l
160.793 349.79 l
162.425 349.235 l
167.322 349.235 l
168.954 348.877 l
170.586 348.353 l
173.85 346.915 l
175.482 346.915 l
177.115 345.687 l
180.379 344.833 l
182.011 342.867 l
183.643 342.867 l
185.275 342.071 l
188.54 342.071 l
190.172 340.651 l
193.436 340.651 l
195.068 339.734 l
196.7 339.152 l
198.333 338.786 l
208.125 338.786 l
209.758 338.123 l
213.022 338.123 l
214.654 337.616 l
216.286 336.908 l
217.918 336.45 l
219.55 336.292 l
221.183 335.891 l
232.608 335.805 l
235.872 335.747 l
252.194 335.638 l
257.09 335.495 l
261.986 335.343 l
270.147 335.207 l
275.044 335.17 l
297.894 335.065 l
353.387 334.888 l
562.302 334.851 l
756.528 334.847 l
756.528 334.847 l
stroke
grestore
0.000 0.750 0.750 setrgbcolor
gsave
652.9 478.1 105.3 59.76 clipbox
105.3 511.531 m
106.932 511.531 l
108.564 461.018 l
111.829 461.018 l
113.461 451.581 l
115.093 444.861 l
116.725 444.652 l
118.357 444.652 l
119.989 437.568 l
121.621 437.568 l
123.254 430.126 l
124.886 429.015 l
126.518 429.015 l
128.15 424.208 l
129.782 424.208 l
131.414 422.738 l
133.047 422.738 l
136.311 422.546 l
137.943 422.546 l
139.575 418.106 l
144.472 418.105 l
146.104 417.958 l
147.736 417.958 l
149.368 415.77 l
152.632 415.77 l
155.897 412.176 l
157.529 412.176 l
159.161 411.068 l
162.425 411.068 l
164.057 410.537 l
165.69 410.537 l
167.322 409.437 l
168.954 409.022 l
172.218 409.022 l
173.85 407.708 l
175.482 407.708 l
178.747 406.321 l
186.907 406.318 l
188.54 405.646 l
190.172 405.646 l
191.804 404.972 l
195.068 404.968 l
196.7 404.288 l
199.965 404.254 l
201.597 404.133 l
204.861 404.133 l
206.493 403.884 l
208.125 403.809 l
209.758 403.482 l
211.39 403.482 l
213.022 403.287 l
217.918 403.223 l
219.55 402.823 l
221.183 402.823 l
222.815 402.7 l
226.079 402.607 l
227.711 402.56 l
229.343 402.283 l
237.504 402.186 l
240.768 402.088 l
242.401 401.72 l
258.722 401.657 l
260.354 401.516 l
284.837 401.422 l
294.629 401.389 l
356.651 401.277 l
619.427 401.252 l
756.528 401.25 l
756.528 401.25 l
stroke
grestore
0.500 setlinewidth
0 setlinecap
0.000 setgray
gsave
/o {
gsave
newpath
translate
0 0 m
0 4 l
gsave
0.000 setgray
fill
grestore
stroke
grestore
} bind def
105.3 59.76 o
grestore
gsave
/o {
gsave
newpath
translate
0 0 m
0 -4 l
gsave
0.000 setgray
fill
grestore
stroke
grestore
} bind def
105.3 537.84 o
grestore
/BitstreamVeraSans-Roman findfont
12.000 scalefont
setfont
gsave
102.276562 46.681875 translate
0.000000 rotate
0.000000 0.171875 m /zero glyphshow
grestore
gsave
/o {
gsave
newpath
translate
0 0 m
0 4 l
gsave
0.000 setgray
fill
grestore
stroke
grestore
} bind def
186.907 59.76 o
grestore
gsave
/o {
gsave
newpath
translate
0 0 m
0 -4 l
gsave
0.000 setgray
fill
grestore
stroke
grestore
} bind def
186.907 537.84 o
grestore
gsave
180.126250 46.681875 translate
0.000000 rotate
0.000000 0.171875 m /five glyphshow
7.634766 0.171875 m /zero glyphshow
grestore
gsave
/o {
gsave
newpath
translate
0 0 m
0 4 l
gsave
0.000 setgray
fill
grestore
stroke
grestore
} bind def
268.515 59.76 o
grestore
gsave
/o {
gsave
newpath
translate
0 0 m
0 -4 l
gsave
0.000 setgray
fill
grestore
stroke
grestore
} bind def
268.515 537.84 o
grestore
gsave
258.108750 46.681875 translate
0.000000 rotate
0.000000 0.171875 m /one glyphshow
7.634766 0.171875 m /zero glyphshow
15.269531 0.171875 m /zero glyphshow
grestore
gsave
/o {
gsave
newpath
translate
0 0 m
0 4 l
gsave
0.000 setgray
fill
grestore
stroke
grestore
} bind def
350.123 59.76 o
grestore
gsave
/o {
gsave
newpath
translate
0 0 m
0 -4 l
gsave
0.000 setgray
fill
grestore
stroke
grestore
} bind def
350.123 537.84 o
grestore
gsave
339.716250 46.681875 translate
0.000000 rotate
0.000000 0.171875 m /one glyphshow
7.634766 0.171875 m /five glyphshow
15.269531 0.171875 m /zero glyphshow
grestore
gsave
/o {
gsave
newpath
translate
0 0 m
0 4 l
gsave
0.000 setgray
fill
grestore
stroke
grestore
} bind def
431.73 59.76 o
grestore
gsave
/o {
gsave
newpath
translate
0 0 m
0 -4 l
gsave
0.000 setgray
fill
grestore
stroke
grestore
} bind def
431.73 537.84 o
grestore
gsave
421.105000 46.681875 translate
0.000000 rotate
0.000000 0.171875 m /two glyphshow
7.634766 0.171875 m /zero glyphshow
15.269531 0.171875 m /zero glyphshow
grestore
gsave
/o {
gsave
newpath
translate
0 0 m
0 4 l
gsave
0.000 setgray
fill
grestore
stroke
grestore
} bind def
513.337 59.76 o
grestore
gsave
/o {
gsave
newpath
translate
0 0 m
0 -4 l
gsave
0.000 setgray
fill
grestore
stroke
grestore
} bind def
513.337 537.84 o
grestore
gsave
502.712500 46.681875 translate
0.000000 rotate
0.000000 0.171875 m /two glyphshow
7.634766 0.171875 m /five glyphshow
15.269531 0.171875 m /zero glyphshow
grestore
gsave
/o {
gsave
newpath
translate
0 0 m
0 4 l
gsave
0.000 setgray
fill
grestore
stroke
grestore
} bind def
594.945 59.76 o
grestore
gsave
/o {
gsave
newpath
translate
0 0 m
0 -4 l
gsave
0.000 setgray
fill
grestore
stroke
grestore
} bind def
594.945 537.84 o
grestore
gsave
584.343438 46.681875 translate
0.000000 rotate
0.000000 0.171875 m /three glyphshow
7.634766 0.171875 m /zero glyphshow
15.269531 0.171875 m /zero glyphshow
grestore
gsave
/o {
gsave
newpath
translate
0 0 m
0 4 l
gsave
0.000 setgray
fill
grestore
stroke
grestore
} bind def
676.553 59.76 o
grestore
gsave
/o {
gsave
newpath
translate
0 0 m
0 -4 l
gsave
0.000 setgray
fill
grestore
stroke
grestore
} bind def
676.553 537.84 o
grestore
gsave
665.950938 46.681875 translate
0.000000 rotate
0.000000 0.171875 m /three glyphshow
7.634766 0.171875 m /five glyphshow
15.269531 0.171875 m /zero glyphshow
grestore
gsave
/o {
gsave
newpath
translate
0 0 m
0 4 l
gsave
0.000 setgray
fill
grestore
stroke
grestore
} bind def
758.16 59.76 o
grestore
gsave
/o {
gsave
newpath
translate
0 0 m
0 -4 l
gsave
0.000 setgray
fill
grestore
stroke
grestore
} bind def
758.16 537.84 o
grestore
gsave
747.394375 46.681875 translate
0.000000 rotate
0.000000 0.171875 m /four glyphshow
7.634766 0.171875 m /zero glyphshow
15.269531 0.171875 m /zero glyphshow
grestore
gsave
399.089375 32.385000 translate
0.000000 rotate
0.000000 0.171875 m /G glyphshow
9.298828 0.171875 m /e glyphshow
16.681641 0.171875 m /n glyphshow
24.287109 0.171875 m /e glyphshow
31.669922 0.171875 m /r glyphshow
36.603516 0.171875 m /a glyphshow
43.957031 0.171875 m /t glyphshow
48.662109 0.171875 m /i glyphshow
51.996094 0.171875 m /o glyphshow
59.337891 0.171875 m /n glyphshow
grestore
gsave
/o {
gsave
newpath
translate
0 0 m
4 0 l
gsave
0.000 setgray
fill
grestore
stroke
grestore
} bind def
105.3 59.76 o
grestore
gsave
/o {
gsave
newpath
translate
0 0 m
-4 0 l
gsave
0.000 setgray
fill
grestore
stroke
grestore
} bind def
758.16 59.76 o
grestore
gsave
83.800000 55.220937 translate
0.000000 rotate
0.000000 0.171875 m /zero glyphshow
7.634766 0.171875 m /period glyphshow
11.449219 0.171875 m /zero glyphshow
grestore
gsave
/o {
gsave
newpath
translate
0 0 m
4 0 l
gsave
0.000 setgray
fill
grestore
stroke
grestore
} bind def
105.3 128.057 o
grestore
gsave
/o {
gsave
newpath
translate
0 0 m
-4 0 l
gsave
0.000 setgray
fill
grestore
stroke
grestore
} bind def
758.16 128.057 o
grestore
gsave
84.206250 123.518080 translate
0.000000 rotate
0.000000 0.171875 m /zero glyphshow
7.634766 0.171875 m /period glyphshow
11.449219 0.171875 m /two glyphshow
grestore
gsave
/o {
gsave
newpath
translate
0 0 m
4 0 l
gsave
0.000 setgray
fill
grestore
stroke
grestore
} bind def
105.3 196.354 o
grestore
gsave
/o {
gsave
newpath
translate
0 0 m
-4 0 l
gsave
0.000 setgray
fill
grestore
stroke
grestore
} bind def
758.16 196.354 o
grestore
gsave
83.675000 191.815223 translate
0.000000 rotate
0.000000 0.171875 m /zero glyphshow
7.634766 0.171875 m /period glyphshow
11.449219 0.171875 m /four glyphshow
grestore
gsave
/o {
gsave
newpath
translate
0 0 m
4 0 l
gsave
0.000 setgray
fill
grestore
stroke
grestore
} bind def
105.3 264.651 o
grestore
gsave
/o {
gsave
newpath
translate
0 0 m
-4 0 l
gsave
0.000 setgray
fill
grestore
stroke
grestore
} bind def
758.16 264.651 o
grestore
gsave
83.768750 260.112366 translate
0.000000 rotate
0.000000 0.171875 m /zero glyphshow
7.634766 0.171875 m /period glyphshow
11.449219 0.171875 m /six glyphshow
grestore
gsave
/o {
gsave
newpath
translate
0 0 m
4 0 l
gsave
0.000 setgray
fill
grestore
stroke
grestore
} bind def
105.3 332.949 o
grestore
gsave
/o {
gsave
newpath
translate
0 0 m
-4 0 l
gsave
0.000 setgray
fill
grestore
stroke
grestore
} bind def
758.16 332.949 o
grestore
gsave
83.831250 328.409509 translate
0.000000 rotate
0.000000 0.171875 m /zero glyphshow
7.634766 0.171875 m /period glyphshow
11.449219 0.171875 m /eight glyphshow
grestore
gsave
/o {
gsave
newpath
translate
0 0 m
4 0 l
gsave
0.000 setgray
fill
grestore
stroke
grestore
} bind def
105.3 401.246 o
grestore
gsave
/o {
gsave
newpath
translate
0 0 m
-4 0 l
gsave
0.000 setgray
fill
grestore
stroke
grestore
} bind def
758.16 401.246 o
grestore
gsave
84.315625 396.706652 translate
0.000000 rotate
0.000000 0.171875 m /one glyphshow
7.634766 0.171875 m /period glyphshow
11.449219 0.171875 m /zero glyphshow
grestore
gsave
/o {
gsave
newpath
translate
0 0 m
4 0 l
gsave
0.000 setgray
fill
grestore
stroke
grestore
} bind def
105.3 469.543 o
grestore
gsave
/o {
gsave
newpath
translate
0 0 m
-4 0 l
gsave
0.000 setgray
fill
grestore
stroke
grestore
} bind def
758.16 469.543 o
grestore
gsave
84.721875 465.089732 translate
0.000000 rotate
0.000000 0.000000 m /one glyphshow
7.634766 0.000000 m /period glyphshow
11.449219 0.000000 m /two glyphshow
grestore
gsave
/o {
gsave
newpath
translate
0 0 m
4 0 l
gsave
0.000 setgray
fill
grestore
stroke
grestore
} bind def
105.3 537.84 o
grestore
gsave
/o {
gsave
newpath
translate
0 0 m
-4 0 l
gsave
0.000 setgray
fill
grestore
stroke
grestore
} bind def
758.16 537.84 o
grestore
gsave
84.190625 533.465000 translate
0.000000 rotate
0.000000 0.000000 m /one glyphshow
7.634766 0.000000 m /period glyphshow
11.449219 0.000000 m /four glyphshow
grestore
gsave
78.675000 257.229688 translate
90.000000 rotate
0.000000 2.500000 m /E glyphshow
7.582031 2.500000 m /n glyphshow
15.187500 2.500000 m /t glyphshow
19.892578 2.500000 m /a glyphshow
27.246094 2.500000 m /n glyphshow
34.851562 2.500000 m /g glyphshow
42.468750 2.500000 m /l glyphshow
45.802734 2.500000 m /e glyphshow
53.185547 2.500000 m /m glyphshow
64.875000 2.500000 m /e glyphshow
72.257812 2.500000 m /n glyphshow
79.863281 2.500000 m /t glyphshow
grestore
1.000 setlinewidth
2 setlinecap
gsave
105.3 537.84 m
758.16 537.84 l
stroke
grestore
gsave
758.16 59.76 m
758.16 537.84 l
stroke
grestore
gsave
105.3 59.76 m
758.16 59.76 l
stroke
grestore
gsave
105.3 59.76 m
105.3 537.84 l
stroke
grestore
/BitstreamVeraSans-Roman findfont
14.400 scalefont
setfont
gsave
268.636250 540.996250 translate
0.000000 rotate
0.000000 1.843750 m /E glyphshow
9.082642 1.843750 m /v glyphshow
17.589722 1.843750 m /o glyphshow
26.384583 1.843750 m /l glyphshow
30.378418 1.843750 m /u glyphshow
39.489136 1.843750 m /t glyphshow
45.125427 1.843750 m /i glyphshow
49.119263 1.843750 m /o glyphshow
57.914124 1.843750 m /n glyphshow
67.024841 1.843750 m /space glyphshow
71.594238 1.843750 m /o glyphshow
80.389099 1.843750 m /f glyphshow
85.449829 1.843750 m /space glyphshow
90.019226 1.843750 m /C glyphshow
100.056458 1.843750 m /h glyphshow
109.167175 1.843750 m /e glyphshow
118.011169 1.843750 m /n glyphshow
127.121887 1.843750 m /space glyphshow
131.691284 1.843750 m /parenleft glyphshow
137.299500 1.843750 m /m glyphshow
151.302490 1.843750 m /e glyphshow
160.146484 1.843750 m /a glyphshow
168.955383 1.843750 m /s glyphshow
176.444702 1.843750 m /u glyphshow
185.555420 1.843750 m /r glyphshow
191.090454 1.843750 m /e glyphshow
199.934448 1.843750 m /colon glyphshow
204.777588 1.843750 m /space glyphshow
209.346985 1.843750 m /H glyphshow
220.156311 1.843750 m /i glyphshow
224.150146 1.843750 m /l glyphshow
228.143982 1.843750 m /b glyphshow
237.268738 1.843750 m /e glyphshow
246.112732 1.843750 m /r glyphshow
252.022766 1.843750 m /t glyphshow
257.659058 1.843750 m /hyphen glyphshow
262.846130 1.843750 m /S glyphshow
271.970886 1.843750 m /c glyphshow
279.874329 1.843750 m /h glyphshow
288.985046 1.843750 m /m glyphshow
302.988037 1.843750 m /i glyphshow
306.981873 1.843750 m /d glyphshow
316.106628 1.843750 m /t glyphshow
321.742920 1.843750 m /parenright glyphshow
grestore
gsave
593.12 282.12 m
750.96 282.12 l
750.96 530.64 l
593.12 530.64 l
593.12 282.12 l
cl
gsave
1.000 setgray
fill
grestore
stroke
grestore
0.000 0.000 1.000 setrgbcolor
gsave
603.2 518.92 m
623.36 518.92 l
stroke
grestore
0.000 setgray
gsave
639.200000 509.880000 translate
0.000000 rotate
/Cmmi10 findfont
14.4 scalefont
setfont
0.000000 4.609375 moveto
/lambda glyphshow

/Cmr10 findfont
10.08 scalefont
setfont
8.389847 0.936025 moveto
/three glyphshow

/BitstreamVeraSans-Roman findfont
14.4 scalefont
setfont
15.585159 4.609375 moveto
/space glyphshow

20.154556 4.609375 moveto
/equal glyphshow

32.199234 4.609375 moveto
/space glyphshow

36.768631 4.609375 moveto
/zero glyphshow

45.914444 4.609375 moveto
/period glyphshow

50.483841 4.609375 moveto
/zero glyphshow

59.629654 4.609375 moveto
/zero glyphshow

68.775467 4.609375 moveto
/zero glyphshow

77.921280 4.609375 moveto
/zero glyphshow

87.067093 4.609375 moveto
/zero glyphshow

96.212906 4.609375 moveto
/zero glyphshow


grestore
0.000 0.500 0.000 setrgbcolor
gsave
603.2 496.72 m
623.36 496.72 l
stroke
grestore
0.000 setgray
gsave
639.200000 487.680000 translate
0.000000 rotate
/Cmmi10 findfont
14.4 scalefont
setfont
0.000000 4.609375 moveto
/lambda glyphshow

/Cmr10 findfont
10.08 scalefont
setfont
8.389847 0.936025 moveto
/three glyphshow

/BitstreamVeraSans-Roman findfont
14.4 scalefont
setfont
15.585159 4.609375 moveto
/space glyphshow

20.154556 4.609375 moveto
/equal glyphshow

32.199234 4.609375 moveto
/space glyphshow

36.768631 4.609375 moveto
/zero glyphshow

45.914444 4.609375 moveto
/period glyphshow

50.483841 4.609375 moveto
/one glyphshow

59.629654 4.609375 moveto
/zero glyphshow

68.775467 4.609375 moveto
/zero glyphshow

77.921280 4.609375 moveto
/zero glyphshow

87.067093 4.609375 moveto
/zero glyphshow

96.212906 4.609375 moveto
/zero glyphshow


grestore
1.000 0.000 0.000 setrgbcolor
gsave
603.2 474.52 m
623.36 474.52 l
stroke
grestore
0.000 setgray
gsave
639.200000 465.480000 translate
0.000000 rotate
/Cmmi10 findfont
14.4 scalefont
setfont
0.000000 4.609375 moveto
/lambda glyphshow

/Cmr10 findfont
10.08 scalefont
setfont
8.389847 0.936025 moveto
/three glyphshow

/BitstreamVeraSans-Roman findfont
14.4 scalefont
setfont
15.585159 4.609375 moveto
/space glyphshow

20.154556 4.609375 moveto
/equal glyphshow

32.199234 4.609375 moveto
/space glyphshow

36.768631 4.609375 moveto
/zero glyphshow

45.914444 4.609375 moveto
/period glyphshow

49.733841 4.609375 moveto
/two glyphshow

58.879654 4.609375 moveto
/zero glyphshow

68.025467 4.609375 moveto
/zero glyphshow

77.171280 4.609375 moveto
/zero glyphshow

86.317093 4.609375 moveto
/zero glyphshow

95.462906 4.609375 moveto
/zero glyphshow


grestore
0.000 0.750 0.750 setrgbcolor
gsave
603.2 452.32 m
623.36 452.32 l
stroke
grestore
0.000 setgray
gsave
639.200000 443.280000 translate
0.000000 rotate
/Cmmi10 findfont
14.4 scalefont
setfont
0.000000 4.609375 moveto
/lambda glyphshow

/Cmr10 findfont
10.08 scalefont
setfont
8.389847 0.936025 moveto
/three glyphshow

/BitstreamVeraSans-Roman findfont
14.4 scalefont
setfont
15.585159 4.609375 moveto
/space glyphshow

20.154556 4.609375 moveto
/equal glyphshow

32.199234 4.609375 moveto
/space glyphshow

36.768631 4.609375 moveto
/zero glyphshow

45.914444 4.609375 moveto
/period glyphshow

50.483841 4.609375 moveto
/three glyphshow

59.629654 4.609375 moveto
/zero glyphshow

68.775467 4.609375 moveto
/zero glyphshow

77.921280 4.609375 moveto
/zero glyphshow

87.067093 4.609375 moveto
/zero glyphshow

96.212906 4.609375 moveto
/zero glyphshow


grestore
0.750 0.000 0.750 setrgbcolor
gsave
603.2 430.12 m
623.36 430.12 l
stroke
grestore
0.000 setgray
gsave
639.200000 421.080000 translate
0.000000 rotate
/Cmmi10 findfont
14.4 scalefont
setfont
0.000000 4.609375 moveto
/lambda glyphshow

/Cmr10 findfont
10.08 scalefont
setfont
8.389847 0.936025 moveto
/three glyphshow

/BitstreamVeraSans-Roman findfont
14.4 scalefont
setfont
15.585159 4.609375 moveto
/space glyphshow

20.154556 4.609375 moveto
/equal glyphshow

32.199234 4.609375 moveto
/space glyphshow

36.768631 4.609375 moveto
/zero glyphshow

45.914444 4.609375 moveto
/period glyphshow

50.483841 4.609375 moveto
/four glyphshow

59.629654 4.609375 moveto
/zero glyphshow

68.775467 4.609375 moveto
/zero glyphshow

77.921280 4.609375 moveto
/zero glyphshow

87.067093 4.609375 moveto
/zero glyphshow

96.212906 4.609375 moveto
/zero glyphshow


grestore
0.750 0.750 0.000 setrgbcolor
gsave
603.2 407.92 m
623.36 407.92 l
stroke
grestore
0.000 setgray
gsave
639.200000 398.880000 translate
0.000000 rotate
/Cmmi10 findfont
14.4 scalefont
setfont
0.000000 4.609375 moveto
/lambda glyphshow

/Cmr10 findfont
10.08 scalefont
setfont
8.389847 0.936025 moveto
/three glyphshow

/BitstreamVeraSans-Roman findfont
14.4 scalefont
setfont
15.585159 4.609375 moveto
/space glyphshow

20.154556 4.609375 moveto
/equal glyphshow

32.199234 4.609375 moveto
/space glyphshow

36.768631 4.609375 moveto
/zero glyphshow

45.914444 4.609375 moveto
/period glyphshow

50.483841 4.609375 moveto
/five glyphshow

59.629654 4.609375 moveto
/zero glyphshow

68.775467 4.609375 moveto
/zero glyphshow

77.921280 4.609375 moveto
/zero glyphshow

87.067093 4.609375 moveto
/zero glyphshow

96.212906 4.609375 moveto
/zero glyphshow


grestore
gsave
603.2 385.72 m
623.36 385.72 l
stroke
grestore
gsave
639.200000 376.680000 translate
0.000000 rotate
/Cmmi10 findfont
14.4 scalefont
setfont
0.000000 4.609375 moveto
/lambda glyphshow

/Cmr10 findfont
10.08 scalefont
setfont
8.389847 0.936025 moveto
/three glyphshow

/BitstreamVeraSans-Roman findfont
14.4 scalefont
setfont
15.585159 4.609375 moveto
/space glyphshow

20.154556 4.609375 moveto
/equal glyphshow

32.199234 4.609375 moveto
/space glyphshow

36.768631 4.609375 moveto
/zero glyphshow

45.914444 4.609375 moveto
/period glyphshow

50.483841 4.609375 moveto
/six glyphshow

59.629654 4.609375 moveto
/zero glyphshow

68.775467 4.609375 moveto
/zero glyphshow

77.921280 4.609375 moveto
/zero glyphshow

87.067093 4.609375 moveto
/zero glyphshow

96.212906 4.609375 moveto
/zero glyphshow


grestore
0.000 0.000 1.000 setrgbcolor
gsave
603.2 363.52 m
623.36 363.52 l
stroke
grestore
0.000 setgray
gsave
639.200000 354.480000 translate
0.000000 rotate
/Cmmi10 findfont
14.4 scalefont
setfont
0.000000 4.609375 moveto
/lambda glyphshow

/Cmr10 findfont
10.08 scalefont
setfont
8.389847 0.936025 moveto
/three glyphshow

/BitstreamVeraSans-Roman findfont
14.4 scalefont
setfont
15.585159 4.609375 moveto
/space glyphshow

20.154556 4.609375 moveto
/equal glyphshow

32.199234 4.609375 moveto
/space glyphshow

36.768631 4.609375 moveto
/zero glyphshow

45.914444 4.609375 moveto
/period glyphshow

49.358841 4.609375 moveto
/seven glyphshow

58.504654 4.609375 moveto
/zero glyphshow

67.650467 4.609375 moveto
/zero glyphshow

76.796280 4.609375 moveto
/zero glyphshow

85.942093 4.609375 moveto
/zero glyphshow

95.087906 4.609375 moveto
/zero glyphshow


grestore
0.000 0.500 0.000 setrgbcolor
gsave
603.2 341.32 m
623.36 341.32 l
stroke
grestore
0.000 setgray
gsave
639.200000 332.280000 translate
0.000000 rotate
/Cmmi10 findfont
14.4 scalefont
setfont
0.000000 4.609375 moveto
/lambda glyphshow

/Cmr10 findfont
10.08 scalefont
setfont
8.389847 0.936025 moveto
/three glyphshow

/BitstreamVeraSans-Roman findfont
14.4 scalefont
setfont
15.585159 4.609375 moveto
/space glyphshow

20.154556 4.609375 moveto
/equal glyphshow

32.199234 4.609375 moveto
/space glyphshow

36.768631 4.609375 moveto
/zero glyphshow

45.914444 4.609375 moveto
/period glyphshow

50.108841 4.609375 moveto
/eight glyphshow

59.254654 4.609375 moveto
/zero glyphshow

68.400467 4.609375 moveto
/zero glyphshow

77.546280 4.609375 moveto
/zero glyphshow

86.692093 4.609375 moveto
/zero glyphshow

95.837906 4.609375 moveto
/zero glyphshow


grestore
1.000 0.000 0.000 setrgbcolor
gsave
603.2 319.12 m
623.36 319.12 l
stroke
grestore
0.000 setgray
gsave
639.200000 310.080000 translate
0.000000 rotate
/Cmmi10 findfont
14.4 scalefont
setfont
0.000000 4.609375 moveto
/lambda glyphshow

/Cmr10 findfont
10.08 scalefont
setfont
8.389847 0.936025 moveto
/three glyphshow

/BitstreamVeraSans-Roman findfont
14.4 scalefont
setfont
15.585159 4.609375 moveto
/space glyphshow

20.154556 4.609375 moveto
/equal glyphshow

32.199234 4.609375 moveto
/space glyphshow

36.768631 4.609375 moveto
/zero glyphshow

45.914444 4.609375 moveto
/period glyphshow

50.483841 4.609375 moveto
/nine glyphshow

59.629654 4.609375 moveto
/zero glyphshow

68.775467 4.609375 moveto
/zero glyphshow

77.921280 4.609375 moveto
/zero glyphshow

87.067093 4.609375 moveto
/zero glyphshow

96.212906 4.609375 moveto
/zero glyphshow


grestore
0.000 0.750 0.750 setrgbcolor
gsave
603.2 296.92 m
623.36 296.92 l
stroke
grestore
0.000 setgray
gsave
639.200000 287.880000 translate
0.000000 rotate
/Cmmi10 findfont
14.4 scalefont
setfont
0.000000 4.609375 moveto
/lambda glyphshow

/Cmr10 findfont
10.08 scalefont
setfont
8.389847 0.936025 moveto
/three glyphshow

/BitstreamVeraSans-Roman findfont
14.4 scalefont
setfont
15.585159 4.609375 moveto
/space glyphshow

20.154556 4.609375 moveto
/equal glyphshow

32.199234 4.609375 moveto
/space glyphshow

36.768631 4.609375 moveto
/one glyphshow

45.914444 4.609375 moveto
/period glyphshow

50.483841 4.609375 moveto
/zero glyphshow

59.629654 4.609375 moveto
/zero glyphshow

68.775467 4.609375 moveto
/zero glyphshow

77.921280 4.609375 moveto
/zero glyphshow

87.067093 4.609375 moveto
/zero glyphshow

96.212906 4.609375 moveto
/zero glyphshow


grestore

end
showpage
