%!PS-Adobe-3.0 EPSF-3.0
%%Title: Chen2.entropy.example.evolution.eps
%%Creator: matplotlib version 1.1.1, http://matplotlib.sourceforge.net/
%%CreationDate: Mon Dec 17 20:07:57 2012
%%Orientation: portrait
%%BoundingBox: -115 97 727 694
%%EndComments
%%BeginProlog
/mpldict 10 dict def
mpldict begin
/m { moveto } bind def
/l { lineto } bind def
/r { rlineto } bind def
/c { curveto } bind def
/cl { closepath } bind def
/box {
m
1 index 0 r
0 exch r
neg 0 r
cl
} bind def
/clipbox {
box
clip
newpath
} bind def
%!PS-Adobe-3.0 Resource-Font
%%Title: cmr10
%%Copyright: Copyright (C) 1994, Basil K. Malyshev. All Rights Reserved.012BaKoMa Fonts Collection, Level-B.
%%Creator: Converted from TrueType to type 3 by PPR
25 dict begin
/_d{bind def}bind def
/_m{moveto}_d
/_l{lineto}_d
/_cl{closepath eofill}_d
/_c{curveto}_d
/_sc{7 -1 roll{setcachedevice}{pop pop pop pop pop pop}ifelse}_d
/_e{exec}_d
/FontName /Cmr10 def
/PaintType 0 def
/FontMatrix[.001 0 0 .001 0 0]def
/FontBBox[-44 -250 1009 750]def
/FontType 3 def
/Encoding [ /three ] def
/FontInfo 10 dict dup begin
/FamilyName (cmr10) def
/FullName (cmr10) def
/Notice (Copyright (C) 1994, Basil K. Malyshev. All Rights Reserved.012BaKoMa Fonts Collection, Level-B. ) def
/Weight (Regular) def
/Version (1.1/12-Nov-94) def
/ItalicAngle 0.0 def
/isFixedPitch false def
/UnderlinePosition -133 def
/UnderlineThickness 20 def
end readonly def
/CharStrings 1 dict dup begin
/three{{500 0 42 -21 457 666 _sc
95 77 _m
111 54 132 37 158 26 _c
184 15 213 10 243 10 _c
281 10 309 26 325 59 _c
341 92 350 130 350 172 _c
350 190 348 209 345 228 _c
341 247 335 265 327 281 _c
319 297 308 310 294 320 _c
280 330 262 335 242 335 _c
176 335 _l
170 335 167 338 167 344 _c
167 353 _l
167 358 170 361 176 361 _c
231 365 _l
254 365 273 373 289 391 _c
}_e{305 409 316 430 323 456 _c
330 481 334 505 334 528 _c
334 560 326 586 311 606 _c
296 626 273 637 243 637 _c
217 637 193 632 170 622 _c
147 612 129 598 115 579 _c
116 579 117 580 118 580 _c
119 580 120 580 122 580 _c
137 580 150 574 160 564 _c
170 554 175 541 175 527 _c
175 512 170 499 160 489 _c
150 479 137 474 122 474 _c
107 474 94 479 84 489 _c
}_e{74 499 69 512 69 527 _c
69 555 77 580 95 601 _c
112 622 134 638 161 649 _c
188 660 215 666 243 666 _c
263 666 284 663 307 657 _c
329 651 350 642 368 631 _c
386 619 401 605 413 588 _c
424 570 430 550 430 528 _c
430 500 423 474 411 450 _c
399 426 382 406 360 389 _c
338 371 314 358 288 350 _c
317 344 345 333 371 317 _c
397 301 417 280 433 255 _c
}_e{449 229 457 202 457 173 _c
457 136 446 103 426 73 _c
406 43 379 19 347 3 _c
314 -13 279 -21 243 -21 _c
211 -21 180 -15 149 -3 _c
117 8 92 25 72 49 _c
52 73 42 101 42 135 _c
42 151 47 165 58 176 _c
69 187 83 193 100 193 _c
110 193 120 190 129 185 _c
138 180 145 173 150 164 _c
155 154 158 145 158 135 _c
158 118 152 104 141 93 _c
}_e{129 82 116 77 100 77 _c
95 77 _l
_cl}_e}_d
end readonly def

/BuildGlyph
 {exch begin
 CharStrings exch
 2 copy known not{pop /.notdef}if
 true 3 1 roll get exec
 end}_d

/BuildChar {
 1 index /Encoding get exch get
 1 index /BuildGlyph get exec
}_d

FontName currentdict end definefont pop
%!PS-Adobe-3.0 Resource-Font
%%Title: Bitstream Vera Sans
%%Copyright: Copyright (c) 2003 by Bitstream, Inc. All Rights Reserved.
%%Creator: Converted from TrueType to type 3 by PPR
25 dict begin
/_d{bind def}bind def
/_m{moveto}_d
/_l{lineto}_d
/_cl{closepath eofill}_d
/_c{curveto}_d
/_sc{7 -1 roll{setcachedevice}{pop pop pop pop pop pop}ifelse}_d
/_e{exec}_d
/FontName /BitstreamVeraSans-Roman def
/PaintType 0 def
/FontMatrix[.001 0 0 .001 0 0]def
/FontBBox[-183 -236 1287 928]def
/FontType 3 def
/Encoding [ /space /parenleft /parenright /period /zero /one /two /three /four /five /six /seven /eight /nine /colon /equal /C /E /G /a /e /f /g /h /i /l /m /n /o /p /r /s /t /u /v /y ] def
/FontInfo 10 dict dup begin
/FamilyName (Bitstream Vera Sans) def
/FullName (Bitstream Vera Sans) def
/Notice (Copyright (c) 2003 by Bitstream, Inc. All Rights Reserved. Bitstream Vera is a trademark of Bitstream, Inc.) def
/Weight (Roman) def
/Version (Release 1.10) def
/ItalicAngle 0.0 def
/isFixedPitch false def
/UnderlinePosition -213 def
/UnderlineThickness 143 def
end readonly def
/CharStrings 36 dict dup begin
/space{318 0 0 0 0 0 _sc
}_d
/parenleft{390 0 86 -131 310 759 _sc
310 759 _m
266 683 234 609 213 536 _c
191 463 181 389 181 314 _c
181 238 191 164 213 91 _c
234 17 266 -56 310 -131 _c
232 -131 _l
183 -54 146 20 122 94 _c
98 168 86 241 86 314 _c
86 386 98 459 122 533 _c
146 607 182 682 232 759 _c
310 759 _l
_cl}_d
/parenright{390 0 80 -131 304 759 _sc
80 759 _m
158 759 _l
206 682 243 607 267 533 _c
291 459 304 386 304 314 _c
304 241 291 168 267 94 _c
243 20 206 -54 158 -131 _c
80 -131 _l
123 -56 155 17 177 91 _c
198 164 209 238 209 314 _c
209 389 198 463 177 536 _c
155 609 123 683 80 759 _c
_cl}_d
/period{318 0 107 0 210 124 _sc
107 124 _m
210 124 _l
210 0 _l
107 0 _l
107 124 _l
_cl}_d
/zero{636 0 66 -13 570 742 _sc
318 664 _m
267 664 229 639 203 589 _c
177 539 165 464 165 364 _c
165 264 177 189 203 139 _c
229 89 267 64 318 64 _c
369 64 407 89 433 139 _c
458 189 471 264 471 364 _c
471 464 458 539 433 589 _c
407 639 369 664 318 664 _c
318 742 _m
399 742 461 709 505 645 _c
548 580 570 486 570 364 _c
570 241 548 147 505 83 _c
461 19 399 -13 318 -13 _c
236 -13 173 19 130 83 _c
87 147 66 241 66 364 _c
66 486 87 580 130 645 _c
173 709 236 742 318 742 _c
_cl}_d
/one{636 0 110 0 544 729 _sc
124 83 _m
285 83 _l
285 639 _l
110 604 _l
110 694 _l
284 729 _l
383 729 _l
383 83 _l
544 83 _l
544 0 _l
124 0 _l
124 83 _l
_cl}_d
/two{{636 0 73 0 536 742 _sc
192 83 _m
536 83 _l
536 0 _l
73 0 _l
73 83 _l
110 121 161 173 226 239 _c
290 304 331 346 348 365 _c
380 400 402 430 414 455 _c
426 479 433 504 433 528 _c
433 566 419 598 392 622 _c
365 646 330 659 286 659 _c
255 659 222 653 188 643 _c
154 632 117 616 78 594 _c
78 694 _l
118 710 155 722 189 730 _c
223 738 255 742 284 742 _c
}_e{359 742 419 723 464 685 _c
509 647 532 597 532 534 _c
532 504 526 475 515 449 _c
504 422 484 390 454 354 _c
446 344 420 317 376 272 _c
332 227 271 164 192 83 _c
_cl}_e}_d
/three{{636 0 76 -13 556 742 _sc
406 393 _m
453 383 490 362 516 330 _c
542 298 556 258 556 212 _c
556 140 531 84 482 45 _c
432 6 362 -13 271 -13 _c
240 -13 208 -10 176 -4 _c
144 1 110 10 76 22 _c
76 117 _l
103 101 133 89 166 81 _c
198 73 232 69 268 69 _c
330 69 377 81 409 105 _c
441 129 458 165 458 212 _c
458 254 443 288 413 312 _c
383 336 341 349 287 349 _c
}_e{202 349 _l
202 430 _l
291 430 _l
339 430 376 439 402 459 _c
428 478 441 506 441 543 _c
441 580 427 609 401 629 _c
374 649 336 659 287 659 _c
260 659 231 656 200 650 _c
169 644 135 635 98 623 _c
98 711 _l
135 721 170 729 203 734 _c
235 739 266 742 296 742 _c
370 742 429 725 473 691 _c
517 657 539 611 539 553 _c
539 513 527 479 504 451 _c
481 423 448 403 406 393 _c
_cl}_e}_d
/four{636 0 49 0 580 729 _sc
378 643 _m
129 254 _l
378 254 _l
378 643 _l
352 729 _m
476 729 _l
476 254 _l
580 254 _l
580 172 _l
476 172 _l
476 0 _l
378 0 _l
378 172 _l
49 172 _l
49 267 _l
352 729 _l
_cl}_d
/five{{636 0 77 -13 549 729 _sc
108 729 _m
495 729 _l
495 646 _l
198 646 _l
198 467 _l
212 472 227 476 241 478 _c
255 480 270 482 284 482 _c
365 482 429 459 477 415 _c
525 370 549 310 549 234 _c
549 155 524 94 475 51 _c
426 8 357 -13 269 -13 _c
238 -13 207 -10 175 -6 _c
143 -1 111 6 77 17 _c
77 116 _l
106 100 136 88 168 80 _c
199 72 232 69 267 69 _c
}_e{323 69 368 83 401 113 _c
433 143 450 183 450 234 _c
450 284 433 324 401 354 _c
368 384 323 399 267 399 _c
241 399 214 396 188 390 _c
162 384 135 375 108 363 _c
108 729 _l
_cl}_e}_d
/six{{636 0 70 -13 573 742 _sc
330 404 _m
286 404 251 388 225 358 _c
199 328 186 286 186 234 _c
186 181 199 139 225 109 _c
251 79 286 64 330 64 _c
374 64 409 79 435 109 _c
461 139 474 181 474 234 _c
474 286 461 328 435 358 _c
409 388 374 404 330 404 _c
526 713 _m
526 623 _l
501 635 476 644 451 650 _c
425 656 400 659 376 659 _c
310 659 260 637 226 593 _c
}_e{192 549 172 482 168 394 _c
187 422 211 444 240 459 _c
269 474 301 482 336 482 _c
409 482 467 459 509 415 _c
551 371 573 310 573 234 _c
573 159 550 99 506 54 _c
462 9 403 -13 330 -13 _c
246 -13 181 19 137 83 _c
92 147 70 241 70 364 _c
70 479 97 571 152 639 _c
206 707 280 742 372 742 _c
396 742 421 739 447 735 _c
472 730 498 723 526 713 _c
_cl}_e}_d
/seven{636 0 82 0 551 729 _sc
82 729 _m
551 729 _l
551 687 _l
286 0 _l
183 0 _l
432 646 _l
82 646 _l
82 729 _l
_cl}_d
/eight{{636 0 68 -13 568 742 _sc
318 346 _m
271 346 234 333 207 308 _c
180 283 167 249 167 205 _c
167 161 180 126 207 101 _c
234 76 271 64 318 64 _c
364 64 401 76 428 102 _c
455 127 469 161 469 205 _c
469 249 455 283 429 308 _c
402 333 365 346 318 346 _c
219 388 _m
177 398 144 418 120 447 _c
96 476 85 511 85 553 _c
85 611 105 657 147 691 _c
188 725 245 742 318 742 _c
}_e{390 742 447 725 489 691 _c
530 657 551 611 551 553 _c
551 511 539 476 515 447 _c
491 418 459 398 417 388 _c
464 377 501 355 528 323 _c
554 291 568 251 568 205 _c
568 134 546 80 503 43 _c
459 5 398 -13 318 -13 _c
237 -13 175 5 132 43 _c
89 80 68 134 68 205 _c
68 251 81 291 108 323 _c
134 355 171 377 219 388 _c
183 544 _m
183 506 194 476 218 455 _c
}_e{242 434 275 424 318 424 _c
360 424 393 434 417 455 _c
441 476 453 506 453 544 _c
453 582 441 611 417 632 _c
393 653 360 664 318 664 _c
275 664 242 653 218 632 _c
194 611 183 582 183 544 _c
_cl}_e}_d
/nine{{636 0 63 -13 566 742 _sc
110 15 _m
110 105 _l
134 93 159 84 185 78 _c
210 72 235 69 260 69 _c
324 69 374 90 408 134 _c
442 178 462 244 468 334 _c
448 306 424 284 396 269 _c
367 254 335 247 300 247 _c
226 247 168 269 126 313 _c
84 357 63 417 63 494 _c
63 568 85 628 129 674 _c
173 719 232 742 306 742 _c
390 742 455 709 499 645 _c
543 580 566 486 566 364 _c
}_e{566 248 538 157 484 89 _c
429 21 356 -13 264 -13 _c
239 -13 214 -10 189 -6 _c
163 -2 137 5 110 15 _c
306 324 _m
350 324 385 339 411 369 _c
437 399 450 441 450 494 _c
450 546 437 588 411 618 _c
385 648 350 664 306 664 _c
262 664 227 648 201 618 _c
175 588 162 546 162 494 _c
162 441 175 399 201 369 _c
227 339 262 324 306 324 _c
_cl}_e}_d
/colon{337 0 117 0 220 517 _sc
117 124 _m
220 124 _l
220 0 _l
117 0 _l
117 124 _l
117 517 _m
220 517 _l
220 393 _l
117 393 _l
117 517 _l
_cl}_d
/equal{838 0 106 172 732 454 _sc
106 454 _m
732 454 _l
732 372 _l
106 372 _l
106 454 _l
106 255 _m
732 255 _l
732 172 _l
106 172 _l
106 255 _l
_cl}_d
/C{{698 0 56 -13 644 742 _sc
644 673 _m
644 569 _l
610 599 575 622 537 638 _c
499 653 460 661 418 661 _c
334 661 270 635 226 584 _c
182 533 160 460 160 364 _c
160 268 182 194 226 143 _c
270 92 334 67 418 67 _c
460 67 499 74 537 90 _c
575 105 610 128 644 159 _c
644 56 _l
609 32 572 15 534 4 _c
496 -7 455 -13 412 -13 _c
302 -13 215 20 151 87 _c
}_e{87 154 56 246 56 364 _c
56 481 87 573 151 641 _c
215 708 302 742 412 742 _c
456 742 497 736 535 725 _c
573 713 610 696 644 673 _c
_cl}_e}_d
/E{632 0 98 0 568 729 _sc
98 729 _m
559 729 _l
559 646 _l
197 646 _l
197 430 _l
544 430 _l
544 347 _l
197 347 _l
197 83 _l
568 83 _l
568 0 _l
98 0 _l
98 729 _l
_cl}_d
/G{{775 0 56 -13 693 742 _sc
595 104 _m
595 300 _l
434 300 _l
434 381 _l
693 381 _l
693 68 _l
655 40 613 20 567 7 _c
521 -6 472 -13 420 -13 _c
306 -13 216 20 152 86 _c
88 152 56 245 56 364 _c
56 482 88 575 152 642 _c
216 708 306 742 420 742 _c
467 742 512 736 555 724 _c
598 712 638 695 674 673 _c
674 568 _l
637 598 598 621 557 637 _c
516 653 473 661 428 661 _c
}_e{338 661 271 636 227 586 _c
182 536 160 462 160 364 _c
160 265 182 191 227 141 _c
271 91 338 67 428 67 _c
462 67 493 70 521 76 _c
549 82 573 91 595 104 _c
_cl}_e}_d
/a{{613 0 60 -13 522 560 _sc
343 275 _m
270 275 220 266 192 250 _c
164 233 150 205 150 165 _c
150 133 160 107 181 89 _c
202 70 231 61 267 61 _c
317 61 357 78 387 114 _c
417 149 432 196 432 255 _c
432 275 _l
343 275 _l
522 312 _m
522 0 _l
432 0 _l
432 83 _l
411 49 385 25 355 10 _c
325 -5 287 -13 243 -13 _c
187 -13 142 2 109 33 _c
76 64 60 106 60 159 _c
}_e{60 220 80 266 122 298 _c
163 329 224 345 306 345 _c
432 345 _l
432 354 _l
432 395 418 427 391 450 _c
364 472 326 484 277 484 _c
245 484 215 480 185 472 _c
155 464 127 453 100 439 _c
100 522 _l
132 534 164 544 195 550 _c
226 556 256 560 286 560 _c
365 560 424 539 463 498 _c
502 457 522 395 522 312 _c
_cl}_e}_d
/e{{615 0 55 -13 562 560 _sc
562 296 _m
562 252 _l
149 252 _l
153 190 171 142 205 110 _c
238 78 284 62 344 62 _c
378 62 412 66 444 74 _c
476 82 509 95 541 113 _c
541 28 _l
509 14 476 3 442 -3 _c
408 -9 373 -13 339 -13 _c
251 -13 182 12 131 62 _c
80 112 55 181 55 268 _c
55 357 79 428 127 481 _c
175 533 241 560 323 560 _c
397 560 455 536 498 489 _c
}_e{540 441 562 377 562 296 _c
472 322 _m
471 371 457 410 431 440 _c
404 469 368 484 324 484 _c
274 484 234 469 204 441 _c
174 413 156 373 152 322 _c
472 322 _l
_cl}_e}_d
/f{352 0 23 0 371 760 _sc
371 760 _m
371 685 _l
285 685 _l
253 685 230 678 218 665 _c
205 652 199 629 199 595 _c
199 547 _l
347 547 _l
347 477 _l
199 477 _l
199 0 _l
109 0 _l
109 477 _l
23 477 _l
23 547 _l
109 547 _l
109 585 _l
109 645 123 690 151 718 _c
179 746 224 760 286 760 _c
371 760 _l
_cl}_d
/g{{635 0 55 -207 544 560 _sc
454 280 _m
454 344 440 395 414 431 _c
387 467 349 485 301 485 _c
253 485 215 467 188 431 _c
161 395 148 344 148 280 _c
148 215 161 165 188 129 _c
215 93 253 75 301 75 _c
349 75 387 93 414 129 _c
440 165 454 215 454 280 _c
544 68 _m
544 -24 523 -93 482 -139 _c
440 -184 377 -207 292 -207 _c
260 -207 231 -204 203 -200 _c
175 -195 147 -188 121 -178 _c
}_e{121 -91 _l
147 -105 173 -115 199 -122 _c
225 -129 251 -133 278 -133 _c
336 -133 380 -117 410 -87 _c
439 -56 454 -10 454 52 _c
454 96 _l
435 64 411 40 382 24 _c
353 8 319 0 279 0 _c
211 0 157 25 116 76 _c
75 127 55 195 55 280 _c
55 364 75 432 116 483 _c
157 534 211 560 279 560 _c
319 560 353 552 382 536 _c
411 520 435 496 454 464 _c
454 547 _l
544 547 _l
}_e{544 68 _l
_cl}_e}_d
/h{634 0 91 0 549 760 _sc
549 330 _m
549 0 _l
459 0 _l
459 327 _l
459 379 448 417 428 443 _c
408 469 378 482 338 482 _c
289 482 251 466 223 435 _c
195 404 181 362 181 309 _c
181 0 _l
91 0 _l
91 760 _l
181 760 _l
181 462 _l
202 494 227 519 257 535 _c
286 551 320 560 358 560 _c
420 560 468 540 500 501 _c
532 462 549 405 549 330 _c
_cl}_d
/i{278 0 94 0 184 760 _sc
94 547 _m
184 547 _l
184 0 _l
94 0 _l
94 547 _l
94 760 _m
184 760 _l
184 646 _l
94 646 _l
94 760 _l
_cl}_d
/l{278 0 94 0 184 760 _sc
94 760 _m
184 760 _l
184 0 _l
94 0 _l
94 760 _l
_cl}_d
/m{{974 0 91 0 889 560 _sc
520 442 _m
542 482 569 511 600 531 _c
631 550 668 560 711 560 _c
767 560 811 540 842 500 _c
873 460 889 403 889 330 _c
889 0 _l
799 0 _l
799 327 _l
799 379 789 418 771 444 _c
752 469 724 482 686 482 _c
639 482 602 466 575 435 _c
548 404 535 362 535 309 _c
535 0 _l
445 0 _l
445 327 _l
445 379 435 418 417 444 _c
398 469 369 482 331 482 _c
}_e{285 482 248 466 221 435 _c
194 404 181 362 181 309 _c
181 0 _l
91 0 _l
91 547 _l
181 547 _l
181 462 _l
201 495 226 520 255 536 _c
283 552 317 560 357 560 _c
397 560 430 550 458 530 _c
486 510 506 480 520 442 _c
_cl}_e}_d
/n{634 0 91 0 549 560 _sc
549 330 _m
549 0 _l
459 0 _l
459 327 _l
459 379 448 417 428 443 _c
408 469 378 482 338 482 _c
289 482 251 466 223 435 _c
195 404 181 362 181 309 _c
181 0 _l
91 0 _l
91 547 _l
181 547 _l
181 462 _l
202 494 227 519 257 535 _c
286 551 320 560 358 560 _c
420 560 468 540 500 501 _c
532 462 549 405 549 330 _c
_cl}_d
/o{612 0 55 -13 557 560 _sc
306 484 _m
258 484 220 465 192 427 _c
164 389 150 338 150 273 _c
150 207 163 156 191 118 _c
219 80 257 62 306 62 _c
354 62 392 80 420 118 _c
448 156 462 207 462 273 _c
462 337 448 389 420 427 _c
392 465 354 484 306 484 _c
306 560 _m
384 560 445 534 490 484 _c
534 433 557 363 557 273 _c
557 183 534 113 490 63 _c
445 12 384 -13 306 -13 _c
227 -13 165 12 121 63 _c
77 113 55 183 55 273 _c
55 363 77 433 121 484 _c
165 534 227 560 306 560 _c
_cl}_d
/p{{635 0 91 -207 580 560 _sc
181 82 _m
181 -207 _l
91 -207 _l
91 547 _l
181 547 _l
181 464 _l
199 496 223 520 252 536 _c
281 552 316 560 356 560 _c
422 560 476 533 518 481 _c
559 428 580 359 580 273 _c
580 187 559 117 518 65 _c
476 13 422 -13 356 -13 _c
316 -13 281 -5 252 10 _c
223 25 199 49 181 82 _c
487 273 _m
487 339 473 390 446 428 _c
418 466 381 485 334 485 _c
}_e{286 485 249 466 222 428 _c
194 390 181 339 181 273 _c
181 207 194 155 222 117 _c
249 79 286 61 334 61 _c
381 61 418 79 446 117 _c
473 155 487 207 487 273 _c
_cl}_e}_d
/r{411 0 91 0 411 560 _sc
411 463 _m
401 469 390 473 378 476 _c
366 478 353 480 339 480 _c
288 480 249 463 222 430 _c
194 397 181 350 181 288 _c
181 0 _l
91 0 _l
91 547 _l
181 547 _l
181 462 _l
199 495 224 520 254 536 _c
284 552 321 560 365 560 _c
371 560 378 559 386 559 _c
393 558 401 557 411 555 _c
411 463 _l
_cl}_d
/s{{521 0 54 -13 472 560 _sc
443 531 _m
443 446 _l
417 458 391 468 364 475 _c
336 481 308 485 279 485 _c
234 485 200 478 178 464 _c
156 450 145 430 145 403 _c
145 382 153 366 169 354 _c
185 342 217 330 265 320 _c
296 313 _l
360 299 405 279 432 255 _c
458 230 472 195 472 151 _c
472 100 452 60 412 31 _c
372 1 316 -13 246 -13 _c
216 -13 186 -10 154 -5 _c
}_e{122 0 89 8 54 20 _c
54 113 _l
87 95 120 82 152 74 _c
184 65 216 61 248 61 _c
290 61 323 68 346 82 _c
368 96 380 117 380 144 _c
380 168 371 187 355 200 _c
339 213 303 226 247 238 _c
216 245 _l
160 257 119 275 95 299 _c
70 323 58 356 58 399 _c
58 450 76 490 112 518 _c
148 546 200 560 268 560 _c
301 560 332 557 362 552 _c
391 547 418 540 443 531 _c
}_e{_cl}_e}_d
/t{392 0 27 0 368 702 _sc
183 702 _m
183 547 _l
368 547 _l
368 477 _l
183 477 _l
183 180 _l
183 135 189 106 201 94 _c
213 81 238 75 276 75 _c
368 75 _l
368 0 _l
276 0 _l
206 0 158 13 132 39 _c
106 65 93 112 93 180 _c
93 477 _l
27 477 _l
27 547 _l
93 547 _l
93 702 _l
183 702 _l
_cl}_d
/u{634 0 85 -13 543 547 _sc
85 216 _m
85 547 _l
175 547 _l
175 219 _l
175 167 185 129 205 103 _c
225 77 255 64 296 64 _c
344 64 383 79 411 110 _c
439 141 453 183 453 237 _c
453 547 _l
543 547 _l
543 0 _l
453 0 _l
453 84 _l
431 50 405 26 377 10 _c
348 -5 315 -13 277 -13 _c
214 -13 166 6 134 45 _c
101 83 85 140 85 216 _c
_cl}_d
/v{592 0 30 0 562 547 _sc
30 547 _m
125 547 _l
296 88 _l
467 547 _l
562 547 _l
357 0 _l
235 0 _l
30 547 _l
_cl}_d
/y{592 0 30 -207 562 547 _sc
322 -50 _m
296 -114 271 -157 247 -177 _c
223 -197 191 -207 151 -207 _c
79 -207 _l
79 -132 _l
132 -132 _l
156 -132 175 -126 189 -114 _c
203 -102 218 -75 235 -31 _c
251 9 _l
30 547 _l
125 547 _l
296 119 _l
467 547 _l
562 547 _l
322 -50 _l
_cl}_d
end readonly def

/BuildGlyph
 {exch begin
 CharStrings exch
 2 copy known not{pop /.notdef}if
 true 3 1 roll get exec
 end}_d

/BuildChar {
 1 index /Encoding get exch get
 1 index /BuildGlyph get exec
}_d

FontName currentdict end definefont pop
%!PS-Adobe-3.0 Resource-Font
%%Title: cmmi10
%%Copyright: Copyright (C) 1994, Basil K. Malyshev. All Rights Reserved.012BaKoMa Fonts Collection, Level-B.
%%Creator: Converted from TrueType to type 3 by PPR
25 dict begin
/_d{bind def}bind def
/_m{moveto}_d
/_l{lineto}_d
/_cl{closepath eofill}_d
/_c{curveto}_d
/_sc{7 -1 roll{setcachedevice}{pop pop pop pop pop pop}ifelse}_d
/_e{exec}_d
/FontName /Cmmi10 def
/PaintType 0 def
/FontMatrix[.001 0 0 .001 0 0]def
/FontBBox[-34 -250 1048 750]def
/FontType 3 def
/Encoding [ /lambda ] def
/FontInfo 10 dict dup begin
/FamilyName (cmmi10) def
/FullName (cmmi10) def
/Notice (Copyright (C) 1994, Basil K. Malyshev. All Rights Reserved.012BaKoMa Fonts Collection, Level-B. ) def
/Weight (Regular) def
/Version (1.1/12-Nov-94) def
/ItalicAngle 0.0 def
/isFixedPitch false def
/UnderlinePosition -133 def
/UnderlineThickness 20 def
end readonly def
/CharStrings 1 dict dup begin
/lambda{{583 0 51 -12 550 694 _sc
51 17 _m
51 27 55 36 64 45 _c
345 321 _l
246 599 _l
238 620 229 637 221 649 _c
212 661 200 668 184 668 _c
176 668 173 672 173 681 _c
173 685 175 688 178 690 _c
180 692 184 694 188 694 _c
258 694 300 673 315 632 _c
518 65 _l
526 36 535 17 545 8 _c
548 2 550 0 550 -1 _c
550 -7 547 -10 542 -10 _c
488 -10 _l
471 -5 458 8 448 32 _c
}_e{357 288 _l
115 4 _l
103 -6 92 -12 83 -12 _c
74 -12 66 -9 60 -4 _c
54 1 51 8 51 17 _c
_cl}_e}_d
end readonly def

/BuildGlyph
 {exch begin
 CharStrings exch
 2 copy known not{pop /.notdef}if
 true 3 1 roll get exec
 end}_d

/BuildChar {
 1 index /Encoding get exch get
 1 index /BuildGlyph get exec
}_d

FontName currentdict end definefont pop
end
%%EndProlog
mpldict begin
-115.2 97.2 translate
842.4 597.6 0 0 clipbox
gsave
0 0 m
842.4 0 l
842.4 597.6 l
0 597.6 l
cl
1.000 setgray
fill
grestore
gsave
105.3 59.76 m
758.16 59.76 l
758.16 537.84 l
105.3 537.84 l
cl
1.000 setgray
fill
grestore
1.000 setlinewidth
1 setlinejoin
2 setlinecap
[] 0 setdash
0.000 0.000 1.000 setrgbcolor
gsave
652.9 478.1 105.3 59.76 clipbox
105.3 205.39 m
106.116 163.067 l
107.748 163.067 l
108.564 103.52 l
109.38 93.3982 l
110.196 88.6803 l
111.013 85.1178 l
111.829 85.1178 l
112.645 84.3547 l
114.277 84.3547 l
115.093 68.3452 l
119.989 68.3321 l
120.805 67.2347 l
121.621 67.2347 l
123.254 64.1291 l
124.886 64.129 l
125.702 63.8918 l
128.15 63.8429 l
131.414 63.8429 l
132.23 63.6646 l
133.047 63.6646 l
133.863 63.0724 l
134.679 62.7617 l
135.495 62.5941 l
137.943 62.5941 l
138.759 61.967 l
142.023 61.8685 l
144.472 61.8155 l
145.288 61.1365 l
147.736 61.0725 l
148.552 60.1868 l
159.161 60.1665 l
160.793 60.0722 l
168.954 60.0097 l
170.586 59.9033 l
179.563 59.8837 l
206.493 59.7779 l
216.286 59.7667 l
393.374 59.76 l
757.344 59.76 l
757.344 59.76 l
stroke
grestore
0.000 0.500 0.000 setrgbcolor
gsave
652.9 478.1 105.3 59.76 clipbox
105.3 219.045 m
106.116 160.92 l
106.932 152.35 l
107.748 137.053 l
108.564 116.842 l
109.38 110.866 l
110.196 109.321 l
111.013 93.3608 l
115.093 93.3608 l
115.909 82.3785 l
116.725 82.3785 l
117.541 79.0712 l
118.357 75.161 l
120.805 75.161 l
121.621 71.6978 l
122.438 71.6978 l
123.254 70.3263 l
124.886 70.3263 l
125.702 69.4964 l
127.334 69.4964 l
128.15 68.2006 l
128.966 68.2006 l
129.782 67.4818 l
130.598 66.149 l
135.495 66.149 l
136.311 65.6999 l
137.127 65.6999 l
137.943 64.9442 l
139.575 64.1828 l
141.207 64.1828 l
142.023 62.8035 l
142.839 62.8035 l
143.656 62.3141 l
146.104 62.3141 l
146.92 62.0398 l
151.816 62.0398 l
152.632 61.8459 l
154.264 61.7444 l
155.081 61.5145 l
159.161 61.5145 l
159.977 61.3092 l
162.425 61.2484 l
165.69 60.9955 l
166.506 60.9955 l
167.322 60.8527 l
173.034 60.7603 l
177.115 60.6663 l
182.011 60.5679 l
221.183 60.0175 l
266.883 59.9077 l
321.56 59.8599 l
636.565 59.8093 l
757.344 59.8047 l
757.344 59.8047 l
stroke
grestore
1.000 0.000 0.000 setrgbcolor
gsave
652.9 478.1 105.3 59.76 clipbox
105.3 210.637 m
106.116 167.883 l
106.932 154.498 l
107.748 137.961 l
108.564 124.24 l
109.38 124.24 l
110.196 122.958 l
111.829 122.958 l
112.645 110.096 l
113.461 110.096 l
114.277 102.419 l
117.541 102.419 l
118.357 93.6438 l
119.173 93.6438 l
119.989 92.3725 l
120.805 91.5 l
121.621 88.5061 l
122.438 88.5061 l
123.254 87.7335 l
124.886 87.6744 l
125.702 87.0444 l
126.518 83.5138 l
127.334 78.6936 l
128.15 78.3105 l
130.598 78.3105 l
132.23 77.9647 l
133.047 73.9706 l
133.863 73.8848 l
134.679 71.842 l
135.495 69.2841 l
138.759 69.2841 l
139.575 68.3766 l
140.391 66.1056 l
142.023 66.0522 l
142.839 65.8604 l
143.656 65.8604 l
145.288 64.6944 l
146.104 63.705 l
147.736 63.6227 l
151.816 63.6227 l
152.632 63.5094 l
155.081 63.4452 l
157.529 63.255 l
160.793 63.255 l
161.609 62.4405 l
164.057 62.3974 l
164.873 62.1091 l
166.506 62.1091 l
167.322 61.8628 l
168.954 61.8069 l
169.77 61.29 l
170.586 61.29 l
171.402 61.0283 l
175.482 60.9253 l
176.299 60.8059 l
177.115 60.8059 l
177.931 60.5366 l
189.356 60.4348 l
192.62 60.3115 l
202.413 60.1184 l
215.47 59.9542 l
268.515 59.8446 l
347.674 59.8101 l
628.404 59.7931 l
757.344 59.7913 l
757.344 59.7913 l
stroke
grestore
0.000 0.750 0.750 setrgbcolor
gsave
652.9 478.1 105.3 59.76 clipbox
105.3 192.53 m
106.116 192.53 l
107.748 161.979 l
108.564 137.571 l
109.38 136.087 l
110.196 136.087 l
111.013 130.179 l
111.829 115.557 l
112.645 115.327 l
113.461 110.474 l
115.093 110.474 l
115.909 97.8526 l
116.725 93.7123 l
117.541 93.0952 l
118.357 90.389 l
119.173 89.6282 l
119.989 89.0986 l
120.805 87.4586 l
121.621 87.4586 l
122.438 86.0586 l
123.254 83.1166 l
124.886 83.1166 l
125.702 79.1961 l
126.518 79.1961 l
127.334 76.6613 l
128.15 76.6613 l
128.966 75.0896 l
129.782 75.0896 l
130.598 74.9254 l
133.863 74.9254 l
134.679 72.9439 l
136.311 72.9439 l
137.127 70.5899 l
138.759 70.5899 l
139.575 70.0831 l
141.207 70.0831 l
142.023 69.0706 l
144.472 69.0693 l
145.288 67.8934 l
146.104 67.3439 l
146.92 67.3439 l
147.736 66.9654 l
148.552 66.9654 l
149.368 66.7662 l
150.184 65.3115 l
151 64.5314 l
155.081 64.5314 l
155.897 63.7656 l
157.529 63.763 l
158.345 63.0228 l
159.161 63.0228 l
160.793 62.7023 l
161.609 62.7023 l
162.425 62.3706 l
164.057 62.2653 l
164.873 62.1455 l
166.506 62.1109 l
167.322 61.5384 l
168.954 61.5384 l
169.77 61.2576 l
172.218 61.2576 l
173.034 61.0554 l
174.666 61.0554 l
175.482 60.7953 l
177.115 60.6915 l
180.379 60.5089 l
182.011 60.3406 l
190.988 60.258 l
192.62 60.1724 l
198.333 60.1116 l
199.965 60.0309 l
204.861 59.9879 l
223.631 59.8916 l
230.976 59.8337 l
263.619 59.7763 l
757.344 59.7602 l
757.344 59.7602 l
stroke
grestore
0.750 0.000 0.750 setrgbcolor
gsave
652.9 478.1 105.3 59.76 clipbox
105.3 229.212 m
106.116 188.789 l
106.932 131.657 l
109.38 131.657 l
110.196 128.534 l
111.013 121.958 l
111.829 121.8 l
112.645 121.8 l
113.461 120.794 l
114.277 114.809 l
115.093 106.963 l
115.909 106.963 l
116.725 96.4342 l
117.541 95.7415 l
119.173 95.7415 l
119.989 95.0968 l
121.621 95.0968 l
122.438 94.0682 l
123.254 85.3889 l
124.07 81.3058 l
127.334 81.3058 l
128.15 76.6937 l
128.966 76.6937 l
129.782 74.8304 l
131.414 74.8304 l
132.23 71.6116 l
133.863 71.6023 l
134.679 70.8471 l
135.495 70.8471 l
136.311 68.2202 l
137.127 67.2236 l
138.759 67.2236 l
139.575 66.8719 l
141.207 66.8719 l
142.023 66.7057 l
142.839 66.7057 l
143.656 65.7509 l
146.92 65.75 l
147.736 65.0515 l
148.552 65.0515 l
149.368 64.7762 l
150.184 63.7358 l
151 63.7358 l
151.816 63.5225 l
163.241 63.4938 l
164.057 62.7999 l
164.873 62.4939 l
166.506 62.4412 l
167.322 61.4324 l
168.138 61.4324 l
169.77 60.8287 l
174.666 60.8191 l
175.482 60.6466 l
179.563 60.6466 l
181.195 60.4356 l
184.459 60.4275 l
185.275 60.216 l
188.54 60.1234 l
196.7 59.9737 l
218.734 59.806 l
757.344 59.76 l
757.344 59.76 l
stroke
grestore
0.750 0.750 0.000 setrgbcolor
gsave
652.9 478.1 105.3 59.76 clipbox
105.3 217.234 m
106.116 217.234 l
106.932 200.148 l
107.748 141.841 l
110.196 141.841 l
111.013 136.183 l
112.645 136.139 l
113.461 135.686 l
114.277 130.734 l
115.093 130.734 l
115.909 124.448 l
116.725 110.251 l
118.357 110.251 l
119.173 107.899 l
119.989 106.121 l
120.805 98.6668 l
121.621 96.8136 l
122.438 96.7464 l
123.254 86.7193 l
124.07 86.7193 l
125.702 82.5515 l
126.518 81.2794 l
127.334 81.1756 l
128.15 76.5139 l
129.782 76.5139 l
130.598 74.2667 l
132.23 74.2667 l
133.047 74.1417 l
133.863 73.8913 l
134.679 72.3285 l
135.495 72.3285 l
136.311 71.7939 l
137.127 70.8357 l
137.943 69.3735 l
140.391 69.2722 l
141.207 68.5252 l
143.656 68.5252 l
144.472 67.714 l
145.288 66.3624 l
146.92 66.3624 l
147.736 66.0947 l
152.632 66.0559 l
153.448 64.5867 l
159.977 64.5867 l
160.793 64.4245 l
164.873 64.4245 l
165.69 64.1866 l
166.506 63.8066 l
168.954 63.8066 l
169.77 63.6538 l
170.586 63.6538 l
171.402 63.3145 l
172.218 63.3145 l
173.034 63.131 l
173.85 63.131 l
174.666 62.782 l
175.482 62.782 l
177.115 62.302 l
182.827 62.2235 l
183.643 62.0402 l
188.54 62.0004 l
189.356 61.8462 l
204.861 61.7479 l
211.39 61.7079 l
757.344 61.6649 l
757.344 61.6649 l
stroke
grestore
0.000 setgray
gsave
652.9 478.1 105.3 59.76 clipbox
105.3 345.41 m
106.116 229.561 l
106.932 225.9 l
107.748 213.319 l
108.564 167.456 l
111.013 167.456 l
111.829 162.233 l
113.461 162.201 l
114.277 138.015 l
115.093 125.683 l
115.909 125.683 l
116.725 124.23 l
117.541 117.315 l
118.357 117.315 l
119.173 111.224 l
120.805 106.474 l
121.621 105.444 l
123.254 101.584 l
124.07 101.584 l
124.886 101.324 l
125.702 96.2632 l
126.518 92.8934 l
127.334 92.607 l
128.15 91.0696 l
130.598 91.0696 l
131.414 89.0145 l
133.047 89.0145 l
133.863 86.7658 l
135.495 86.7658 l
136.311 84.0767 l
137.127 83.7552 l
137.943 82.0451 l
138.759 82.0451 l
139.575 81.7663 l
141.207 81.7457 l
142.023 81.5178 l
145.288 81.4854 l
146.104 81.3632 l
146.92 81.0621 l
147.736 79.7659 l
148.552 79.7659 l
149.368 79.1555 l
151.816 79.1555 l
152.632 78.8918 l
155.897 78.8916 l
156.713 77.5826 l
157.529 77.5826 l
158.345 77.3825 l
160.793 77.3291 l
161.609 77.3291 l
162.425 76.8625 l
163.241 76.8086 l
164.057 76.258 l
168.138 76.1548 l
168.954 75.9093 l
173.034 75.9093 l
173.85 75.6678 l
177.115 75.6678 l
177.931 75.524 l
178.747 75.524 l
179.563 75.3173 l
183.643 75.3173 l
184.459 75.1671 l
187.724 75.1537 l
188.54 74.9808 l
190.988 74.9808 l
191.804 74.8643 l
216.286 74.7647 l
224.447 74.747 l
757.344 74.7298 l
757.344 74.7298 l
stroke
grestore
0.000 0.000 1.000 setrgbcolor
gsave
652.9 478.1 105.3 59.76 clipbox
105.3 330.316 m
106.116 241.666 l
106.932 241.666 l
107.748 236.721 l
110.196 193.676 l
111.013 193.676 l
111.829 185.248 l
112.645 167.679 l
113.461 157.213 l
115.093 157.213 l
115.909 142.028 l
117.541 142.028 l
118.357 141.208 l
119.173 132.117 l
119.989 132.117 l
120.805 129.71 l
121.621 124.791 l
122.438 124.791 l
123.254 122.577 l
124.07 122.419 l
124.886 121.607 l
125.702 121.607 l
126.518 116.578 l
127.334 113.581 l
128.15 113.581 l
128.966 113.097 l
129.782 111.57 l
134.679 111.57 l
136.311 109.311 l
137.943 109.207 l
138.759 109.207 l
139.575 108.535 l
142.839 108.523 l
143.656 107.671 l
145.288 107.671 l
146.104 103.305 l
152.632 103.302 l
153.448 103.134 l
154.264 102.675 l
155.897 102.51 l
157.529 102.443 l
159.977 102.443 l
160.793 102.217 l
165.69 102.217 l
166.506 101.547 l
174.666 101.437 l
184.459 101.303 l
195.884 101.241 l
198.333 101.191 l
208.125 101.096 l
213.022 101.049 l
757.344 100.963 l
757.344 100.963 l
stroke
grestore
0.000 0.500 0.000 setrgbcolor
gsave
652.9 478.1 105.3 59.76 clipbox
105.3 362.79 m
106.116 347.368 l
106.932 258.354 l
108.564 258.354 l
109.38 240.128 l
110.196 206.47 l
111.013 206.47 l
111.829 200.86 l
112.645 199.391 l
113.461 196.892 l
114.277 189.433 l
115.093 184.859 l
115.909 181.191 l
116.725 181.191 l
117.541 177.174 l
118.357 167.761 l
120.805 167.761 l
121.621 166.278 l
122.438 166.278 l
123.254 162.768 l
124.07 162.343 l
124.886 162.198 l
125.702 160.844 l
126.518 160.668 l
127.334 158.204 l
128.15 150.606 l
134.679 150.606 l
135.495 148.851 l
141.207 148.851 l
142.023 148.73 l
143.656 148.73 l
144.472 145.357 l
146.104 145.348 l
146.92 144.951 l
148.552 144.951 l
149.368 144.544 l
151.816 144.544 l
153.448 144.107 l
164.873 144.104 l
165.69 143.94 l
166.506 143.94 l
167.322 143.804 l
170.586 143.743 l
171.402 143.464 l
173.034 143.384 l
177.931 143.072 l
196.7 142.967 l
215.47 142.903 l
757.344 142.858 l
757.344 142.858 l
stroke
grestore
1.000 0.000 0.000 setrgbcolor
gsave
652.9 478.1 105.3 59.76 clipbox
105.3 404.495 m
106.116 376.064 l
106.932 342.575 l
107.748 299.893 l
109.38 299.893 l
110.196 282.166 l
111.013 252.545 l
111.829 252.545 l
112.645 239.06 l
113.461 235.131 l
115.909 235.131 l
116.725 232.802 l
118.357 232.802 l
119.173 226.758 l
119.989 224.349 l
123.254 224.349 l
124.07 222.352 l
126.518 222.352 l
127.334 221.315 l
128.15 221.315 l
128.966 212.482 l
134.679 212.48 l
135.495 212.249 l
142.023 212.249 l
142.839 210.268 l
143.656 210.268 l
144.472 209.572 l
145.288 208.35 l
152.632 208.306 l
153.448 208.02 l
156.713 208.02 l
159.161 207.495 l
164.057 207.494 l
164.873 207.282 l
170.586 207.222 l
171.402 207.065 l
178.747 206.996 l
180.379 206.935 l
210.574 206.825 l
248.113 206.802 l
757.344 206.8 l
757.344 206.8 l
stroke
grestore
0.000 0.750 0.750 setrgbcolor
gsave
652.9 478.1 105.3 59.76 clipbox
105.3 516.048 m
106.116 516.048 l
106.932 439.972 l
107.748 395.169 l
108.564 365.26 l
109.38 356.045 l
110.196 356.045 l
111.013 344.989 l
111.829 344.989 l
112.645 343.905 l
113.461 343.905 l
114.277 341.3 l
115.093 337.283 l
117.541 337.283 l
118.357 334.706 l
119.173 334.697 l
119.989 332.934 l
123.254 332.934 l
124.07 331.029 l
127.334 331.029 l
128.966 330.494 l
129.782 328.275 l
130.598 328.275 l
131.414 328.022 l
132.23 327.505 l
137.127 327.489 l
138.759 327.392 l
141.207 327.392 l
142.839 326.583 l
143.656 326.583 l
144.472 326.095 l
148.552 326.095 l
149.368 325.674 l
161.609 325.585 l
162.425 325.463 l
757.344 325.36 l
757.344 325.36 l
stroke
grestore
0.500 setlinewidth
0 setlinecap
0.000 setgray
gsave
/o {
gsave
newpath
translate
0.5 setlinewidth
1 setlinejoin
0 setlinecap
0 0 m
0 4 l
gsave
0.000 setgray
fill
grestore
stroke
grestore
} bind def
105.3 59.76 o
grestore
gsave
/o {
gsave
newpath
translate
0.5 setlinewidth
1 setlinejoin
0 setlinecap
0 0 m
0 -4 l
gsave
0.000 setgray
fill
grestore
stroke
grestore
} bind def
105.3 537.84 o
grestore
/BitstreamVeraSans-Roman findfont
12.000 scalefont
setfont
gsave
102.276562 46.681875 translate
0.000000 rotate
0.000000 0.171875 m /zero glyphshow
grestore
gsave
/o {
gsave
newpath
translate
0.5 setlinewidth
1 setlinejoin
0 setlinecap
0 0 m
0 4 l
gsave
0.000 setgray
fill
grestore
stroke
grestore
} bind def
186.907 59.76 o
grestore
gsave
/o {
gsave
newpath
translate
0.5 setlinewidth
1 setlinejoin
0 setlinecap
0 0 m
0 -4 l
gsave
0.000 setgray
fill
grestore
stroke
grestore
} bind def
186.907 537.84 o
grestore
gsave
176.501250 46.681875 translate
0.000000 rotate
0.000000 0.171875 m /one glyphshow
7.634766 0.171875 m /zero glyphshow
15.269531 0.171875 m /zero glyphshow
grestore
gsave
/o {
gsave
newpath
translate
0.5 setlinewidth
1 setlinejoin
0 setlinecap
0 0 m
0 4 l
gsave
0.000 setgray
fill
grestore
stroke
grestore
} bind def
268.515 59.76 o
grestore
gsave
/o {
gsave
newpath
translate
0.5 setlinewidth
1 setlinejoin
0 setlinecap
0 0 m
0 -4 l
gsave
0.000 setgray
fill
grestore
stroke
grestore
} bind def
268.515 537.84 o
grestore
gsave
257.890000 46.681875 translate
0.000000 rotate
0.000000 0.171875 m /two glyphshow
7.634766 0.171875 m /zero glyphshow
15.269531 0.171875 m /zero glyphshow
grestore
gsave
/o {
gsave
newpath
translate
0.5 setlinewidth
1 setlinejoin
0 setlinecap
0 0 m
0 4 l
gsave
0.000 setgray
fill
grestore
stroke
grestore
} bind def
350.123 59.76 o
grestore
gsave
/o {
gsave
newpath
translate
0.5 setlinewidth
1 setlinejoin
0 setlinecap
0 0 m
0 -4 l
gsave
0.000 setgray
fill
grestore
stroke
grestore
} bind def
350.123 537.84 o
grestore
gsave
339.520938 46.681875 translate
0.000000 rotate
0.000000 0.171875 m /three glyphshow
7.634766 0.171875 m /zero glyphshow
15.269531 0.171875 m /zero glyphshow
grestore
gsave
/o {
gsave
newpath
translate
0.5 setlinewidth
1 setlinejoin
0 setlinecap
0 0 m
0 4 l
gsave
0.000 setgray
fill
grestore
stroke
grestore
} bind def
431.73 59.76 o
grestore
gsave
/o {
gsave
newpath
translate
0.5 setlinewidth
1 setlinejoin
0 setlinecap
0 0 m
0 -4 l
gsave
0.000 setgray
fill
grestore
stroke
grestore
} bind def
431.73 537.84 o
grestore
gsave
420.964375 46.681875 translate
0.000000 rotate
0.000000 0.171875 m /four glyphshow
7.634766 0.171875 m /zero glyphshow
15.269531 0.171875 m /zero glyphshow
grestore
gsave
/o {
gsave
newpath
translate
0.5 setlinewidth
1 setlinejoin
0 setlinecap
0 0 m
0 4 l
gsave
0.000 setgray
fill
grestore
stroke
grestore
} bind def
513.337 59.76 o
grestore
gsave
/o {
gsave
newpath
translate
0.5 setlinewidth
1 setlinejoin
0 setlinecap
0 0 m
0 -4 l
gsave
0.000 setgray
fill
grestore
stroke
grestore
} bind def
513.337 537.84 o
grestore
gsave
502.735937 46.681875 translate
0.000000 rotate
0.000000 0.171875 m /five glyphshow
7.634766 0.171875 m /zero glyphshow
15.269531 0.171875 m /zero glyphshow
grestore
gsave
/o {
gsave
newpath
translate
0.5 setlinewidth
1 setlinejoin
0 setlinecap
0 0 m
0 4 l
gsave
0.000 setgray
fill
grestore
stroke
grestore
} bind def
594.945 59.76 o
grestore
gsave
/o {
gsave
newpath
translate
0.5 setlinewidth
1 setlinejoin
0 setlinecap
0 0 m
0 -4 l
gsave
0.000 setgray
fill
grestore
stroke
grestore
} bind def
594.945 537.84 o
grestore
gsave
584.304375 46.681875 translate
0.000000 rotate
0.000000 0.171875 m /six glyphshow
7.634766 0.171875 m /zero glyphshow
15.269531 0.171875 m /zero glyphshow
grestore
gsave
/o {
gsave
newpath
translate
0.5 setlinewidth
1 setlinejoin
0 setlinecap
0 0 m
0 4 l
gsave
0.000 setgray
fill
grestore
stroke
grestore
} bind def
676.553 59.76 o
grestore
gsave
/o {
gsave
newpath
translate
0.5 setlinewidth
1 setlinejoin
0 setlinecap
0 0 m
0 -4 l
gsave
0.000 setgray
fill
grestore
stroke
grestore
} bind def
676.553 537.84 o
grestore
gsave
665.982188 46.681875 translate
0.000000 rotate
0.000000 0.171875 m /seven glyphshow
7.634766 0.171875 m /zero glyphshow
15.269531 0.171875 m /zero glyphshow
grestore
gsave
/o {
gsave
newpath
translate
0.5 setlinewidth
1 setlinejoin
0 setlinecap
0 0 m
0 4 l
gsave
0.000 setgray
fill
grestore
stroke
grestore
} bind def
758.16 59.76 o
grestore
gsave
/o {
gsave
newpath
translate
0.5 setlinewidth
1 setlinejoin
0 setlinecap
0 0 m
0 -4 l
gsave
0.000 setgray
fill
grestore
stroke
grestore
} bind def
758.16 537.84 o
grestore
gsave
747.503750 46.681875 translate
0.000000 rotate
0.000000 0.171875 m /eight glyphshow
7.634766 0.171875 m /zero glyphshow
15.269531 0.171875 m /zero glyphshow
grestore
gsave
399.089375 32.385000 translate
0.000000 rotate
0.000000 0.171875 m /G glyphshow
9.298828 0.171875 m /e glyphshow
16.681641 0.171875 m /n glyphshow
24.287109 0.171875 m /e glyphshow
31.669922 0.171875 m /r glyphshow
36.603516 0.171875 m /a glyphshow
43.957031 0.171875 m /t glyphshow
48.662109 0.171875 m /i glyphshow
51.996094 0.171875 m /o glyphshow
59.337891 0.171875 m /n glyphshow
grestore
gsave
/o {
gsave
newpath
translate
0.5 setlinewidth
1 setlinejoin
0 setlinecap
0 0 m
4 0 l
gsave
0.000 setgray
fill
grestore
stroke
grestore
} bind def
105.3 59.76 o
grestore
gsave
/o {
gsave
newpath
translate
0.5 setlinewidth
1 setlinejoin
0 setlinecap
0 0 m
-4 0 l
gsave
0.000 setgray
fill
grestore
stroke
grestore
} bind def
758.16 59.76 o
grestore
gsave
83.800000 55.220937 translate
0.000000 rotate
0.000000 0.171875 m /zero glyphshow
7.634766 0.171875 m /period glyphshow
11.449219 0.171875 m /zero glyphshow
grestore
gsave
/o {
gsave
newpath
translate
0.5 setlinewidth
1 setlinejoin
0 setlinecap
0 0 m
4 0 l
gsave
0.000 setgray
fill
grestore
stroke
grestore
} bind def
105.3 112.88 o
grestore
gsave
/o {
gsave
newpath
translate
0.5 setlinewidth
1 setlinejoin
0 setlinecap
0 0 m
-4 0 l
gsave
0.000 setgray
fill
grestore
stroke
grestore
} bind def
758.16 112.88 o
grestore
gsave
84.206250 108.340937 translate
0.000000 rotate
0.000000 0.171875 m /zero glyphshow
7.634766 0.171875 m /period glyphshow
11.449219 0.171875 m /two glyphshow
grestore
gsave
/o {
gsave
newpath
translate
0.5 setlinewidth
1 setlinejoin
0 setlinecap
0 0 m
4 0 l
gsave
0.000 setgray
fill
grestore
stroke
grestore
} bind def
105.3 166 o
grestore
gsave
/o {
gsave
newpath
translate
0.5 setlinewidth
1 setlinejoin
0 setlinecap
0 0 m
-4 0 l
gsave
0.000 setgray
fill
grestore
stroke
grestore
} bind def
758.16 166 o
grestore
gsave
83.675000 161.460938 translate
0.000000 rotate
0.000000 0.171875 m /zero glyphshow
7.634766 0.171875 m /period glyphshow
11.449219 0.171875 m /four glyphshow
grestore
gsave
/o {
gsave
newpath
translate
0.5 setlinewidth
1 setlinejoin
0 setlinecap
0 0 m
4 0 l
gsave
0.000 setgray
fill
grestore
stroke
grestore
} bind def
105.3 219.12 o
grestore
gsave
/o {
gsave
newpath
translate
0.5 setlinewidth
1 setlinejoin
0 setlinecap
0 0 m
-4 0 l
gsave
0.000 setgray
fill
grestore
stroke
grestore
} bind def
758.16 219.12 o
grestore
gsave
83.768750 214.580938 translate
0.000000 rotate
0.000000 0.171875 m /zero glyphshow
7.634766 0.171875 m /period glyphshow
11.449219 0.171875 m /six glyphshow
grestore
gsave
/o {
gsave
newpath
translate
0.5 setlinewidth
1 setlinejoin
0 setlinecap
0 0 m
4 0 l
gsave
0.000 setgray
fill
grestore
stroke
grestore
} bind def
105.3 272.24 o
grestore
gsave
/o {
gsave
newpath
translate
0.5 setlinewidth
1 setlinejoin
0 setlinecap
0 0 m
-4 0 l
gsave
0.000 setgray
fill
grestore
stroke
grestore
} bind def
758.16 272.24 o
grestore
gsave
83.831250 267.700938 translate
0.000000 rotate
0.000000 0.171875 m /zero glyphshow
7.634766 0.171875 m /period glyphshow
11.449219 0.171875 m /eight glyphshow
grestore
gsave
/o {
gsave
newpath
translate
0.5 setlinewidth
1 setlinejoin
0 setlinecap
0 0 m
4 0 l
gsave
0.000 setgray
fill
grestore
stroke
grestore
} bind def
105.3 325.36 o
grestore
gsave
/o {
gsave
newpath
translate
0.5 setlinewidth
1 setlinejoin
0 setlinecap
0 0 m
-4 0 l
gsave
0.000 setgray
fill
grestore
stroke
grestore
} bind def
758.16 325.36 o
grestore
gsave
84.315625 320.820938 translate
0.000000 rotate
0.000000 0.171875 m /one glyphshow
7.634766 0.171875 m /period glyphshow
11.449219 0.171875 m /zero glyphshow
grestore
gsave
/o {
gsave
newpath
translate
0.5 setlinewidth
1 setlinejoin
0 setlinecap
0 0 m
4 0 l
gsave
0.000 setgray
fill
grestore
stroke
grestore
} bind def
105.3 378.48 o
grestore
gsave
/o {
gsave
newpath
translate
0.5 setlinewidth
1 setlinejoin
0 setlinecap
0 0 m
-4 0 l
gsave
0.000 setgray
fill
grestore
stroke
grestore
} bind def
758.16 378.48 o
grestore
gsave
84.721875 374.026875 translate
0.000000 rotate
0.000000 0.000000 m /one glyphshow
7.634766 0.000000 m /period glyphshow
11.449219 0.000000 m /two glyphshow
grestore
gsave
/o {
gsave
newpath
translate
0.5 setlinewidth
1 setlinejoin
0 setlinecap
0 0 m
4 0 l
gsave
0.000 setgray
fill
grestore
stroke
grestore
} bind def
105.3 431.6 o
grestore
gsave
/o {
gsave
newpath
translate
0.5 setlinewidth
1 setlinejoin
0 setlinecap
0 0 m
-4 0 l
gsave
0.000 setgray
fill
grestore
stroke
grestore
} bind def
758.16 431.6 o
grestore
gsave
84.190625 427.225000 translate
0.000000 rotate
0.000000 0.000000 m /one glyphshow
7.634766 0.000000 m /period glyphshow
11.449219 0.000000 m /four glyphshow
grestore
gsave
/o {
gsave
newpath
translate
0.5 setlinewidth
1 setlinejoin
0 setlinecap
0 0 m
4 0 l
gsave
0.000 setgray
fill
grestore
stroke
grestore
} bind def
105.3 484.72 o
grestore
gsave
/o {
gsave
newpath
translate
0.5 setlinewidth
1 setlinejoin
0 setlinecap
0 0 m
-4 0 l
gsave
0.000 setgray
fill
grestore
stroke
grestore
} bind def
758.16 484.72 o
grestore
gsave
84.284375 480.180938 translate
0.000000 rotate
0.000000 0.171875 m /one glyphshow
7.634766 0.171875 m /period glyphshow
11.449219 0.171875 m /six glyphshow
grestore
gsave
/o {
gsave
newpath
translate
0.5 setlinewidth
1 setlinejoin
0 setlinecap
0 0 m
4 0 l
gsave
0.000 setgray
fill
grestore
stroke
grestore
} bind def
105.3 537.84 o
grestore
gsave
/o {
gsave
newpath
translate
0.5 setlinewidth
1 setlinejoin
0 setlinecap
0 0 m
-4 0 l
gsave
0.000 setgray
fill
grestore
stroke
grestore
} bind def
758.16 537.84 o
grestore
gsave
84.346875 533.300938 translate
0.000000 rotate
0.000000 0.171875 m /one glyphshow
7.634766 0.171875 m /period glyphshow
11.449219 0.171875 m /eight glyphshow
grestore
gsave
78.675000 257.229688 translate
90.000000 rotate
0.000000 2.500000 m /E glyphshow
7.582031 2.500000 m /n glyphshow
15.187500 2.500000 m /t glyphshow
19.892578 2.500000 m /a glyphshow
27.246094 2.500000 m /n glyphshow
34.851562 2.500000 m /g glyphshow
42.468750 2.500000 m /l glyphshow
45.802734 2.500000 m /e glyphshow
53.185547 2.500000 m /m glyphshow
64.875000 2.500000 m /e glyphshow
72.257812 2.500000 m /n glyphshow
79.863281 2.500000 m /t glyphshow
grestore
1.000 setlinewidth
2 setlinecap
gsave
105.3 537.84 m
758.16 537.84 l
stroke
grestore
gsave
758.16 59.76 m
758.16 537.84 l
stroke
grestore
gsave
105.3 59.76 m
758.16 59.76 l
stroke
grestore
gsave
105.3 59.76 m
105.3 537.84 l
stroke
grestore
/BitstreamVeraSans-Roman findfont
14.400 scalefont
setfont
gsave
292.495625 539.933750 translate
0.000000 rotate
0.000000 2.906250 m /E glyphshow
9.082642 2.906250 m /v glyphshow
17.589722 2.906250 m /o glyphshow
26.384583 2.906250 m /l glyphshow
30.378418 2.906250 m /u glyphshow
39.489136 2.906250 m /t glyphshow
45.125427 2.906250 m /i glyphshow
49.119263 2.906250 m /o glyphshow
57.914124 2.906250 m /n glyphshow
67.024841 2.906250 m /space glyphshow
71.594238 2.906250 m /o glyphshow
80.389099 2.906250 m /f glyphshow
85.449829 2.906250 m /space glyphshow
90.019226 2.906250 m /C glyphshow
100.056458 2.906250 m /h glyphshow
109.167175 2.906250 m /e glyphshow
118.011169 2.906250 m /n glyphshow
127.121887 2.906250 m /two glyphshow
136.267700 2.906250 m /space glyphshow
140.837097 2.906250 m /parenleft glyphshow
146.445312 2.906250 m /m glyphshow
160.448303 2.906250 m /e glyphshow
169.292297 2.906250 m /a glyphshow
178.101196 2.906250 m /s glyphshow
185.590515 2.906250 m /u glyphshow
194.701233 2.906250 m /r glyphshow
200.236267 2.906250 m /e glyphshow
209.080261 2.906250 m /colon glyphshow
213.923401 2.906250 m /space glyphshow
218.492798 2.906250 m /e glyphshow
227.336792 2.906250 m /n glyphshow
236.447510 2.906250 m /t glyphshow
242.083801 2.906250 m /r glyphshow
247.618835 2.906250 m /o glyphshow
256.413696 2.906250 m /p glyphshow
265.538452 2.906250 m /y glyphshow
274.045532 2.906250 m /parenright glyphshow
grestore
gsave
593.12 282.12 m
750.96 282.12 l
750.96 530.64 l
593.12 530.64 l
593.12 282.12 l
cl
gsave
1.000 setgray
fill
grestore
stroke
grestore
0.000 0.000 1.000 setrgbcolor
gsave
603.2 518.92 m
623.36 518.92 l
stroke
grestore
0.000 setgray
gsave
639.200000 509.880000 translate
0.000000 rotate
/Cmmi10 findfont
14.4 scalefont
setfont
0.000000 4.609375 moveto
/lambda glyphshow

/Cmr10 findfont
10.08 scalefont
setfont
8.389847 0.936025 moveto
/three glyphshow

/BitstreamVeraSans-Roman findfont
14.4 scalefont
setfont
15.585159 4.609375 moveto
/space glyphshow

20.154556 4.609375 moveto
/equal glyphshow

32.199234 4.609375 moveto
/space glyphshow

36.768631 4.609375 moveto
/zero glyphshow

45.914444 4.609375 moveto
/period glyphshow

50.483841 4.609375 moveto
/zero glyphshow

59.629654 4.609375 moveto
/zero glyphshow

68.775467 4.609375 moveto
/zero glyphshow

77.921280 4.609375 moveto
/zero glyphshow

87.067093 4.609375 moveto
/zero glyphshow

96.212906 4.609375 moveto
/zero glyphshow


grestore
0.000 0.500 0.000 setrgbcolor
gsave
603.2 496.72 m
623.36 496.72 l
stroke
grestore
0.000 setgray
gsave
639.200000 487.680000 translate
0.000000 rotate
/Cmmi10 findfont
14.4 scalefont
setfont
0.000000 4.609375 moveto
/lambda glyphshow

/Cmr10 findfont
10.08 scalefont
setfont
8.389847 0.936025 moveto
/three glyphshow

/BitstreamVeraSans-Roman findfont
14.4 scalefont
setfont
15.585159 4.609375 moveto
/space glyphshow

20.154556 4.609375 moveto
/equal glyphshow

32.199234 4.609375 moveto
/space glyphshow

36.768631 4.609375 moveto
/zero glyphshow

45.914444 4.609375 moveto
/period glyphshow

50.483841 4.609375 moveto
/one glyphshow

59.629654 4.609375 moveto
/zero glyphshow

68.775467 4.609375 moveto
/zero glyphshow

77.921280 4.609375 moveto
/zero glyphshow

87.067093 4.609375 moveto
/zero glyphshow

96.212906 4.609375 moveto
/zero glyphshow


grestore
1.000 0.000 0.000 setrgbcolor
gsave
603.2 474.52 m
623.36 474.52 l
stroke
grestore
0.000 setgray
gsave
639.200000 465.480000 translate
0.000000 rotate
/Cmmi10 findfont
14.4 scalefont
setfont
0.000000 4.609375 moveto
/lambda glyphshow

/Cmr10 findfont
10.08 scalefont
setfont
8.389847 0.936025 moveto
/three glyphshow

/BitstreamVeraSans-Roman findfont
14.4 scalefont
setfont
15.585159 4.609375 moveto
/space glyphshow

20.154556 4.609375 moveto
/equal glyphshow

32.199234 4.609375 moveto
/space glyphshow

36.768631 4.609375 moveto
/zero glyphshow

45.914444 4.609375 moveto
/period glyphshow

49.733841 4.609375 moveto
/two glyphshow

58.879654 4.609375 moveto
/zero glyphshow

68.025467 4.609375 moveto
/zero glyphshow

77.171280 4.609375 moveto
/zero glyphshow

86.317093 4.609375 moveto
/zero glyphshow

95.462906 4.609375 moveto
/zero glyphshow


grestore
0.000 0.750 0.750 setrgbcolor
gsave
603.2 452.32 m
623.36 452.32 l
stroke
grestore
0.000 setgray
gsave
639.200000 443.280000 translate
0.000000 rotate
/Cmmi10 findfont
14.4 scalefont
setfont
0.000000 4.609375 moveto
/lambda glyphshow

/Cmr10 findfont
10.08 scalefont
setfont
8.389847 0.936025 moveto
/three glyphshow

/BitstreamVeraSans-Roman findfont
14.4 scalefont
setfont
15.585159 4.609375 moveto
/space glyphshow

20.154556 4.609375 moveto
/equal glyphshow

32.199234 4.609375 moveto
/space glyphshow

36.768631 4.609375 moveto
/zero glyphshow

45.914444 4.609375 moveto
/period glyphshow

50.483841 4.609375 moveto
/three glyphshow

59.629654 4.609375 moveto
/zero glyphshow

68.775467 4.609375 moveto
/zero glyphshow

77.921280 4.609375 moveto
/zero glyphshow

87.067093 4.609375 moveto
/zero glyphshow

96.212906 4.609375 moveto
/zero glyphshow


grestore
0.750 0.000 0.750 setrgbcolor
gsave
603.2 430.12 m
623.36 430.12 l
stroke
grestore
0.000 setgray
gsave
639.200000 421.080000 translate
0.000000 rotate
/Cmmi10 findfont
14.4 scalefont
setfont
0.000000 4.609375 moveto
/lambda glyphshow

/Cmr10 findfont
10.08 scalefont
setfont
8.389847 0.936025 moveto
/three glyphshow

/BitstreamVeraSans-Roman findfont
14.4 scalefont
setfont
15.585159 4.609375 moveto
/space glyphshow

20.154556 4.609375 moveto
/equal glyphshow

32.199234 4.609375 moveto
/space glyphshow

36.768631 4.609375 moveto
/zero glyphshow

45.914444 4.609375 moveto
/period glyphshow

50.483841 4.609375 moveto
/four glyphshow

59.629654 4.609375 moveto
/zero glyphshow

68.775467 4.609375 moveto
/zero glyphshow

77.921280 4.609375 moveto
/zero glyphshow

87.067093 4.609375 moveto
/zero glyphshow

96.212906 4.609375 moveto
/zero glyphshow


grestore
0.750 0.750 0.000 setrgbcolor
gsave
603.2 407.92 m
623.36 407.92 l
stroke
grestore
0.000 setgray
gsave
639.200000 398.880000 translate
0.000000 rotate
/Cmmi10 findfont
14.4 scalefont
setfont
0.000000 4.609375 moveto
/lambda glyphshow

/Cmr10 findfont
10.08 scalefont
setfont
8.389847 0.936025 moveto
/three glyphshow

/BitstreamVeraSans-Roman findfont
14.4 scalefont
setfont
15.585159 4.609375 moveto
/space glyphshow

20.154556 4.609375 moveto
/equal glyphshow

32.199234 4.609375 moveto
/space glyphshow

36.768631 4.609375 moveto
/zero glyphshow

45.914444 4.609375 moveto
/period glyphshow

50.483841 4.609375 moveto
/five glyphshow

59.629654 4.609375 moveto
/zero glyphshow

68.775467 4.609375 moveto
/zero glyphshow

77.921280 4.609375 moveto
/zero glyphshow

87.067093 4.609375 moveto
/zero glyphshow

96.212906 4.609375 moveto
/zero glyphshow


grestore
gsave
603.2 385.72 m
623.36 385.72 l
stroke
grestore
gsave
639.200000 376.680000 translate
0.000000 rotate
/Cmmi10 findfont
14.4 scalefont
setfont
0.000000 4.609375 moveto
/lambda glyphshow

/Cmr10 findfont
10.08 scalefont
setfont
8.389847 0.936025 moveto
/three glyphshow

/BitstreamVeraSans-Roman findfont
14.4 scalefont
setfont
15.585159 4.609375 moveto
/space glyphshow

20.154556 4.609375 moveto
/equal glyphshow

32.199234 4.609375 moveto
/space glyphshow

36.768631 4.609375 moveto
/zero glyphshow

45.914444 4.609375 moveto
/period glyphshow

50.483841 4.609375 moveto
/six glyphshow

59.629654 4.609375 moveto
/zero glyphshow

68.775467 4.609375 moveto
/zero glyphshow

77.921280 4.609375 moveto
/zero glyphshow

87.067093 4.609375 moveto
/zero glyphshow

96.212906 4.609375 moveto
/zero glyphshow


grestore
0.000 0.000 1.000 setrgbcolor
gsave
603.2 363.52 m
623.36 363.52 l
stroke
grestore
0.000 setgray
gsave
639.200000 354.480000 translate
0.000000 rotate
/Cmmi10 findfont
14.4 scalefont
setfont
0.000000 4.609375 moveto
/lambda glyphshow

/Cmr10 findfont
10.08 scalefont
setfont
8.389847 0.936025 moveto
/three glyphshow

/BitstreamVeraSans-Roman findfont
14.4 scalefont
setfont
15.585159 4.609375 moveto
/space glyphshow

20.154556 4.609375 moveto
/equal glyphshow

32.199234 4.609375 moveto
/space glyphshow

36.768631 4.609375 moveto
/zero glyphshow

45.914444 4.609375 moveto
/period glyphshow

49.358841 4.609375 moveto
/seven glyphshow

58.504654 4.609375 moveto
/zero glyphshow

67.650467 4.609375 moveto
/zero glyphshow

76.796280 4.609375 moveto
/zero glyphshow

85.942093 4.609375 moveto
/zero glyphshow

95.087906 4.609375 moveto
/zero glyphshow


grestore
0.000 0.500 0.000 setrgbcolor
gsave
603.2 341.32 m
623.36 341.32 l
stroke
grestore
0.000 setgray
gsave
639.200000 332.280000 translate
0.000000 rotate
/Cmmi10 findfont
14.4 scalefont
setfont
0.000000 4.609375 moveto
/lambda glyphshow

/Cmr10 findfont
10.08 scalefont
setfont
8.389847 0.936025 moveto
/three glyphshow

/BitstreamVeraSans-Roman findfont
14.4 scalefont
setfont
15.585159 4.609375 moveto
/space glyphshow

20.154556 4.609375 moveto
/equal glyphshow

32.199234 4.609375 moveto
/space glyphshow

36.768631 4.609375 moveto
/zero glyphshow

45.914444 4.609375 moveto
/period glyphshow

50.108841 4.609375 moveto
/eight glyphshow

59.254654 4.609375 moveto
/zero glyphshow

68.400467 4.609375 moveto
/zero glyphshow

77.546280 4.609375 moveto
/zero glyphshow

86.692093 4.609375 moveto
/zero glyphshow

95.837906 4.609375 moveto
/zero glyphshow


grestore
1.000 0.000 0.000 setrgbcolor
gsave
603.2 319.12 m
623.36 319.12 l
stroke
grestore
0.000 setgray
gsave
639.200000 310.080000 translate
0.000000 rotate
/Cmmi10 findfont
14.4 scalefont
setfont
0.000000 4.609375 moveto
/lambda glyphshow

/Cmr10 findfont
10.08 scalefont
setfont
8.389847 0.936025 moveto
/three glyphshow

/BitstreamVeraSans-Roman findfont
14.4 scalefont
setfont
15.585159 4.609375 moveto
/space glyphshow

20.154556 4.609375 moveto
/equal glyphshow

32.199234 4.609375 moveto
/space glyphshow

36.768631 4.609375 moveto
/zero glyphshow

45.914444 4.609375 moveto
/period glyphshow

50.483841 4.609375 moveto
/nine glyphshow

59.629654 4.609375 moveto
/zero glyphshow

68.775467 4.609375 moveto
/zero glyphshow

77.921280 4.609375 moveto
/zero glyphshow

87.067093 4.609375 moveto
/zero glyphshow

96.212906 4.609375 moveto
/zero glyphshow


grestore
0.000 0.750 0.750 setrgbcolor
gsave
603.2 296.92 m
623.36 296.92 l
stroke
grestore
0.000 setgray
gsave
639.200000 287.880000 translate
0.000000 rotate
/Cmmi10 findfont
14.4 scalefont
setfont
0.000000 4.609375 moveto
/lambda glyphshow

/Cmr10 findfont
10.08 scalefont
setfont
8.389847 0.936025 moveto
/three glyphshow

/BitstreamVeraSans-Roman findfont
14.4 scalefont
setfont
15.585159 4.609375 moveto
/space glyphshow

20.154556 4.609375 moveto
/equal glyphshow

32.199234 4.609375 moveto
/space glyphshow

36.768631 4.609375 moveto
/one glyphshow

45.914444 4.609375 moveto
/period glyphshow

50.483841 4.609375 moveto
/zero glyphshow

59.629654 4.609375 moveto
/zero glyphshow

68.775467 4.609375 moveto
/zero glyphshow

77.921280 4.609375 moveto
/zero glyphshow

87.067093 4.609375 moveto
/zero glyphshow

96.212906 4.609375 moveto
/zero glyphshow


grestore

end
showpage
