%!PS-Adobe-3.0 EPSF-3.0
%%Title: Chen1.vis.eps
%%Creator: matplotlib version 1.2.1, http://matplotlib.org/
%%CreationDate: Sat Jun  1 12:03:38 2013
%%Orientation: portrait
%%BoundingBox: 126 216 486 576
%%EndComments
%%BeginProlog
/mpldict 8 dict def
mpldict begin
/m { moveto } bind def
/l { lineto } bind def
/r { rlineto } bind def
/c { curveto } bind def
/cl { closepath } bind def
/box {
m
1 index 0 r
0 exch r
neg 0 r
cl
} bind def
/clipbox {
box
clip
newpath
} bind def
%!PS-Adobe-3.0 Resource-Font
%%Title: Bitstream Vera Sans
%%Copyright: Copyright (c) 2003 by Bitstream, Inc. All Rights Reserved.
%%Creator: Converted from TrueType to type 3 by PPR
25 dict begin
/_d{bind def}bind def
/_m{moveto}_d
/_l{lineto}_d
/_cl{closepath eofill}_d
/_c{curveto}_d
/_sc{7 -1 roll{setcachedevice}{pop pop pop pop pop pop}ifelse}_d
/_e{exec}_d
/FontName /BitstreamVeraSans-Roman def
/PaintType 0 def
/FontMatrix[.001 0 0 .001 0 0]def
/FontBBox[-183 -236 1287 928]def
/FontType 3 def
/Encoding [ /parenleft /parenright /period /zero /one /five /C /e /h /n /minus ] def
/FontInfo 10 dict dup begin
/FamilyName (Bitstream Vera Sans) def
/FullName (Bitstream Vera Sans) def
/Notice (Copyright (c) 2003 by Bitstream, Inc. All Rights Reserved. Bitstream Vera is a trademark of Bitstream, Inc.) def
/Weight (Roman) def
/Version (Release 1.10) def
/ItalicAngle 0.0 def
/isFixedPitch false def
/UnderlinePosition -213 def
/UnderlineThickness 143 def
end readonly def
/CharStrings 11 dict dup begin
/parenleft{390 0 86 -131 310 759 _sc
310 759 _m
266 683 234 609 213 536 _c
191 463 181 389 181 314 _c
181 238 191 164 213 91 _c
234 17 266 -56 310 -131 _c
232 -131 _l
183 -54 146 20 122 94 _c
98 168 86 241 86 314 _c
86 386 98 459 122 533 _c
146 607 182 682 232 759 _c
310 759 _l
_cl}_d
/parenright{390 0 80 -131 304 759 _sc
80 759 _m
158 759 _l
206 682 243 607 267 533 _c
291 459 304 386 304 314 _c
304 241 291 168 267 94 _c
243 20 206 -54 158 -131 _c
80 -131 _l
123 -56 155 17 177 91 _c
198 164 209 238 209 314 _c
209 389 198 463 177 536 _c
155 609 123 683 80 759 _c
_cl}_d
/period{318 0 107 0 210 124 _sc
107 124 _m
210 124 _l
210 0 _l
107 0 _l
107 124 _l
_cl}_d
/zero{636 0 66 -13 570 742 _sc
318 664 _m
267 664 229 639 203 589 _c
177 539 165 464 165 364 _c
165 264 177 189 203 139 _c
229 89 267 64 318 64 _c
369 64 407 89 433 139 _c
458 189 471 264 471 364 _c
471 464 458 539 433 589 _c
407 639 369 664 318 664 _c
318 742 _m
399 742 461 709 505 645 _c
548 580 570 486 570 364 _c
570 241 548 147 505 83 _c
461 19 399 -13 318 -13 _c
236 -13 173 19 130 83 _c
87 147 66 241 66 364 _c
66 486 87 580 130 645 _c
173 709 236 742 318 742 _c
_cl}_d
/one{636 0 110 0 544 729 _sc
124 83 _m
285 83 _l
285 639 _l
110 604 _l
110 694 _l
284 729 _l
383 729 _l
383 83 _l
544 83 _l
544 0 _l
124 0 _l
124 83 _l
_cl}_d
/five{{636 0 77 -13 549 729 _sc
108 729 _m
495 729 _l
495 646 _l
198 646 _l
198 467 _l
212 472 227 476 241 478 _c
255 480 270 482 284 482 _c
365 482 429 459 477 415 _c
525 370 549 310 549 234 _c
549 155 524 94 475 51 _c
426 8 357 -13 269 -13 _c
238 -13 207 -10 175 -6 _c
143 -1 111 6 77 17 _c
77 116 _l
106 100 136 88 168 80 _c
199 72 232 69 267 69 _c
}_e{323 69 368 83 401 113 _c
433 143 450 183 450 234 _c
450 284 433 324 401 354 _c
368 384 323 399 267 399 _c
241 399 214 396 188 390 _c
162 384 135 375 108 363 _c
108 729 _l
_cl}_e}_d
/C{{698 0 56 -13 644 742 _sc
644 673 _m
644 569 _l
610 599 575 622 537 638 _c
499 653 460 661 418 661 _c
334 661 270 635 226 584 _c
182 533 160 460 160 364 _c
160 268 182 194 226 143 _c
270 92 334 67 418 67 _c
460 67 499 74 537 90 _c
575 105 610 128 644 159 _c
644 56 _l
609 32 572 15 534 4 _c
496 -7 455 -13 412 -13 _c
302 -13 215 20 151 87 _c
}_e{87 154 56 246 56 364 _c
56 481 87 573 151 641 _c
215 708 302 742 412 742 _c
456 742 497 736 535 725 _c
573 713 610 696 644 673 _c
_cl}_e}_d
/e{{615 0 55 -13 562 560 _sc
562 296 _m
562 252 _l
149 252 _l
153 190 171 142 205 110 _c
238 78 284 62 344 62 _c
378 62 412 66 444 74 _c
476 82 509 95 541 113 _c
541 28 _l
509 14 476 3 442 -3 _c
408 -9 373 -13 339 -13 _c
251 -13 182 12 131 62 _c
80 112 55 181 55 268 _c
55 357 79 428 127 481 _c
175 533 241 560 323 560 _c
397 560 455 536 498 489 _c
}_e{540 441 562 377 562 296 _c
472 322 _m
471 371 457 410 431 440 _c
404 469 368 484 324 484 _c
274 484 234 469 204 441 _c
174 413 156 373 152 322 _c
472 322 _l
_cl}_e}_d
/h{634 0 91 0 549 760 _sc
549 330 _m
549 0 _l
459 0 _l
459 327 _l
459 379 448 417 428 443 _c
408 469 378 482 338 482 _c
289 482 251 466 223 435 _c
195 404 181 362 181 309 _c
181 0 _l
91 0 _l
91 760 _l
181 760 _l
181 462 _l
202 494 227 519 257 535 _c
286 551 320 560 358 560 _c
420 560 468 540 500 501 _c
532 462 549 405 549 330 _c
_cl}_d
/n{634 0 91 0 549 560 _sc
549 330 _m
549 0 _l
459 0 _l
459 327 _l
459 379 448 417 428 443 _c
408 469 378 482 338 482 _c
289 482 251 466 223 435 _c
195 404 181 362 181 309 _c
181 0 _l
91 0 _l
91 547 _l
181 547 _l
181 462 _l
202 494 227 519 257 535 _c
286 551 320 560 358 560 _c
420 560 468 540 500 501 _c
532 462 549 405 549 330 _c
_cl}_d
/minus{838 0 106 272 732 355 _sc
106 355 _m
732 355 _l
732 272 _l
106 272 _l
106 355 _l
_cl}_d
end readonly def

/BuildGlyph
 {exch begin
 CharStrings exch
 2 copy known not{pop /.notdef}if
 true 3 1 roll get exec
 end}_d

/BuildChar {
 1 index /Encoding get exch get
 1 index /BuildGlyph get exec
}_d

FontName currentdict end definefont pop
end
%%EndProlog
mpldict begin
126 216 translate
360 360 0 0 clipbox
gsave
0 0 m
360 0 l
360 360 l
0 360 l
cl
1.000 setgray
fill
grestore
gsave
45 40.5 m
324 40.5 l
324 319.5 l
45 319.5 l
cl
1.000 setgray
fill
grestore
2.000 setlinewidth
1 setlinejoin
2 setlinecap
[] 0 setdash
0.000 0.000 1.000 setrgbcolor
gsave
279 279 45 40.5 clipbox
311.318 180 m
309.781 181.538 l
308.28 183.039 l
306.813 184.505 l
305.38 185.938 l
303.978 187.34 l
302.606 188.712 l
301.263 190.055 l
299.948 191.371 l
298.658 192.66 l
297.394 193.924 l
296.154 195.164 l
294.936 196.382 l
293.741 197.577 l
292.567 198.751 l
291.413 199.906 l
290.278 201.041 l
289.161 202.157 l
288.062 203.256 l
286.981 204.338 l
285.915 205.403 l
284.865 206.453 l
283.83 207.488 l
282.809 208.509 l
281.802 209.516 l
280.808 210.51 l
279.827 211.492 l
278.857 212.461 l
277.9 213.419 l
276.953 214.366 l
276.017 215.302 l
275.091 216.228 l
274.174 217.144 l
273.267 218.051 l
272.369 218.95 l
271.479 219.839 l
270.597 220.721 l
269.723 221.595 l
268.857 222.462 l
267.997 223.321 l
267.144 224.174 l
266.298 225.021 l
265.457 225.862 l
264.622 226.697 l
263.792 227.526 l
262.968 228.35 l
262.148 229.17 l
261.333 229.985 l
260.522 230.796 l
259.715 231.603 l
258.912 232.407 l
258.112 233.207 l
257.315 234.003 l
256.521 234.797 l
255.73 235.588 l
254.941 236.377 l
254.154 237.164 l
253.37 237.949 l
252.587 238.732 l
251.805 239.514 l
251.024 240.294 l
250.245 241.074 l
249.466 241.853 l
248.687 242.631 l
247.909 243.409 l
247.131 244.187 l
246.353 244.966 l
245.574 245.745 l
244.794 246.524 l
244.014 247.305 l
243.232 248.087 l
242.449 248.87 l
241.664 249.654 l
240.877 250.441 l
240.088 251.23 l
239.297 252.021 l
238.503 252.815 l
237.707 253.612 l
236.907 254.412 l
236.103 255.215 l
235.296 256.022 l
234.485 256.833 l
233.67 257.648 l
232.85 258.468 l
232.026 259.292 l
231.197 260.122 l
230.362 260.957 l
229.521 261.798 l
228.674 262.644 l
227.821 263.497 l
226.962 264.357 l
226.095 265.223 l
225.221 266.097 l
224.339 266.979 l
223.45 267.869 l
222.551 268.767 l
221.644 269.674 l
220.728 270.591 l
219.802 271.517 l
218.866 272.453 l
217.919 273.4 l
216.961 274.357 l
215.992 275.327 l
215.01 276.308 l
214.016 277.302 l
213.009 278.309 l
211.988 279.33 l
210.953 280.365 l
209.903 281.415 l
208.838 282.481 l
207.756 283.562 l
206.657 284.661 l
205.541 285.778 l
204.406 286.913 l
203.251 288.067 l
202.077 289.241 l
200.882 290.436 l
199.664 291.654 l
198.424 292.894 l
197.16 294.158 l
195.871 295.448 l
194.555 296.763 l
193.212 298.106 l
191.84 299.478 l
190.438 300.88 l
189.005 302.313 l
187.539 303.78 l
186.038 305.281 l
184.5 306.818 l
182.999 302.315 l
181.6 298.12 l
180.294 294.2 l
179.07 290.529 l
177.921 287.082 l
176.84 283.839 l
175.821 280.782 l
174.858 277.893 l
173.947 275.159 l
173.083 272.567 l
172.262 270.105 l
171.482 267.763 l
170.738 265.532 l
170.028 263.403 l
169.35 261.369 l
168.702 259.424 l
168.08 257.56 l
167.485 255.773 l
166.913 254.057 l
166.363 252.407 l
165.834 250.82 l
165.324 249.292 l
164.833 247.818 l
164.359 246.396 l
163.901 245.022 l
163.458 243.694 l
163.03 242.409 l
162.615 241.164 l
162.213 239.958 l
161.823 238.788 l
161.445 237.652 l
161.077 236.549 l
160.719 235.476 l
160.371 234.433 l
160.033 233.417 l
159.703 232.428 l
159.382 231.464 l
159.068 230.524 l
158.763 229.606 l
158.464 228.71 l
158.172 227.835 l
157.887 226.979 l
157.608 226.142 l
157.335 225.323 l
157.067 224.52 l
156.805 223.735 l
156.548 222.965 l
156.297 222.209 l
156.05 221.468 l
155.807 220.741 l
155.569 220.026 l
155.335 219.324 l
155.105 218.634 l
154.879 217.956 l
154.656 217.288 l
154.438 216.631 l
154.222 215.984 l
154.01 215.347 l
153.8 214.719 l
153.594 214.1 l
153.39 213.489 l
153.189 212.887 l
152.991 212.292 l
152.795 211.705 l
152.602 211.125 l
152.411 210.551 l
152.222 209.985 l
152.035 209.424 l
151.85 208.87 l
151.667 208.322 l
151.486 207.778 l
151.307 207.24 l
151.13 206.708 l
150.954 206.18 l
150.779 205.656 l
150.606 205.137 l
150.435 204.622 l
150.264 204.111 l
150.095 203.604 l
149.927 203.101 l
149.761 202.6 l
149.595 202.103 l
149.43 201.609 l
149.266 201.118 l
149.104 200.63 l
148.942 200.144 l
148.78 199.66 l
148.62 199.178 l
148.46 198.699 l
148.301 198.221 l
148.142 197.745 l
147.984 197.271 l
147.826 196.798 l
147.669 196.326 l
147.512 195.855 l
147.356 195.386 l
147.199 194.917 l
147.043 194.449 l
146.887 193.981 l
146.731 193.514 l
146.576 193.047 l
146.42 192.58 l
146.265 192.113 l
146.109 191.646 l
145.953 191.178 l
145.797 190.71 l
145.641 190.242 l
145.485 189.773 l
145.328 189.303 l
145.171 188.832 l
145.014 188.359 l
144.856 187.886 l
144.697 187.411 l
144.539 186.934 l
144.379 186.456 l
144.219 185.975 l
144.058 185.493 l
143.896 185.008 l
143.734 184.521 l
143.571 184.031 l
143.407 183.539 l
143.242 183.043 l
143.075 182.545 l
142.908 182.043 l
142.74 181.538 l
142.57 181.029 l
142.399 180.517 l
142.227 180 l
142.054 179.479 l
141.878 178.954 l
141.702 178.424 l
141.523 177.889 l
141.343 177.349 l
141.162 176.803 l
140.978 176.252 l
140.792 175.695 l
140.604 175.132 l
140.415 174.563 l
140.223 173.986 l
140.028 173.403 l
139.831 172.813 l
139.632 172.215 l
139.43 171.609 l
139.225 170.994 l
139.018 170.371 l
138.807 169.739 l
138.593 169.098 l
138.376 168.446 l
138.155 167.785 l
137.931 167.113 l
137.704 166.429 l
137.472 165.734 l
137.236 165.027 l
136.996 164.307 l
136.752 163.573 l
136.502 162.826 l
136.249 162.065 l
135.99 161.288 l
135.725 160.495 l
135.456 159.685 l
135.18 158.858 l
134.898 158.013 l
134.61 157.149 l
134.315 156.264 l
134.014 155.359 l
133.704 154.432 l
133.387 153.481 l
133.062 152.506 l
132.729 151.506 l
132.387 150.478 l
132.035 149.422 l
131.673 148.336 l
131.3 147.219 l
130.917 146.069 l
130.522 144.883 l
130.114 143.66 l
129.693 142.398 l
129.259 141.095 l
128.81 139.747 l
128.345 138.352 l
127.863 136.908 l
127.364 135.411 l
126.846 133.857 l
126.308 132.243 l
125.749 130.565 l
125.167 128.819 l
124.56 126.999 l
123.927 125.1 l
123.266 123.117 l
122.574 121.042 l
121.85 118.87 l
121.091 116.591 l
123.37 117.35 l
125.542 118.074 l
127.617 118.766 l
129.6 119.427 l
131.499 120.06 l
133.319 120.667 l
135.065 121.249 l
136.743 121.808 l
138.357 122.346 l
139.911 122.864 l
141.408 123.363 l
142.852 123.845 l
144.247 124.31 l
145.595 124.759 l
146.898 125.193 l
148.16 125.614 l
149.383 126.022 l
150.569 126.417 l
151.719 126.8 l
152.836 127.173 l
153.922 127.535 l
154.978 127.887 l
156.006 128.229 l
157.006 128.562 l
157.981 128.887 l
158.932 129.204 l
159.859 129.514 l
160.764 129.815 l
161.649 130.11 l
162.513 130.398 l
163.358 130.68 l
164.185 130.956 l
164.995 131.225 l
165.788 131.49 l
166.565 131.749 l
167.326 132.002 l
168.073 132.252 l
168.807 132.496 l
169.527 132.736 l
170.234 132.972 l
170.929 133.204 l
171.613 133.431 l
172.285 133.655 l
172.946 133.876 l
173.598 134.093 l
174.239 134.307 l
174.871 134.518 l
175.494 134.725 l
176.109 134.93 l
176.715 135.132 l
177.313 135.331 l
177.903 135.528 l
178.486 135.723 l
179.063 135.915 l
179.632 136.104 l
180.195 136.292 l
180.752 136.478 l
181.303 136.662 l
181.849 136.843 l
182.389 137.023 l
182.924 137.202 l
183.454 137.378 l
183.979 137.554 l
184.5 137.727 l
185.017 137.899 l
185.529 138.07 l
186.038 138.24 l
186.543 138.408 l
187.045 138.575 l
187.543 138.742 l
188.039 138.907 l
188.531 139.071 l
189.021 139.234 l
189.508 139.396 l
189.993 139.558 l
190.475 139.719 l
190.956 139.879 l
191.434 140.039 l
191.911 140.197 l
192.386 140.356 l
192.859 140.514 l
193.332 140.671 l
193.803 140.828 l
194.273 140.985 l
194.742 141.141 l
195.21 141.297 l
195.678 141.453 l
196.146 141.609 l
196.613 141.765 l
197.08 141.92 l
197.547 142.076 l
198.014 142.231 l
198.481 142.387 l
198.949 142.543 l
199.417 142.699 l
199.886 142.856 l
200.355 143.012 l
200.826 143.169 l
201.298 143.326 l
201.771 143.484 l
202.245 143.642 l
202.721 143.801 l
203.199 143.96 l
203.678 144.12 l
204.16 144.28 l
204.644 144.442 l
205.13 144.604 l
205.618 144.766 l
206.109 144.93 l
206.603 145.095 l
207.1 145.261 l
207.601 145.427 l
208.104 145.595 l
208.611 145.764 l
209.122 145.935 l
209.637 146.106 l
210.156 146.279 l
210.68 146.454 l
211.208 146.63 l
211.74 146.807 l
212.278 146.986 l
212.822 147.167 l
213.37 147.35 l
213.924 147.535 l
214.485 147.722 l
215.051 147.911 l
215.625 148.102 l
216.205 148.295 l
216.792 148.491 l
217.387 148.689 l
217.989 148.89 l
218.6 149.094 l
219.219 149.3 l
219.847 149.51 l
220.484 149.722 l
221.131 149.938 l
221.788 150.156 l
222.456 150.379 l
223.134 150.605 l
223.824 150.835 l
224.526 151.069 l
225.241 151.307 l
225.968 151.55 l
226.709 151.797 l
227.465 152.048 l
228.235 152.305 l
229.02 152.567 l
229.823 152.835 l
230.642 153.108 l
231.479 153.387 l
232.335 153.672 l
233.21 153.964 l
234.106 154.263 l
235.024 154.568 l
235.964 154.882 l
236.928 155.203 l
237.917 155.533 l
238.933 155.871 l
239.976 156.219 l
241.049 156.577 l
242.152 156.945 l
243.288 157.323 l
244.458 157.713 l
245.664 158.115 l
246.909 158.53 l
248.194 158.958 l
249.522 159.401 l
250.896 159.859 l
252.318 160.333 l
253.792 160.824 l
255.32 161.334 l
256.907 161.863 l
258.557 162.413 l
260.273 162.985 l
262.06 163.58 l
263.924 164.202 l
265.869 164.85 l
267.903 165.528 l
270.032 166.238 l
272.263 166.982 l
274.605 167.762 l
277.067 168.583 l
279.659 169.447 l
282.393 170.358 l
285.282 171.321 l
288.339 172.34 l
291.582 173.421 l
295.029 174.57 l
298.7 175.794 l
302.62 177.1 l
306.815 178.499 l
311.318 180 l
cl
gsave
0.500 0.500 1.000 setrgbcolor
fill
grestore
stroke
grestore
1.000 setlinewidth
0.000 setgray
gsave
279 279 45 40.5 clipbox
311.318 180 m
309.658 181.536 l
308.159 183.036 l
306.694 184.501 l
305.026 185.921 l
303.628 187.319 l
302.03 188.67 l
300.465 189.986 l
298.933 191.271 l
297.432 192.524 l
295.961 193.747 l
294.3 194.913 l
292.887 196.078 l
291.288 197.182 l
289.928 198.294 l
288.385 199.342 l
286.869 200.362 l
285.38 201.356 l
283.916 202.325 l
282.477 203.268 l
281.062 204.188 l
279.671 205.084 l
278.301 205.958 l
276.953 206.811 l
275.436 207.585 l
274.131 208.395 l
272.845 209.185 l
271.394 209.893 l
270.147 210.645 l
268.737 211.312 l
267.347 211.958 l
266.155 212.655 l
264.804 213.263 l
263.472 213.852 l
262.329 214.499 l
261.031 215.054 l
259.751 215.591 l
258.488 216.111 l
257.241 216.615 l
256.011 217.102 l
254.796 217.574 l
253.597 218.03 l
252.57 218.561 l
251.399 218.99 l
250.241 219.404 l
249.098 219.804 l
247.968 220.191 l
246.702 220.467 l
245.6 220.826 l
244.51 221.172 l
243.433 221.506 l
242.369 221.827 l
241.316 222.137 l
240.274 222.436 l
239.244 222.723 l
238.225 222.999 l
237.217 223.264 l
236.085 223.405 l
235.1 223.647 l
234.124 223.88 l
233.159 224.102 l
232.203 224.314 l
231.258 224.517 l
230.321 224.71 l
229.394 224.894 l
228.354 224.944 l
227.447 225.108 l
226.548 225.264 l
225.658 225.411 l
224.776 225.549 l
223.903 225.679 l
223.038 225.801 l
222.07 225.779 l
221.222 225.883 l
220.383 225.98 l
219.551 226.068 l
218.727 226.149 l
217.91 226.223 l
217.101 226.289 l
216.298 226.348 l
215.504 226.4 l
214.618 226.295 l
213.839 226.331 l
213.066 226.36 l
212.301 226.383 l
211.542 226.399 l
210.79 226.408 l
210.044 226.411 l
209.305 226.407 l
208.572 226.396 l
207.846 226.38 l
207.125 226.357 l
206.411 226.328 l
205.704 226.293 l
205.002 226.251 l
204.306 226.204 l
203.616 226.151 l
202.932 226.092 l
202.254 226.026 l
201.582 225.955 l
200.916 225.879 l
200.255 225.797 l
199.6 225.708 l
198.951 225.615 l
198.307 225.515 l
197.669 225.41 l
197.036 225.3 l
196.409 225.184 l
195.788 225.062 l
195.171 224.935 l
194.561 224.803 l
193.999 224.87 l
193.397 224.728 l
192.8 224.582 l
192.209 224.43 l
191.624 224.273 l
191.043 224.11 l
190.468 223.942 l
189.898 223.769 l
189.359 223.813 l
188.797 223.631 l
188.241 223.444 l
187.69 223.252 l
187.145 223.054 l
186.605 222.851 l
186.079 222.881 l
185.547 222.67 l
185.021 222.454 l
184.5 222.232 l
183.983 222.165 l
183.472 221.872 l
182.96 221.821 l
182.458 221.556 l
181.962 221.306 l
181.456 221.272 l
180.966 221.041 l
180.48 220.821 l
179.996 220.61 l
179.516 220.408 l
179.038 220.213 l
178.563 220.025 l
178.089 219.843 l
177.617 219.665 l
177.177 219.334 l
176.709 219.169 l
176.242 219.007 l
175.81 218.7 l
175.346 218.547 l
174.918 218.254 l
174.456 218.107 l
174.032 217.826 l
173.61 217.552 l
173.151 217.412 l
172.732 217.146 l
172.315 216.885 l
171.899 216.628 l
171.485 216.376 l
171.071 216.127 l
170.659 215.881 l
170.248 215.638 l
169.838 215.398 l
169.428 215.16 l
169.019 214.924 l
168.611 214.69 l
168.203 214.457 l
167.844 214.125 l
167.438 213.896 l
167.032 213.668 l
166.676 213.345 l
166.271 213.12 l
165.918 212.803 l
165.513 212.579 l
165.161 212.266 l
164.81 211.956 l
164.405 211.733 l
164.055 211.426 l
163.706 211.121 l
163.357 210.818 l
163.008 210.516 l
162.604 210.293 l
162.256 209.992 l
161.908 209.693 l
161.561 209.393 l
161.214 209.095 l
160.867 208.797 l
160.52 208.499 l
160.233 208.133 l
159.886 207.836 l
159.54 207.54 l
159.193 207.243 l
158.907 206.881 l
158.56 206.584 l
158.214 206.286 l
157.929 205.927 l
157.581 205.629 l
157.297 205.27 l
156.949 204.97 l
156.665 204.613 l
156.317 204.311 l
156.032 203.953 l
155.748 203.596 l
155.399 203.291 l
155.114 202.933 l
154.83 202.575 l
154.545 202.216 l
154.26 201.857 l
153.975 201.498 l
153.623 201.184 l
153.337 200.822 l
153.051 200.46 l
152.833 200.053 l
152.547 199.689 l
152.26 199.324 l
151.973 198.957 l
151.685 198.59 l
151.397 198.22 l
151.178 197.811 l
150.888 197.439 l
150.599 197.064 l
150.379 196.653 l
150.088 196.276 l
149.796 195.896 l
149.575 195.481 l
149.354 195.066 l
149.06 194.68 l
148.838 194.261 l
148.543 193.87 l
148.32 193.449 l
148.096 193.025 l
147.872 192.601 l
147.573 192.199 l
147.348 191.77 l
147.121 191.339 l
146.894 190.905 l
146.667 190.47 l
146.438 190.032 l
146.209 189.592 l
145.978 189.148 l
145.747 188.702 l
145.515 188.253 l
145.359 187.786 l
145.125 187.331 l
144.89 186.873 l
144.732 186.399 l
144.494 185.934 l
144.255 185.466 l
144.095 184.984 l
143.933 184.499 l
143.691 184.019 l
143.527 183.528 l
143.282 183.04 l
143.116 182.542 l
142.949 182.041 l
142.781 181.537 l
142.611 181.028 l
142.44 180.516 l
142.227 180 l
142.095 179.48 l
141.92 178.955 l
141.743 178.425 l
141.565 177.891 l
141.385 177.351 l
141.204 176.806 l
141.105 176.263 l
140.92 175.708 l
140.819 175.156 l
140.63 174.589 l
140.525 174.028 l
140.332 173.448 l
140.224 172.876 l
140.114 172.298 l
140.002 171.715 l
139.888 171.126 l
139.773 170.531 l
139.655 169.93 l
139.534 169.321 l
139.412 168.706 l
139.287 168.083 l
139.159 167.452 l
139.12 166.84 l
138.987 166.194 l
138.944 165.568 l
138.805 164.904 l
138.757 164.263 l
138.612 163.581 l
138.558 162.923 l
138.501 162.256 l
138.44 161.58 l
138.377 160.895 l
138.31 160.2 l
138.337 159.538 l
138.264 158.822 l
138.187 158.096 l
138.204 157.404 l
138.119 156.654 l
138.129 155.941 l
138.136 155.218 l
138.139 154.483 l
138.036 153.678 l
138.132 152.976 l
138.121 152.202 l
138.106 151.413 l
138.086 150.608 l
138.165 149.856 l
138.134 149.019 l
138.203 148.237 l
138.268 147.44 l
138.327 146.626 l
138.38 145.795 l
138.427 144.946 l
138.468 144.076 l
138.613 143.275 l
138.64 142.364 l
138.773 141.524 l
138.899 140.664 l
139.018 139.783 l
139.129 138.879 l
139.232 137.949 l
139.326 136.991 l
139.532 136.122 l
139.606 135.106 l
139.786 134.175 l
139.994 133.253 l
140.226 132.34 l
140.376 131.317 l
140.557 130.304 l
140.766 129.3 l
141.003 128.306 l
141.267 127.321 l
141.556 126.344 l
141.783 125.263 l
142.039 124.193 l
142.852 123.845 l
144.247 124.31 l
145.595 124.759 l
146.898 125.193 l
148.16 125.614 l
149.383 126.022 l
150.569 126.417 l
151.719 126.8 l
152.836 127.173 l
153.922 127.535 l
154.978 127.887 l
156.006 128.229 l
157.006 128.562 l
157.981 128.887 l
158.932 129.204 l
159.859 129.514 l
160.764 129.815 l
161.649 130.11 l
162.513 130.398 l
163.358 130.68 l
164.185 130.956 l
164.995 131.225 l
165.788 131.49 l
166.565 131.749 l
167.326 132.002 l
168.073 132.252 l
168.807 132.496 l
169.527 132.736 l
170.234 132.972 l
170.929 133.204 l
171.613 133.431 l
172.285 133.655 l
172.946 133.876 l
173.598 134.093 l
174.239 134.307 l
174.871 134.518 l
175.494 134.725 l
176.109 134.93 l
176.715 135.132 l
177.313 135.331 l
177.903 135.528 l
178.486 135.723 l
179.063 135.915 l
179.632 136.104 l
180.195 136.292 l
180.752 136.478 l
181.303 136.662 l
181.849 136.843 l
182.389 137.023 l
182.924 137.202 l
183.454 137.378 l
183.979 137.554 l
184.5 137.727 l
185.017 137.899 l
185.529 138.07 l
186.038 138.24 l
186.543 138.408 l
187.045 138.575 l
187.543 138.742 l
188.039 138.907 l
188.531 139.071 l
189.021 139.234 l
189.508 139.396 l
189.993 139.558 l
190.475 139.719 l
190.956 139.879 l
191.434 140.039 l
191.911 140.197 l
192.386 140.356 l
192.859 140.514 l
193.332 140.671 l
193.803 140.828 l
194.273 140.985 l
194.742 141.141 l
195.21 141.297 l
195.678 141.453 l
196.146 141.609 l
196.613 141.765 l
197.08 141.92 l
197.547 142.076 l
198.014 142.231 l
198.481 142.387 l
198.949 142.543 l
199.417 142.699 l
199.886 142.856 l
200.355 143.012 l
200.826 143.169 l
201.298 143.326 l
201.771 143.484 l
202.245 143.642 l
202.721 143.801 l
203.199 143.96 l
203.678 144.12 l
204.16 144.28 l
204.644 144.442 l
205.13 144.604 l
205.618 144.766 l
206.109 144.93 l
206.603 145.095 l
207.1 145.261 l
207.601 145.427 l
208.104 145.595 l
208.611 145.764 l
209.122 145.935 l
209.637 146.106 l
210.156 146.279 l
210.68 146.454 l
211.208 146.63 l
211.74 146.807 l
212.278 146.986 l
212.822 147.167 l
213.37 147.35 l
213.924 147.535 l
214.485 147.722 l
215.051 147.911 l
215.625 148.102 l
216.205 148.295 l
216.792 148.491 l
217.387 148.689 l
217.989 148.89 l
218.6 149.094 l
219.219 149.3 l
219.847 149.51 l
220.484 149.722 l
221.131 149.938 l
221.788 150.156 l
222.456 150.379 l
223.134 150.605 l
223.824 150.835 l
224.526 151.069 l
225.241 151.307 l
225.968 151.55 l
226.709 151.797 l
227.465 152.048 l
228.235 152.305 l
229.02 152.567 l
229.823 152.835 l
230.642 153.108 l
231.479 153.387 l
232.335 153.672 l
233.21 153.964 l
234.106 154.263 l
235.024 154.568 l
235.964 154.882 l
236.928 155.203 l
237.917 155.533 l
238.933 155.871 l
239.976 156.219 l
241.049 156.577 l
242.152 156.945 l
243.288 157.323 l
244.458 157.713 l
245.664 158.115 l
246.909 158.53 l
248.194 158.958 l
249.522 159.401 l
250.896 159.859 l
252.318 160.333 l
253.792 160.824 l
255.32 161.334 l
256.907 161.863 l
258.557 162.413 l
260.273 162.985 l
262.06 163.58 l
263.924 164.202 l
265.869 164.85 l
267.903 165.528 l
270.032 166.238 l
272.263 166.982 l
274.605 167.762 l
277.067 168.583 l
279.659 169.447 l
282.393 170.358 l
285.282 171.321 l
288.339 172.34 l
291.582 173.421 l
295.029 174.57 l
298.7 175.794 l
302.62 177.1 l
306.815 178.499 l
311.195 180 l
cl
gsave
0.500 setgray
fill
grestore
stroke
grestore
2.000 setlinewidth
1.000 0.500 0.000 setrgbcolor
gsave
279 279 45 40.5 clipbox
311.318 180 m
184.5 306.818 l
stroke
grestore
1.000 setlinewidth
1.000 0.000 0.000 setrgbcolor
gsave
279 279 45 40.5 clipbox
311.318 180 m
310.708 192.43 l
308.881 204.741 l
305.857 216.813 l
301.665 228.531 l
296.344 239.782 l
289.945 250.456 l
282.532 260.453 l
274.174 269.674 l
264.953 278.032 l
254.956 285.445 l
244.282 291.844 l
233.031 297.165 l
221.313 301.357 l
209.241 304.381 l
196.93 306.208 l
184.5 306.818 l
172.07 306.208 l
159.759 304.381 l
147.687 301.357 l
135.969 297.165 l
124.718 291.844 l
114.044 285.445 l
104.047 278.032 l
94.826 269.674 l
86.4682 260.453 l
79.0545 250.456 l
72.6563 239.782 l
67.3353 228.531 l
63.1426 216.813 l
60.1186 204.741 l
58.2925 192.43 l
57.6818 180 l
58.2925 167.57 l
60.1186 155.259 l
63.1426 143.187 l
67.3353 131.469 l
72.6563 120.218 l
79.0545 109.544 l
86.4682 99.5474 l
94.826 90.326 l
104.047 81.9682 l
114.044 74.5545 l
124.718 68.1563 l
135.969 62.8353 l
147.687 58.6426 l
159.759 55.6186 l
172.07 53.7925 l
184.5 53.1818 l
196.93 53.7925 l
209.241 55.6186 l
221.313 58.6426 l
233.031 62.8353 l
244.282 68.1563 l
254.956 74.5545 l
264.953 81.9682 l
274.174 90.326 l
282.532 99.5474 l
289.945 109.544 l
296.344 120.218 l
301.665 131.469 l
305.857 143.187 l
308.881 155.259 l
310.708 167.57 l
311.318 180 l
stroke
grestore
0.750 0.750 0.000 setrgbcolor
gsave
279 279 45 40.5 clipbox
257.719 180 m
257.366 187.177 l
256.312 194.284 l
254.566 201.254 l
252.145 208.02 l
249.073 214.515 l
245.379 220.678 l
241.099 226.449 l
236.273 231.773 l
230.949 236.599 l
225.178 240.879 l
219.015 244.573 l
212.52 247.645 l
205.754 250.066 l
198.784 251.812 l
191.677 252.866 l
184.5 253.219 l
177.323 252.866 l
170.216 251.812 l
163.246 250.066 l
156.48 247.645 l
149.985 244.573 l
143.822 240.879 l
138.051 236.599 l
132.727 231.773 l
127.901 226.449 l
123.621 220.678 l
119.927 214.515 l
116.855 208.02 l
114.434 201.254 l
112.688 194.284 l
111.634 187.177 l
111.281 180 l
111.634 172.823 l
112.688 165.716 l
114.434 158.746 l
116.855 151.98 l
119.927 145.485 l
123.621 139.322 l
127.901 133.551 l
132.727 128.227 l
138.051 123.401 l
143.822 119.121 l
149.985 115.427 l
156.48 112.355 l
163.246 109.934 l
170.216 108.188 l
177.323 107.134 l
184.5 106.781 l
191.677 107.134 l
198.784 108.188 l
205.754 109.934 l
212.52 112.355 l
219.015 115.427 l
225.178 119.121 l
230.949 123.401 l
236.273 128.227 l
241.099 133.551 l
245.379 139.322 l
249.073 145.485 l
252.145 151.98 l
254.566 158.746 l
256.312 165.716 l
257.366 172.823 l
257.719 180 l
stroke
grestore
gsave
279 279 45 40.5 clipbox
274.174 180 m
273.742 188.79 l
272.451 197.495 l
270.313 206.031 l
267.348 214.317 l
263.585 222.272 l
259.061 229.82 l
253.819 236.889 l
247.909 243.409 l
241.389 249.319 l
234.32 254.561 l
226.772 259.085 l
218.817 262.848 l
210.531 265.813 l
201.995 267.951 l
193.29 269.242 l
184.5 269.674 l
175.71 269.242 l
167.005 267.951 l
158.469 265.813 l
150.183 262.848 l
142.228 259.085 l
134.68 254.561 l
127.611 249.319 l
121.091 243.409 l
115.181 236.889 l
109.939 229.82 l
105.415 222.272 l
101.652 214.317 l
98.6873 206.031 l
96.5491 197.495 l
95.2578 188.79 l
94.826 180 l
95.2578 171.21 l
96.5491 162.505 l
98.6873 153.969 l
101.652 145.683 l
105.415 137.728 l
109.939 130.18 l
115.181 123.111 l
121.091 116.591 l
127.611 110.681 l
134.68 105.439 l
142.228 100.915 l
150.183 97.152 l
158.469 94.1873 l
167.005 92.0491 l
175.71 90.7578 l
184.5 90.326 l
193.29 90.7578 l
201.995 92.0491 l
210.531 94.1873 l
218.817 97.152 l
226.772 100.915 l
234.32 105.439 l
241.389 110.681 l
247.909 116.591 l
253.819 123.111 l
259.061 130.18 l
263.585 137.728 l
267.348 145.683 l
270.313 153.969 l
272.451 162.505 l
273.742 171.21 l
274.174 180 l
stroke
grestore
gsave
279 279 45 40.5 clipbox
236.273 180 m
236.024 185.075 l
235.278 190.1 l
234.044 195.029 l
232.332 199.813 l
230.16 204.406 l
227.548 208.764 l
224.521 212.845 l
221.109 216.609 l
217.345 220.021 l
213.264 223.048 l
208.906 225.66 l
204.313 227.832 l
199.529 229.544 l
194.6 230.778 l
189.575 231.524 l
184.5 231.773 l
179.425 231.524 l
174.4 230.778 l
169.471 229.544 l
164.687 227.832 l
160.094 225.66 l
155.736 223.048 l
151.655 220.021 l
147.891 216.609 l
144.479 212.845 l
141.452 208.764 l
138.84 204.406 l
136.668 199.813 l
134.956 195.029 l
133.722 190.1 l
132.976 185.075 l
132.727 180 l
132.976 174.925 l
133.722 169.9 l
134.956 164.971 l
136.668 160.187 l
138.84 155.594 l
141.452 151.236 l
144.479 147.155 l
147.891 143.391 l
151.655 139.979 l
155.736 136.952 l
160.094 134.34 l
164.687 132.168 l
169.471 130.456 l
174.4 129.222 l
179.425 128.476 l
184.5 128.227 l
189.575 128.476 l
194.6 129.222 l
199.529 130.456 l
204.313 132.168 l
208.906 134.34 l
213.264 136.952 l
217.345 139.979 l
221.109 143.391 l
224.521 147.155 l
227.548 151.236 l
230.16 155.594 l
232.332 160.187 l
234.044 164.971 l
235.278 169.9 l
236.024 174.925 l
236.273 180 l
stroke
grestore
0.000 0.500 0.000 setrgbcolor
gsave
279 279 45 40.5 clipbox
226.773 180 m
226.569 184.143 l
225.96 188.247 l
224.952 192.271 l
223.555 196.177 l
221.781 199.927 l
219.648 203.485 l
217.177 206.818 l
214.391 209.891 l
211.318 212.677 l
207.985 215.148 l
204.427 217.281 l
200.677 219.055 l
196.771 220.452 l
192.747 221.46 l
188.643 222.069 l
184.5 222.273 l
180.357 222.069 l
176.253 221.46 l
172.229 220.452 l
168.323 219.055 l
164.573 217.281 l
161.015 215.148 l
157.682 212.677 l
154.609 209.891 l
151.823 206.818 l
149.352 203.485 l
147.219 199.927 l
145.445 196.177 l
144.048 192.271 l
143.04 188.247 l
142.431 184.143 l
142.227 180 l
142.431 175.857 l
143.04 171.753 l
144.048 167.729 l
145.445 163.823 l
147.219 160.073 l
149.352 156.515 l
151.823 153.182 l
154.609 150.109 l
157.682 147.323 l
161.015 144.852 l
164.573 142.719 l
168.323 140.945 l
172.229 139.548 l
176.253 138.54 l
180.357 137.931 l
184.5 137.727 l
188.643 137.931 l
192.747 138.54 l
196.771 139.548 l
200.677 140.945 l
204.427 142.719 l
207.985 144.852 l
211.318 147.323 l
214.391 150.109 l
217.177 153.182 l
219.648 156.515 l
221.781 160.073 l
223.555 163.823 l
224.952 167.729 l
225.96 171.753 l
226.569 175.857 l
226.773 180 l
stroke
grestore
0.500 setlinewidth
0 setlinecap
0.000 setgray
gsave
/o {
gsave
newpath
translate
0.5 setlinewidth
1 setlinejoin
0 setlinecap
0 0 m
0 4 l
gsave
0.000 setgray
fill
grestore
stroke
grestore
} bind def
57.6818 40.5 o
grestore
gsave
/o {
gsave
newpath
translate
0.5 setlinewidth
1 setlinejoin
0 setlinecap
0 0 m
0 -4 l
gsave
0.000 setgray
fill
grestore
stroke
grestore
} bind def
57.6818 319.5 o
grestore
/BitstreamVeraSans-Roman findfont
9.000 scalefont
setfont
gsave
47.525568 29.687500 translate
0.000000 rotate
0.000000 0.125000 m /minus glyphshow
7.541016 0.125000 m /one glyphshow
13.267090 0.125000 m /period glyphshow
16.127930 0.125000 m /zero glyphshow
grestore
gsave
/o {
gsave
newpath
translate
0.5 setlinewidth
1 setlinejoin
0 setlinecap
0 0 m
0 4 l
gsave
0.000 setgray
fill
grestore
stroke
grestore
} bind def
121.091 40.5 o
grestore
gsave
/o {
gsave
newpath
translate
0.5 setlinewidth
1 setlinejoin
0 setlinecap
0 0 m
0 -4 l
gsave
0.000 setgray
fill
grestore
stroke
grestore
} bind def
121.091 319.5 o
grestore
gsave
111.028409 29.687500 translate
0.000000 rotate
0.000000 0.125000 m /minus glyphshow
7.541016 0.125000 m /zero glyphshow
13.267090 0.125000 m /period glyphshow
16.127930 0.125000 m /five glyphshow
grestore
gsave
/o {
gsave
newpath
translate
0.5 setlinewidth
1 setlinejoin
0 setlinecap
0 0 m
0 4 l
gsave
0.000 setgray
fill
grestore
stroke
grestore
} bind def
184.5 40.5 o
grestore
gsave
/o {
gsave
newpath
translate
0.5 setlinewidth
1 setlinejoin
0 setlinecap
0 0 m
0 -4 l
gsave
0.000 setgray
fill
grestore
stroke
grestore
} bind def
184.5 319.5 o
grestore
gsave
177.937500 29.687500 translate
0.000000 rotate
0.000000 0.125000 m /zero glyphshow
5.726074 0.125000 m /period glyphshow
8.586914 0.125000 m /zero glyphshow
grestore
gsave
/o {
gsave
newpath
translate
0.5 setlinewidth
1 setlinejoin
0 setlinecap
0 0 m
0 4 l
gsave
0.000 setgray
fill
grestore
stroke
grestore
} bind def
247.909 40.5 o
grestore
gsave
/o {
gsave
newpath
translate
0.5 setlinewidth
1 setlinejoin
0 setlinecap
0 0 m
0 -4 l
gsave
0.000 setgray
fill
grestore
stroke
grestore
} bind def
247.909 319.5 o
grestore
gsave
241.440341 29.687500 translate
0.000000 rotate
0.000000 0.125000 m /zero glyphshow
5.726074 0.125000 m /period glyphshow
8.586914 0.125000 m /five glyphshow
grestore
gsave
/o {
gsave
newpath
translate
0.5 setlinewidth
1 setlinejoin
0 setlinecap
0 0 m
0 4 l
gsave
0.000 setgray
fill
grestore
stroke
grestore
} bind def
311.318 40.5 o
grestore
gsave
/o {
gsave
newpath
translate
0.5 setlinewidth
1 setlinejoin
0 setlinecap
0 0 m
0 -4 l
gsave
0.000 setgray
fill
grestore
stroke
grestore
} bind def
311.318 319.5 o
grestore
gsave
304.950994 29.687500 translate
0.000000 rotate
0.000000 0.125000 m /one glyphshow
5.726074 0.125000 m /period glyphshow
8.586914 0.125000 m /zero glyphshow
grestore
gsave
164.281250 16.656250 translate
0.000000 rotate
0.000000 1.187500 m /C glyphshow
6.284180 1.187500 m /h glyphshow
11.988281 1.187500 m /e glyphshow
17.525391 1.187500 m /n glyphshow
23.229492 1.187500 m /one glyphshow
28.955566 1.187500 m /parenleft glyphshow
32.466797 1.187500 m /zero glyphshow
38.192871 1.187500 m /parenright glyphshow
grestore
gsave
/o {
gsave
newpath
translate
0.5 setlinewidth
1 setlinejoin
0 setlinecap
0 0 m
4 0 l
gsave
0.000 setgray
fill
grestore
stroke
grestore
} bind def
45 53.1818 o
grestore
gsave
/o {
gsave
newpath
translate
0.5 setlinewidth
1 setlinejoin
0 setlinecap
0 0 m
-4 0 l
gsave
0.000 setgray
fill
grestore
stroke
grestore
} bind def
324 53.1818 o
grestore
gsave
20.687500 49.775568 translate
0.000000 rotate
0.000000 0.125000 m /minus glyphshow
7.541016 0.125000 m /one glyphshow
13.267090 0.125000 m /period glyphshow
16.127930 0.125000 m /zero glyphshow
grestore
gsave
/o {
gsave
newpath
translate
0.5 setlinewidth
1 setlinejoin
0 setlinecap
0 0 m
4 0 l
gsave
0.000 setgray
fill
grestore
stroke
grestore
} bind def
45 116.591 o
grestore
gsave
/o {
gsave
newpath
translate
0.5 setlinewidth
1 setlinejoin
0 setlinecap
0 0 m
-4 0 l
gsave
0.000 setgray
fill
grestore
stroke
grestore
} bind def
324 116.591 o
grestore
gsave
20.875000 113.184659 translate
0.000000 rotate
0.000000 0.125000 m /minus glyphshow
7.541016 0.125000 m /zero glyphshow
13.267090 0.125000 m /period glyphshow
16.127930 0.125000 m /five glyphshow
grestore
gsave
/o {
gsave
newpath
translate
0.5 setlinewidth
1 setlinejoin
0 setlinecap
0 0 m
4 0 l
gsave
0.000 setgray
fill
grestore
stroke
grestore
} bind def
45 180 o
grestore
gsave
/o {
gsave
newpath
translate
0.5 setlinewidth
1 setlinejoin
0 setlinecap
0 0 m
-4 0 l
gsave
0.000 setgray
fill
grestore
stroke
grestore
} bind def
324 180 o
grestore
gsave
27.875000 176.593750 translate
0.000000 rotate
0.000000 0.125000 m /zero glyphshow
5.726074 0.125000 m /period glyphshow
8.586914 0.125000 m /zero glyphshow
grestore
gsave
/o {
gsave
newpath
translate
0.5 setlinewidth
1 setlinejoin
0 setlinecap
0 0 m
4 0 l
gsave
0.000 setgray
fill
grestore
stroke
grestore
} bind def
45 243.409 o
grestore
gsave
/o {
gsave
newpath
translate
0.5 setlinewidth
1 setlinejoin
0 setlinecap
0 0 m
-4 0 l
gsave
0.000 setgray
fill
grestore
stroke
grestore
} bind def
324 243.409 o
grestore
gsave
28.062500 240.002841 translate
0.000000 rotate
0.000000 0.125000 m /zero glyphshow
5.726074 0.125000 m /period glyphshow
8.586914 0.125000 m /five glyphshow
grestore
gsave
/o {
gsave
newpath
translate
0.5 setlinewidth
1 setlinejoin
0 setlinecap
0 0 m
4 0 l
gsave
0.000 setgray
fill
grestore
stroke
grestore
} bind def
45 306.818 o
grestore
gsave
/o {
gsave
newpath
translate
0.5 setlinewidth
1 setlinejoin
0 setlinecap
0 0 m
-4 0 l
gsave
0.000 setgray
fill
grestore
stroke
grestore
} bind def
324 306.818 o
grestore
gsave
28.265625 303.411932 translate
0.000000 rotate
0.000000 0.125000 m /one glyphshow
5.726074 0.125000 m /period glyphshow
8.586914 0.125000 m /zero glyphshow
grestore
gsave
15.687500 159.781250 translate
90.000000 rotate
0.000000 1.187500 m /C glyphshow
6.284180 1.187500 m /h glyphshow
11.988281 1.187500 m /e glyphshow
17.525391 1.187500 m /n glyphshow
23.229492 1.187500 m /one glyphshow
28.955566 1.187500 m /parenleft glyphshow
32.466797 1.187500 m /one glyphshow
38.192871 1.187500 m /parenright glyphshow
grestore
1.000 setlinewidth
2 setlinecap
gsave
45 319.5 m
324 319.5 l
stroke
grestore
gsave
324 40.5 m
324 319.5 l
stroke
grestore
gsave
45 40.5 m
324 40.5 l
stroke
grestore
gsave
45 40.5 m
45 319.5 l
stroke
grestore

end
showpage
