%!PS-Adobe-3.0 EPSF-3.0
%%Title: Chen2(0),Chen2(1).eps
%%Creator: matplotlib version 1.3.1, http://matplotlib.org/
%%CreationDate: Sun May 11 19:31:02 2014
%%Orientation: portrait
%%BoundingBox: 126 216 486 576
%%EndComments
%%BeginProlog
/mpldict 8 dict def
mpldict begin
/m { moveto } bind def
/l { lineto } bind def
/r { rlineto } bind def
/c { curveto } bind def
/cl { closepath } bind def
/box {
m
1 index 0 r
0 exch r
neg 0 r
cl
} bind def
/clipbox {
box
clip
newpath
} bind def
%!PS-Adobe-3.0 Resource-Font
%%Title: Bitstream Vera Sans
%%Copyright: Copyright (c) 2003 by Bitstream, Inc. All Rights Reserved.
%%Creator: Converted from TrueType to type 3 by PPR
25 dict begin
/_d{bind def}bind def
/_m{moveto}_d
/_l{lineto}_d
/_cl{closepath eofill}_d
/_c{curveto}_d
/_sc{7 -1 roll{setcachedevice}{pop pop pop pop pop pop}ifelse}_d
/_e{exec}_d
/FontName /BitstreamVeraSans-Roman def
/PaintType 0 def
/FontMatrix[.001 0 0 .001 0 0]def
/FontBBox[-183 -236 1287 928]def
/FontType 3 def
/Encoding [ /parenleft /parenright /period /zero /one /two /five /C /e /h /n /minus ] def
/FontInfo 10 dict dup begin
/FamilyName (Bitstream Vera Sans) def
/FullName (Bitstream Vera Sans) def
/Notice (Copyright (c) 2003 by Bitstream, Inc. All Rights Reserved. Bitstream Vera is a trademark of Bitstream, Inc.) def
/Weight (Roman) def
/Version (Release 1.10) def
/ItalicAngle 0.0 def
/isFixedPitch false def
/UnderlinePosition -213 def
/UnderlineThickness 143 def
end readonly def
/CharStrings 12 dict dup begin
/parenleft{390 0 86 -131 310 759 _sc
310 759 _m
266 683 234 609 213 536 _c
191 463 181 389 181 314 _c
181 238 191 164 213 91 _c
234 17 266 -56 310 -131 _c
232 -131 _l
183 -54 146 20 122 94 _c
98 168 86 241 86 314 _c
86 386 98 459 122 533 _c
146 607 182 682 232 759 _c
310 759 _l
_cl}_d
/parenright{390 0 80 -131 304 759 _sc
80 759 _m
158 759 _l
206 682 243 607 267 533 _c
291 459 304 386 304 314 _c
304 241 291 168 267 94 _c
243 20 206 -54 158 -131 _c
80 -131 _l
123 -56 155 17 177 91 _c
198 164 209 238 209 314 _c
209 389 198 463 177 536 _c
155 609 123 683 80 759 _c
_cl}_d
/period{318 0 107 0 210 124 _sc
107 124 _m
210 124 _l
210 0 _l
107 0 _l
107 124 _l
_cl}_d
/zero{636 0 66 -13 570 742 _sc
318 664 _m
267 664 229 639 203 589 _c
177 539 165 464 165 364 _c
165 264 177 189 203 139 _c
229 89 267 64 318 64 _c
369 64 407 89 433 139 _c
458 189 471 264 471 364 _c
471 464 458 539 433 589 _c
407 639 369 664 318 664 _c
318 742 _m
399 742 461 709 505 645 _c
548 580 570 486 570 364 _c
570 241 548 147 505 83 _c
461 19 399 -13 318 -13 _c
236 -13 173 19 130 83 _c
87 147 66 241 66 364 _c
66 486 87 580 130 645 _c
173 709 236 742 318 742 _c
_cl}_d
/one{636 0 110 0 544 729 _sc
124 83 _m
285 83 _l
285 639 _l
110 604 _l
110 694 _l
284 729 _l
383 729 _l
383 83 _l
544 83 _l
544 0 _l
124 0 _l
124 83 _l
_cl}_d
/two{{636 0 73 0 536 742 _sc
192 83 _m
536 83 _l
536 0 _l
73 0 _l
73 83 _l
110 121 161 173 226 239 _c
290 304 331 346 348 365 _c
380 400 402 430 414 455 _c
426 479 433 504 433 528 _c
433 566 419 598 392 622 _c
365 646 330 659 286 659 _c
255 659 222 653 188 643 _c
154 632 117 616 78 594 _c
78 694 _l
118 710 155 722 189 730 _c
223 738 255 742 284 742 _c
}_e{359 742 419 723 464 685 _c
509 647 532 597 532 534 _c
532 504 526 475 515 449 _c
504 422 484 390 454 354 _c
446 344 420 317 376 272 _c
332 227 271 164 192 83 _c
_cl}_e}_d
/five{{636 0 77 -13 549 729 _sc
108 729 _m
495 729 _l
495 646 _l
198 646 _l
198 467 _l
212 472 227 476 241 478 _c
255 480 270 482 284 482 _c
365 482 429 459 477 415 _c
525 370 549 310 549 234 _c
549 155 524 94 475 51 _c
426 8 357 -13 269 -13 _c
238 -13 207 -10 175 -6 _c
143 -1 111 6 77 17 _c
77 116 _l
106 100 136 88 168 80 _c
199 72 232 69 267 69 _c
}_e{323 69 368 83 401 113 _c
433 143 450 183 450 234 _c
450 284 433 324 401 354 _c
368 384 323 399 267 399 _c
241 399 214 396 188 390 _c
162 384 135 375 108 363 _c
108 729 _l
_cl}_e}_d
/C{{698 0 56 -13 644 742 _sc
644 673 _m
644 569 _l
610 599 575 622 537 638 _c
499 653 460 661 418 661 _c
334 661 270 635 226 584 _c
182 533 160 460 160 364 _c
160 268 182 194 226 143 _c
270 92 334 67 418 67 _c
460 67 499 74 537 90 _c
575 105 610 128 644 159 _c
644 56 _l
609 32 572 15 534 4 _c
496 -7 455 -13 412 -13 _c
302 -13 215 20 151 87 _c
}_e{87 154 56 246 56 364 _c
56 481 87 573 151 641 _c
215 708 302 742 412 742 _c
456 742 497 736 535 725 _c
573 713 610 696 644 673 _c
_cl}_e}_d
/e{{615 0 55 -13 562 560 _sc
562 296 _m
562 252 _l
149 252 _l
153 190 171 142 205 110 _c
238 78 284 62 344 62 _c
378 62 412 66 444 74 _c
476 82 509 95 541 113 _c
541 28 _l
509 14 476 3 442 -3 _c
408 -9 373 -13 339 -13 _c
251 -13 182 12 131 62 _c
80 112 55 181 55 268 _c
55 357 79 428 127 481 _c
175 533 241 560 323 560 _c
397 560 455 536 498 489 _c
}_e{540 441 562 377 562 296 _c
472 322 _m
471 371 457 410 431 440 _c
404 469 368 484 324 484 _c
274 484 234 469 204 441 _c
174 413 156 373 152 322 _c
472 322 _l
_cl}_e}_d
/h{634 0 91 0 549 760 _sc
549 330 _m
549 0 _l
459 0 _l
459 327 _l
459 379 448 417 428 443 _c
408 469 378 482 338 482 _c
289 482 251 466 223 435 _c
195 404 181 362 181 309 _c
181 0 _l
91 0 _l
91 760 _l
181 760 _l
181 462 _l
202 494 227 519 257 535 _c
286 551 320 560 358 560 _c
420 560 468 540 500 501 _c
532 462 549 405 549 330 _c
_cl}_d
/n{634 0 91 0 549 560 _sc
549 330 _m
549 0 _l
459 0 _l
459 327 _l
459 379 448 417 428 443 _c
408 469 378 482 338 482 _c
289 482 251 466 223 435 _c
195 404 181 362 181 309 _c
181 0 _l
91 0 _l
91 547 _l
181 547 _l
181 462 _l
202 494 227 519 257 535 _c
286 551 320 560 358 560 _c
420 560 468 540 500 501 _c
532 462 549 405 549 330 _c
_cl}_d
/minus{838 0 106 272 732 355 _sc
106 355 _m
732 355 _l
732 272 _l
106 272 _l
106 355 _l
_cl}_d
end readonly def

/BuildGlyph
 {exch begin
 CharStrings exch
 2 copy known not{pop /.notdef}if
 true 3 1 roll get exec
 end}_d

/BuildChar {
 1 index /Encoding get exch get
 1 index /BuildGlyph get exec
}_d

FontName currentdict end definefont pop
end
%%EndProlog
mpldict begin
126 216 translate
360 360 0 0 clipbox
gsave
0 0 m
360 0 l
360 360 l
0 360 l
cl
1.000 setgray
fill
grestore
gsave
45 40.5 m
324 40.5 l
324 319.5 l
45 319.5 l
cl
1.000 setgray
fill
grestore
2.000 setlinewidth
1 setlinejoin
0 setlinecap
[] 0 setdash
0.000 0.000 1.000 setrgbcolor
gsave
279 279 45 40.5 clipbox
311.318 180 m
309.781 181.538 l
308.28 183.039 l
306.813 184.505 l
305.38 185.938 l
303.978 187.34 l
302.606 188.712 l
301.263 190.055 l
299.948 191.371 l
298.658 192.66 l
297.394 193.924 l
296.154 195.164 l
294.936 196.382 l
293.741 197.577 l
292.567 198.751 l
291.413 199.906 l
290.278 201.041 l
289.161 202.157 l
288.062 203.256 l
286.981 204.338 l
285.915 205.403 l
284.865 206.453 l
283.83 207.488 l
282.809 208.509 l
281.802 209.516 l
280.808 210.51 l
279.827 211.492 l
278.857 212.461 l
277.899 213.419 l
276.953 214.366 l
276.017 215.302 l
275.09 216.228 l
274.174 217.144 l
273.267 218.051 l
272.369 218.95 l
271.479 219.839 l
270.597 220.721 l
269.723 221.595 l
268.857 222.462 l
267.997 223.321 l
267.144 224.174 l
266.297 225.021 l
265.457 225.861 l
264.622 226.696 l
263.792 227.526 l
262.968 228.35 l
262.148 229.17 l
261.333 229.985 l
260.522 230.796 l
259.715 231.603 l
258.912 232.407 l
258.112 233.206 l
257.315 234.003 l
256.521 234.797 l
255.73 235.588 l
254.941 236.377 l
254.154 237.164 l
253.37 237.949 l
252.586 238.732 l
251.805 239.513 l
251.024 240.294 l
250.245 241.074 l
249.466 241.853 l
248.687 242.631 l
247.909 243.409 l
247.131 244.187 l
246.353 244.966 l
245.574 245.745 l
244.794 246.524 l
244.013 247.305 l
243.232 248.086 l
242.449 248.87 l
241.664 249.654 l
240.877 250.441 l
240.088 251.23 l
239.297 252.021 l
238.503 252.815 l
237.706 253.612 l
236.907 254.412 l
236.103 255.215 l
235.296 256.022 l
234.485 256.833 l
233.67 257.648 l
232.85 258.468 l
232.026 259.292 l
231.196 260.122 l
230.361 260.957 l
229.521 261.797 l
228.674 262.644 l
227.821 263.497 l
226.962 264.357 l
226.095 265.223 l
225.221 266.097 l
224.339 266.979 l
223.45 267.869 l
222.551 268.767 l
221.644 269.674 l
220.728 270.59 l
219.802 271.517 l
218.866 272.453 l
217.919 273.399 l
216.961 274.357 l
215.992 275.327 l
215.01 276.308 l
214.016 277.302 l
213.009 278.309 l
211.988 279.33 l
210.953 280.365 l
209.903 281.415 l
208.838 282.481 l
207.756 283.562 l
206.657 284.661 l
205.541 285.778 l
204.406 286.913 l
203.251 288.067 l
202.077 289.241 l
200.882 290.436 l
199.664 291.654 l
198.424 292.894 l
197.16 294.158 l
195.871 295.448 l
194.555 296.763 l
193.212 298.106 l
191.84 299.478 l
190.438 300.88 l
189.005 302.313 l
187.539 303.78 l
186.038 305.281 l
184.5 306.818 l
182.985 303.484 l
181.546 300.32 l
180.179 297.312 l
178.878 294.449 l
177.636 291.718 l
176.451 289.111 l
175.319 286.619 l
174.234 284.233 l
173.194 281.946 l
172.197 279.751 l
171.239 277.643 l
170.317 275.615 l
169.429 273.663 l
168.574 271.782 l
167.749 269.967 l
166.953 268.215 l
166.183 266.521 l
165.439 264.883 l
164.718 263.298 l
164.02 261.762 l
163.343 260.272 l
162.686 258.827 l
162.048 257.423 l
161.428 256.059 l
160.825 254.733 l
160.238 253.442 l
159.667 252.185 l
159.11 250.96 l
158.567 249.766 l
158.038 248.601 l
157.521 247.464 l
157.016 246.353 l
156.522 245.267 l
156.04 244.206 l
155.568 243.167 l
155.105 242.15 l
154.653 241.154 l
154.209 240.178 l
153.774 239.221 l
153.347 238.282 l
152.929 237.361 l
152.518 236.457 l
152.114 235.568 l
151.717 234.695 l
151.327 233.837 l
150.943 232.993 l
150.565 232.162 l
150.193 231.344 l
149.827 230.538 l
149.466 229.744 l
149.111 228.962 l
148.76 228.19 l
148.414 227.429 l
148.072 226.678 l
147.735 225.936 l
147.402 225.203 l
147.073 224.48 l
146.748 223.765 l
146.427 223.057 l
146.109 222.358 l
145.794 221.666 l
145.483 220.981 l
145.175 220.303 l
144.869 219.631 l
144.567 218.965 l
144.267 218.305 l
143.969 217.651 l
143.675 217.002 l
143.382 216.358 l
143.091 215.719 l
142.803 215.085 l
142.517 214.455 l
142.232 213.829 l
141.949 213.207 l
141.668 212.588 l
141.389 211.973 l
141.111 211.362 l
140.834 210.753 l
140.559 210.147 l
140.284 209.544 l
140.011 208.943 l
139.739 208.344 l
139.468 207.748 l
139.198 207.153 l
138.928 206.56 l
138.659 205.968 l
138.391 205.378 l
138.123 204.789 l
137.856 204.201 l
137.589 203.613 l
137.322 203.026 l
137.055 202.44 l
136.789 201.853 l
136.522 201.267 l
136.256 200.681 l
135.989 200.094 l
135.722 199.507 l
135.455 198.919 l
135.187 198.33 l
134.919 197.74 l
134.651 197.149 l
134.381 196.557 l
134.111 195.963 l
133.841 195.367 l
133.569 194.77 l
133.296 194.17 l
133.023 193.568 l
132.748 192.963 l
132.472 192.356 l
132.194 191.746 l
131.915 191.132 l
131.635 190.515 l
131.353 189.895 l
131.069 189.271 l
130.784 188.643 l
130.497 188.011 l
130.207 187.374 l
129.916 186.732 l
129.622 186.086 l
129.325 185.434 l
129.027 184.777 l
128.726 184.114 l
128.421 183.445 l
128.114 182.77 l
127.805 182.088 l
127.492 181.399 l
127.175 180.704 l
126.855 180 l
126.532 179.289 l
126.205 178.569 l
125.874 177.841 l
125.539 177.103 l
125.199 176.357 l
124.855 175.6 l
124.507 174.834 l
124.154 174.056 l
123.795 173.268 l
123.432 172.468 l
123.063 171.656 l
122.688 170.831 l
122.307 169.993 l
121.92 169.141 l
121.526 168.275 l
121.125 167.394 l
120.718 166.497 l
120.303 165.584 l
119.88 164.654 l
119.449 163.706 l
119.009 162.739 l
118.561 161.752 l
118.103 160.745 l
117.636 159.717 l
117.158 158.666 l
116.67 157.592 l
116.17 156.493 l
115.659 155.368 l
115.136 154.217 l
114.599 153.036 l
114.049 151.826 l
113.485 150.585 l
112.905 149.31 l
112.31 148 l
111.698 146.654 l
111.069 145.27 l
110.421 143.844 l
109.753 142.376 l
109.065 140.862 l
108.355 139.3 l
107.622 137.687 l
106.865 136.02 l
106.081 134.296 l
105.27 132.511 l
104.429 130.662 l
103.557 128.743 l
102.652 126.752 l
101.711 124.682 l
100.732 122.529 l
99.7127 120.286 l
98.6497 117.947 l
97.5399 115.506 l
96.3799 112.954 l
95.1659 110.283 l
93.9825 107.555 l
97.7591 108.814 l
101.301 109.994 l
104.63 111.104 l
107.767 112.149 l
110.727 113.136 l
113.527 114.07 l
116.18 114.954 l
118.698 115.793 l
121.091 116.591 l
123.37 117.35 l
125.542 118.075 l
127.617 118.766 l
129.6 119.427 l
131.499 120.06 l
133.319 120.667 l
135.066 121.249 l
136.743 121.808 l
138.357 122.346 l
139.911 122.864 l
141.408 123.363 l
142.852 123.845 l
144.247 124.31 l
145.595 124.759 l
146.899 125.194 l
148.161 125.614 l
149.383 126.022 l
150.569 126.417 l
151.719 126.8 l
152.837 127.173 l
153.922 127.535 l
154.978 127.887 l
156.006 128.229 l
157.006 128.563 l
157.981 128.888 l
158.932 129.204 l
159.859 129.514 l
160.764 129.815 l
161.649 130.11 l
162.513 130.398 l
163.358 130.68 l
164.185 130.956 l
164.995 131.225 l
165.788 131.49 l
166.565 131.749 l
167.326 132.003 l
168.074 132.252 l
168.807 132.496 l
169.527 132.736 l
170.234 132.972 l
170.929 133.204 l
171.613 133.431 l
172.285 133.656 l
172.947 133.876 l
173.598 134.093 l
174.239 134.307 l
174.871 134.518 l
175.494 134.725 l
176.109 134.93 l
176.715 135.132 l
177.313 135.331 l
177.903 135.528 l
178.486 135.723 l
179.063 135.915 l
179.632 136.105 l
180.195 136.292 l
180.752 136.478 l
181.303 136.662 l
181.849 136.844 l
182.389 137.023 l
182.924 137.202 l
183.454 137.379 l
183.979 137.554 l
184.5 137.727 l
185.017 137.9 l
185.529 138.07 l
186.038 138.24 l
186.543 138.408 l
187.045 138.576 l
187.543 138.742 l
188.039 138.907 l
188.531 139.071 l
189.021 139.234 l
189.508 139.397 l
189.993 139.558 l
190.475 139.719 l
190.955 139.879 l
191.434 140.039 l
191.911 140.197 l
192.386 140.356 l
192.859 140.514 l
193.332 140.671 l
193.803 140.828 l
194.273 140.985 l
194.742 141.141 l
195.21 141.298 l
195.678 141.453 l
196.146 141.609 l
196.613 141.765 l
197.08 141.92 l
197.547 142.076 l
198.014 142.232 l
198.481 142.387 l
198.949 142.543 l
199.417 142.699 l
199.886 142.856 l
200.355 143.012 l
200.826 143.169 l
201.298 143.327 l
201.771 143.484 l
202.245 143.642 l
202.721 143.801 l
203.199 143.96 l
203.678 144.12 l
204.16 144.281 l
204.643 144.442 l
205.13 144.604 l
205.618 144.767 l
206.109 144.93 l
206.603 145.095 l
207.1 145.261 l
207.601 145.428 l
208.104 145.595 l
208.611 145.764 l
209.122 145.935 l
209.637 146.106 l
210.156 146.279 l
210.68 146.454 l
211.208 146.63 l
211.74 146.807 l
212.278 146.987 l
212.821 147.168 l
213.37 147.351 l
213.924 147.535 l
214.485 147.722 l
215.051 147.911 l
215.625 148.102 l
216.204 148.296 l
216.792 148.491 l
217.386 148.689 l
217.989 148.89 l
218.6 149.094 l
219.219 149.3 l
219.847 149.51 l
220.484 149.722 l
221.131 149.938 l
221.788 150.157 l
222.456 150.379 l
223.134 150.605 l
223.824 150.835 l
224.526 151.069 l
225.24 151.307 l
225.968 151.55 l
226.709 151.797 l
227.464 152.049 l
228.234 152.305 l
229.02 152.567 l
229.822 152.835 l
230.642 153.108 l
231.479 153.387 l
232.335 153.672 l
233.21 153.964 l
234.106 154.263 l
235.024 154.568 l
235.964 154.882 l
236.928 155.203 l
237.917 155.533 l
238.933 155.872 l
239.976 156.219 l
241.049 156.577 l
242.152 156.945 l
243.288 157.323 l
244.458 157.713 l
245.664 158.115 l
246.909 158.53 l
248.194 158.959 l
249.522 159.401 l
250.895 159.859 l
252.318 160.333 l
253.791 160.824 l
255.32 161.334 l
256.907 161.863 l
258.557 162.413 l
260.273 162.985 l
262.06 163.58 l
263.923 164.202 l
265.869 164.85 l
267.903 165.528 l
270.032 166.238 l
272.263 166.982 l
274.605 167.762 l
277.067 168.583 l
279.659 169.447 l
282.393 170.358 l
285.282 171.321 l
288.339 172.34 l
291.582 173.421 l
295.028 174.57 l
298.7 175.794 l
302.619 177.1 l
306.815 178.499 l
311.318 180 l
cl
gsave
0.500 0.500 1.000 setrgbcolor
fill
grestore
stroke
grestore
1.000 setlinewidth
0.000 setgray
gsave
279 279 45 40.5 clipbox
311.318 180 m
309.781 181.538 l
308.28 183.039 l
306.813 184.505 l
305.38 185.938 l
303.978 187.34 l
302.606 188.712 l
301.263 190.055 l
299.948 191.371 l
298.658 192.66 l
297.394 193.924 l
296.154 195.164 l
294.936 196.382 l
293.741 197.577 l
292.567 198.751 l
291.413 199.906 l
290.278 201.041 l
289.161 202.157 l
288.062 203.256 l
286.981 204.338 l
285.915 205.403 l
284.865 206.453 l
283.83 207.488 l
282.809 208.509 l
281.802 209.516 l
280.808 210.51 l
279.827 211.492 l
278.857 212.461 l
277.899 213.419 l
276.953 214.366 l
276.017 215.302 l
275.09 216.228 l
274.174 217.144 l
273.267 218.051 l
272.369 218.95 l
271.479 219.839 l
270.597 220.721 l
269.723 221.595 l
268.857 222.462 l
267.997 223.321 l
267.144 224.174 l
266.297 225.021 l
265.457 225.861 l
264.622 226.696 l
263.792 227.526 l
262.968 228.35 l
262.148 229.17 l
261.333 229.985 l
260.522 230.796 l
259.715 231.603 l
258.912 232.407 l
258.112 233.206 l
257.315 234.003 l
256.521 234.797 l
255.73 235.588 l
254.872 236.322 l
252.862 236.103 l
251.016 235.968 l
249.062 235.692 l
247.27 235.503 l
245.502 235.289 l
243.76 235.05 l
242.043 234.785 l
240.476 234.619 l
238.93 234.43 l
237.284 234.095 l
235.903 233.99 l
234.42 233.738 l
232.959 233.466 l
231.634 233.305 l
230.327 233.126 l
229.037 232.93 l
227.764 232.717 l
226.508 232.487 l
225.268 232.24 l
224.046 231.976 l
222.946 231.838 l
221.755 231.543 l
220.683 231.376 l
219.624 231.196 l
218.579 231.003 l
217.547 230.797 l
216.528 230.577 l
215.522 230.345 l
214.621 230.255 l
213.64 229.998 l
212.76 229.886 l
211.803 229.606 l
210.944 229.473 l
210.01 229.169 l
209.172 229.016 l
208.344 228.854 l
207.525 228.682 l
206.715 228.501 l
205.915 228.311 l
205.124 228.111 l
204.342 227.902 l
203.569 227.684 l
202.875 227.635 l
202.119 227.4 l
201.373 227.156 l
200.699 227.086 l
199.969 226.825 l
199.249 226.555 l
198.595 226.465 l
197.947 226.37 l
197.251 226.076 l
196.616 225.968 l
195.936 225.657 l
195.314 225.536 l
194.697 225.41 l
194.085 225.278 l
193.479 225.141 l
192.839 224.791 l
192.246 224.641 l
191.658 224.486 l
191.075 224.326 l
190.498 224.16 l
189.926 223.989 l
189.359 223.813 l
188.797 223.631 l
188.241 223.444 l
187.69 223.252 l
187.145 223.054 l
186.605 222.851 l
186.079 222.881 l
185.547 222.67 l
185.021 222.453 l
184.5 222.231 l
183.984 222.086 l
183.47 221.948 l
182.96 221.815 l
182.452 221.689 l
181.96 221.349 l
181.458 221.236 l
180.958 221.127 l
180.48 220.818 l
179.984 220.719 l
179.49 220.621 l
179.022 220.335 l
178.53 220.244 l
178.069 219.971 l
177.579 219.886 l
177.123 219.624 l
176.635 219.542 l
176.182 219.289 l
175.733 219.043 l
175.247 218.965 l
174.8 218.725 l
174.355 218.49 l
173.87 218.413 l
173.427 218.182 l
172.986 217.955 l
172.501 217.877 l
172.061 217.653 l
171.623 217.432 l
171.185 217.213 l
170.698 217.131 l
170.261 216.913 l
169.825 216.697 l
169.389 216.481 l
168.954 216.267 l
168.519 216.053 l
168.028 215.963 l
167.592 215.748 l
167.157 215.534 l
166.722 215.319 l
166.286 215.105 l
165.851 214.89 l
165.415 214.674 l
164.979 214.459 l
164.543 214.242 l
164.107 214.024 l
163.669 213.806 l
163.232 213.586 l
162.794 213.365 l
162.355 213.143 l
161.915 212.919 l
161.475 212.693 l
161.034 212.466 l
160.592 212.236 l
160.149 212.005 l
159.705 211.772 l
159.26 211.536 l
158.814 211.298 l
158.367 211.058 l
157.919 210.815 l
157.47 210.569 l
157.019 210.321 l
156.567 210.069 l
156.114 209.815 l
155.659 209.558 l
155.203 209.297 l
154.745 209.033 l
154.364 208.691 l
153.904 208.422 l
153.442 208.149 l
152.979 207.872 l
152.513 207.592 l
152.046 207.307 l
151.578 207.019 l
151.107 206.726 l
150.634 206.429 l
150.243 206.064 l
149.767 205.76 l
149.289 205.451 l
148.808 205.137 l
148.326 204.818 l
147.927 204.437 l
147.441 204.11 l
146.952 203.777 l
146.46 203.439 l
146.055 203.043 l
145.559 202.695 l
145.061 202.342 l
144.65 201.933 l
144.147 201.569 l
143.641 201.199 l
143.223 200.777 l
142.712 200.395 l
142.198 200.007 l
141.774 199.57 l
141.254 199.169 l
140.826 198.722 l
140.395 198.269 l
139.866 197.849 l
139.43 197.385 l
138.895 196.952 l
138.454 196.476 l
138.01 195.994 l
137.563 195.506 l
137.113 195.012 l
136.562 194.542 l
136.106 194.034 l
135.646 193.52 l
135.285 192.972 l
134.82 192.444 l
134.352 191.909 l
133.88 191.367 l
133.405 190.817 l
133.029 190.238 l
132.547 189.673 l
132.165 189.081 l
131.781 188.483 l
131.288 187.893 l
130.896 187.28 l
130.502 186.66 l
130.104 186.032 l
129.703 185.397 l
129.298 184.754 l
128.998 184.094 l
128.586 183.435 l
128.17 182.767 l
127.86 182.086 l
127.547 181.398 l
127.231 180.703 l
126.855 180 l
126.589 179.289 l
126.262 178.57 l
125.931 177.843 l
125.596 177.106 l
125.373 176.367 l
125.147 175.622 l
124.8 174.859 l
124.566 174.097 l
124.329 173.327 l
124.207 172.564 l
123.963 171.778 l
123.714 170.983 l
123.582 170.198 l
123.448 169.406 l
123.186 168.584 l
123.044 167.776 l
123.022 166.985 l
122.873 166.161 l
122.719 165.328 l
122.689 164.517 l
122.527 163.666 l
122.489 162.839 l
122.448 162.005 l
122.402 161.163 l
122.354 160.312 l
122.3 159.452 l
122.376 158.628 l
122.315 157.75 l
122.384 156.911 l
122.313 156.012 l
122.374 155.155 l
122.431 154.29 l
122.484 153.416 l
122.532 152.532 l
122.718 151.702 l
122.758 150.798 l
122.936 149.953 l
122.965 149.026 l
123.136 148.162 l
123.302 147.289 l
123.463 146.406 l
123.62 145.512 l
123.771 144.606 l
124.071 143.78 l
124.212 142.852 l
124.504 142.008 l
124.632 141.052 l
124.915 140.186 l
125.192 139.31 l
125.464 138.422 l
125.729 137.521 l
125.989 136.605 l
126.241 135.674 l
126.485 134.725 l
126.777 133.802 l
127.153 132.936 l
127.545 132.076 l
127.796 131.087 l
128.224 130.239 l
128.522 129.265 l
128.983 128.428 l
129.324 127.468 l
129.686 126.515 l
130.07 125.57 l
130.593 124.753 l
131.012 123.82 l
131.45 122.892 l
131.798 121.853 l
132.275 120.938 l
133.319 120.667 l
135.066 121.249 l
136.743 121.808 l
138.357 122.346 l
139.911 122.864 l
141.408 123.363 l
142.852 123.845 l
144.247 124.31 l
145.595 124.759 l
146.899 125.194 l
148.161 125.614 l
149.383 126.022 l
150.569 126.417 l
151.719 126.8 l
152.837 127.173 l
153.922 127.535 l
154.978 127.887 l
156.006 128.229 l
157.006 128.563 l
157.981 128.888 l
158.932 129.204 l
159.859 129.514 l
160.764 129.815 l
161.649 130.11 l
162.513 130.398 l
163.358 130.68 l
164.185 130.956 l
164.995 131.225 l
165.788 131.49 l
166.565 131.749 l
167.326 132.003 l
168.074 132.252 l
168.807 132.496 l
169.527 132.736 l
170.234 132.972 l
170.929 133.204 l
171.613 133.431 l
172.285 133.656 l
172.947 133.876 l
173.598 134.093 l
174.239 134.307 l
174.871 134.518 l
175.494 134.725 l
176.109 134.93 l
176.715 135.132 l
177.313 135.331 l
177.903 135.528 l
178.486 135.723 l
179.063 135.915 l
179.632 136.105 l
180.195 136.292 l
180.752 136.478 l
181.303 136.662 l
181.849 136.844 l
182.389 137.023 l
182.924 137.202 l
183.454 137.379 l
183.979 137.554 l
184.5 137.727 l
185.017 137.9 l
185.529 138.07 l
186.038 138.24 l
186.543 138.408 l
187.045 138.576 l
187.543 138.742 l
188.039 138.907 l
188.531 139.071 l
189.021 139.234 l
189.508 139.397 l
189.993 139.558 l
190.475 139.719 l
190.955 139.879 l
191.434 140.039 l
191.911 140.197 l
192.386 140.356 l
192.859 140.514 l
193.332 140.671 l
193.803 140.828 l
194.273 140.985 l
194.742 141.141 l
195.21 141.298 l
195.678 141.453 l
196.146 141.609 l
196.613 141.765 l
197.08 141.92 l
197.547 142.076 l
198.014 142.232 l
198.481 142.387 l
198.949 142.543 l
199.417 142.699 l
199.886 142.856 l
200.355 143.012 l
200.826 143.169 l
201.298 143.327 l
201.771 143.484 l
202.245 143.642 l
202.721 143.801 l
203.199 143.96 l
203.678 144.12 l
204.16 144.281 l
204.643 144.442 l
205.13 144.604 l
205.618 144.767 l
206.109 144.93 l
206.603 145.095 l
207.1 145.261 l
207.601 145.428 l
208.104 145.595 l
208.611 145.764 l
209.122 145.935 l
209.637 146.106 l
210.156 146.279 l
210.68 146.454 l
211.208 146.63 l
211.74 146.807 l
212.278 146.987 l
212.821 147.168 l
213.37 147.351 l
213.924 147.535 l
214.485 147.722 l
215.051 147.911 l
215.625 148.102 l
216.204 148.296 l
216.792 148.491 l
217.386 148.689 l
217.989 148.89 l
218.6 149.094 l
219.219 149.3 l
219.847 149.51 l
220.484 149.722 l
221.131 149.938 l
221.788 150.157 l
222.456 150.379 l
223.134 150.605 l
223.824 150.835 l
224.526 151.069 l
225.24 151.307 l
225.968 151.55 l
226.709 151.797 l
227.464 152.049 l
228.234 152.305 l
229.02 152.567 l
229.822 152.835 l
230.642 153.108 l
231.479 153.387 l
232.335 153.672 l
233.21 153.964 l
234.106 154.263 l
235.024 154.568 l
235.964 154.882 l
236.928 155.203 l
237.917 155.533 l
238.933 155.872 l
239.976 156.219 l
241.049 156.577 l
242.152 156.945 l
243.288 157.323 l
244.458 157.713 l
245.664 158.115 l
246.909 158.53 l
248.194 158.959 l
249.522 159.401 l
250.895 159.859 l
252.318 160.333 l
253.791 160.824 l
255.32 161.334 l
256.907 161.863 l
258.557 162.413 l
260.273 162.985 l
262.06 163.58 l
263.923 164.202 l
265.869 164.85 l
267.903 165.528 l
270.032 166.238 l
272.263 166.982 l
274.605 167.762 l
277.067 168.583 l
279.659 169.447 l
282.393 170.358 l
285.282 171.321 l
288.339 172.34 l
291.582 173.421 l
295.028 174.57 l
298.7 175.794 l
302.619 177.1 l
306.815 178.499 l
311.318 180 l
cl
gsave
0.500 setgray
fill
grestore
stroke
grestore
2.000 setlinewidth
2 setlinecap
1.000 0.500 0.000 setrgbcolor
gsave
279 279 45 40.5 clipbox
311.318 180 m
184.5 306.818 l
stroke
grestore
1.000 setlinewidth
1.000 0.000 0.000 setrgbcolor
gsave
279 279 45 40.5 clipbox
311.318 180 m
310.708 192.43 l
308.881 204.741 l
305.857 216.813 l
301.665 228.531 l
296.344 239.782 l
289.945 250.456 l
282.532 260.453 l
274.174 269.674 l
264.953 278.032 l
254.956 285.445 l
244.282 291.844 l
233.031 297.165 l
221.313 301.357 l
209.241 304.381 l
196.93 306.208 l
184.5 306.818 l
172.07 306.208 l
159.759 304.381 l
147.687 301.357 l
135.969 297.165 l
124.718 291.844 l
114.044 285.445 l
104.047 278.032 l
94.826 269.674 l
86.4682 260.453 l
79.0545 250.456 l
72.6563 239.782 l
67.3353 228.531 l
63.1426 216.813 l
60.1186 204.741 l
58.2925 192.43 l
57.6818 180 l
58.2925 167.57 l
60.1186 155.259 l
63.1426 143.187 l
67.3353 131.469 l
72.6563 120.218 l
79.0545 109.544 l
86.4682 99.5474 l
94.826 90.326 l
104.047 81.9682 l
114.044 74.5545 l
124.718 68.1563 l
135.969 62.8353 l
147.687 58.6426 l
159.759 55.6186 l
172.07 53.7925 l
184.5 53.1818 l
196.93 53.7925 l
209.241 55.6186 l
221.313 58.6426 l
233.031 62.8353 l
244.282 68.1563 l
254.956 74.5545 l
264.953 81.9682 l
274.174 90.326 l
282.532 99.5474 l
289.945 109.544 l
296.344 120.218 l
301.665 131.469 l
305.857 143.187 l
308.881 155.259 l
310.708 167.57 l
311.318 180 l
stroke
grestore
0.750 0.750 0.000 setrgbcolor
gsave
279 279 45 40.5 clipbox
257.719 180 m
257.366 187.177 l
256.312 194.284 l
254.566 201.254 l
252.145 208.02 l
249.073 214.515 l
245.379 220.678 l
241.099 226.449 l
236.273 231.773 l
230.949 236.599 l
225.178 240.879 l
219.015 244.573 l
212.52 247.645 l
205.754 250.066 l
198.784 251.812 l
191.677 252.866 l
184.5 253.219 l
177.323 252.866 l
170.216 251.812 l
163.246 250.066 l
156.48 247.645 l
149.985 244.573 l
143.822 240.879 l
138.051 236.599 l
132.727 231.773 l
127.901 226.449 l
123.621 220.678 l
119.927 214.515 l
116.855 208.02 l
114.434 201.254 l
112.688 194.284 l
111.634 187.177 l
111.281 180 l
111.634 172.823 l
112.688 165.716 l
114.434 158.746 l
116.855 151.98 l
119.927 145.485 l
123.621 139.322 l
127.901 133.551 l
132.727 128.227 l
138.051 123.401 l
143.822 119.121 l
149.985 115.427 l
156.48 112.355 l
163.246 109.934 l
170.216 108.188 l
177.323 107.134 l
184.5 106.781 l
191.677 107.134 l
198.784 108.188 l
205.754 109.934 l
212.52 112.355 l
219.015 115.427 l
225.178 119.121 l
230.949 123.401 l
236.273 128.227 l
241.099 133.551 l
245.379 139.322 l
249.073 145.485 l
252.145 151.98 l
254.566 158.746 l
256.312 165.716 l
257.366 172.823 l
257.719 180 l
stroke
grestore
gsave
279 279 45 40.5 clipbox
274.174 180 m
273.742 188.79 l
272.451 197.495 l
270.313 206.031 l
267.348 214.317 l
263.585 222.272 l
259.061 229.82 l
253.819 236.889 l
247.909 243.409 l
241.389 249.319 l
234.32 254.561 l
226.772 259.085 l
218.817 262.848 l
210.531 265.813 l
201.995 267.951 l
193.29 269.242 l
184.5 269.674 l
175.71 269.242 l
167.005 267.951 l
158.469 265.813 l
150.183 262.848 l
142.228 259.085 l
134.68 254.561 l
127.611 249.319 l
121.091 243.409 l
115.181 236.889 l
109.939 229.82 l
105.415 222.272 l
101.652 214.317 l
98.6873 206.031 l
96.5491 197.495 l
95.2578 188.79 l
94.826 180 l
95.2578 171.21 l
96.5491 162.505 l
98.6873 153.969 l
101.652 145.683 l
105.415 137.728 l
109.939 130.18 l
115.181 123.111 l
121.091 116.591 l
127.611 110.681 l
134.68 105.439 l
142.228 100.915 l
150.183 97.152 l
158.469 94.1873 l
167.005 92.0491 l
175.71 90.7578 l
184.5 90.326 l
193.29 90.7578 l
201.995 92.0491 l
210.531 94.1873 l
218.817 97.152 l
226.772 100.915 l
234.32 105.439 l
241.389 110.681 l
247.909 116.591 l
253.819 123.111 l
259.061 130.18 l
263.585 137.728 l
267.348 145.683 l
270.313 153.969 l
272.451 162.505 l
273.742 171.21 l
274.174 180 l
stroke
grestore
gsave
279 279 45 40.5 clipbox
236.273 180 m
236.024 185.075 l
235.278 190.1 l
234.044 195.029 l
232.332 199.813 l
230.16 204.406 l
227.548 208.764 l
224.521 212.845 l
221.109 216.609 l
217.345 220.021 l
213.264 223.048 l
208.906 225.66 l
204.313 227.832 l
199.529 229.544 l
194.6 230.778 l
189.575 231.524 l
184.5 231.773 l
179.425 231.524 l
174.4 230.778 l
169.471 229.544 l
164.687 227.832 l
160.094 225.66 l
155.736 223.048 l
151.655 220.021 l
147.891 216.609 l
144.479 212.845 l
141.452 208.764 l
138.84 204.406 l
136.668 199.813 l
134.956 195.029 l
133.722 190.1 l
132.976 185.075 l
132.727 180 l
132.976 174.925 l
133.722 169.9 l
134.956 164.971 l
136.668 160.187 l
138.84 155.594 l
141.452 151.236 l
144.479 147.155 l
147.891 143.391 l
151.655 139.979 l
155.736 136.952 l
160.094 134.34 l
164.687 132.168 l
169.471 130.456 l
174.4 129.222 l
179.425 128.476 l
184.5 128.227 l
189.575 128.476 l
194.6 129.222 l
199.529 130.456 l
204.313 132.168 l
208.906 134.34 l
213.264 136.952 l
217.345 139.979 l
221.109 143.391 l
224.521 147.155 l
227.548 151.236 l
230.16 155.594 l
232.332 160.187 l
234.044 164.971 l
235.278 169.9 l
236.024 174.925 l
236.273 180 l
stroke
grestore
0.000 0.500 0.000 setrgbcolor
gsave
279 279 45 40.5 clipbox
226.773 180 m
226.569 184.143 l
225.96 188.247 l
224.952 192.271 l
223.555 196.177 l
221.781 199.927 l
219.648 203.485 l
217.177 206.818 l
214.391 209.891 l
211.318 212.677 l
207.985 215.148 l
204.427 217.281 l
200.677 219.055 l
196.771 220.452 l
192.747 221.46 l
188.643 222.069 l
184.5 222.273 l
180.357 222.069 l
176.253 221.46 l
172.229 220.452 l
168.323 219.055 l
164.573 217.281 l
161.015 215.148 l
157.682 212.677 l
154.609 209.891 l
151.823 206.818 l
149.352 203.485 l
147.219 199.927 l
145.445 196.177 l
144.048 192.271 l
143.04 188.247 l
142.431 184.143 l
142.227 180 l
142.431 175.857 l
143.04 171.753 l
144.048 167.729 l
145.445 163.823 l
147.219 160.073 l
149.352 156.515 l
151.823 153.182 l
154.609 150.109 l
157.682 147.323 l
161.015 144.852 l
164.573 142.719 l
168.323 140.945 l
172.229 139.548 l
176.253 138.54 l
180.357 137.931 l
184.5 137.727 l
188.643 137.931 l
192.747 138.54 l
196.771 139.548 l
200.677 140.945 l
204.427 142.719 l
207.985 144.852 l
211.318 147.323 l
214.391 150.109 l
217.177 153.182 l
219.648 156.515 l
221.781 160.073 l
223.555 163.823 l
224.952 167.729 l
225.96 171.753 l
226.569 175.857 l
226.773 180 l
stroke
grestore
0.500 setlinewidth
0 setlinecap
0.000 setgray
gsave
/o {
gsave
newpath
translate
0.5 setlinewidth
1 setlinejoin
0 setlinecap
0 0 m
0 4 l
gsave
0.000 setgray
fill
grestore
stroke
grestore
} bind def
57.6818 40.5 o
grestore
gsave
/o {
gsave
newpath
translate
0.5 setlinewidth
1 setlinejoin
0 setlinecap
0 0 m
0 -4 l
gsave
0.000 setgray
fill
grestore
stroke
grestore
} bind def
57.6818 319.5 o
grestore
/BitstreamVeraSans-Roman findfont
9.000 scalefont
setfont
gsave
47.525568 29.656250 translate
0.000000 rotate
0.000000 0.000000 m /minus glyphshow
7.541016 0.000000 m /one glyphshow
13.267090 0.000000 m /period glyphshow
16.127930 0.000000 m /zero glyphshow
grestore
gsave
/o {
gsave
newpath
translate
0.5 setlinewidth
1 setlinejoin
0 setlinecap
0 0 m
0 4 l
gsave
0.000 setgray
fill
grestore
stroke
grestore
} bind def
121.091 40.5 o
grestore
gsave
/o {
gsave
newpath
translate
0.5 setlinewidth
1 setlinejoin
0 setlinecap
0 0 m
0 -4 l
gsave
0.000 setgray
fill
grestore
stroke
grestore
} bind def
121.091 319.5 o
grestore
gsave
111.028409 29.656250 translate
0.000000 rotate
0.000000 0.000000 m /minus glyphshow
7.541016 0.000000 m /zero glyphshow
13.267090 0.000000 m /period glyphshow
16.127930 0.000000 m /five glyphshow
grestore
gsave
/o {
gsave
newpath
translate
0.5 setlinewidth
1 setlinejoin
0 setlinecap
0 0 m
0 4 l
gsave
0.000 setgray
fill
grestore
stroke
grestore
} bind def
184.5 40.5 o
grestore
gsave
/o {
gsave
newpath
translate
0.5 setlinewidth
1 setlinejoin
0 setlinecap
0 0 m
0 -4 l
gsave
0.000 setgray
fill
grestore
stroke
grestore
} bind def
184.5 319.5 o
grestore
gsave
177.937500 29.656250 translate
0.000000 rotate
0.000000 0.000000 m /zero glyphshow
5.726074 0.000000 m /period glyphshow
8.586914 0.000000 m /zero glyphshow
grestore
gsave
/o {
gsave
newpath
translate
0.5 setlinewidth
1 setlinejoin
0 setlinecap
0 0 m
0 4 l
gsave
0.000 setgray
fill
grestore
stroke
grestore
} bind def
247.909 40.5 o
grestore
gsave
/o {
gsave
newpath
translate
0.5 setlinewidth
1 setlinejoin
0 setlinecap
0 0 m
0 -4 l
gsave
0.000 setgray
fill
grestore
stroke
grestore
} bind def
247.909 319.5 o
grestore
gsave
241.440341 29.656250 translate
0.000000 rotate
0.000000 0.000000 m /zero glyphshow
5.726074 0.000000 m /period glyphshow
8.586914 0.000000 m /five glyphshow
grestore
gsave
/o {
gsave
newpath
translate
0.5 setlinewidth
1 setlinejoin
0 setlinecap
0 0 m
0 4 l
gsave
0.000 setgray
fill
grestore
stroke
grestore
} bind def
311.318 40.5 o
grestore
gsave
/o {
gsave
newpath
translate
0.5 setlinewidth
1 setlinejoin
0 setlinecap
0 0 m
0 -4 l
gsave
0.000 setgray
fill
grestore
stroke
grestore
} bind def
311.318 319.5 o
grestore
gsave
304.950994 29.656250 translate
0.000000 rotate
0.000000 0.000000 m /one glyphshow
5.726074 0.000000 m /period glyphshow
8.586914 0.000000 m /zero glyphshow
grestore
gsave
164.281250 15.937500 translate
0.000000 rotate
0.000000 0.000000 m /C glyphshow
6.284180 0.000000 m /h glyphshow
11.988281 0.000000 m /e glyphshow
17.525391 0.000000 m /n glyphshow
23.229492 0.000000 m /two glyphshow
28.955566 0.000000 m /parenleft glyphshow
32.466797 0.000000 m /zero glyphshow
38.192871 0.000000 m /parenright glyphshow
grestore
gsave
/o {
gsave
newpath
translate
0.5 setlinewidth
1 setlinejoin
0 setlinecap
0 0 m
4 0 l
gsave
0.000 setgray
fill
grestore
stroke
grestore
} bind def
45 53.1818 o
grestore
gsave
/o {
gsave
newpath
translate
0.5 setlinewidth
1 setlinejoin
0 setlinecap
0 0 m
-4 0 l
gsave
0.000 setgray
fill
grestore
stroke
grestore
} bind def
324 53.1818 o
grestore
gsave
20.687500 50.697443 translate
0.000000 rotate
0.000000 0.000000 m /minus glyphshow
7.541016 0.000000 m /one glyphshow
13.267090 0.000000 m /period glyphshow
16.127930 0.000000 m /zero glyphshow
grestore
gsave
/o {
gsave
newpath
translate
0.5 setlinewidth
1 setlinejoin
0 setlinecap
0 0 m
4 0 l
gsave
0.000 setgray
fill
grestore
stroke
grestore
} bind def
45 116.591 o
grestore
gsave
/o {
gsave
newpath
translate
0.5 setlinewidth
1 setlinejoin
0 setlinecap
0 0 m
-4 0 l
gsave
0.000 setgray
fill
grestore
stroke
grestore
} bind def
324 116.591 o
grestore
gsave
20.875000 114.106534 translate
0.000000 rotate
0.000000 0.000000 m /minus glyphshow
7.541016 0.000000 m /zero glyphshow
13.267090 0.000000 m /period glyphshow
16.127930 0.000000 m /five glyphshow
grestore
gsave
/o {
gsave
newpath
translate
0.5 setlinewidth
1 setlinejoin
0 setlinecap
0 0 m
4 0 l
gsave
0.000 setgray
fill
grestore
stroke
grestore
} bind def
45 180 o
grestore
gsave
/o {
gsave
newpath
translate
0.5 setlinewidth
1 setlinejoin
0 setlinecap
0 0 m
-4 0 l
gsave
0.000 setgray
fill
grestore
stroke
grestore
} bind def
324 180 o
grestore
gsave
27.875000 177.515625 translate
0.000000 rotate
0.000000 0.000000 m /zero glyphshow
5.726074 0.000000 m /period glyphshow
8.586914 0.000000 m /zero glyphshow
grestore
gsave
/o {
gsave
newpath
translate
0.5 setlinewidth
1 setlinejoin
0 setlinecap
0 0 m
4 0 l
gsave
0.000 setgray
fill
grestore
stroke
grestore
} bind def
45 243.409 o
grestore
gsave
/o {
gsave
newpath
translate
0.5 setlinewidth
1 setlinejoin
0 setlinecap
0 0 m
-4 0 l
gsave
0.000 setgray
fill
grestore
stroke
grestore
} bind def
324 243.409 o
grestore
gsave
28.062500 240.924716 translate
0.000000 rotate
0.000000 0.000000 m /zero glyphshow
5.726074 0.000000 m /period glyphshow
8.586914 0.000000 m /five glyphshow
grestore
gsave
/o {
gsave
newpath
translate
0.5 setlinewidth
1 setlinejoin
0 setlinecap
0 0 m
4 0 l
gsave
0.000 setgray
fill
grestore
stroke
grestore
} bind def
45 306.818 o
grestore
gsave
/o {
gsave
newpath
translate
0.5 setlinewidth
1 setlinejoin
0 setlinecap
0 0 m
-4 0 l
gsave
0.000 setgray
fill
grestore
stroke
grestore
} bind def
324 306.818 o
grestore
gsave
28.265625 304.333807 translate
0.000000 rotate
0.000000 0.000000 m /one glyphshow
5.726074 0.000000 m /period glyphshow
8.586914 0.000000 m /zero glyphshow
grestore
gsave
13.812500 159.781250 translate
90.000000 rotate
0.000000 0.000000 m /C glyphshow
6.284180 0.000000 m /h glyphshow
11.988281 0.000000 m /e glyphshow
17.525391 0.000000 m /n glyphshow
23.229492 0.000000 m /two glyphshow
28.955566 0.000000 m /parenleft glyphshow
32.466797 0.000000 m /one glyphshow
38.192871 0.000000 m /parenright glyphshow
grestore
1.000 setlinewidth
gsave
45 319.5 m
324 319.5 l
stroke
grestore
gsave
324 40.5 m
324 319.5 l
stroke
grestore
gsave
45 40.5 m
324 40.5 l
stroke
grestore
gsave
45 40.5 m
45 319.5 l
stroke
grestore

end
showpage
