%!PS-Adobe-3.0 EPSF-3.0
%%Title: Horodecki.vis.eps
%%Creator: matplotlib version 1.2.1, http://matplotlib.org/
%%CreationDate: Sat Jun  1 12:04:21 2013
%%Orientation: portrait
%%BoundingBox: 126 216 486 576
%%EndComments
%%BeginProlog
/mpldict 8 dict def
mpldict begin
/m { moveto } bind def
/l { lineto } bind def
/r { rlineto } bind def
/c { curveto } bind def
/cl { closepath } bind def
/box {
m
1 index 0 r
0 exch r
neg 0 r
cl
} bind def
/clipbox {
box
clip
newpath
} bind def
%!PS-Adobe-3.0 Resource-Font
%%Title: Bitstream Vera Sans
%%Copyright: Copyright (c) 2003 by Bitstream, Inc. All Rights Reserved.
%%Creator: Converted from TrueType to type 3 by PPR
25 dict begin
/_d{bind def}bind def
/_m{moveto}_d
/_l{lineto}_d
/_cl{closepath eofill}_d
/_c{curveto}_d
/_sc{7 -1 roll{setcachedevice}{pop pop pop pop pop pop}ifelse}_d
/_e{exec}_d
/FontName /BitstreamVeraSans-Roman def
/PaintType 0 def
/FontMatrix[.001 0 0 .001 0 0]def
/FontBBox[-183 -236 1287 928]def
/FontType 3 def
/Encoding [ /parenleft /parenright /period /zero /one /five /H /c /d /e /i /k /o /r /minus ] def
/FontInfo 10 dict dup begin
/FamilyName (Bitstream Vera Sans) def
/FullName (Bitstream Vera Sans) def
/Notice (Copyright (c) 2003 by Bitstream, Inc. All Rights Reserved. Bitstream Vera is a trademark of Bitstream, Inc.) def
/Weight (Roman) def
/Version (Release 1.10) def
/ItalicAngle 0.0 def
/isFixedPitch false def
/UnderlinePosition -213 def
/UnderlineThickness 143 def
end readonly def
/CharStrings 15 dict dup begin
/parenleft{390 0 86 -131 310 759 _sc
310 759 _m
266 683 234 609 213 536 _c
191 463 181 389 181 314 _c
181 238 191 164 213 91 _c
234 17 266 -56 310 -131 _c
232 -131 _l
183 -54 146 20 122 94 _c
98 168 86 241 86 314 _c
86 386 98 459 122 533 _c
146 607 182 682 232 759 _c
310 759 _l
_cl}_d
/parenright{390 0 80 -131 304 759 _sc
80 759 _m
158 759 _l
206 682 243 607 267 533 _c
291 459 304 386 304 314 _c
304 241 291 168 267 94 _c
243 20 206 -54 158 -131 _c
80 -131 _l
123 -56 155 17 177 91 _c
198 164 209 238 209 314 _c
209 389 198 463 177 536 _c
155 609 123 683 80 759 _c
_cl}_d
/period{318 0 107 0 210 124 _sc
107 124 _m
210 124 _l
210 0 _l
107 0 _l
107 124 _l
_cl}_d
/zero{636 0 66 -13 570 742 _sc
318 664 _m
267 664 229 639 203 589 _c
177 539 165 464 165 364 _c
165 264 177 189 203 139 _c
229 89 267 64 318 64 _c
369 64 407 89 433 139 _c
458 189 471 264 471 364 _c
471 464 458 539 433 589 _c
407 639 369 664 318 664 _c
318 742 _m
399 742 461 709 505 645 _c
548 580 570 486 570 364 _c
570 241 548 147 505 83 _c
461 19 399 -13 318 -13 _c
236 -13 173 19 130 83 _c
87 147 66 241 66 364 _c
66 486 87 580 130 645 _c
173 709 236 742 318 742 _c
_cl}_d
/one{636 0 110 0 544 729 _sc
124 83 _m
285 83 _l
285 639 _l
110 604 _l
110 694 _l
284 729 _l
383 729 _l
383 83 _l
544 83 _l
544 0 _l
124 0 _l
124 83 _l
_cl}_d
/five{{636 0 77 -13 549 729 _sc
108 729 _m
495 729 _l
495 646 _l
198 646 _l
198 467 _l
212 472 227 476 241 478 _c
255 480 270 482 284 482 _c
365 482 429 459 477 415 _c
525 370 549 310 549 234 _c
549 155 524 94 475 51 _c
426 8 357 -13 269 -13 _c
238 -13 207 -10 175 -6 _c
143 -1 111 6 77 17 _c
77 116 _l
106 100 136 88 168 80 _c
199 72 232 69 267 69 _c
}_e{323 69 368 83 401 113 _c
433 143 450 183 450 234 _c
450 284 433 324 401 354 _c
368 384 323 399 267 399 _c
241 399 214 396 188 390 _c
162 384 135 375 108 363 _c
108 729 _l
_cl}_e}_d
/H{752 0 98 0 654 729 _sc
98 729 _m
197 729 _l
197 430 _l
555 430 _l
555 729 _l
654 729 _l
654 0 _l
555 0 _l
555 347 _l
197 347 _l
197 0 _l
98 0 _l
98 729 _l
_cl}_d
/c{{550 0 55 -13 488 560 _sc
488 526 _m
488 442 _l
462 456 437 466 411 473 _c
385 480 360 484 334 484 _c
276 484 230 465 198 428 _c
166 391 150 339 150 273 _c
150 206 166 154 198 117 _c
230 80 276 62 334 62 _c
360 62 385 65 411 72 _c
437 79 462 90 488 104 _c
488 21 _l
462 9 436 0 410 -5 _c
383 -10 354 -13 324 -13 _c
242 -13 176 12 128 64 _c
}_e{79 115 55 185 55 273 _c
55 362 79 432 128 483 _c
177 534 244 560 330 560 _c
358 560 385 557 411 551 _c
437 545 463 537 488 526 _c
_cl}_e}_d
/d{{635 0 55 -13 544 760 _sc
454 464 _m
454 760 _l
544 760 _l
544 0 _l
454 0 _l
454 82 _l
435 49 411 25 382 10 _c
353 -5 319 -13 279 -13 _c
213 -13 159 13 117 65 _c
75 117 55 187 55 273 _c
55 359 75 428 117 481 _c
159 533 213 560 279 560 _c
319 560 353 552 382 536 _c
411 520 435 496 454 464 _c
148 273 _m
148 207 161 155 188 117 _c
215 79 253 61 301 61 _c
}_e{348 61 385 79 413 117 _c
440 155 454 207 454 273 _c
454 339 440 390 413 428 _c
385 466 348 485 301 485 _c
253 485 215 466 188 428 _c
161 390 148 339 148 273 _c
_cl}_e}_d
/e{{615 0 55 -13 562 560 _sc
562 296 _m
562 252 _l
149 252 _l
153 190 171 142 205 110 _c
238 78 284 62 344 62 _c
378 62 412 66 444 74 _c
476 82 509 95 541 113 _c
541 28 _l
509 14 476 3 442 -3 _c
408 -9 373 -13 339 -13 _c
251 -13 182 12 131 62 _c
80 112 55 181 55 268 _c
55 357 79 428 127 481 _c
175 533 241 560 323 560 _c
397 560 455 536 498 489 _c
}_e{540 441 562 377 562 296 _c
472 322 _m
471 371 457 410 431 440 _c
404 469 368 484 324 484 _c
274 484 234 469 204 441 _c
174 413 156 373 152 322 _c
472 322 _l
_cl}_e}_d
/i{278 0 94 0 184 760 _sc
94 547 _m
184 547 _l
184 0 _l
94 0 _l
94 547 _l
94 760 _m
184 760 _l
184 646 _l
94 646 _l
94 760 _l
_cl}_d
/k{579 0 91 0 576 760 _sc
91 760 _m
181 760 _l
181 311 _l
449 547 _l
564 547 _l
274 291 _l
576 0 _l
459 0 _l
181 267 _l
181 0 _l
91 0 _l
91 760 _l
_cl}_d
/o{612 0 55 -13 557 560 _sc
306 484 _m
258 484 220 465 192 427 _c
164 389 150 338 150 273 _c
150 207 163 156 191 118 _c
219 80 257 62 306 62 _c
354 62 392 80 420 118 _c
448 156 462 207 462 273 _c
462 337 448 389 420 427 _c
392 465 354 484 306 484 _c
306 560 _m
384 560 445 534 490 484 _c
534 433 557 363 557 273 _c
557 183 534 113 490 63 _c
445 12 384 -13 306 -13 _c
227 -13 165 12 121 63 _c
77 113 55 183 55 273 _c
55 363 77 433 121 484 _c
165 534 227 560 306 560 _c
_cl}_d
/r{411 0 91 0 411 560 _sc
411 463 _m
401 469 390 473 378 476 _c
366 478 353 480 339 480 _c
288 480 249 463 222 430 _c
194 397 181 350 181 288 _c
181 0 _l
91 0 _l
91 547 _l
181 547 _l
181 462 _l
199 495 224 520 254 536 _c
284 552 321 560 365 560 _c
371 560 378 559 386 559 _c
393 558 401 557 411 555 _c
411 463 _l
_cl}_d
/minus{838 0 106 272 732 355 _sc
106 355 _m
732 355 _l
732 272 _l
106 272 _l
106 355 _l
_cl}_d
end readonly def

/BuildGlyph
 {exch begin
 CharStrings exch
 2 copy known not{pop /.notdef}if
 true 3 1 roll get exec
 end}_d

/BuildChar {
 1 index /Encoding get exch get
 1 index /BuildGlyph get exec
}_d

FontName currentdict end definefont pop
end
%%EndProlog
mpldict begin
126 216 translate
360 360 0 0 clipbox
gsave
0 0 m
360 0 l
360 360 l
0 360 l
cl
1.000 setgray
fill
grestore
gsave
45 40.5 m
324 40.5 l
324 319.5 l
45 319.5 l
cl
1.000 setgray
fill
grestore
2.000 setlinewidth
1 setlinejoin
2 setlinecap
[] 0 setdash
0.000 0.000 1.000 setrgbcolor
gsave
279 279 45 40.5 clipbox
311.318 180 m
309.781 181.538 l
308.28 183.039 l
306.813 184.505 l
305.38 185.938 l
303.978 187.34 l
302.606 188.712 l
301.263 190.055 l
299.948 191.371 l
298.658 192.66 l
297.394 193.924 l
296.154 195.164 l
294.936 196.382 l
293.741 197.577 l
292.567 198.751 l
291.413 199.906 l
290.278 201.041 l
289.161 202.157 l
288.062 203.256 l
286.981 204.338 l
285.915 205.403 l
284.865 206.453 l
283.83 207.488 l
282.809 208.509 l
281.802 209.516 l
280.808 210.51 l
279.827 211.492 l
278.857 212.461 l
277.9 213.419 l
276.953 214.366 l
276.017 215.302 l
275.091 216.228 l
274.174 217.144 l
273.267 218.051 l
272.369 218.95 l
271.479 219.839 l
270.597 220.721 l
269.723 221.595 l
268.857 222.462 l
267.997 223.321 l
267.144 224.174 l
266.298 225.021 l
265.457 225.862 l
264.622 226.697 l
263.792 227.526 l
262.968 228.35 l
262.148 229.17 l
261.333 229.985 l
260.522 230.796 l
259.715 231.603 l
258.912 232.407 l
258.112 233.207 l
257.315 234.003 l
256.521 234.797 l
255.73 235.588 l
254.941 236.377 l
254.154 237.164 l
253.37 237.949 l
252.587 238.732 l
251.805 239.514 l
251.024 240.294 l
250.245 241.074 l
249.466 241.853 l
248.687 242.631 l
247.909 243.409 l
247.131 244.187 l
246.353 244.966 l
245.574 245.745 l
244.794 246.524 l
244.014 247.305 l
243.232 248.087 l
242.449 248.87 l
241.664 249.654 l
240.877 250.441 l
240.088 251.23 l
239.297 252.021 l
238.503 252.815 l
237.707 253.612 l
236.907 254.412 l
236.103 255.215 l
235.296 256.022 l
234.485 256.833 l
233.67 257.648 l
232.85 258.468 l
232.026 259.292 l
231.197 260.122 l
230.362 260.957 l
229.521 261.798 l
228.674 262.644 l
227.821 263.497 l
226.962 264.357 l
226.095 265.223 l
225.221 266.097 l
224.339 266.979 l
223.45 267.869 l
222.551 268.767 l
221.644 269.674 l
220.728 270.591 l
219.802 271.517 l
218.866 272.453 l
217.919 273.4 l
216.961 274.357 l
215.992 275.327 l
215.01 276.308 l
214.016 277.302 l
213.009 278.309 l
211.988 279.33 l
210.953 280.365 l
209.903 281.415 l
208.838 282.481 l
207.756 283.562 l
206.657 284.661 l
205.541 285.778 l
204.406 286.913 l
203.251 288.067 l
202.077 289.241 l
200.882 290.436 l
199.664 291.654 l
198.424 292.894 l
197.16 294.158 l
195.871 295.448 l
194.555 296.763 l
193.212 298.106 l
191.84 299.478 l
190.438 300.88 l
189.005 302.313 l
187.539 303.78 l
186.038 305.281 l
184.5 306.818 l
182.999 302.315 l
181.6 298.12 l
180.294 294.2 l
179.07 290.529 l
177.921 287.082 l
176.84 283.839 l
175.821 280.782 l
174.858 277.893 l
173.947 275.159 l
173.083 272.567 l
172.262 270.105 l
171.482 267.763 l
170.738 265.532 l
170.028 263.403 l
169.35 261.369 l
168.702 259.424 l
168.08 257.56 l
167.485 255.773 l
166.913 254.057 l
166.363 252.407 l
165.834 250.82 l
165.324 249.292 l
164.833 247.818 l
164.359 246.396 l
163.901 245.022 l
163.458 243.694 l
163.03 242.409 l
162.615 241.164 l
162.213 239.958 l
161.823 238.788 l
161.445 237.652 l
161.077 236.549 l
160.719 235.476 l
160.371 234.433 l
160.033 233.417 l
159.703 232.428 l
159.382 231.464 l
159.068 230.524 l
158.763 229.606 l
158.464 228.71 l
158.172 227.835 l
157.887 226.979 l
157.608 226.142 l
157.335 225.323 l
157.067 224.52 l
156.805 223.735 l
156.548 222.965 l
156.297 222.209 l
156.05 221.468 l
155.807 220.741 l
155.569 220.026 l
155.335 219.324 l
155.105 218.634 l
154.879 217.956 l
154.656 217.288 l
154.438 216.631 l
154.222 215.984 l
154.01 215.347 l
153.8 214.719 l
153.594 214.1 l
153.39 213.489 l
153.189 212.887 l
152.991 212.292 l
152.795 211.705 l
152.602 211.125 l
152.411 210.551 l
152.222 209.985 l
152.035 209.424 l
151.85 208.87 l
151.667 208.322 l
151.486 207.778 l
151.307 207.24 l
151.13 206.708 l
150.954 206.18 l
150.779 205.656 l
150.606 205.137 l
150.435 204.622 l
150.264 204.111 l
150.095 203.604 l
149.927 203.101 l
149.761 202.6 l
149.595 202.103 l
149.43 201.609 l
149.266 201.118 l
149.104 200.63 l
148.942 200.144 l
148.78 199.66 l
148.62 199.178 l
148.46 198.699 l
148.301 198.221 l
148.142 197.745 l
147.984 197.271 l
147.826 196.798 l
147.669 196.326 l
147.512 195.855 l
147.356 195.386 l
147.199 194.917 l
147.043 194.449 l
146.887 193.981 l
146.731 193.514 l
146.576 193.047 l
146.42 192.58 l
146.265 192.113 l
146.109 191.646 l
145.953 191.178 l
145.797 190.71 l
145.641 190.242 l
145.485 189.773 l
145.328 189.303 l
145.171 188.832 l
145.014 188.359 l
144.856 187.886 l
144.697 187.411 l
144.539 186.934 l
144.379 186.456 l
144.219 185.975 l
144.058 185.493 l
143.896 185.008 l
143.734 184.521 l
143.571 184.031 l
143.407 183.539 l
143.242 183.043 l
143.075 182.545 l
142.908 182.043 l
142.74 181.538 l
142.57 181.029 l
142.399 180.517 l
142.227 180 l
142.054 179.479 l
141.878 178.954 l
141.702 178.424 l
141.523 177.889 l
141.343 177.349 l
141.162 176.803 l
140.978 176.252 l
140.792 175.695 l
140.604 175.132 l
140.415 174.563 l
140.223 173.986 l
140.028 173.403 l
139.831 172.813 l
139.632 172.215 l
139.43 171.609 l
139.225 170.994 l
139.018 170.371 l
138.807 169.739 l
138.593 169.098 l
138.376 168.446 l
138.155 167.785 l
137.931 167.113 l
137.704 166.429 l
137.472 165.734 l
137.236 165.027 l
136.996 164.307 l
136.752 163.573 l
136.502 162.826 l
136.249 162.065 l
135.99 161.288 l
135.725 160.495 l
135.456 159.685 l
135.18 158.858 l
134.898 158.013 l
134.61 157.149 l
134.315 156.264 l
134.014 155.359 l
133.704 154.432 l
133.387 153.481 l
133.062 152.506 l
132.729 151.506 l
132.387 150.478 l
132.035 149.422 l
131.673 148.336 l
131.3 147.219 l
130.917 146.069 l
130.522 144.883 l
130.114 143.66 l
129.693 142.398 l
129.259 141.095 l
128.81 139.747 l
128.345 138.352 l
127.863 136.908 l
127.364 135.411 l
126.846 133.857 l
126.308 132.243 l
125.749 130.565 l
125.167 128.819 l
124.56 126.999 l
123.927 125.1 l
123.266 123.117 l
122.574 121.042 l
121.85 118.87 l
121.091 116.591 l
123.37 117.35 l
125.542 118.074 l
127.617 118.766 l
129.6 119.427 l
131.499 120.06 l
133.319 120.667 l
135.065 121.249 l
136.743 121.808 l
138.357 122.346 l
139.911 122.864 l
141.408 123.363 l
142.852 123.845 l
144.247 124.31 l
145.595 124.759 l
146.898 125.193 l
148.16 125.614 l
149.383 126.022 l
150.569 126.417 l
151.719 126.8 l
152.836 127.173 l
153.922 127.535 l
154.978 127.887 l
156.006 128.229 l
157.006 128.562 l
157.981 128.887 l
158.932 129.204 l
159.859 129.514 l
160.764 129.815 l
161.649 130.11 l
162.513 130.398 l
163.358 130.68 l
164.185 130.956 l
164.995 131.225 l
165.788 131.49 l
166.565 131.749 l
167.326 132.002 l
168.073 132.252 l
168.807 132.496 l
169.527 132.736 l
170.234 132.972 l
170.929 133.204 l
171.613 133.431 l
172.285 133.655 l
172.946 133.876 l
173.598 134.093 l
174.239 134.307 l
174.871 134.518 l
175.494 134.725 l
176.109 134.93 l
176.715 135.132 l
177.313 135.331 l
177.903 135.528 l
178.486 135.723 l
179.063 135.915 l
179.632 136.104 l
180.195 136.292 l
180.752 136.478 l
181.303 136.662 l
181.849 136.843 l
182.389 137.023 l
182.924 137.202 l
183.454 137.378 l
183.979 137.554 l
184.5 137.727 l
185.017 137.899 l
185.529 138.07 l
186.038 138.24 l
186.543 138.408 l
187.045 138.575 l
187.543 138.742 l
188.039 138.907 l
188.531 139.071 l
189.021 139.234 l
189.508 139.396 l
189.993 139.558 l
190.475 139.719 l
190.956 139.879 l
191.434 140.039 l
191.911 140.197 l
192.386 140.356 l
192.859 140.514 l
193.332 140.671 l
193.803 140.828 l
194.273 140.985 l
194.742 141.141 l
195.21 141.297 l
195.678 141.453 l
196.146 141.609 l
196.613 141.765 l
197.08 141.92 l
197.547 142.076 l
198.014 142.231 l
198.481 142.387 l
198.949 142.543 l
199.417 142.699 l
199.886 142.856 l
200.355 143.012 l
200.826 143.169 l
201.298 143.326 l
201.771 143.484 l
202.245 143.642 l
202.721 143.801 l
203.199 143.96 l
203.678 144.12 l
204.16 144.28 l
204.644 144.442 l
205.13 144.604 l
205.618 144.766 l
206.109 144.93 l
206.603 145.095 l
207.1 145.261 l
207.601 145.427 l
208.104 145.595 l
208.611 145.764 l
209.122 145.935 l
209.637 146.106 l
210.156 146.279 l
210.68 146.454 l
211.208 146.63 l
211.74 146.807 l
212.278 146.986 l
212.822 147.167 l
213.37 147.35 l
213.924 147.535 l
214.485 147.722 l
215.051 147.911 l
215.625 148.102 l
216.205 148.295 l
216.792 148.491 l
217.387 148.689 l
217.989 148.89 l
218.6 149.094 l
219.219 149.3 l
219.847 149.51 l
220.484 149.722 l
221.131 149.938 l
221.788 150.156 l
222.456 150.379 l
223.134 150.605 l
223.824 150.835 l
224.526 151.069 l
225.241 151.307 l
225.968 151.55 l
226.709 151.797 l
227.465 152.048 l
228.235 152.305 l
229.02 152.567 l
229.823 152.835 l
230.642 153.108 l
231.479 153.387 l
232.335 153.672 l
233.21 153.964 l
234.106 154.263 l
235.024 154.568 l
235.964 154.882 l
236.928 155.203 l
237.917 155.533 l
238.933 155.871 l
239.976 156.219 l
241.049 156.577 l
242.152 156.945 l
243.288 157.323 l
244.458 157.713 l
245.664 158.115 l
246.909 158.53 l
248.194 158.958 l
249.522 159.401 l
250.896 159.859 l
252.318 160.333 l
253.792 160.824 l
255.32 161.334 l
256.907 161.863 l
258.557 162.413 l
260.273 162.985 l
262.06 163.58 l
263.924 164.202 l
265.869 164.85 l
267.903 165.528 l
270.032 166.238 l
272.263 166.982 l
274.605 167.762 l
277.067 168.583 l
279.659 169.447 l
282.393 170.358 l
285.282 171.321 l
288.339 172.34 l
291.582 173.421 l
295.029 174.57 l
298.7 175.794 l
302.62 177.1 l
306.815 178.499 l
311.318 180 l
cl
gsave
0.500 0.500 1.000 setrgbcolor
fill
grestore
stroke
grestore
1.000 setlinewidth
0.000 setgray
gsave
279 279 45 40.5 clipbox
226.979 180 m
227.198 180.524 l
227.412 181.053 l
227.62 181.588 l
227.823 182.128 l
227.787 182.659 l
227.983 183.207 l
228.172 183.761 l
228.357 184.32 l
228.536 184.883 l
228.93 185.48 l
229.096 186.057 l
229.257 186.639 l
229.413 187.227 l
229.563 187.819 l
229.917 188.456 l
230.055 189.061 l
230.187 189.672 l
230.517 190.333 l
230.636 190.957 l
230.949 191.635 l
231.056 192.271 l
231.352 192.966 l
231.639 193.67 l
231.726 194.326 l
231.996 195.047 l
232.257 195.777 l
232.508 196.516 l
232.75 197.264 l
232.983 198.022 l
233.208 198.789 l
233.599 199.635 l
233.803 200.422 l
233.998 201.218 l
234.355 202.099 l
234.7 202.993 l
234.864 203.82 l
235.185 204.738 l
235.493 205.668 l
235.789 206.61 l
236.233 207.652 l
236.502 208.622 l
236.917 209.694 l
237.158 210.69 l
237.542 211.792 l
237.91 212.91 l
238.262 214.045 l
238.748 215.292 l
239.067 216.46 l
239.516 217.745 l
239.945 219.049 l
240.356 220.373 l
240.889 221.821 l
241.259 223.185 l
241.748 224.677 l
242.352 226.302 l
242.795 227.841 l
243.349 229.517 l
244.009 231.333 l
244.509 233.062 l
245.112 234.936 l
245.815 236.958 l
246.484 239.014 l
247.12 241.102 l
247.909 243.409 l
245.602 242.62 l
243.514 241.984 l
241.458 241.315 l
239.436 240.612 l
237.562 240.009 l
235.833 239.509 l
234.017 238.849 l
232.341 238.295 l
230.802 237.852 l
229.177 237.248 l
227.685 236.759 l
226.321 236.389 l
224.873 235.856 l
223.549 235.445 l
222.245 235.016 l
220.96 234.567 l
219.792 234.248 l
218.545 233.762 l
217.41 233.41 l
216.292 233.042 l
215.19 232.658 l
214.194 232.417 l
213.122 232.002 l
212.152 231.733 l
211.11 231.289 l
210.168 230.993 l
209.238 230.685 l
208.32 230.364 l
207.493 230.2 l
206.599 229.855 l
205.718 229.498 l
204.922 229.303 l
204.135 229.099 l
203.289 228.708 l
202.522 228.483 l
201.764 228.25 l
201.016 228.008 l
200.277 227.757 l
199.547 227.496 l
198.826 227.226 l
198.17 227.139 l
197.466 226.852 l
196.771 226.556 l
196.135 226.449 l
195.457 226.136 l
194.833 226.017 l
194.172 225.687 l
193.561 225.555 l
192.956 225.417 l
192.319 225.063 l
191.727 224.913 l
191.139 224.757 l
190.557 224.596 l
189.98 224.43 l
189.383 224.036 l
188.82 223.857 l
188.261 223.672 l
187.707 223.483 l
187.159 223.287 l
186.628 223.323 l
186.088 223.12 l
185.553 222.912 l
185.024 222.698 l
184.5 222.479 l
183.98 222.404 l
183.466 222.103 l
182.951 222.044 l
182.448 221.772 l
181.937 221.724 l
181.441 221.475 l
180.949 221.238 l
180.442 221.203 l
179.955 220.982 l
179.472 220.769 l
178.991 220.565 l
178.487 220.539 l
178.009 220.344 l
177.533 220.154 l
177.058 219.969 l
176.585 219.789 l
176.114 219.613 l
175.643 219.44 l
175.14 219.415 l
174.67 219.244 l
174.201 219.076 l
173.732 218.909 l
173.265 218.744 l
172.797 218.579 l
172.33 218.416 l
171.863 218.253 l
171.396 218.091 l
170.929 217.929 l
170.462 217.766 l
169.995 217.603 l
169.527 217.44 l
169.06 217.276 l
168.592 217.111 l
168.124 216.944 l
167.655 216.777 l
167.186 216.608 l
166.716 216.437 l
166.196 216.363 l
165.725 216.187 l
165.253 216.009 l
164.78 215.829 l
164.306 215.647 l
163.832 215.463 l
163.304 215.364 l
162.827 215.173 l
162.35 214.979 l
161.817 214.867 l
161.337 214.666 l
160.856 214.462 l
160.319 214.335 l
159.835 214.124 l
159.294 213.986 l
158.808 213.767 l
158.263 213.619 l
157.775 213.392 l
157.227 213.233 l
156.676 213.068 l
156.124 212.896 l
155.629 212.651 l
155.073 212.468 l
154.514 212.279 l
153.954 212.084 l
153.391 211.882 l
152.795 211.705 l
152.602 211.125 l
152.411 210.551 l
152.222 209.985 l
152.035 209.424 l
151.85 208.87 l
151.667 208.322 l
151.486 207.778 l
151.307 207.24 l
151.13 206.708 l
150.954 206.18 l
150.779 205.656 l
150.606 205.137 l
150.435 204.622 l
150.264 204.111 l
150.095 203.604 l
149.927 203.101 l
149.761 202.6 l
149.595 202.103 l
149.43 201.609 l
149.266 201.118 l
149.104 200.63 l
148.942 200.144 l
148.78 199.66 l
148.62 199.178 l
148.46 198.699 l
148.301 198.221 l
148.142 197.745 l
147.984 197.271 l
147.826 196.798 l
147.669 196.326 l
147.512 195.855 l
147.356 195.386 l
147.199 194.917 l
147.043 194.449 l
146.887 193.981 l
146.731 193.514 l
146.576 193.047 l
146.42 192.58 l
146.265 192.113 l
146.109 191.646 l
145.953 191.178 l
145.797 190.71 l
145.641 190.242 l
145.485 189.773 l
145.328 189.303 l
145.171 188.832 l
145.014 188.359 l
144.856 187.886 l
144.697 187.411 l
144.539 186.934 l
144.379 186.456 l
144.219 185.975 l
144.058 185.493 l
143.896 185.008 l
143.734 184.521 l
143.571 184.031 l
143.407 183.539 l
143.242 183.043 l
143.075 182.545 l
142.908 182.043 l
142.74 181.538 l
142.57 181.029 l
142.399 180.517 l
142.227 180 l
142.054 179.479 l
141.878 178.954 l
141.702 178.424 l
141.523 177.889 l
141.343 177.349 l
141.162 176.803 l
140.978 176.252 l
140.792 175.695 l
140.604 175.132 l
140.415 174.563 l
140.223 173.986 l
140.028 173.403 l
139.831 172.813 l
139.632 172.215 l
139.43 171.609 l
139.225 170.994 l
139.018 170.371 l
138.807 169.739 l
138.593 169.098 l
138.376 168.446 l
138.155 167.785 l
137.931 167.113 l
137.704 166.429 l
137.472 165.734 l
137.236 165.027 l
136.996 164.307 l
136.752 163.573 l
136.502 162.826 l
136.249 162.065 l
135.99 161.288 l
135.725 160.495 l
135.456 159.685 l
135.18 158.858 l
134.898 158.013 l
134.61 157.149 l
134.315 156.264 l
134.014 155.359 l
133.704 154.432 l
133.387 153.481 l
133.062 152.506 l
132.729 151.506 l
132.387 150.478 l
132.035 149.422 l
131.673 148.336 l
131.3 147.219 l
130.917 146.069 l
130.522 144.883 l
130.114 143.66 l
129.693 142.398 l
129.259 141.095 l
128.81 139.747 l
128.345 138.352 l
127.863 136.908 l
127.364 135.411 l
126.846 133.857 l
126.308 132.243 l
125.749 130.565 l
125.167 128.819 l
124.56 126.999 l
123.927 125.1 l
123.266 123.117 l
122.574 121.042 l
121.85 118.87 l
121.091 116.591 l
123.37 117.35 l
125.542 118.074 l
127.617 118.766 l
129.6 119.427 l
131.499 120.06 l
133.319 120.667 l
135.065 121.249 l
136.743 121.808 l
138.357 122.346 l
139.911 122.864 l
141.408 123.363 l
142.852 123.845 l
144.247 124.31 l
145.595 124.759 l
146.898 125.193 l
148.16 125.614 l
149.383 126.022 l
150.569 126.417 l
151.719 126.8 l
152.836 127.173 l
153.922 127.535 l
154.978 127.887 l
156.006 128.229 l
157.006 128.562 l
157.981 128.887 l
158.932 129.204 l
159.859 129.514 l
160.764 129.815 l
161.649 130.11 l
162.513 130.398 l
163.358 130.68 l
164.185 130.956 l
164.995 131.225 l
165.788 131.49 l
166.565 131.749 l
167.326 132.002 l
168.073 132.252 l
168.807 132.496 l
169.527 132.736 l
170.234 132.972 l
170.929 133.204 l
171.613 133.431 l
172.285 133.655 l
172.946 133.876 l
173.598 134.093 l
174.239 134.307 l
174.871 134.518 l
175.494 134.725 l
176.109 134.93 l
176.715 135.132 l
177.313 135.331 l
177.903 135.528 l
178.486 135.723 l
179.063 135.915 l
179.632 136.104 l
180.195 136.292 l
180.752 136.478 l
181.303 136.662 l
181.849 136.843 l
182.389 137.023 l
182.924 137.202 l
183.454 137.378 l
183.979 137.554 l
184.5 137.727 l
185.017 137.899 l
185.529 138.07 l
186.038 138.24 l
186.543 138.408 l
187.045 138.575 l
187.543 138.742 l
188.039 138.907 l
188.531 139.071 l
189.021 139.234 l
189.508 139.396 l
189.993 139.558 l
190.475 139.719 l
190.956 139.879 l
191.434 140.039 l
191.911 140.197 l
192.386 140.356 l
192.859 140.514 l
193.332 140.671 l
193.803 140.828 l
194.273 140.985 l
194.742 141.141 l
195.21 141.297 l
195.678 141.453 l
196.146 141.609 l
196.613 141.765 l
197.08 141.92 l
197.547 142.076 l
198.014 142.231 l
198.481 142.387 l
198.949 142.543 l
199.417 142.699 l
199.886 142.856 l
200.355 143.012 l
200.826 143.169 l
201.298 143.326 l
201.771 143.484 l
202.245 143.642 l
202.721 143.801 l
203.199 143.96 l
203.678 144.12 l
204.16 144.28 l
204.644 144.442 l
205.13 144.604 l
205.618 144.766 l
206.109 144.93 l
206.603 145.095 l
207.1 145.261 l
207.601 145.427 l
208.104 145.595 l
208.611 145.764 l
209.122 145.935 l
209.637 146.106 l
210.156 146.279 l
210.68 146.454 l
211.208 146.63 l
211.74 146.807 l
212.278 146.986 l
212.822 147.167 l
213.37 147.35 l
213.924 147.535 l
214.485 147.722 l
215.051 147.911 l
215.625 148.102 l
216.205 148.295 l
216.382 148.891 l
216.584 149.454 l
216.779 150.014 l
216.968 150.573 l
217.151 151.129 l
217.396 151.624 l
217.568 152.176 l
217.733 152.727 l
217.892 153.275 l
218.119 153.763 l
218.267 154.308 l
218.486 154.794 l
218.624 155.335 l
218.835 155.819 l
218.962 156.356 l
219.166 156.837 l
219.367 157.317 l
219.479 157.85 l
219.673 158.327 l
219.864 158.804 l
219.963 159.332 l
220.147 159.806 l
220.329 160.28 l
220.509 160.753 l
220.687 161.225 l
220.863 161.696 l
220.937 162.216 l
221.108 162.686 l
221.277 163.155 l
221.444 163.624 l
221.611 164.092 l
221.776 164.56 l
221.94 165.027 l
222.103 165.495 l
222.266 165.962 l
222.429 166.429 l
222.591 166.896 l
222.753 167.363 l
222.916 167.83 l
223.079 168.297 l
223.244 168.765 l
223.409 169.232 l
223.576 169.701 l
223.744 170.17 l
223.915 170.64 l
223.94 171.143 l
224.113 171.614 l
224.289 172.085 l
224.469 172.558 l
224.654 173.033 l
224.844 173.509 l
225.039 173.987 l
225.065 174.491 l
225.269 174.972 l
225.482 175.455 l
225.703 175.942 l
225.738 176.449 l
225.975 176.941 l
226.224 177.437 l
226.272 177.948 l
226.544 178.451 l
226.603 178.966 l
226.904 179.48 l
226.979 180 l
cl
gsave
0.500 setgray
fill
grestore
stroke
grestore
2.000 setlinewidth
1.000 0.500 0.000 setrgbcolor
gsave
279 279 45 40.5 clipbox
311.318 180 m
184.5 306.818 l
stroke
grestore
1.000 setlinewidth
1.000 0.000 0.000 setrgbcolor
gsave
279 279 45 40.5 clipbox
311.318 180 m
310.708 192.43 l
308.881 204.741 l
305.857 216.813 l
301.665 228.531 l
296.344 239.782 l
289.945 250.456 l
282.532 260.453 l
274.174 269.674 l
264.953 278.032 l
254.956 285.445 l
244.282 291.844 l
233.031 297.165 l
221.313 301.357 l
209.241 304.381 l
196.93 306.208 l
184.5 306.818 l
172.07 306.208 l
159.759 304.381 l
147.687 301.357 l
135.969 297.165 l
124.718 291.844 l
114.044 285.445 l
104.047 278.032 l
94.826 269.674 l
86.4682 260.453 l
79.0545 250.456 l
72.6563 239.782 l
67.3353 228.531 l
63.1426 216.813 l
60.1186 204.741 l
58.2925 192.43 l
57.6818 180 l
58.2925 167.57 l
60.1186 155.259 l
63.1426 143.187 l
67.3353 131.469 l
72.6563 120.218 l
79.0545 109.544 l
86.4682 99.5474 l
94.826 90.326 l
104.047 81.9682 l
114.044 74.5545 l
124.718 68.1563 l
135.969 62.8353 l
147.687 58.6426 l
159.759 55.6186 l
172.07 53.7925 l
184.5 53.1818 l
196.93 53.7925 l
209.241 55.6186 l
221.313 58.6426 l
233.031 62.8353 l
244.282 68.1563 l
254.956 74.5545 l
264.953 81.9682 l
274.174 90.326 l
282.532 99.5474 l
289.945 109.544 l
296.344 120.218 l
301.665 131.469 l
305.857 143.187 l
308.881 155.259 l
310.708 167.57 l
311.318 180 l
stroke
grestore
0.750 0.750 0.000 setrgbcolor
gsave
279 279 45 40.5 clipbox
257.719 180 m
257.366 187.177 l
256.312 194.284 l
254.566 201.254 l
252.145 208.02 l
249.073 214.515 l
245.379 220.678 l
241.099 226.449 l
236.273 231.773 l
230.949 236.599 l
225.178 240.879 l
219.015 244.573 l
212.52 247.645 l
205.754 250.066 l
198.784 251.812 l
191.677 252.866 l
184.5 253.219 l
177.323 252.866 l
170.216 251.812 l
163.246 250.066 l
156.48 247.645 l
149.985 244.573 l
143.822 240.879 l
138.051 236.599 l
132.727 231.773 l
127.901 226.449 l
123.621 220.678 l
119.927 214.515 l
116.855 208.02 l
114.434 201.254 l
112.688 194.284 l
111.634 187.177 l
111.281 180 l
111.634 172.823 l
112.688 165.716 l
114.434 158.746 l
116.855 151.98 l
119.927 145.485 l
123.621 139.322 l
127.901 133.551 l
132.727 128.227 l
138.051 123.401 l
143.822 119.121 l
149.985 115.427 l
156.48 112.355 l
163.246 109.934 l
170.216 108.188 l
177.323 107.134 l
184.5 106.781 l
191.677 107.134 l
198.784 108.188 l
205.754 109.934 l
212.52 112.355 l
219.015 115.427 l
225.178 119.121 l
230.949 123.401 l
236.273 128.227 l
241.099 133.551 l
245.379 139.322 l
249.073 145.485 l
252.145 151.98 l
254.566 158.746 l
256.312 165.716 l
257.366 172.823 l
257.719 180 l
stroke
grestore
gsave
279 279 45 40.5 clipbox
274.174 180 m
273.742 188.79 l
272.451 197.495 l
270.313 206.031 l
267.348 214.317 l
263.585 222.272 l
259.061 229.82 l
253.819 236.889 l
247.909 243.409 l
241.389 249.319 l
234.32 254.561 l
226.772 259.085 l
218.817 262.848 l
210.531 265.813 l
201.995 267.951 l
193.29 269.242 l
184.5 269.674 l
175.71 269.242 l
167.005 267.951 l
158.469 265.813 l
150.183 262.848 l
142.228 259.085 l
134.68 254.561 l
127.611 249.319 l
121.091 243.409 l
115.181 236.889 l
109.939 229.82 l
105.415 222.272 l
101.652 214.317 l
98.6873 206.031 l
96.5491 197.495 l
95.2578 188.79 l
94.826 180 l
95.2578 171.21 l
96.5491 162.505 l
98.6873 153.969 l
101.652 145.683 l
105.415 137.728 l
109.939 130.18 l
115.181 123.111 l
121.091 116.591 l
127.611 110.681 l
134.68 105.439 l
142.228 100.915 l
150.183 97.152 l
158.469 94.1873 l
167.005 92.0491 l
175.71 90.7578 l
184.5 90.326 l
193.29 90.7578 l
201.995 92.0491 l
210.531 94.1873 l
218.817 97.152 l
226.772 100.915 l
234.32 105.439 l
241.389 110.681 l
247.909 116.591 l
253.819 123.111 l
259.061 130.18 l
263.585 137.728 l
267.348 145.683 l
270.313 153.969 l
272.451 162.505 l
273.742 171.21 l
274.174 180 l
stroke
grestore
gsave
279 279 45 40.5 clipbox
236.273 180 m
236.024 185.075 l
235.278 190.1 l
234.044 195.029 l
232.332 199.813 l
230.16 204.406 l
227.548 208.764 l
224.521 212.845 l
221.109 216.609 l
217.345 220.021 l
213.264 223.048 l
208.906 225.66 l
204.313 227.832 l
199.529 229.544 l
194.6 230.778 l
189.575 231.524 l
184.5 231.773 l
179.425 231.524 l
174.4 230.778 l
169.471 229.544 l
164.687 227.832 l
160.094 225.66 l
155.736 223.048 l
151.655 220.021 l
147.891 216.609 l
144.479 212.845 l
141.452 208.764 l
138.84 204.406 l
136.668 199.813 l
134.956 195.029 l
133.722 190.1 l
132.976 185.075 l
132.727 180 l
132.976 174.925 l
133.722 169.9 l
134.956 164.971 l
136.668 160.187 l
138.84 155.594 l
141.452 151.236 l
144.479 147.155 l
147.891 143.391 l
151.655 139.979 l
155.736 136.952 l
160.094 134.34 l
164.687 132.168 l
169.471 130.456 l
174.4 129.222 l
179.425 128.476 l
184.5 128.227 l
189.575 128.476 l
194.6 129.222 l
199.529 130.456 l
204.313 132.168 l
208.906 134.34 l
213.264 136.952 l
217.345 139.979 l
221.109 143.391 l
224.521 147.155 l
227.548 151.236 l
230.16 155.594 l
232.332 160.187 l
234.044 164.971 l
235.278 169.9 l
236.024 174.925 l
236.273 180 l
stroke
grestore
0.000 0.500 0.000 setrgbcolor
gsave
279 279 45 40.5 clipbox
226.773 180 m
226.569 184.143 l
225.96 188.247 l
224.952 192.271 l
223.555 196.177 l
221.781 199.927 l
219.648 203.485 l
217.177 206.818 l
214.391 209.891 l
211.318 212.677 l
207.985 215.148 l
204.427 217.281 l
200.677 219.055 l
196.771 220.452 l
192.747 221.46 l
188.643 222.069 l
184.5 222.273 l
180.357 222.069 l
176.253 221.46 l
172.229 220.452 l
168.323 219.055 l
164.573 217.281 l
161.015 215.148 l
157.682 212.677 l
154.609 209.891 l
151.823 206.818 l
149.352 203.485 l
147.219 199.927 l
145.445 196.177 l
144.048 192.271 l
143.04 188.247 l
142.431 184.143 l
142.227 180 l
142.431 175.857 l
143.04 171.753 l
144.048 167.729 l
145.445 163.823 l
147.219 160.073 l
149.352 156.515 l
151.823 153.182 l
154.609 150.109 l
157.682 147.323 l
161.015 144.852 l
164.573 142.719 l
168.323 140.945 l
172.229 139.548 l
176.253 138.54 l
180.357 137.931 l
184.5 137.727 l
188.643 137.931 l
192.747 138.54 l
196.771 139.548 l
200.677 140.945 l
204.427 142.719 l
207.985 144.852 l
211.318 147.323 l
214.391 150.109 l
217.177 153.182 l
219.648 156.515 l
221.781 160.073 l
223.555 163.823 l
224.952 167.729 l
225.96 171.753 l
226.569 175.857 l
226.773 180 l
stroke
grestore
0.500 setlinewidth
0 setlinecap
0.000 setgray
gsave
/o {
gsave
newpath
translate
0.5 setlinewidth
1 setlinejoin
0 setlinecap
0 0 m
0 4 l
gsave
0.000 setgray
fill
grestore
stroke
grestore
} bind def
57.6818 40.5 o
grestore
gsave
/o {
gsave
newpath
translate
0.5 setlinewidth
1 setlinejoin
0 setlinecap
0 0 m
0 -4 l
gsave
0.000 setgray
fill
grestore
stroke
grestore
} bind def
57.6818 319.5 o
grestore
/BitstreamVeraSans-Roman findfont
9.000 scalefont
setfont
gsave
47.525568 29.687500 translate
0.000000 rotate
0.000000 0.125000 m /minus glyphshow
7.541016 0.125000 m /one glyphshow
13.267090 0.125000 m /period glyphshow
16.127930 0.125000 m /zero glyphshow
grestore
gsave
/o {
gsave
newpath
translate
0.5 setlinewidth
1 setlinejoin
0 setlinecap
0 0 m
0 4 l
gsave
0.000 setgray
fill
grestore
stroke
grestore
} bind def
121.091 40.5 o
grestore
gsave
/o {
gsave
newpath
translate
0.5 setlinewidth
1 setlinejoin
0 setlinecap
0 0 m
0 -4 l
gsave
0.000 setgray
fill
grestore
stroke
grestore
} bind def
121.091 319.5 o
grestore
gsave
111.028409 29.687500 translate
0.000000 rotate
0.000000 0.125000 m /minus glyphshow
7.541016 0.125000 m /zero glyphshow
13.267090 0.125000 m /period glyphshow
16.127930 0.125000 m /five glyphshow
grestore
gsave
/o {
gsave
newpath
translate
0.5 setlinewidth
1 setlinejoin
0 setlinecap
0 0 m
0 4 l
gsave
0.000 setgray
fill
grestore
stroke
grestore
} bind def
184.5 40.5 o
grestore
gsave
/o {
gsave
newpath
translate
0.5 setlinewidth
1 setlinejoin
0 setlinecap
0 0 m
0 -4 l
gsave
0.000 setgray
fill
grestore
stroke
grestore
} bind def
184.5 319.5 o
grestore
gsave
177.937500 29.687500 translate
0.000000 rotate
0.000000 0.125000 m /zero glyphshow
5.726074 0.125000 m /period glyphshow
8.586914 0.125000 m /zero glyphshow
grestore
gsave
/o {
gsave
newpath
translate
0.5 setlinewidth
1 setlinejoin
0 setlinecap
0 0 m
0 4 l
gsave
0.000 setgray
fill
grestore
stroke
grestore
} bind def
247.909 40.5 o
grestore
gsave
/o {
gsave
newpath
translate
0.5 setlinewidth
1 setlinejoin
0 setlinecap
0 0 m
0 -4 l
gsave
0.000 setgray
fill
grestore
stroke
grestore
} bind def
247.909 319.5 o
grestore
gsave
241.440341 29.687500 translate
0.000000 rotate
0.000000 0.125000 m /zero glyphshow
5.726074 0.125000 m /period glyphshow
8.586914 0.125000 m /five glyphshow
grestore
gsave
/o {
gsave
newpath
translate
0.5 setlinewidth
1 setlinejoin
0 setlinecap
0 0 m
0 4 l
gsave
0.000 setgray
fill
grestore
stroke
grestore
} bind def
311.318 40.5 o
grestore
gsave
/o {
gsave
newpath
translate
0.5 setlinewidth
1 setlinejoin
0 setlinecap
0 0 m
0 -4 l
gsave
0.000 setgray
fill
grestore
stroke
grestore
} bind def
311.318 319.5 o
grestore
gsave
304.950994 29.687500 translate
0.000000 rotate
0.000000 0.125000 m /one glyphshow
5.726074 0.125000 m /period glyphshow
8.586914 0.125000 m /zero glyphshow
grestore
gsave
156.382812 16.656250 translate
0.000000 rotate
0.000000 1.187500 m /H glyphshow
6.767578 1.187500 m /o glyphshow
12.273926 1.187500 m /r glyphshow
15.724121 1.187500 m /o glyphshow
21.230469 1.187500 m /d glyphshow
26.943359 1.187500 m /e glyphshow
32.480469 1.187500 m /c glyphshow
37.428711 1.187500 m /k glyphshow
42.640625 1.187500 m /i glyphshow
45.141113 1.187500 m /parenleft glyphshow
48.652344 1.187500 m /zero glyphshow
54.378418 1.187500 m /parenright glyphshow
grestore
gsave
/o {
gsave
newpath
translate
0.5 setlinewidth
1 setlinejoin
0 setlinecap
0 0 m
4 0 l
gsave
0.000 setgray
fill
grestore
stroke
grestore
} bind def
45 53.1818 o
grestore
gsave
/o {
gsave
newpath
translate
0.5 setlinewidth
1 setlinejoin
0 setlinecap
0 0 m
-4 0 l
gsave
0.000 setgray
fill
grestore
stroke
grestore
} bind def
324 53.1818 o
grestore
gsave
20.687500 49.775568 translate
0.000000 rotate
0.000000 0.125000 m /minus glyphshow
7.541016 0.125000 m /one glyphshow
13.267090 0.125000 m /period glyphshow
16.127930 0.125000 m /zero glyphshow
grestore
gsave
/o {
gsave
newpath
translate
0.5 setlinewidth
1 setlinejoin
0 setlinecap
0 0 m
4 0 l
gsave
0.000 setgray
fill
grestore
stroke
grestore
} bind def
45 116.591 o
grestore
gsave
/o {
gsave
newpath
translate
0.5 setlinewidth
1 setlinejoin
0 setlinecap
0 0 m
-4 0 l
gsave
0.000 setgray
fill
grestore
stroke
grestore
} bind def
324 116.591 o
grestore
gsave
20.875000 113.184659 translate
0.000000 rotate
0.000000 0.125000 m /minus glyphshow
7.541016 0.125000 m /zero glyphshow
13.267090 0.125000 m /period glyphshow
16.127930 0.125000 m /five glyphshow
grestore
gsave
/o {
gsave
newpath
translate
0.5 setlinewidth
1 setlinejoin
0 setlinecap
0 0 m
4 0 l
gsave
0.000 setgray
fill
grestore
stroke
grestore
} bind def
45 180 o
grestore
gsave
/o {
gsave
newpath
translate
0.5 setlinewidth
1 setlinejoin
0 setlinecap
0 0 m
-4 0 l
gsave
0.000 setgray
fill
grestore
stroke
grestore
} bind def
324 180 o
grestore
gsave
27.875000 176.593750 translate
0.000000 rotate
0.000000 0.125000 m /zero glyphshow
5.726074 0.125000 m /period glyphshow
8.586914 0.125000 m /zero glyphshow
grestore
gsave
/o {
gsave
newpath
translate
0.5 setlinewidth
1 setlinejoin
0 setlinecap
0 0 m
4 0 l
gsave
0.000 setgray
fill
grestore
stroke
grestore
} bind def
45 243.409 o
grestore
gsave
/o {
gsave
newpath
translate
0.5 setlinewidth
1 setlinejoin
0 setlinecap
0 0 m
-4 0 l
gsave
0.000 setgray
fill
grestore
stroke
grestore
} bind def
324 243.409 o
grestore
gsave
28.062500 240.002841 translate
0.000000 rotate
0.000000 0.125000 m /zero glyphshow
5.726074 0.125000 m /period glyphshow
8.586914 0.125000 m /five glyphshow
grestore
gsave
/o {
gsave
newpath
translate
0.5 setlinewidth
1 setlinejoin
0 setlinecap
0 0 m
4 0 l
gsave
0.000 setgray
fill
grestore
stroke
grestore
} bind def
45 306.818 o
grestore
gsave
/o {
gsave
newpath
translate
0.5 setlinewidth
1 setlinejoin
0 setlinecap
0 0 m
-4 0 l
gsave
0.000 setgray
fill
grestore
stroke
grestore
} bind def
324 306.818 o
grestore
gsave
28.265625 303.411932 translate
0.000000 rotate
0.000000 0.125000 m /one glyphshow
5.726074 0.125000 m /period glyphshow
8.586914 0.125000 m /zero glyphshow
grestore
gsave
15.687500 151.882812 translate
90.000000 rotate
0.000000 1.187500 m /H glyphshow
6.767578 1.187500 m /o glyphshow
12.273926 1.187500 m /r glyphshow
15.724121 1.187500 m /o glyphshow
21.230469 1.187500 m /d glyphshow
26.943359 1.187500 m /e glyphshow
32.480469 1.187500 m /c glyphshow
37.428711 1.187500 m /k glyphshow
42.640625 1.187500 m /i glyphshow
45.141113 1.187500 m /parenleft glyphshow
48.652344 1.187500 m /one glyphshow
54.378418 1.187500 m /parenright glyphshow
grestore
1.000 setlinewidth
2 setlinecap
gsave
45 319.5 m
324 319.5 l
stroke
grestore
gsave
324 40.5 m
324 319.5 l
stroke
grestore
gsave
45 40.5 m
324 40.5 l
stroke
grestore
gsave
45 40.5 m
45 319.5 l
stroke
grestore

end
showpage
