%!PS-Adobe-3.0 EPSF-3.0
%%Title: ../../thesis/images/4l_2d_bloch//A.eps
%%Creator: matplotlib version 1.2.1, http://matplotlib.org/
%%CreationDate: Mon May 20 13:30:02 2013
%%Orientation: portrait
%%BoundingBox: 198 288 414 504
%%EndComments
%%BeginProlog
/mpldict 8 dict def
mpldict begin
/m { moveto } bind def
/l { lineto } bind def
/r { rlineto } bind def
/c { curveto } bind def
/cl { closepath } bind def
/box {
m
1 index 0 r
0 exch r
neg 0 r
cl
} bind def
/clipbox {
box
clip
newpath
} bind def
%!PS-Adobe-3.0 Resource-Font
%%Title: Bitstream Vera Sans
%%Copyright: Copyright (c) 2003 by Bitstream, Inc. All Rights Reserved.
%%Creator: Converted from TrueType to type 3 by PPR
25 dict begin
/_d{bind def}bind def
/_m{moveto}_d
/_l{lineto}_d
/_cl{closepath eofill}_d
/_c{curveto}_d
/_sc{7 -1 roll{setcachedevice}{pop pop pop pop pop pop}ifelse}_d
/_e{exec}_d
/FontName /BitstreamVeraSans-Roman def
/PaintType 0 def
/FontMatrix[.001 0 0 .001 0 0]def
/FontBBox[-183 -236 1287 928]def
/FontType 3 def
/Encoding [ /period /zero /one /five /minus ] def
/FontInfo 10 dict dup begin
/FamilyName (Bitstream Vera Sans) def
/FullName (Bitstream Vera Sans) def
/Notice (Copyright (c) 2003 by Bitstream, Inc. All Rights Reserved. Bitstream Vera is a trademark of Bitstream, Inc.) def
/Weight (Roman) def
/Version (Release 1.10) def
/ItalicAngle 0.0 def
/isFixedPitch false def
/UnderlinePosition -213 def
/UnderlineThickness 143 def
end readonly def
/CharStrings 5 dict dup begin
/period{318 0 107 0 210 124 _sc
107 124 _m
210 124 _l
210 0 _l
107 0 _l
107 124 _l
_cl}_d
/zero{636 0 66 -13 570 742 _sc
318 664 _m
267 664 229 639 203 589 _c
177 539 165 464 165 364 _c
165 264 177 189 203 139 _c
229 89 267 64 318 64 _c
369 64 407 89 433 139 _c
458 189 471 264 471 364 _c
471 464 458 539 433 589 _c
407 639 369 664 318 664 _c
318 742 _m
399 742 461 709 505 645 _c
548 580 570 486 570 364 _c
570 241 548 147 505 83 _c
461 19 399 -13 318 -13 _c
236 -13 173 19 130 83 _c
87 147 66 241 66 364 _c
66 486 87 580 130 645 _c
173 709 236 742 318 742 _c
_cl}_d
/one{636 0 110 0 544 729 _sc
124 83 _m
285 83 _l
285 639 _l
110 604 _l
110 694 _l
284 729 _l
383 729 _l
383 83 _l
544 83 _l
544 0 _l
124 0 _l
124 83 _l
_cl}_d
/five{{636 0 77 -13 549 729 _sc
108 729 _m
495 729 _l
495 646 _l
198 646 _l
198 467 _l
212 472 227 476 241 478 _c
255 480 270 482 284 482 _c
365 482 429 459 477 415 _c
525 370 549 310 549 234 _c
549 155 524 94 475 51 _c
426 8 357 -13 269 -13 _c
238 -13 207 -10 175 -6 _c
143 -1 111 6 77 17 _c
77 116 _l
106 100 136 88 168 80 _c
199 72 232 69 267 69 _c
}_e{323 69 368 83 401 113 _c
433 143 450 183 450 234 _c
450 284 433 324 401 354 _c
368 384 323 399 267 399 _c
241 399 214 396 188 390 _c
162 384 135 375 108 363 _c
108 729 _l
_cl}_e}_d
/minus{838 0 106 272 732 355 _sc
106 355 _m
732 355 _l
732 272 _l
106 272 _l
106 355 _l
_cl}_d
end readonly def

/BuildGlyph
 {exch begin
 CharStrings exch
 2 copy known not{pop /.notdef}if
 true 3 1 roll get exec
 end}_d

/BuildChar {
 1 index /Encoding get exch get
 1 index /BuildGlyph get exec
}_d

FontName currentdict end definefont pop
end
%%EndProlog
mpldict begin
198 288 translate
216 216 0 0 clipbox
gsave
0 0 m
216 0 l
216 216 l
0 216 l
cl
1.000 setgray
fill
grestore
gsave
27 24.3 m
194.4 24.3 l
194.4 191.7 l
27 191.7 l
cl
1.000 setgray
fill
grestore
2.000 setlinewidth
1 setlinejoin
2 setlinecap
[] 0 setdash
0.000 0.000 1.000 setrgbcolor
gsave
167.4 167.4 27 24.3 clipbox
141.764 108 m
141.762 108.381 l
141.755 108.762 l
141.743 109.143 l
141.727 109.524 l
141.706 109.905 l
141.68 110.285 l
141.65 110.665 l
141.615 111.045 l
141.575 111.424 l
141.531 111.803 l
141.482 112.181 l
141.428 112.558 l
141.37 112.935 l
141.307 113.311 l
141.239 113.686 l
141.167 114.06 l
141.091 114.434 l
141.009 114.806 l
140.924 115.178 l
140.833 115.548 l
140.738 115.917 l
140.639 116.285 l
140.535 116.652 l
140.427 117.017 l
140.314 117.382 l
140.196 117.744 l
140.075 118.105 l
139.948 118.465 l
139.818 118.823 l
139.683 119.18 l
139.543 119.535 l
139.4 119.888 l
139.252 120.239 l
139.099 120.588 l
138.943 120.936 l
138.782 121.282 l
138.617 121.625 l
138.447 121.967 l
138.274 122.306 l
138.096 122.644 l
137.914 122.979 l
137.729 123.311 l
137.539 123.642 l
137.345 123.97 l
137.147 124.296 l
136.945 124.619 l
136.739 124.94 l
136.529 125.258 l
136.315 125.574 l
136.098 125.887 l
135.876 126.197 l
135.651 126.505 l
135.422 126.81 l
135.189 127.112 l
134.953 127.411 l
134.713 127.707 l
134.469 128 l
134.222 128.29 l
133.971 128.577 l
133.717 128.861 l
133.459 129.142 l
133.198 129.42 l
132.934 129.694 l
132.666 129.966 l
132.394 130.234 l
132.12 130.498 l
131.842 130.759 l
131.561 131.017 l
131.277 131.271 l
130.99 131.522 l
130.7 131.769 l
130.407 132.013 l
130.111 132.253 l
129.812 132.489 l
129.51 132.722 l
129.205 132.951 l
128.897 133.176 l
128.587 133.398 l
128.274 133.615 l
127.958 133.829 l
127.64 134.039 l
127.319 134.245 l
126.996 134.447 l
126.67 134.645 l
126.342 134.839 l
126.011 135.029 l
125.679 135.214 l
125.344 135.396 l
125.006 135.574 l
124.667 135.747 l
124.325 135.917 l
123.982 136.082 l
123.636 136.243 l
123.288 136.399 l
122.939 136.552 l
122.588 136.7 l
122.235 136.843 l
121.88 136.983 l
121.523 137.118 l
121.165 137.248 l
120.805 137.375 l
120.444 137.496 l
120.082 137.614 l
119.717 137.727 l
119.352 137.835 l
118.985 137.939 l
118.617 138.038 l
118.248 138.133 l
117.878 138.224 l
117.506 138.309 l
117.134 138.391 l
116.76 138.467 l
116.386 138.539 l
116.011 138.607 l
115.635 138.67 l
115.258 138.728 l
114.881 138.782 l
114.503 138.831 l
114.124 138.875 l
113.745 138.915 l
113.365 138.95 l
112.985 138.98 l
112.605 139.006 l
112.224 139.027 l
111.843 139.043 l
111.462 139.055 l
111.081 139.062 l
110.7 139.064 l
110.319 139.062 l
109.938 139.055 l
109.557 139.043 l
109.176 139.027 l
108.795 139.006 l
108.415 138.98 l
108.035 138.95 l
107.655 138.915 l
107.276 138.875 l
106.897 138.831 l
106.519 138.782 l
106.142 138.728 l
105.765 138.67 l
105.389 138.607 l
105.014 138.539 l
104.64 138.467 l
104.266 138.391 l
103.894 138.309 l
103.522 138.224 l
103.152 138.133 l
102.783 138.038 l
102.415 137.939 l
102.048 137.835 l
101.683 137.727 l
101.318 137.614 l
100.956 137.496 l
100.595 137.375 l
100.235 137.248 l
99.8767 137.118 l
99.5202 136.983 l
99.1653 136.843 l
98.8123 136.7 l
98.461 136.552 l
98.1115 136.399 l
97.764 136.243 l
97.4184 136.082 l
97.0747 135.917 l
96.7332 135.747 l
96.3937 135.574 l
96.0564 135.396 l
95.7214 135.214 l
95.3885 135.029 l
95.058 134.839 l
94.7298 134.645 l
94.4041 134.447 l
94.0807 134.245 l
93.7599 134.039 l
93.4417 133.829 l
93.126 133.615 l
92.813 133.398 l
92.5027 133.176 l
92.1951 132.951 l
91.8903 132.722 l
91.5883 132.489 l
91.2893 132.253 l
90.9931 132.013 l
90.6999 131.769 l
90.4097 131.522 l
90.1226 131.271 l
89.8386 131.017 l
89.5577 130.759 l
89.28 130.498 l
89.0055 130.234 l
88.7343 129.966 l
88.4664 129.694 l
88.2019 129.42 l
87.9407 129.142 l
87.683 128.861 l
87.4287 128.577 l
87.1779 128.29 l
86.9307 128 l
86.6871 127.707 l
86.447 127.411 l
86.2107 127.112 l
85.978 126.81 l
85.749 126.505 l
85.5238 126.197 l
85.3024 125.887 l
85.0848 125.574 l
84.8711 125.258 l
84.6612 124.94 l
84.4553 124.619 l
84.2534 124.296 l
84.0554 123.97 l
83.8614 123.642 l
83.6715 123.311 l
83.4856 122.979 l
83.3038 122.644 l
83.1262 122.306 l
82.9527 121.967 l
82.7834 121.625 l
82.6183 121.282 l
82.4574 120.936 l
82.3008 120.588 l
82.1485 120.239 l
82.0004 119.888 l
81.8567 119.535 l
81.7173 119.18 l
81.5823 118.823 l
81.4517 118.465 l
81.3255 118.105 l
81.2037 117.744 l
81.0863 117.382 l
80.9734 117.017 l
80.865 116.652 l
80.7611 116.285 l
80.6617 115.917 l
80.5668 115.548 l
80.4764 115.178 l
80.3906 114.806 l
80.3094 114.434 l
80.2327 114.06 l
80.1606 113.686 l
80.0932 113.311 l
80.0303 112.935 l
79.972 112.558 l
79.9184 112.181 l
79.8694 111.803 l
79.8251 111.424 l
79.7854 111.045 l
79.7504 110.665 l
79.72 110.285 l
79.6943 109.905 l
79.6732 109.524 l
79.6569 109.143 l
79.6452 108.762 l
79.6382 108.381 l
79.6358 108 l
79.6382 107.619 l
79.6452 107.238 l
79.6569 106.857 l
79.6732 106.476 l
79.6943 106.095 l
79.72 105.715 l
79.7504 105.335 l
79.7854 104.955 l
79.8251 104.576 l
79.8694 104.197 l
79.9184 103.819 l
79.972 103.442 l
80.0303 103.065 l
80.0932 102.689 l
80.1606 102.314 l
80.2327 101.94 l
80.3094 101.566 l
80.3906 101.194 l
80.4764 100.822 l
80.5668 100.452 l
80.6617 100.083 l
80.7611 99.7148 l
80.865 99.348 l
80.9734 98.9825 l
81.0863 98.6184 l
81.2037 98.2557 l
81.3255 97.8945 l
81.4517 97.5348 l
81.5823 97.1767 l
81.7173 96.8202 l
81.8567 96.4653 l
82.0004 96.1123 l
82.1485 95.761 l
82.3008 95.4115 l
82.4574 95.064 l
82.6183 94.7184 l
82.7834 94.3747 l
82.9527 94.0332 l
83.1262 93.6937 l
83.3038 93.3564 l
83.4856 93.0214 l
83.6715 92.6885 l
83.8614 92.358 l
84.0554 92.0298 l
84.2534 91.7041 l
84.4553 91.3807 l
84.6612 91.0599 l
84.8711 90.7417 l
85.0848 90.426 l
85.3024 90.113 l
85.5238 89.8027 l
85.749 89.4951 l
85.978 89.1903 l
86.2107 88.8883 l
86.447 88.5893 l
86.6871 88.2931 l
86.9307 87.9999 l
87.1779 87.7097 l
87.4287 87.4226 l
87.683 87.1386 l
87.9407 86.8577 l
88.2019 86.58 l
88.4664 86.3055 l
88.7343 86.0343 l
89.0055 85.7664 l
89.28 85.5019 l
89.5577 85.2407 l
89.8386 84.983 l
90.1226 84.7287 l
90.4097 84.4779 l
90.6999 84.2307 l
90.9931 83.9871 l
91.2893 83.747 l
91.5883 83.5107 l
91.8903 83.278 l
92.1951 83.049 l
92.5027 82.8238 l
92.813 82.6024 l
93.126 82.3848 l
93.4417 82.1711 l
93.7599 81.9612 l
94.0807 81.7553 l
94.4041 81.5534 l
94.7298 81.3554 l
95.058 81.1614 l
95.3885 80.9715 l
95.7214 80.7856 l
96.0564 80.6038 l
96.3937 80.4262 l
96.7332 80.2527 l
97.0747 80.0834 l
97.4184 79.9183 l
97.764 79.7574 l
98.1115 79.6008 l
98.461 79.4485 l
98.8123 79.3004 l
99.1653 79.1567 l
99.5202 79.0173 l
99.8767 78.8823 l
100.235 78.7517 l
100.595 78.6255 l
100.956 78.5037 l
101.318 78.3863 l
101.683 78.2734 l
102.048 78.165 l
102.415 78.0611 l
102.783 77.9617 l
103.152 77.8668 l
103.522 77.7764 l
103.894 77.6906 l
104.266 77.6094 l
104.64 77.5327 l
105.014 77.4606 l
105.389 77.3932 l
105.765 77.3303 l
106.142 77.272 l
106.519 77.2184 l
106.897 77.1694 l
107.276 77.1251 l
107.655 77.0854 l
108.035 77.0504 l
108.415 77.02 l
108.795 76.9943 l
109.176 76.9732 l
109.557 76.9569 l
109.938 76.9452 l
110.319 76.9382 l
110.7 76.9358 l
111.081 76.9382 l
111.462 76.9452 l
111.843 76.9569 l
112.224 76.9732 l
112.605 76.9943 l
112.985 77.02 l
113.365 77.0504 l
113.745 77.0854 l
114.124 77.1251 l
114.503 77.1694 l
114.881 77.2184 l
115.258 77.272 l
115.635 77.3303 l
116.011 77.3932 l
116.386 77.4606 l
116.76 77.5327 l
117.134 77.6094 l
117.506 77.6906 l
117.878 77.7764 l
118.248 77.8668 l
118.617 77.9617 l
118.985 78.0611 l
119.352 78.165 l
119.717 78.2734 l
120.082 78.3863 l
120.444 78.5037 l
120.805 78.6255 l
121.165 78.7517 l
121.523 78.8823 l
121.88 79.0173 l
122.235 79.1567 l
122.588 79.3004 l
122.939 79.4485 l
123.288 79.6008 l
123.636 79.7574 l
123.982 79.9183 l
124.325 80.0834 l
124.667 80.2527 l
125.006 80.4262 l
125.344 80.6038 l
125.679 80.7856 l
126.011 80.9715 l
126.342 81.1614 l
126.67 81.3554 l
126.996 81.5534 l
127.319 81.7553 l
127.64 81.9612 l
127.958 82.1711 l
128.274 82.3848 l
128.587 82.6024 l
128.897 82.8238 l
129.205 83.049 l
129.51 83.278 l
129.812 83.5107 l
130.111 83.747 l
130.407 83.9871 l
130.7 84.2307 l
130.99 84.4779 l
131.277 84.7287 l
131.561 84.983 l
131.842 85.2407 l
132.12 85.5019 l
132.394 85.7664 l
132.666 86.0343 l
132.934 86.3055 l
133.198 86.58 l
133.459 86.8577 l
133.717 87.1386 l
133.971 87.4226 l
134.222 87.7097 l
134.469 87.9999 l
134.713 88.2931 l
134.953 88.5893 l
135.189 88.8883 l
135.422 89.1903 l
135.651 89.4951 l
135.876 89.8027 l
136.098 90.113 l
136.315 90.426 l
136.529 90.7417 l
136.739 91.0599 l
136.945 91.3807 l
137.147 91.7041 l
137.345 92.0298 l
137.539 92.358 l
137.729 92.6885 l
137.914 93.0214 l
138.096 93.3564 l
138.274 93.6937 l
138.447 94.0332 l
138.617 94.3747 l
138.782 94.7184 l
138.943 95.064 l
139.099 95.4115 l
139.252 95.761 l
139.4 96.1123 l
139.543 96.4653 l
139.683 96.8202 l
139.818 97.1767 l
139.948 97.5348 l
140.075 97.8945 l
140.196 98.2557 l
140.314 98.6184 l
140.427 98.9825 l
140.535 99.348 l
140.639 99.7148 l
140.738 100.083 l
140.833 100.452 l
140.924 100.822 l
141.009 101.194 l
141.091 101.566 l
141.167 101.94 l
141.239 102.314 l
141.307 102.689 l
141.37 103.065 l
141.428 103.442 l
141.482 103.819 l
141.531 104.197 l
141.575 104.576 l
141.615 104.955 l
141.65 105.335 l
141.68 105.715 l
141.706 106.095 l
141.727 106.476 l
141.743 106.857 l
141.755 107.238 l
141.762 107.619 l
141.764 108 l
cl
gsave
0.500 0.500 1.000 setrgbcolor
fill
grestore
stroke
grestore
1.000 setlinewidth
1.000 0.000 0.000 setrgbcolor
gsave
167.4 167.4 27 24.3 clipbox
186.791 108 m
186.425 115.458 l
185.329 122.845 l
183.514 130.088 l
180.999 137.119 l
177.806 143.869 l
173.967 150.274 l
169.519 156.272 l
164.504 161.804 l
158.972 166.819 l
152.974 171.267 l
146.569 175.106 l
139.819 178.299 l
132.788 180.814 l
125.545 182.629 l
118.158 183.725 l
110.7 184.091 l
103.242 183.725 l
95.8554 182.629 l
88.612 180.814 l
81.5813 178.299 l
74.831 175.106 l
68.4262 171.267 l
62.4284 166.819 l
56.8956 161.804 l
51.8809 156.272 l
47.4327 150.274 l
43.5938 143.869 l
40.4012 137.119 l
37.8855 130.088 l
36.0712 122.845 l
34.9755 115.458 l
34.6091 108 l
34.9755 100.542 l
36.0712 93.1554 l
37.8855 85.912 l
40.4012 78.8813 l
43.5938 72.131 l
47.4327 65.7262 l
51.8809 59.7284 l
56.8956 54.1956 l
62.4284 49.1809 l
68.4262 44.7327 l
74.831 40.8938 l
81.5813 37.7012 l
88.612 35.1855 l
95.8554 33.3712 l
103.242 32.2755 l
110.7 31.9091 l
118.158 32.2755 l
125.545 33.3712 l
132.788 35.1855 l
139.819 37.7012 l
146.569 40.8938 l
152.974 44.7327 l
158.972 49.1809 l
164.504 54.1956 l
169.519 59.7284 l
173.967 65.7262 l
177.806 72.131 l
180.999 78.8813 l
183.514 85.912 l
185.329 93.1554 l
186.425 100.542 l
186.791 108 l
stroke
grestore
0.750 0.750 0.000 setrgbcolor
gsave
167.4 167.4 27 24.3 clipbox
154.631 108 m
154.42 112.306 l
153.787 116.571 l
152.739 120.753 l
151.287 124.812 l
149.444 128.709 l
147.227 132.407 l
144.659 135.87 l
141.764 139.064 l
138.57 141.959 l
135.107 144.527 l
131.409 146.744 l
127.512 148.587 l
123.453 150.039 l
119.271 151.087 l
115.006 151.72 l
110.7 151.931 l
106.394 151.72 l
102.129 151.087 l
97.9475 150.039 l
93.8883 148.587 l
89.991 146.744 l
86.2932 144.527 l
82.8304 141.959 l
79.636 139.064 l
76.7408 135.87 l
74.1726 132.407 l
71.9562 128.709 l
70.1129 124.812 l
68.6606 120.753 l
67.613 116.571 l
66.9804 112.306 l
66.7689 108 l
66.9804 103.694 l
67.613 99.4295 l
68.6606 95.2475 l
70.1129 91.1883 l
71.9562 87.291 l
74.1726 83.5932 l
76.7408 80.1304 l
79.636 76.936 l
82.8304 74.0408 l
86.2932 71.4726 l
89.991 69.2562 l
93.8883 67.4129 l
97.9475 65.9606 l
102.129 64.913 l
106.394 64.2804 l
110.7 64.0689 l
115.006 64.2804 l
119.271 64.913 l
123.453 65.9606 l
127.512 67.4129 l
131.409 69.2562 l
135.107 71.4726 l
138.57 74.0408 l
141.764 76.936 l
144.659 80.1304 l
147.227 83.5932 l
149.444 87.291 l
151.287 91.1883 l
152.739 95.2475 l
153.787 99.4295 l
154.42 103.694 l
154.631 108 l
stroke
grestore
gsave
167.4 167.4 27 24.3 clipbox
164.504 108 m
164.245 113.274 l
163.471 118.497 l
162.188 123.619 l
160.409 128.59 l
158.151 133.363 l
155.437 137.892 l
152.291 142.133 l
148.745 146.045 l
144.833 149.591 l
140.592 152.737 l
136.063 155.451 l
131.29 157.709 l
126.319 159.488 l
121.197 160.771 l
115.974 161.545 l
110.7 161.804 l
105.426 161.545 l
100.203 160.771 l
95.0814 159.488 l
90.1099 157.709 l
85.3368 155.451 l
80.8079 152.737 l
76.5669 149.591 l
72.6545 146.045 l
69.1086 142.133 l
65.9633 137.892 l
63.2488 133.363 l
60.9912 128.59 l
59.2124 123.619 l
57.9294 118.497 l
57.1547 113.274 l
56.8956 108 l
57.1547 102.726 l
57.9294 97.5033 l
59.2124 92.3814 l
60.9912 87.4099 l
63.2488 82.6368 l
65.9633 78.1079 l
69.1086 73.8669 l
72.6545 69.9545 l
76.5669 66.4086 l
80.8079 63.2633 l
85.3368 60.5488 l
90.1099 58.2912 l
95.0814 56.5124 l
100.203 55.2294 l
105.426 54.4547 l
110.7 54.1956 l
115.974 54.4547 l
121.197 55.2294 l
126.319 56.5124 l
131.29 58.2912 l
136.063 60.5488 l
140.592 63.2633 l
144.833 66.4086 l
148.745 69.9545 l
152.291 73.8669 l
155.437 78.1079 l
158.151 82.6368 l
160.409 87.4099 l
162.188 92.3814 l
163.471 97.5033 l
164.245 102.726 l
164.504 108 l
stroke
grestore
gsave
167.4 167.4 27 24.3 clipbox
141.764 108 m
141.614 111.045 l
141.167 114.06 l
140.426 117.017 l
139.399 119.888 l
138.096 122.643 l
136.529 125.258 l
134.713 127.707 l
132.666 129.966 l
130.407 132.013 l
127.958 133.829 l
125.343 135.396 l
122.588 136.699 l
119.717 137.726 l
116.76 138.467 l
113.745 138.914 l
110.7 139.064 l
107.655 138.914 l
104.64 138.467 l
101.683 137.726 l
98.8123 136.699 l
96.0565 135.396 l
93.4418 133.829 l
90.9932 132.013 l
88.7344 129.966 l
86.6872 127.707 l
84.8712 125.258 l
83.304 122.643 l
82.0006 119.888 l
80.9736 117.017 l
80.2329 114.06 l
79.7856 111.045 l
79.636 108 l
79.7856 104.955 l
80.2329 101.94 l
80.9736 98.9826 l
82.0006 96.1123 l
83.304 93.3565 l
84.8712 90.7418 l
86.6872 88.2932 l
88.7344 86.0344 l
90.9932 83.9872 l
93.4418 82.1712 l
96.0565 80.604 l
98.8123 79.3006 l
101.683 78.2736 l
104.64 77.5329 l
107.655 77.0856 l
110.7 76.936 l
113.745 77.0856 l
116.76 77.5329 l
119.717 78.2736 l
122.588 79.3006 l
125.343 80.604 l
127.958 82.1712 l
130.407 83.9872 l
132.666 86.0344 l
134.713 88.2932 l
136.529 90.7418 l
138.096 93.3565 l
139.399 96.1123 l
140.426 98.9826 l
141.167 101.94 l
141.614 104.955 l
141.764 108 l
stroke
grestore
0.000 0.500 0.000 setrgbcolor
gsave
167.4 167.4 27 24.3 clipbox
136.064 108 m
135.942 110.486 l
135.576 112.948 l
134.971 115.363 l
134.133 117.706 l
133.069 119.956 l
131.789 122.091 l
130.306 124.091 l
128.635 125.935 l
126.791 127.606 l
124.791 129.089 l
122.656 130.369 l
120.406 131.433 l
118.063 132.271 l
115.648 132.876 l
113.186 133.242 l
110.7 133.364 l
108.214 133.242 l
105.752 132.876 l
103.337 132.271 l
100.994 131.433 l
98.7437 130.369 l
96.6087 129.089 l
94.6095 127.606 l
92.7652 125.935 l
91.0936 124.091 l
89.6109 122.091 l
88.3313 119.956 l
87.2671 117.706 l
86.4285 115.363 l
85.8237 112.948 l
85.4585 110.486 l
85.3364 108 l
85.4585 105.514 l
85.8237 103.052 l
86.4285 100.637 l
87.2671 98.2938 l
88.3313 96.0437 l
89.6109 93.9087 l
91.0936 91.9095 l
92.7652 90.0652 l
94.6095 88.3936 l
96.6087 86.9109 l
98.7437 85.6313 l
100.994 84.5671 l
103.337 83.7285 l
105.752 83.1237 l
108.214 82.7585 l
110.7 82.6364 l
113.186 82.7585 l
115.648 83.1237 l
118.063 83.7285 l
120.406 84.5671 l
122.656 85.6313 l
124.791 86.9109 l
126.791 88.3936 l
128.635 90.0652 l
130.306 91.9095 l
131.789 93.9087 l
133.069 96.0437 l
134.133 98.2938 l
134.971 100.637 l
135.576 103.052 l
135.942 105.514 l
136.064 108 l
stroke
grestore
0.500 setlinewidth
0 setlinecap
0.000 setgray
gsave
/o {
gsave
newpath
translate
0.5 setlinewidth
1 setlinejoin
0 setlinecap
0 0 m
0 4 l
gsave
0.000 setgray
fill
grestore
stroke
grestore
} bind def
34.6091 24.3 o
grestore
gsave
/o {
gsave
newpath
translate
0.5 setlinewidth
1 setlinejoin
0 setlinecap
0 0 m
0 -4 l
gsave
0.000 setgray
fill
grestore
stroke
grestore
} bind def
34.6091 191.7 o
grestore
/BitstreamVeraSans-Roman findfont
9.000 scalefont
setfont
gsave
24.452841 13.487500 translate
0.000000 rotate
0.000000 0.125000 m /minus glyphshow
7.541016 0.125000 m /one glyphshow
13.267090 0.125000 m /period glyphshow
16.127930 0.125000 m /zero glyphshow
grestore
gsave
/o {
gsave
newpath
translate
0.5 setlinewidth
1 setlinejoin
0 setlinecap
0 0 m
0 4 l
gsave
0.000 setgray
fill
grestore
stroke
grestore
} bind def
72.6545 24.3 o
grestore
gsave
/o {
gsave
newpath
translate
0.5 setlinewidth
1 setlinejoin
0 setlinecap
0 0 m
0 -4 l
gsave
0.000 setgray
fill
grestore
stroke
grestore
} bind def
72.6545 191.7 o
grestore
gsave
62.592045 13.487500 translate
0.000000 rotate
0.000000 0.125000 m /minus glyphshow
7.541016 0.125000 m /zero glyphshow
13.267090 0.125000 m /period glyphshow
16.127930 0.125000 m /five glyphshow
grestore
gsave
/o {
gsave
newpath
translate
0.5 setlinewidth
1 setlinejoin
0 setlinecap
0 0 m
0 4 l
gsave
0.000 setgray
fill
grestore
stroke
grestore
} bind def
110.7 24.3 o
grestore
gsave
/o {
gsave
newpath
translate
0.5 setlinewidth
1 setlinejoin
0 setlinecap
0 0 m
0 -4 l
gsave
0.000 setgray
fill
grestore
stroke
grestore
} bind def
110.7 191.7 o
grestore
gsave
104.137500 13.487500 translate
0.000000 rotate
0.000000 0.125000 m /zero glyphshow
5.726074 0.125000 m /period glyphshow
8.586914 0.125000 m /zero glyphshow
grestore
gsave
/o {
gsave
newpath
translate
0.5 setlinewidth
1 setlinejoin
0 setlinecap
0 0 m
0 4 l
gsave
0.000 setgray
fill
grestore
stroke
grestore
} bind def
148.745 24.3 o
grestore
gsave
/o {
gsave
newpath
translate
0.5 setlinewidth
1 setlinejoin
0 setlinecap
0 0 m
0 -4 l
gsave
0.000 setgray
fill
grestore
stroke
grestore
} bind def
148.745 191.7 o
grestore
gsave
142.276705 13.487500 translate
0.000000 rotate
0.000000 0.125000 m /zero glyphshow
5.726074 0.125000 m /period glyphshow
8.586914 0.125000 m /five glyphshow
grestore
gsave
/o {
gsave
newpath
translate
0.5 setlinewidth
1 setlinejoin
0 setlinecap
0 0 m
0 4 l
gsave
0.000 setgray
fill
grestore
stroke
grestore
} bind def
186.791 24.3 o
grestore
gsave
/o {
gsave
newpath
translate
0.5 setlinewidth
1 setlinejoin
0 setlinecap
0 0 m
0 -4 l
gsave
0.000 setgray
fill
grestore
stroke
grestore
} bind def
186.791 191.7 o
grestore
gsave
180.423722 13.487500 translate
0.000000 rotate
0.000000 0.125000 m /one glyphshow
5.726074 0.125000 m /period glyphshow
8.586914 0.125000 m /zero glyphshow
grestore
gsave
/o {
gsave
newpath
translate
0.5 setlinewidth
1 setlinejoin
0 setlinecap
0 0 m
4 0 l
gsave
0.000 setgray
fill
grestore
stroke
grestore
} bind def
27 31.9091 o
grestore
gsave
/o {
gsave
newpath
translate
0.5 setlinewidth
1 setlinejoin
0 setlinecap
0 0 m
-4 0 l
gsave
0.000 setgray
fill
grestore
stroke
grestore
} bind def
194.4 31.9091 o
grestore
gsave
2.687500 28.502841 translate
0.000000 rotate
0.000000 0.125000 m /minus glyphshow
7.541016 0.125000 m /one glyphshow
13.267090 0.125000 m /period glyphshow
16.127930 0.125000 m /zero glyphshow
grestore
gsave
/o {
gsave
newpath
translate
0.5 setlinewidth
1 setlinejoin
0 setlinecap
0 0 m
4 0 l
gsave
0.000 setgray
fill
grestore
stroke
grestore
} bind def
27 69.9545 o
grestore
gsave
/o {
gsave
newpath
translate
0.5 setlinewidth
1 setlinejoin
0 setlinecap
0 0 m
-4 0 l
gsave
0.000 setgray
fill
grestore
stroke
grestore
} bind def
194.4 69.9545 o
grestore
gsave
2.875000 66.548295 translate
0.000000 rotate
0.000000 0.125000 m /minus glyphshow
7.541016 0.125000 m /zero glyphshow
13.267090 0.125000 m /period glyphshow
16.127930 0.125000 m /five glyphshow
grestore
gsave
/o {
gsave
newpath
translate
0.5 setlinewidth
1 setlinejoin
0 setlinecap
0 0 m
4 0 l
gsave
0.000 setgray
fill
grestore
stroke
grestore
} bind def
27 108 o
grestore
gsave
/o {
gsave
newpath
translate
0.5 setlinewidth
1 setlinejoin
0 setlinecap
0 0 m
-4 0 l
gsave
0.000 setgray
fill
grestore
stroke
grestore
} bind def
194.4 108 o
grestore
gsave
9.875000 104.593750 translate
0.000000 rotate
0.000000 0.125000 m /zero glyphshow
5.726074 0.125000 m /period glyphshow
8.586914 0.125000 m /zero glyphshow
grestore
gsave
/o {
gsave
newpath
translate
0.5 setlinewidth
1 setlinejoin
0 setlinecap
0 0 m
4 0 l
gsave
0.000 setgray
fill
grestore
stroke
grestore
} bind def
27 146.045 o
grestore
gsave
/o {
gsave
newpath
translate
0.5 setlinewidth
1 setlinejoin
0 setlinecap
0 0 m
-4 0 l
gsave
0.000 setgray
fill
grestore
stroke
grestore
} bind def
194.4 146.045 o
grestore
gsave
10.062500 142.639205 translate
0.000000 rotate
0.000000 0.125000 m /zero glyphshow
5.726074 0.125000 m /period glyphshow
8.586914 0.125000 m /five glyphshow
grestore
gsave
/o {
gsave
newpath
translate
0.5 setlinewidth
1 setlinejoin
0 setlinecap
0 0 m
4 0 l
gsave
0.000 setgray
fill
grestore
stroke
grestore
} bind def
27 184.091 o
grestore
gsave
/o {
gsave
newpath
translate
0.5 setlinewidth
1 setlinejoin
0 setlinecap
0 0 m
-4 0 l
gsave
0.000 setgray
fill
grestore
stroke
grestore
} bind def
194.4 184.091 o
grestore
gsave
10.265625 180.684659 translate
0.000000 rotate
0.000000 0.125000 m /one glyphshow
5.726074 0.125000 m /period glyphshow
8.586914 0.125000 m /zero glyphshow
grestore
1.000 setlinewidth
2 setlinecap
gsave
27 191.7 m
194.4 191.7 l
stroke
grestore
gsave
194.4 24.3 m
194.4 191.7 l
stroke
grestore
gsave
27 24.3 m
194.4 24.3 l
stroke
grestore
gsave
27 24.3 m
27 191.7 l
stroke
grestore

end
showpage
