%!PS-Adobe-3.0 EPSF-3.0
%%Title: ../../thesis/images/4l_2d_bloch//C.eps
%%Creator: matplotlib version 1.2.1, http://matplotlib.org/
%%CreationDate: Mon May 20 13:30:06 2013
%%Orientation: portrait
%%BoundingBox: 198 288 414 504
%%EndComments
%%BeginProlog
/mpldict 8 dict def
mpldict begin
/m { moveto } bind def
/l { lineto } bind def
/r { rlineto } bind def
/c { curveto } bind def
/cl { closepath } bind def
/box {
m
1 index 0 r
0 exch r
neg 0 r
cl
} bind def
/clipbox {
box
clip
newpath
} bind def
%!PS-Adobe-3.0 Resource-Font
%%Title: Bitstream Vera Sans
%%Copyright: Copyright (c) 2003 by Bitstream, Inc. All Rights Reserved.
%%Creator: Converted from TrueType to type 3 by PPR
25 dict begin
/_d{bind def}bind def
/_m{moveto}_d
/_l{lineto}_d
/_cl{closepath eofill}_d
/_c{curveto}_d
/_sc{7 -1 roll{setcachedevice}{pop pop pop pop pop pop}ifelse}_d
/_e{exec}_d
/FontName /BitstreamVeraSans-Roman def
/PaintType 0 def
/FontMatrix[.001 0 0 .001 0 0]def
/FontBBox[-183 -236 1287 928]def
/FontType 3 def
/Encoding [ /period /zero /one /five /minus ] def
/FontInfo 10 dict dup begin
/FamilyName (Bitstream Vera Sans) def
/FullName (Bitstream Vera Sans) def
/Notice (Copyright (c) 2003 by Bitstream, Inc. All Rights Reserved. Bitstream Vera is a trademark of Bitstream, Inc.) def
/Weight (Roman) def
/Version (Release 1.10) def
/ItalicAngle 0.0 def
/isFixedPitch false def
/UnderlinePosition -213 def
/UnderlineThickness 143 def
end readonly def
/CharStrings 5 dict dup begin
/period{318 0 107 0 210 124 _sc
107 124 _m
210 124 _l
210 0 _l
107 0 _l
107 124 _l
_cl}_d
/zero{636 0 66 -13 570 742 _sc
318 664 _m
267 664 229 639 203 589 _c
177 539 165 464 165 364 _c
165 264 177 189 203 139 _c
229 89 267 64 318 64 _c
369 64 407 89 433 139 _c
458 189 471 264 471 364 _c
471 464 458 539 433 589 _c
407 639 369 664 318 664 _c
318 742 _m
399 742 461 709 505 645 _c
548 580 570 486 570 364 _c
570 241 548 147 505 83 _c
461 19 399 -13 318 -13 _c
236 -13 173 19 130 83 _c
87 147 66 241 66 364 _c
66 486 87 580 130 645 _c
173 709 236 742 318 742 _c
_cl}_d
/one{636 0 110 0 544 729 _sc
124 83 _m
285 83 _l
285 639 _l
110 604 _l
110 694 _l
284 729 _l
383 729 _l
383 83 _l
544 83 _l
544 0 _l
124 0 _l
124 83 _l
_cl}_d
/five{{636 0 77 -13 549 729 _sc
108 729 _m
495 729 _l
495 646 _l
198 646 _l
198 467 _l
212 472 227 476 241 478 _c
255 480 270 482 284 482 _c
365 482 429 459 477 415 _c
525 370 549 310 549 234 _c
549 155 524 94 475 51 _c
426 8 357 -13 269 -13 _c
238 -13 207 -10 175 -6 _c
143 -1 111 6 77 17 _c
77 116 _l
106 100 136 88 168 80 _c
199 72 232 69 267 69 _c
}_e{323 69 368 83 401 113 _c
433 143 450 183 450 234 _c
450 284 433 324 401 354 _c
368 384 323 399 267 399 _c
241 399 214 396 188 390 _c
162 384 135 375 108 363 _c
108 729 _l
_cl}_e}_d
/minus{838 0 106 272 732 355 _sc
106 355 _m
732 355 _l
732 272 _l
106 272 _l
106 355 _l
_cl}_d
end readonly def

/BuildGlyph
 {exch begin
 CharStrings exch
 2 copy known not{pop /.notdef}if
 true 3 1 roll get exec
 end}_d

/BuildChar {
 1 index /Encoding get exch get
 1 index /BuildGlyph get exec
}_d

FontName currentdict end definefont pop
end
%%EndProlog
mpldict begin
198 288 translate
216 216 0 0 clipbox
gsave
0 0 m
216 0 l
216 216 l
0 216 l
cl
1.000 setgray
fill
grestore
gsave
27 24.3 m
194.4 24.3 l
194.4 191.7 l
27 191.7 l
cl
1.000 setgray
fill
grestore
2.000 setlinewidth
1 setlinejoin
2 setlinecap
[] 0 setdash
0.000 0.000 1.000 setrgbcolor
gsave
167.4 167.4 27 24.3 clipbox
141.764 108 m
141.921 108.383 l
142.079 108.77 l
142.238 109.162 l
142.4 109.557 l
142.563 109.958 l
142.729 110.363 l
142.896 110.773 l
143.065 111.188 l
143.237 111.608 l
143.411 112.035 l
143.588 112.467 l
143.767 112.905 l
143.948 113.35 l
144.132 113.801 l
144.32 114.259 l
144.51 114.725 l
144.703 115.198 l
144.899 115.68 l
145.099 116.169 l
145.303 116.667 l
145.51 117.175 l
145.721 117.691 l
145.936 118.218 l
146.155 118.755 l
146.378 119.303 l
146.607 119.862 l
146.84 120.433 l
147.078 121.016 l
147.321 121.613 l
147.57 122.223 l
147.825 122.847 l
148.086 123.486 l
148.354 124.141 l
148.628 124.812 l
148.909 125.501 l
149.197 126.208 l
149.494 126.934 l
149.799 127.681 l
150.112 128.448 l
150.435 129.239 l
150.767 130.053 l
151.11 130.892 l
151.463 131.757 l
151.828 132.651 l
151.863 133.364 l
150.754 133.364 l
149.687 133.364 l
148.659 133.364 l
147.669 133.364 l
146.714 133.364 l
145.791 133.364 l
144.899 133.364 l
144.036 133.364 l
143.201 133.364 l
142.391 133.364 l
141.606 133.364 l
140.844 133.364 l
140.104 133.364 l
139.384 133.364 l
138.685 133.364 l
138.004 133.364 l
137.34 133.364 l
136.694 133.364 l
136.064 133.364 l
135.449 133.364 l
134.848 133.364 l
134.262 133.364 l
133.688 133.364 l
133.128 133.364 l
132.579 133.364 l
132.042 133.364 l
131.515 133.364 l
131 133.364 l
130.494 133.364 l
129.998 133.364 l
129.511 133.364 l
129.033 133.364 l
128.563 133.364 l
128.101 133.364 l
127.647 133.364 l
127.201 133.364 l
126.761 133.364 l
126.329 133.364 l
125.902 133.364 l
125.482 133.364 l
125.068 133.364 l
124.66 133.364 l
124.257 133.364 l
123.86 133.364 l
123.467 133.364 l
123.079 133.364 l
122.696 133.364 l
122.317 133.364 l
121.943 133.364 l
121.573 133.364 l
121.206 133.364 l
120.843 133.364 l
120.484 133.364 l
120.128 133.364 l
119.775 133.364 l
119.426 133.364 l
119.079 133.364 l
118.735 133.364 l
118.394 133.364 l
118.055 133.364 l
117.719 133.364 l
117.385 133.364 l
117.053 133.364 l
116.723 133.364 l
116.396 133.364 l
116.07 133.364 l
115.745 133.364 l
115.422 133.364 l
115.101 133.364 l
114.781 133.364 l
114.462 133.364 l
114.145 133.364 l
113.828 133.364 l
113.513 133.364 l
113.198 133.364 l
112.884 133.364 l
112.571 133.364 l
112.258 133.364 l
111.946 133.364 l
111.634 133.364 l
111.323 133.364 l
111.011 133.364 l
110.7 133.364 l
110.389 133.364 l
110.077 133.364 l
109.766 133.364 l
109.454 133.364 l
109.142 133.364 l
108.829 133.364 l
108.516 133.364 l
108.202 133.364 l
107.887 133.364 l
107.572 133.364 l
107.255 133.364 l
106.938 133.364 l
106.619 133.364 l
106.299 133.364 l
105.978 133.364 l
105.655 133.364 l
105.33 133.364 l
105.004 133.364 l
104.677 133.364 l
104.347 133.364 l
104.015 133.364 l
103.681 133.364 l
103.345 133.364 l
103.006 133.364 l
102.665 133.364 l
102.321 133.364 l
101.974 133.364 l
101.625 133.364 l
101.272 133.364 l
100.916 133.364 l
100.557 133.364 l
100.194 133.364 l
99.8275 133.364 l
99.457 133.364 l
99.0825 133.364 l
98.7039 133.364 l
98.3207 133.364 l
97.933 133.364 l
97.5404 133.364 l
97.1428 133.364 l
96.74 133.364 l
96.3316 133.364 l
95.9176 133.364 l
95.4976 133.364 l
95.0713 133.364 l
94.6386 133.364 l
94.1991 133.364 l
93.7525 133.364 l
93.2986 133.364 l
92.8368 133.364 l
92.3671 133.364 l
91.889 133.364 l
91.402 133.364 l
90.9059 133.364 l
90.4003 133.364 l
89.8845 133.364 l
89.3583 133.364 l
88.8211 133.364 l
88.2724 133.364 l
87.7117 133.364 l
87.1383 133.364 l
86.5517 133.364 l
85.9513 133.364 l
85.3363 133.364 l
84.706 133.364 l
84.0596 133.364 l
83.3965 133.364 l
82.7155 133.364 l
82.0157 133.364 l
81.2963 133.364 l
80.5562 133.364 l
79.7942 133.364 l
79.009 133.364 l
78.1994 133.364 l
77.3639 133.364 l
76.501 133.364 l
75.6091 133.364 l
74.6864 133.364 l
73.7309 133.364 l
72.7406 133.364 l
71.7132 133.364 l
70.6464 133.364 l
69.5373 133.364 l
69.5722 132.651 l
69.9371 131.757 l
70.2904 130.892 l
70.6331 130.053 l
70.9653 129.239 l
71.2879 128.448 l
71.6013 127.681 l
71.9061 126.934 l
72.2027 126.208 l
72.4912 125.501 l
72.7725 124.812 l
73.0464 124.141 l
73.3138 123.486 l
73.5749 122.847 l
73.8296 122.223 l
74.0786 121.613 l
74.3222 121.016 l
74.5602 120.433 l
74.7934 119.862 l
75.0216 119.303 l
75.2452 118.755 l
75.4644 118.218 l
75.6794 117.691 l
75.8903 117.175 l
76.0975 116.667 l
76.3009 116.169 l
76.5008 115.68 l
76.6971 115.198 l
76.8904 114.725 l
77.0805 114.259 l
77.2676 113.801 l
77.452 113.35 l
77.6334 112.905 l
77.8124 112.467 l
77.9889 112.035 l
78.1629 111.608 l
78.3345 111.188 l
78.5041 110.773 l
78.6714 110.363 l
78.8366 109.958 l
79.0001 109.557 l
79.1617 109.162 l
79.3213 108.77 l
79.4795 108.383 l
79.6358 108 l
79.7908 107.621 l
79.9442 107.245 l
80.0961 106.873 l
80.2466 106.504 l
80.3959 106.138 l
80.5439 105.776 l
80.6908 105.416 l
80.8366 105.059 l
80.9814 104.704 l
81.125 104.352 l
81.2677 104.003 l
81.4097 103.655 l
81.5507 103.31 l
81.6909 102.966 l
81.8302 102.625 l
81.969 102.285 l
82.1071 101.947 l
82.2445 101.61 l
82.3814 101.275 l
82.5178 100.941 l
82.6537 100.608 l
82.7891 100.276 l
82.9243 99.9452 l
83.059 99.6152 l
83.1934 99.286 l
83.3276 98.9574 l
83.4615 98.6293 l
83.5951 98.3017 l
83.7288 97.9745 l
83.8622 97.6475 l
83.9957 97.3207 l
84.1292 96.994 l
84.2624 96.6671 l
84.3959 96.3402 l
84.5295 96.013 l
84.6632 95.6855 l
84.7971 95.3576 l
84.9313 95.0291 l
85.0655 94.6999 l
85.2003 94.3701 l
85.3352 94.0394 l
85.4707 93.7078 l
85.6064 93.375 l
85.7428 93.0412 l
85.8795 92.7061 l
86.017 92.3697 l
86.155 92.0317 l
86.2936 91.6922 l
86.4329 91.3509 l
86.5729 91.0078 l
86.7139 90.6628 l
86.8555 90.3157 l
86.9981 89.9664 l
87.1415 89.6148 l
87.2862 89.2608 l
87.4317 88.9042 l
87.5784 88.5448 l
87.7262 88.1827 l
87.8754 87.8176 l
88.0257 87.4492 l
88.1774 87.0776 l
88.3305 86.7025 l
88.4851 86.3238 l
88.6413 85.9413 l
88.7991 85.5548 l
88.9586 85.1643 l
89.1199 84.7694 l
89.2829 84.3699 l
89.4479 83.9656 l
89.6149 83.5565 l
89.7841 83.1423 l
89.9554 82.7226 l
90.1291 82.2974 l
90.305 81.8662 l
90.4835 81.429 l
90.6646 80.9854 l
90.8484 80.5351 l
91.035 80.0778 l
91.2247 79.6135 l
91.4174 79.1415 l
91.6133 78.6616 l
91.8125 78.1734 l
92.0153 77.6766 l
92.2218 77.171 l
92.4321 76.6558 l
92.6464 76.1309 l
92.8649 75.5958 l
93.0878 75.0499 l
93.3152 74.4927 l
93.5475 73.9239 l
93.7848 73.3427 l
94.0272 72.7484 l
94.2753 72.1409 l
94.5292 71.5192 l
94.7891 70.8827 l
95.0553 70.2304 l
95.3283 69.5618 l
95.6082 68.876 l
95.8956 68.1722 l
96.1907 67.4493 l
96.494 66.7062 l
96.806 65.9421 l
97.127 65.1557 l
97.4577 64.3459 l
97.7985 63.5112 l
98.15 62.65 l
98.5128 61.7611 l
98.8877 60.8428 l
99.2754 59.8934 l
99.6766 58.9105 l
100.092 57.8926 l
100.523 56.8371 l
100.97 55.7417 l
101.435 54.6037 l
101.918 53.4202 l
102.421 52.188 l
102.945 50.9037 l
103.493 49.5636 l
104.064 48.1631 l
104.662 46.6981 l
105.289 45.1635 l
105.946 43.5535 l
106.637 41.8618 l
107.363 40.082 l
108.129 38.2057 l
108.938 36.2249 l
109.793 34.1296 l
110.7 31.9089 l
111.607 34.1296 l
112.462 36.2249 l
113.271 38.2057 l
114.037 40.082 l
114.763 41.8618 l
115.454 43.5535 l
116.111 45.1635 l
116.738 46.6981 l
117.336 48.1631 l
117.907 49.5636 l
118.455 50.9037 l
118.979 52.188 l
119.482 53.4202 l
119.965 54.6037 l
120.43 55.7417 l
120.877 56.8371 l
121.308 57.8926 l
121.723 58.9105 l
122.125 59.8934 l
122.512 60.8428 l
122.887 61.7611 l
123.25 62.65 l
123.602 63.5112 l
123.942 64.3459 l
124.273 65.1557 l
124.594 65.9421 l
124.906 66.7062 l
125.209 67.4493 l
125.504 68.1722 l
125.792 68.876 l
126.072 69.5618 l
126.345 70.2304 l
126.611 70.8827 l
126.871 71.5192 l
127.125 72.1409 l
127.373 72.7484 l
127.615 73.3427 l
127.852 73.9239 l
128.085 74.4927 l
128.312 75.0499 l
128.535 75.5958 l
128.754 76.1309 l
128.968 76.6558 l
129.178 77.171 l
129.385 77.6766 l
129.587 78.1734 l
129.787 78.6616 l
129.983 79.1415 l
130.175 79.6135 l
130.365 80.0778 l
130.552 80.5351 l
130.735 80.9854 l
130.916 81.429 l
131.095 81.8662 l
131.271 82.2974 l
131.445 82.7226 l
131.616 83.1423 l
131.785 83.5565 l
131.952 83.9656 l
132.117 84.3699 l
132.28 84.7694 l
132.441 85.1643 l
132.601 85.5548 l
132.759 85.9413 l
132.915 86.3238 l
133.069 86.7025 l
133.223 87.0776 l
133.374 87.4492 l
133.525 87.8176 l
133.674 88.1827 l
133.822 88.5448 l
133.968 88.9042 l
134.114 89.2608 l
134.258 89.6148 l
134.402 89.9664 l
134.544 90.3157 l
134.686 90.6628 l
134.827 91.0078 l
134.967 91.3509 l
135.106 91.6922 l
135.245 92.0317 l
135.383 92.3697 l
135.52 92.7061 l
135.657 93.0412 l
135.794 93.375 l
135.929 93.7078 l
136.065 94.0394 l
136.2 94.3701 l
136.334 94.6999 l
136.469 95.0291 l
136.603 95.3576 l
136.737 95.6855 l
136.87 96.013 l
137.004 96.3402 l
137.138 96.6671 l
137.271 96.994 l
137.404 97.3207 l
137.538 97.6475 l
137.671 97.9745 l
137.805 98.3017 l
137.939 98.6293 l
138.072 98.9574 l
138.207 99.286 l
138.341 99.6152 l
138.476 99.9452 l
138.611 100.276 l
138.746 100.608 l
138.882 100.941 l
139.019 101.275 l
139.155 101.61 l
139.293 101.947 l
139.431 102.285 l
139.57 102.625 l
139.709 102.966 l
139.849 103.31 l
139.99 103.655 l
140.132 104.003 l
140.275 104.352 l
140.419 104.704 l
140.563 105.059 l
140.709 105.416 l
140.856 105.776 l
141.004 106.138 l
141.153 106.504 l
141.304 106.873 l
141.456 107.245 l
141.609 107.621 l
141.764 108 l
cl
gsave
0.500 0.500 1.000 setrgbcolor
fill
grestore
stroke
grestore
1.000 setlinewidth
1.000 0.000 0.000 setrgbcolor
gsave
167.4 167.4 27 24.3 clipbox
186.791 108 m
186.425 115.458 l
185.329 122.845 l
183.514 130.088 l
180.999 137.119 l
177.806 143.869 l
173.967 150.274 l
169.519 156.272 l
164.504 161.804 l
158.972 166.819 l
152.974 171.267 l
146.569 175.106 l
139.819 178.299 l
132.788 180.814 l
125.545 182.629 l
118.158 183.725 l
110.7 184.091 l
103.242 183.725 l
95.8554 182.629 l
88.612 180.814 l
81.5813 178.299 l
74.831 175.106 l
68.4262 171.267 l
62.4284 166.819 l
56.8956 161.804 l
51.8809 156.272 l
47.4327 150.274 l
43.5938 143.869 l
40.4012 137.119 l
37.8855 130.088 l
36.0712 122.845 l
34.9755 115.458 l
34.6091 108 l
34.9755 100.542 l
36.0712 93.1554 l
37.8855 85.912 l
40.4012 78.8813 l
43.5938 72.131 l
47.4327 65.7262 l
51.8809 59.7284 l
56.8956 54.1956 l
62.4284 49.1809 l
68.4262 44.7327 l
74.831 40.8938 l
81.5813 37.7012 l
88.612 35.1855 l
95.8554 33.3712 l
103.242 32.2755 l
110.7 31.9091 l
118.158 32.2755 l
125.545 33.3712 l
132.788 35.1855 l
139.819 37.7012 l
146.569 40.8938 l
152.974 44.7327 l
158.972 49.1809 l
164.504 54.1956 l
169.519 59.7284 l
173.967 65.7262 l
177.806 72.131 l
180.999 78.8813 l
183.514 85.912 l
185.329 93.1554 l
186.425 100.542 l
186.791 108 l
stroke
grestore
0.750 0.750 0.000 setrgbcolor
gsave
167.4 167.4 27 24.3 clipbox
154.631 108 m
154.42 112.306 l
153.787 116.571 l
152.739 120.753 l
151.287 124.812 l
149.444 128.709 l
147.227 132.407 l
144.659 135.87 l
141.764 139.064 l
138.57 141.959 l
135.107 144.527 l
131.409 146.744 l
127.512 148.587 l
123.453 150.039 l
119.271 151.087 l
115.006 151.72 l
110.7 151.931 l
106.394 151.72 l
102.129 151.087 l
97.9475 150.039 l
93.8883 148.587 l
89.991 146.744 l
86.2932 144.527 l
82.8304 141.959 l
79.636 139.064 l
76.7408 135.87 l
74.1726 132.407 l
71.9562 128.709 l
70.1129 124.812 l
68.6606 120.753 l
67.613 116.571 l
66.9804 112.306 l
66.7689 108 l
66.9804 103.694 l
67.613 99.4295 l
68.6606 95.2475 l
70.1129 91.1883 l
71.9562 87.291 l
74.1726 83.5932 l
76.7408 80.1304 l
79.636 76.936 l
82.8304 74.0408 l
86.2932 71.4726 l
89.991 69.2562 l
93.8883 67.4129 l
97.9475 65.9606 l
102.129 64.913 l
106.394 64.2804 l
110.7 64.0689 l
115.006 64.2804 l
119.271 64.913 l
123.453 65.9606 l
127.512 67.4129 l
131.409 69.2562 l
135.107 71.4726 l
138.57 74.0408 l
141.764 76.936 l
144.659 80.1304 l
147.227 83.5932 l
149.444 87.291 l
151.287 91.1883 l
152.739 95.2475 l
153.787 99.4295 l
154.42 103.694 l
154.631 108 l
stroke
grestore
gsave
167.4 167.4 27 24.3 clipbox
164.504 108 m
164.245 113.274 l
163.471 118.497 l
162.188 123.619 l
160.409 128.59 l
158.151 133.363 l
155.437 137.892 l
152.291 142.133 l
148.745 146.045 l
144.833 149.591 l
140.592 152.737 l
136.063 155.451 l
131.29 157.709 l
126.319 159.488 l
121.197 160.771 l
115.974 161.545 l
110.7 161.804 l
105.426 161.545 l
100.203 160.771 l
95.0814 159.488 l
90.1099 157.709 l
85.3368 155.451 l
80.8079 152.737 l
76.5669 149.591 l
72.6545 146.045 l
69.1086 142.133 l
65.9633 137.892 l
63.2488 133.363 l
60.9912 128.59 l
59.2124 123.619 l
57.9294 118.497 l
57.1547 113.274 l
56.8956 108 l
57.1547 102.726 l
57.9294 97.5033 l
59.2124 92.3814 l
60.9912 87.4099 l
63.2488 82.6368 l
65.9633 78.1079 l
69.1086 73.8669 l
72.6545 69.9545 l
76.5669 66.4086 l
80.8079 63.2633 l
85.3368 60.5488 l
90.1099 58.2912 l
95.0814 56.5124 l
100.203 55.2294 l
105.426 54.4547 l
110.7 54.1956 l
115.974 54.4547 l
121.197 55.2294 l
126.319 56.5124 l
131.29 58.2912 l
136.063 60.5488 l
140.592 63.2633 l
144.833 66.4086 l
148.745 69.9545 l
152.291 73.8669 l
155.437 78.1079 l
158.151 82.6368 l
160.409 87.4099 l
162.188 92.3814 l
163.471 97.5033 l
164.245 102.726 l
164.504 108 l
stroke
grestore
gsave
167.4 167.4 27 24.3 clipbox
141.764 108 m
141.614 111.045 l
141.167 114.06 l
140.426 117.017 l
139.399 119.888 l
138.096 122.643 l
136.529 125.258 l
134.713 127.707 l
132.666 129.966 l
130.407 132.013 l
127.958 133.829 l
125.343 135.396 l
122.588 136.699 l
119.717 137.726 l
116.76 138.467 l
113.745 138.914 l
110.7 139.064 l
107.655 138.914 l
104.64 138.467 l
101.683 137.726 l
98.8123 136.699 l
96.0565 135.396 l
93.4418 133.829 l
90.9932 132.013 l
88.7344 129.966 l
86.6872 127.707 l
84.8712 125.258 l
83.304 122.643 l
82.0006 119.888 l
80.9736 117.017 l
80.2329 114.06 l
79.7856 111.045 l
79.636 108 l
79.7856 104.955 l
80.2329 101.94 l
80.9736 98.9826 l
82.0006 96.1123 l
83.304 93.3565 l
84.8712 90.7418 l
86.6872 88.2932 l
88.7344 86.0344 l
90.9932 83.9872 l
93.4418 82.1712 l
96.0565 80.604 l
98.8123 79.3006 l
101.683 78.2736 l
104.64 77.5329 l
107.655 77.0856 l
110.7 76.936 l
113.745 77.0856 l
116.76 77.5329 l
119.717 78.2736 l
122.588 79.3006 l
125.343 80.604 l
127.958 82.1712 l
130.407 83.9872 l
132.666 86.0344 l
134.713 88.2932 l
136.529 90.7418 l
138.096 93.3565 l
139.399 96.1123 l
140.426 98.9826 l
141.167 101.94 l
141.614 104.955 l
141.764 108 l
stroke
grestore
0.000 0.500 0.000 setrgbcolor
gsave
167.4 167.4 27 24.3 clipbox
136.064 108 m
135.942 110.486 l
135.576 112.948 l
134.971 115.363 l
134.133 117.706 l
133.069 119.956 l
131.789 122.091 l
130.306 124.091 l
128.635 125.935 l
126.791 127.606 l
124.791 129.089 l
122.656 130.369 l
120.406 131.433 l
118.063 132.271 l
115.648 132.876 l
113.186 133.242 l
110.7 133.364 l
108.214 133.242 l
105.752 132.876 l
103.337 132.271 l
100.994 131.433 l
98.7437 130.369 l
96.6087 129.089 l
94.6095 127.606 l
92.7652 125.935 l
91.0936 124.091 l
89.6109 122.091 l
88.3313 119.956 l
87.2671 117.706 l
86.4285 115.363 l
85.8237 112.948 l
85.4585 110.486 l
85.3364 108 l
85.4585 105.514 l
85.8237 103.052 l
86.4285 100.637 l
87.2671 98.2938 l
88.3313 96.0437 l
89.6109 93.9087 l
91.0936 91.9095 l
92.7652 90.0652 l
94.6095 88.3936 l
96.6087 86.9109 l
98.7437 85.6313 l
100.994 84.5671 l
103.337 83.7285 l
105.752 83.1237 l
108.214 82.7585 l
110.7 82.6364 l
113.186 82.7585 l
115.648 83.1237 l
118.063 83.7285 l
120.406 84.5671 l
122.656 85.6313 l
124.791 86.9109 l
126.791 88.3936 l
128.635 90.0652 l
130.306 91.9095 l
131.789 93.9087 l
133.069 96.0437 l
134.133 98.2938 l
134.971 100.637 l
135.576 103.052 l
135.942 105.514 l
136.064 108 l
stroke
grestore
0.500 setlinewidth
0 setlinecap
0.000 setgray
gsave
/o {
gsave
newpath
translate
0.5 setlinewidth
1 setlinejoin
0 setlinecap
0 0 m
0 4 l
gsave
0.000 setgray
fill
grestore
stroke
grestore
} bind def
34.6091 24.3 o
grestore
gsave
/o {
gsave
newpath
translate
0.5 setlinewidth
1 setlinejoin
0 setlinecap
0 0 m
0 -4 l
gsave
0.000 setgray
fill
grestore
stroke
grestore
} bind def
34.6091 191.7 o
grestore
/BitstreamVeraSans-Roman findfont
9.000 scalefont
setfont
gsave
24.452841 13.487500 translate
0.000000 rotate
0.000000 0.125000 m /minus glyphshow
7.541016 0.125000 m /one glyphshow
13.267090 0.125000 m /period glyphshow
16.127930 0.125000 m /zero glyphshow
grestore
gsave
/o {
gsave
newpath
translate
0.5 setlinewidth
1 setlinejoin
0 setlinecap
0 0 m
0 4 l
gsave
0.000 setgray
fill
grestore
stroke
grestore
} bind def
72.6545 24.3 o
grestore
gsave
/o {
gsave
newpath
translate
0.5 setlinewidth
1 setlinejoin
0 setlinecap
0 0 m
0 -4 l
gsave
0.000 setgray
fill
grestore
stroke
grestore
} bind def
72.6545 191.7 o
grestore
gsave
62.592045 13.487500 translate
0.000000 rotate
0.000000 0.125000 m /minus glyphshow
7.541016 0.125000 m /zero glyphshow
13.267090 0.125000 m /period glyphshow
16.127930 0.125000 m /five glyphshow
grestore
gsave
/o {
gsave
newpath
translate
0.5 setlinewidth
1 setlinejoin
0 setlinecap
0 0 m
0 4 l
gsave
0.000 setgray
fill
grestore
stroke
grestore
} bind def
110.7 24.3 o
grestore
gsave
/o {
gsave
newpath
translate
0.5 setlinewidth
1 setlinejoin
0 setlinecap
0 0 m
0 -4 l
gsave
0.000 setgray
fill
grestore
stroke
grestore
} bind def
110.7 191.7 o
grestore
gsave
104.137500 13.487500 translate
0.000000 rotate
0.000000 0.125000 m /zero glyphshow
5.726074 0.125000 m /period glyphshow
8.586914 0.125000 m /zero glyphshow
grestore
gsave
/o {
gsave
newpath
translate
0.5 setlinewidth
1 setlinejoin
0 setlinecap
0 0 m
0 4 l
gsave
0.000 setgray
fill
grestore
stroke
grestore
} bind def
148.745 24.3 o
grestore
gsave
/o {
gsave
newpath
translate
0.5 setlinewidth
1 setlinejoin
0 setlinecap
0 0 m
0 -4 l
gsave
0.000 setgray
fill
grestore
stroke
grestore
} bind def
148.745 191.7 o
grestore
gsave
142.276705 13.487500 translate
0.000000 rotate
0.000000 0.125000 m /zero glyphshow
5.726074 0.125000 m /period glyphshow
8.586914 0.125000 m /five glyphshow
grestore
gsave
/o {
gsave
newpath
translate
0.5 setlinewidth
1 setlinejoin
0 setlinecap
0 0 m
0 4 l
gsave
0.000 setgray
fill
grestore
stroke
grestore
} bind def
186.791 24.3 o
grestore
gsave
/o {
gsave
newpath
translate
0.5 setlinewidth
1 setlinejoin
0 setlinecap
0 0 m
0 -4 l
gsave
0.000 setgray
fill
grestore
stroke
grestore
} bind def
186.791 191.7 o
grestore
gsave
180.423722 13.487500 translate
0.000000 rotate
0.000000 0.125000 m /one glyphshow
5.726074 0.125000 m /period glyphshow
8.586914 0.125000 m /zero glyphshow
grestore
gsave
/o {
gsave
newpath
translate
0.5 setlinewidth
1 setlinejoin
0 setlinecap
0 0 m
4 0 l
gsave
0.000 setgray
fill
grestore
stroke
grestore
} bind def
27 31.9091 o
grestore
gsave
/o {
gsave
newpath
translate
0.5 setlinewidth
1 setlinejoin
0 setlinecap
0 0 m
-4 0 l
gsave
0.000 setgray
fill
grestore
stroke
grestore
} bind def
194.4 31.9091 o
grestore
gsave
2.687500 28.502841 translate
0.000000 rotate
0.000000 0.125000 m /minus glyphshow
7.541016 0.125000 m /one glyphshow
13.267090 0.125000 m /period glyphshow
16.127930 0.125000 m /zero glyphshow
grestore
gsave
/o {
gsave
newpath
translate
0.5 setlinewidth
1 setlinejoin
0 setlinecap
0 0 m
4 0 l
gsave
0.000 setgray
fill
grestore
stroke
grestore
} bind def
27 69.9545 o
grestore
gsave
/o {
gsave
newpath
translate
0.5 setlinewidth
1 setlinejoin
0 setlinecap
0 0 m
-4 0 l
gsave
0.000 setgray
fill
grestore
stroke
grestore
} bind def
194.4 69.9545 o
grestore
gsave
2.875000 66.548295 translate
0.000000 rotate
0.000000 0.125000 m /minus glyphshow
7.541016 0.125000 m /zero glyphshow
13.267090 0.125000 m /period glyphshow
16.127930 0.125000 m /five glyphshow
grestore
gsave
/o {
gsave
newpath
translate
0.5 setlinewidth
1 setlinejoin
0 setlinecap
0 0 m
4 0 l
gsave
0.000 setgray
fill
grestore
stroke
grestore
} bind def
27 108 o
grestore
gsave
/o {
gsave
newpath
translate
0.5 setlinewidth
1 setlinejoin
0 setlinecap
0 0 m
-4 0 l
gsave
0.000 setgray
fill
grestore
stroke
grestore
} bind def
194.4 108 o
grestore
gsave
9.875000 104.593750 translate
0.000000 rotate
0.000000 0.125000 m /zero glyphshow
5.726074 0.125000 m /period glyphshow
8.586914 0.125000 m /zero glyphshow
grestore
gsave
/o {
gsave
newpath
translate
0.5 setlinewidth
1 setlinejoin
0 setlinecap
0 0 m
4 0 l
gsave
0.000 setgray
fill
grestore
stroke
grestore
} bind def
27 146.045 o
grestore
gsave
/o {
gsave
newpath
translate
0.5 setlinewidth
1 setlinejoin
0 setlinecap
0 0 m
-4 0 l
gsave
0.000 setgray
fill
grestore
stroke
grestore
} bind def
194.4 146.045 o
grestore
gsave
10.062500 142.639205 translate
0.000000 rotate
0.000000 0.125000 m /zero glyphshow
5.726074 0.125000 m /period glyphshow
8.586914 0.125000 m /five glyphshow
grestore
gsave
/o {
gsave
newpath
translate
0.5 setlinewidth
1 setlinejoin
0 setlinecap
0 0 m
4 0 l
gsave
0.000 setgray
fill
grestore
stroke
grestore
} bind def
27 184.091 o
grestore
gsave
/o {
gsave
newpath
translate
0.5 setlinewidth
1 setlinejoin
0 setlinecap
0 0 m
-4 0 l
gsave
0.000 setgray
fill
grestore
stroke
grestore
} bind def
194.4 184.091 o
grestore
gsave
10.265625 180.684659 translate
0.000000 rotate
0.000000 0.125000 m /one glyphshow
5.726074 0.125000 m /period glyphshow
8.586914 0.125000 m /zero glyphshow
grestore
1.000 setlinewidth
2 setlinecap
gsave
27 191.7 m
194.4 191.7 l
stroke
grestore
gsave
194.4 24.3 m
194.4 191.7 l
stroke
grestore
gsave
27 24.3 m
194.4 24.3 l
stroke
grestore
gsave
27 24.3 m
27 191.7 l
stroke
grestore

end
showpage
