%!PS-Adobe-3.0 EPSF-3.0
%%Title: ../../thesis/images/4l_2d_bloch//D.eps
%%Creator: matplotlib version 1.2.1, http://matplotlib.org/
%%CreationDate: Mon May 20 13:30:10 2013
%%Orientation: portrait
%%BoundingBox: 198 288 414 504
%%EndComments
%%BeginProlog
/mpldict 8 dict def
mpldict begin
/m { moveto } bind def
/l { lineto } bind def
/r { rlineto } bind def
/c { curveto } bind def
/cl { closepath } bind def
/box {
m
1 index 0 r
0 exch r
neg 0 r
cl
} bind def
/clipbox {
box
clip
newpath
} bind def
%!PS-Adobe-3.0 Resource-Font
%%Title: Bitstream Vera Sans
%%Copyright: Copyright (c) 2003 by Bitstream, Inc. All Rights Reserved.
%%Creator: Converted from TrueType to type 3 by PPR
25 dict begin
/_d{bind def}bind def
/_m{moveto}_d
/_l{lineto}_d
/_cl{closepath eofill}_d
/_c{curveto}_d
/_sc{7 -1 roll{setcachedevice}{pop pop pop pop pop pop}ifelse}_d
/_e{exec}_d
/FontName /BitstreamVeraSans-Roman def
/PaintType 0 def
/FontMatrix[.001 0 0 .001 0 0]def
/FontBBox[-183 -236 1287 928]def
/FontType 3 def
/Encoding [ /period /zero /one /five /minus ] def
/FontInfo 10 dict dup begin
/FamilyName (Bitstream Vera Sans) def
/FullName (Bitstream Vera Sans) def
/Notice (Copyright (c) 2003 by Bitstream, Inc. All Rights Reserved. Bitstream Vera is a trademark of Bitstream, Inc.) def
/Weight (Roman) def
/Version (Release 1.10) def
/ItalicAngle 0.0 def
/isFixedPitch false def
/UnderlinePosition -213 def
/UnderlineThickness 143 def
end readonly def
/CharStrings 5 dict dup begin
/period{318 0 107 0 210 124 _sc
107 124 _m
210 124 _l
210 0 _l
107 0 _l
107 124 _l
_cl}_d
/zero{636 0 66 -13 570 742 _sc
318 664 _m
267 664 229 639 203 589 _c
177 539 165 464 165 364 _c
165 264 177 189 203 139 _c
229 89 267 64 318 64 _c
369 64 407 89 433 139 _c
458 189 471 264 471 364 _c
471 464 458 539 433 589 _c
407 639 369 664 318 664 _c
318 742 _m
399 742 461 709 505 645 _c
548 580 570 486 570 364 _c
570 241 548 147 505 83 _c
461 19 399 -13 318 -13 _c
236 -13 173 19 130 83 _c
87 147 66 241 66 364 _c
66 486 87 580 130 645 _c
173 709 236 742 318 742 _c
_cl}_d
/one{636 0 110 0 544 729 _sc
124 83 _m
285 83 _l
285 639 _l
110 604 _l
110 694 _l
284 729 _l
383 729 _l
383 83 _l
544 83 _l
544 0 _l
124 0 _l
124 83 _l
_cl}_d
/five{{636 0 77 -13 549 729 _sc
108 729 _m
495 729 _l
495 646 _l
198 646 _l
198 467 _l
212 472 227 476 241 478 _c
255 480 270 482 284 482 _c
365 482 429 459 477 415 _c
525 370 549 310 549 234 _c
549 155 524 94 475 51 _c
426 8 357 -13 269 -13 _c
238 -13 207 -10 175 -6 _c
143 -1 111 6 77 17 _c
77 116 _l
106 100 136 88 168 80 _c
199 72 232 69 267 69 _c
}_e{323 69 368 83 401 113 _c
433 143 450 183 450 234 _c
450 284 433 324 401 354 _c
368 384 323 399 267 399 _c
241 399 214 396 188 390 _c
162 384 135 375 108 363 _c
108 729 _l
_cl}_e}_d
/minus{838 0 106 272 732 355 _sc
106 355 _m
732 355 _l
732 272 _l
106 272 _l
106 355 _l
_cl}_d
end readonly def

/BuildGlyph
 {exch begin
 CharStrings exch
 2 copy known not{pop /.notdef}if
 true 3 1 roll get exec
 end}_d

/BuildChar {
 1 index /Encoding get exch get
 1 index /BuildGlyph get exec
}_d

FontName currentdict end definefont pop
end
%%EndProlog
mpldict begin
198 288 translate
216 216 0 0 clipbox
gsave
0 0 m
216 0 l
216 216 l
0 216 l
cl
1.000 setgray
fill
grestore
gsave
27 24.3 m
194.4 24.3 l
194.4 191.7 l
27 191.7 l
cl
1.000 setgray
fill
grestore
2.000 setlinewidth
1 setlinejoin
2 setlinecap
[] 0 setdash
0.000 0.000 1.000 setrgbcolor
gsave
167.4 167.4 27 24.3 clipbox
141.764 108 m
141.986 108.384 l
142.211 108.774 l
142.439 109.169 l
142.671 109.571 l
142.906 109.979 l
143.146 110.393 l
143.389 110.815 l
143.637 111.244 l
143.889 111.681 l
144.146 112.125 l
144.407 112.578 l
144.674 113.04 l
144.945 113.51 l
145.223 113.99 l
145.505 114.48 l
145.794 114.981 l
146.09 115.492 l
146.391 116.015 l
146.7 116.549 l
147.016 117.097 l
147.34 117.657 l
147.671 118.231 l
148.011 118.82 l
148.36 119.424 l
148.718 120.044 l
149.085 120.681 l
149.463 121.335 l
149.852 122.009 l
150.252 122.702 l
150.664 123.416 l
151.09 124.152 l
151.528 124.911 l
151.981 125.696 l
152.448 126.506 l
152.932 127.344 l
153.433 128.211 l
153.952 129.11 l
154.49 130.042 l
155.049 131.01 l
155.629 132.015 l
156.233 133.061 l
156.862 134.15 l
156.859 134.902 l
155.584 134.902 l
154.36 134.902 l
153.183 134.902 l
152.052 134.902 l
150.962 134.902 l
149.912 134.902 l
148.898 134.902 l
147.92 134.902 l
146.973 134.902 l
146.058 134.902 l
145.172 134.902 l
144.313 134.902 l
143.48 134.902 l
142.672 134.902 l
141.887 134.902 l
141.124 134.902 l
140.382 134.902 l
139.66 134.902 l
138.956 134.902 l
138.271 134.902 l
137.602 134.902 l
136.95 134.902 l
136.313 134.902 l
135.691 134.902 l
135.083 134.902 l
134.488 134.902 l
133.906 134.902 l
133.336 134.902 l
132.778 134.902 l
132.231 134.902 l
131.695 134.902 l
131.169 134.902 l
130.652 134.902 l
130.145 134.902 l
129.647 134.902 l
129.157 134.902 l
128.676 134.902 l
128.202 134.902 l
127.736 134.902 l
127.277 134.902 l
126.825 134.902 l
126.379 134.902 l
125.94 134.902 l
125.507 134.902 l
125.08 134.902 l
124.658 134.902 l
124.242 134.902 l
123.83 134.902 l
123.424 134.902 l
123.022 134.902 l
122.625 134.902 l
122.232 134.902 l
121.843 134.902 l
121.458 134.902 l
121.077 134.902 l
120.7 134.902 l
120.326 134.902 l
119.955 134.902 l
119.587 134.902 l
119.223 134.902 l
118.861 134.902 l
118.502 134.902 l
118.145 134.902 l
117.791 134.902 l
117.439 134.902 l
117.089 134.902 l
116.741 134.902 l
116.395 134.902 l
116.051 134.902 l
115.709 134.902 l
115.368 134.902 l
115.029 134.902 l
114.691 134.902 l
114.354 134.902 l
114.018 134.902 l
113.683 134.902 l
113.35 134.902 l
113.017 134.902 l
112.684 134.902 l
112.353 134.902 l
112.022 134.902 l
111.691 134.902 l
111.36 134.902 l
111.03 134.902 l
110.7 134.902 l
110.37 134.902 l
110.04 134.902 l
109.709 134.902 l
109.378 134.902 l
109.047 134.902 l
108.716 134.902 l
108.383 134.902 l
108.05 134.902 l
107.717 134.902 l
107.382 134.902 l
107.046 134.902 l
106.709 134.902 l
106.371 134.902 l
106.032 134.902 l
105.691 134.902 l
105.349 134.902 l
105.005 134.902 l
104.659 134.902 l
104.311 134.902 l
103.961 134.902 l
103.609 134.902 l
103.255 134.902 l
102.898 134.902 l
102.539 134.902 l
102.177 134.902 l
101.813 134.902 l
101.445 134.902 l
101.074 134.902 l
100.7 134.902 l
100.323 134.902 l
99.9415 134.902 l
99.5567 134.902 l
99.1679 134.902 l
98.775 134.902 l
98.3779 134.902 l
97.9762 134.902 l
97.5697 134.902 l
97.1585 134.902 l
96.7421 134.902 l
96.3204 134.902 l
95.8931 134.902 l
95.46 134.902 l
95.0208 134.902 l
94.5754 134.902 l
94.1233 134.902 l
93.6644 134.902 l
93.1982 134.902 l
92.7245 134.902 l
92.243 134.902 l
91.7533 134.902 l
91.2551 134.902 l
90.748 134.902 l
90.2315 134.902 l
89.7052 134.902 l
89.1689 134.902 l
88.6218 134.902 l
88.0638 134.902 l
87.4939 134.902 l
86.912 134.902 l
86.3171 134.902 l
85.7091 134.902 l
85.0869 134.902 l
84.4501 134.902 l
83.7977 134.902 l
83.1292 134.902 l
82.4437 134.902 l
81.7402 134.902 l
81.0179 134.902 l
80.2758 134.902 l
79.5127 134.902 l
78.7277 134.902 l
77.9195 134.902 l
77.0867 134.902 l
76.228 134.902 l
75.3417 134.902 l
74.4265 134.902 l
73.4804 134.902 l
72.5018 134.902 l
71.4883 134.902 l
70.438 134.902 l
69.3483 134.902 l
68.2168 134.902 l
67.0404 134.902 l
65.8164 134.902 l
64.5411 134.902 l
64.538 134.15 l
65.1669 133.061 l
65.7707 132.015 l
66.3513 131.01 l
66.91 130.042 l
67.448 129.11 l
67.967 128.211 l
68.4678 127.344 l
68.9517 126.506 l
69.4194 125.696 l
69.8721 124.911 l
70.3104 124.152 l
70.7356 123.416 l
71.1477 122.702 l
71.5479 122.009 l
71.9368 121.335 l
72.3147 120.681 l
72.6823 120.044 l
73.0403 119.424 l
73.389 118.82 l
73.7288 118.231 l
74.0603 117.657 l
74.384 117.097 l
74.6998 116.549 l
75.0086 116.015 l
75.3104 115.492 l
75.6056 114.981 l
75.8946 114.48 l
76.1774 113.99 l
76.4547 113.51 l
76.7264 113.04 l
76.9929 112.578 l
77.2542 112.125 l
77.511 111.681 l
77.763 111.244 l
78.0107 110.815 l
78.2541 110.393 l
78.4935 109.979 l
78.7291 109.571 l
78.9609 109.169 l
79.1892 108.774 l
79.4142 108.384 l
79.6358 108 l
79.8545 107.621 l
80.07 107.248 l
80.2828 106.88 l
80.4928 106.516 l
80.7001 106.157 l
80.9048 105.802 l
81.1073 105.452 l
81.3074 105.105 l
81.5052 104.762 l
81.701 104.423 l
81.8946 104.088 l
82.0865 103.756 l
82.2763 103.427 l
82.4646 103.101 l
82.651 102.778 l
82.8359 102.457 l
83.0193 102.14 l
83.201 101.825 l
83.3816 101.512 l
83.5608 101.202 l
83.7387 100.894 l
83.9154 100.588 l
84.091 100.284 l
84.2656 99.9812 l
84.439 99.6806 l
84.6117 99.3816 l
84.7835 99.0841 l
84.9545 98.7881 l
85.1246 98.4933 l
85.2939 98.1998 l
85.4628 97.9074 l
85.631 97.6161 l
85.7987 97.3257 l
85.9658 97.0361 l
86.1327 96.7473 l
86.299 96.4592 l
86.465 96.1716 l
86.6308 95.8846 l
86.7962 95.5979 l
86.9615 95.3115 l
87.1268 95.0255 l
87.2918 94.7394 l
87.457 94.4536 l
87.622 94.1676 l
87.7872 93.8815 l
87.9524 93.5953 l
88.118 93.3088 l
88.2835 93.0218 l
88.4494 92.7344 l
88.6158 92.4465 l
88.7824 92.158 l
88.9494 91.8687 l
89.1168 91.5785 l
89.2849 91.2875 l
89.4535 90.9955 l
89.6228 90.7024 l
89.7926 90.408 l
89.9633 90.1124 l
90.1348 89.8154 l
90.307 89.5169 l
90.4804 89.2169 l
90.6545 88.9151 l
90.8298 88.6116 l
91.0061 88.3061 l
91.1837 87.9987 l
91.3623 87.689 l
91.5425 87.3773 l
91.7238 87.063 l
91.9067 86.7464 l
92.091 86.427 l
92.277 86.105 l
92.4646 85.7801 l
92.6539 85.4521 l
92.845 85.121 l
93.0382 84.7867 l
93.2332 84.4487 l
93.4303 84.1072 l
93.6297 83.762 l
93.8313 83.4129 l
94.0353 83.0595 l
94.2418 82.7019 l
94.4509 82.3398 l
94.6626 81.973 l
94.8772 81.6013 l
95.0947 81.2244 l
95.3153 80.8423 l
95.5392 80.4547 l
95.7664 80.0613 l
95.997 79.6616 l
96.2314 79.2558 l
96.4695 78.8433 l
96.7116 78.424 l
96.9578 77.9975 l
97.2084 77.5634 l
97.4635 77.1217 l
97.7234 76.6717 l
97.9881 76.2131 l
98.258 75.7454 l
98.5334 75.2687 l
98.8144 74.782 l
99.1013 74.285 l
99.3944 73.7775 l
99.6939 73.2584 l
100 72.7279 l
100.314 72.1848 l
100.635 71.6289 l
100.964 71.0595 l
101.301 70.4757 l
101.646 69.8769 l
102.001 69.2623 l
102.366 68.6311 l
102.74 67.9826 l
103.125 67.3155 l
103.521 66.6291 l
103.93 65.9221 l
104.35 65.1935 l
104.784 64.4421 l
105.232 63.6663 l
105.695 62.8649 l
106.173 62.0365 l
106.668 61.1791 l
107.181 60.291 l
107.712 59.3703 l
108.264 58.4147 l
108.837 57.4222 l
109.433 56.3898 l
110.053 55.3154 l
110.7 54.1955 l
111.347 55.3154 l
111.967 56.3898 l
112.563 57.4222 l
113.136 58.4147 l
113.688 59.3703 l
114.219 60.291 l
114.732 61.1791 l
115.227 62.0365 l
115.705 62.8649 l
116.168 63.6663 l
116.616 64.4421 l
117.05 65.1935 l
117.47 65.9221 l
117.879 66.6291 l
118.275 67.3155 l
118.66 67.9826 l
119.034 68.6311 l
119.399 69.2623 l
119.754 69.8769 l
120.099 70.4757 l
120.436 71.0595 l
120.765 71.6289 l
121.086 72.1848 l
121.4 72.7279 l
121.706 73.2584 l
122.006 73.7775 l
122.299 74.285 l
122.586 74.782 l
122.867 75.2687 l
123.142 75.7454 l
123.412 76.2131 l
123.677 76.6717 l
123.936 77.1217 l
124.192 77.5634 l
124.442 77.9975 l
124.688 78.424 l
124.931 78.8433 l
125.169 79.2558 l
125.403 79.6616 l
125.634 80.0613 l
125.861 80.4547 l
126.085 80.8423 l
126.305 81.2244 l
126.523 81.6013 l
126.737 81.973 l
126.949 82.3398 l
127.158 82.7019 l
127.365 83.0595 l
127.569 83.4129 l
127.77 83.762 l
127.97 84.1072 l
128.167 84.4487 l
128.362 84.7867 l
128.555 85.121 l
128.746 85.4521 l
128.935 85.7801 l
129.123 86.105 l
129.309 86.427 l
129.493 86.7464 l
129.676 87.063 l
129.857 87.3773 l
130.038 87.689 l
130.216 87.9987 l
130.394 88.3061 l
130.57 88.6116 l
130.745 88.9151 l
130.92 89.2169 l
131.093 89.5169 l
131.265 89.8154 l
131.437 90.1124 l
131.607 90.408 l
131.777 90.7024 l
131.946 90.9955 l
132.115 91.2875 l
132.283 91.5785 l
132.451 91.8687 l
132.618 92.158 l
132.784 92.4465 l
132.951 92.7344 l
133.117 93.0218 l
133.282 93.3088 l
133.448 93.5953 l
133.613 93.8815 l
133.778 94.1676 l
133.943 94.4536 l
134.108 94.7394 l
134.273 95.0255 l
134.439 95.3115 l
134.604 95.5979 l
134.769 95.8846 l
134.935 96.1716 l
135.101 96.4592 l
135.267 96.7473 l
135.434 97.0361 l
135.601 97.3257 l
135.769 97.6161 l
135.937 97.9074 l
136.106 98.1998 l
136.275 98.4933 l
136.446 98.7881 l
136.617 99.0841 l
136.788 99.3816 l
136.961 99.6806 l
137.134 99.9812 l
137.309 100.284 l
137.485 100.588 l
137.661 100.894 l
137.839 101.202 l
138.018 101.512 l
138.199 101.825 l
138.381 102.14 l
138.564 102.457 l
138.749 102.778 l
138.935 103.101 l
139.124 103.427 l
139.314 103.756 l
139.505 104.088 l
139.699 104.423 l
139.895 104.762 l
140.093 105.105 l
140.293 105.452 l
140.495 105.802 l
140.7 106.157 l
140.907 106.516 l
141.117 106.88 l
141.33 107.248 l
141.545 107.621 l
141.764 108 l
cl
gsave
0.500 0.500 1.000 setrgbcolor
fill
grestore
stroke
grestore
1.000 setlinewidth
1.000 0.000 0.000 setrgbcolor
gsave
167.4 167.4 27 24.3 clipbox
186.791 108 m
186.425 115.458 l
185.329 122.845 l
183.514 130.088 l
180.999 137.119 l
177.806 143.869 l
173.967 150.274 l
169.519 156.272 l
164.504 161.804 l
158.972 166.819 l
152.974 171.267 l
146.569 175.106 l
139.819 178.299 l
132.788 180.814 l
125.545 182.629 l
118.158 183.725 l
110.7 184.091 l
103.242 183.725 l
95.8554 182.629 l
88.612 180.814 l
81.5813 178.299 l
74.831 175.106 l
68.4262 171.267 l
62.4284 166.819 l
56.8956 161.804 l
51.8809 156.272 l
47.4327 150.274 l
43.5938 143.869 l
40.4012 137.119 l
37.8855 130.088 l
36.0712 122.845 l
34.9755 115.458 l
34.6091 108 l
34.9755 100.542 l
36.0712 93.1554 l
37.8855 85.912 l
40.4012 78.8813 l
43.5938 72.131 l
47.4327 65.7262 l
51.8809 59.7284 l
56.8956 54.1956 l
62.4284 49.1809 l
68.4262 44.7327 l
74.831 40.8938 l
81.5813 37.7012 l
88.612 35.1855 l
95.8554 33.3712 l
103.242 32.2755 l
110.7 31.9091 l
118.158 32.2755 l
125.545 33.3712 l
132.788 35.1855 l
139.819 37.7012 l
146.569 40.8938 l
152.974 44.7327 l
158.972 49.1809 l
164.504 54.1956 l
169.519 59.7284 l
173.967 65.7262 l
177.806 72.131 l
180.999 78.8813 l
183.514 85.912 l
185.329 93.1554 l
186.425 100.542 l
186.791 108 l
stroke
grestore
0.750 0.750 0.000 setrgbcolor
gsave
167.4 167.4 27 24.3 clipbox
154.631 108 m
154.42 112.306 l
153.787 116.571 l
152.739 120.753 l
151.287 124.812 l
149.444 128.709 l
147.227 132.407 l
144.659 135.87 l
141.764 139.064 l
138.57 141.959 l
135.107 144.527 l
131.409 146.744 l
127.512 148.587 l
123.453 150.039 l
119.271 151.087 l
115.006 151.72 l
110.7 151.931 l
106.394 151.72 l
102.129 151.087 l
97.9475 150.039 l
93.8883 148.587 l
89.991 146.744 l
86.2932 144.527 l
82.8304 141.959 l
79.636 139.064 l
76.7408 135.87 l
74.1726 132.407 l
71.9562 128.709 l
70.1129 124.812 l
68.6606 120.753 l
67.613 116.571 l
66.9804 112.306 l
66.7689 108 l
66.9804 103.694 l
67.613 99.4295 l
68.6606 95.2475 l
70.1129 91.1883 l
71.9562 87.291 l
74.1726 83.5932 l
76.7408 80.1304 l
79.636 76.936 l
82.8304 74.0408 l
86.2932 71.4726 l
89.991 69.2562 l
93.8883 67.4129 l
97.9475 65.9606 l
102.129 64.913 l
106.394 64.2804 l
110.7 64.0689 l
115.006 64.2804 l
119.271 64.913 l
123.453 65.9606 l
127.512 67.4129 l
131.409 69.2562 l
135.107 71.4726 l
138.57 74.0408 l
141.764 76.936 l
144.659 80.1304 l
147.227 83.5932 l
149.444 87.291 l
151.287 91.1883 l
152.739 95.2475 l
153.787 99.4295 l
154.42 103.694 l
154.631 108 l
stroke
grestore
gsave
167.4 167.4 27 24.3 clipbox
164.504 108 m
164.245 113.274 l
163.471 118.497 l
162.188 123.619 l
160.409 128.59 l
158.151 133.363 l
155.437 137.892 l
152.291 142.133 l
148.745 146.045 l
144.833 149.591 l
140.592 152.737 l
136.063 155.451 l
131.29 157.709 l
126.319 159.488 l
121.197 160.771 l
115.974 161.545 l
110.7 161.804 l
105.426 161.545 l
100.203 160.771 l
95.0814 159.488 l
90.1099 157.709 l
85.3368 155.451 l
80.8079 152.737 l
76.5669 149.591 l
72.6545 146.045 l
69.1086 142.133 l
65.9633 137.892 l
63.2488 133.363 l
60.9912 128.59 l
59.2124 123.619 l
57.9294 118.497 l
57.1547 113.274 l
56.8956 108 l
57.1547 102.726 l
57.9294 97.5033 l
59.2124 92.3814 l
60.9912 87.4099 l
63.2488 82.6368 l
65.9633 78.1079 l
69.1086 73.8669 l
72.6545 69.9545 l
76.5669 66.4086 l
80.8079 63.2633 l
85.3368 60.5488 l
90.1099 58.2912 l
95.0814 56.5124 l
100.203 55.2294 l
105.426 54.4547 l
110.7 54.1956 l
115.974 54.4547 l
121.197 55.2294 l
126.319 56.5124 l
131.29 58.2912 l
136.063 60.5488 l
140.592 63.2633 l
144.833 66.4086 l
148.745 69.9545 l
152.291 73.8669 l
155.437 78.1079 l
158.151 82.6368 l
160.409 87.4099 l
162.188 92.3814 l
163.471 97.5033 l
164.245 102.726 l
164.504 108 l
stroke
grestore
gsave
167.4 167.4 27 24.3 clipbox
141.764 108 m
141.614 111.045 l
141.167 114.06 l
140.426 117.017 l
139.399 119.888 l
138.096 122.643 l
136.529 125.258 l
134.713 127.707 l
132.666 129.966 l
130.407 132.013 l
127.958 133.829 l
125.343 135.396 l
122.588 136.699 l
119.717 137.726 l
116.76 138.467 l
113.745 138.914 l
110.7 139.064 l
107.655 138.914 l
104.64 138.467 l
101.683 137.726 l
98.8123 136.699 l
96.0565 135.396 l
93.4418 133.829 l
90.9932 132.013 l
88.7344 129.966 l
86.6872 127.707 l
84.8712 125.258 l
83.304 122.643 l
82.0006 119.888 l
80.9736 117.017 l
80.2329 114.06 l
79.7856 111.045 l
79.636 108 l
79.7856 104.955 l
80.2329 101.94 l
80.9736 98.9826 l
82.0006 96.1123 l
83.304 93.3565 l
84.8712 90.7418 l
86.6872 88.2932 l
88.7344 86.0344 l
90.9932 83.9872 l
93.4418 82.1712 l
96.0565 80.604 l
98.8123 79.3006 l
101.683 78.2736 l
104.64 77.5329 l
107.655 77.0856 l
110.7 76.936 l
113.745 77.0856 l
116.76 77.5329 l
119.717 78.2736 l
122.588 79.3006 l
125.343 80.604 l
127.958 82.1712 l
130.407 83.9872 l
132.666 86.0344 l
134.713 88.2932 l
136.529 90.7418 l
138.096 93.3565 l
139.399 96.1123 l
140.426 98.9826 l
141.167 101.94 l
141.614 104.955 l
141.764 108 l
stroke
grestore
0.000 0.500 0.000 setrgbcolor
gsave
167.4 167.4 27 24.3 clipbox
136.064 108 m
135.942 110.486 l
135.576 112.948 l
134.971 115.363 l
134.133 117.706 l
133.069 119.956 l
131.789 122.091 l
130.306 124.091 l
128.635 125.935 l
126.791 127.606 l
124.791 129.089 l
122.656 130.369 l
120.406 131.433 l
118.063 132.271 l
115.648 132.876 l
113.186 133.242 l
110.7 133.364 l
108.214 133.242 l
105.752 132.876 l
103.337 132.271 l
100.994 131.433 l
98.7437 130.369 l
96.6087 129.089 l
94.6095 127.606 l
92.7652 125.935 l
91.0936 124.091 l
89.6109 122.091 l
88.3313 119.956 l
87.2671 117.706 l
86.4285 115.363 l
85.8237 112.948 l
85.4585 110.486 l
85.3364 108 l
85.4585 105.514 l
85.8237 103.052 l
86.4285 100.637 l
87.2671 98.2938 l
88.3313 96.0437 l
89.6109 93.9087 l
91.0936 91.9095 l
92.7652 90.0652 l
94.6095 88.3936 l
96.6087 86.9109 l
98.7437 85.6313 l
100.994 84.5671 l
103.337 83.7285 l
105.752 83.1237 l
108.214 82.7585 l
110.7 82.6364 l
113.186 82.7585 l
115.648 83.1237 l
118.063 83.7285 l
120.406 84.5671 l
122.656 85.6313 l
124.791 86.9109 l
126.791 88.3936 l
128.635 90.0652 l
130.306 91.9095 l
131.789 93.9087 l
133.069 96.0437 l
134.133 98.2938 l
134.971 100.637 l
135.576 103.052 l
135.942 105.514 l
136.064 108 l
stroke
grestore
0.500 setlinewidth
0 setlinecap
0.000 setgray
gsave
/o {
gsave
newpath
translate
0.5 setlinewidth
1 setlinejoin
0 setlinecap
0 0 m
0 4 l
gsave
0.000 setgray
fill
grestore
stroke
grestore
} bind def
34.6091 24.3 o
grestore
gsave
/o {
gsave
newpath
translate
0.5 setlinewidth
1 setlinejoin
0 setlinecap
0 0 m
0 -4 l
gsave
0.000 setgray
fill
grestore
stroke
grestore
} bind def
34.6091 191.7 o
grestore
/BitstreamVeraSans-Roman findfont
9.000 scalefont
setfont
gsave
24.452841 13.487500 translate
0.000000 rotate
0.000000 0.125000 m /minus glyphshow
7.541016 0.125000 m /one glyphshow
13.267090 0.125000 m /period glyphshow
16.127930 0.125000 m /zero glyphshow
grestore
gsave
/o {
gsave
newpath
translate
0.5 setlinewidth
1 setlinejoin
0 setlinecap
0 0 m
0 4 l
gsave
0.000 setgray
fill
grestore
stroke
grestore
} bind def
72.6545 24.3 o
grestore
gsave
/o {
gsave
newpath
translate
0.5 setlinewidth
1 setlinejoin
0 setlinecap
0 0 m
0 -4 l
gsave
0.000 setgray
fill
grestore
stroke
grestore
} bind def
72.6545 191.7 o
grestore
gsave
62.592045 13.487500 translate
0.000000 rotate
0.000000 0.125000 m /minus glyphshow
7.541016 0.125000 m /zero glyphshow
13.267090 0.125000 m /period glyphshow
16.127930 0.125000 m /five glyphshow
grestore
gsave
/o {
gsave
newpath
translate
0.5 setlinewidth
1 setlinejoin
0 setlinecap
0 0 m
0 4 l
gsave
0.000 setgray
fill
grestore
stroke
grestore
} bind def
110.7 24.3 o
grestore
gsave
/o {
gsave
newpath
translate
0.5 setlinewidth
1 setlinejoin
0 setlinecap
0 0 m
0 -4 l
gsave
0.000 setgray
fill
grestore
stroke
grestore
} bind def
110.7 191.7 o
grestore
gsave
104.137500 13.487500 translate
0.000000 rotate
0.000000 0.125000 m /zero glyphshow
5.726074 0.125000 m /period glyphshow
8.586914 0.125000 m /zero glyphshow
grestore
gsave
/o {
gsave
newpath
translate
0.5 setlinewidth
1 setlinejoin
0 setlinecap
0 0 m
0 4 l
gsave
0.000 setgray
fill
grestore
stroke
grestore
} bind def
148.745 24.3 o
grestore
gsave
/o {
gsave
newpath
translate
0.5 setlinewidth
1 setlinejoin
0 setlinecap
0 0 m
0 -4 l
gsave
0.000 setgray
fill
grestore
stroke
grestore
} bind def
148.745 191.7 o
grestore
gsave
142.276705 13.487500 translate
0.000000 rotate
0.000000 0.125000 m /zero glyphshow
5.726074 0.125000 m /period glyphshow
8.586914 0.125000 m /five glyphshow
grestore
gsave
/o {
gsave
newpath
translate
0.5 setlinewidth
1 setlinejoin
0 setlinecap
0 0 m
0 4 l
gsave
0.000 setgray
fill
grestore
stroke
grestore
} bind def
186.791 24.3 o
grestore
gsave
/o {
gsave
newpath
translate
0.5 setlinewidth
1 setlinejoin
0 setlinecap
0 0 m
0 -4 l
gsave
0.000 setgray
fill
grestore
stroke
grestore
} bind def
186.791 191.7 o
grestore
gsave
180.423722 13.487500 translate
0.000000 rotate
0.000000 0.125000 m /one glyphshow
5.726074 0.125000 m /period glyphshow
8.586914 0.125000 m /zero glyphshow
grestore
gsave
/o {
gsave
newpath
translate
0.5 setlinewidth
1 setlinejoin
0 setlinecap
0 0 m
4 0 l
gsave
0.000 setgray
fill
grestore
stroke
grestore
} bind def
27 31.9091 o
grestore
gsave
/o {
gsave
newpath
translate
0.5 setlinewidth
1 setlinejoin
0 setlinecap
0 0 m
-4 0 l
gsave
0.000 setgray
fill
grestore
stroke
grestore
} bind def
194.4 31.9091 o
grestore
gsave
2.687500 28.502841 translate
0.000000 rotate
0.000000 0.125000 m /minus glyphshow
7.541016 0.125000 m /one glyphshow
13.267090 0.125000 m /period glyphshow
16.127930 0.125000 m /zero glyphshow
grestore
gsave
/o {
gsave
newpath
translate
0.5 setlinewidth
1 setlinejoin
0 setlinecap
0 0 m
4 0 l
gsave
0.000 setgray
fill
grestore
stroke
grestore
} bind def
27 69.9545 o
grestore
gsave
/o {
gsave
newpath
translate
0.5 setlinewidth
1 setlinejoin
0 setlinecap
0 0 m
-4 0 l
gsave
0.000 setgray
fill
grestore
stroke
grestore
} bind def
194.4 69.9545 o
grestore
gsave
2.875000 66.548295 translate
0.000000 rotate
0.000000 0.125000 m /minus glyphshow
7.541016 0.125000 m /zero glyphshow
13.267090 0.125000 m /period glyphshow
16.127930 0.125000 m /five glyphshow
grestore
gsave
/o {
gsave
newpath
translate
0.5 setlinewidth
1 setlinejoin
0 setlinecap
0 0 m
4 0 l
gsave
0.000 setgray
fill
grestore
stroke
grestore
} bind def
27 108 o
grestore
gsave
/o {
gsave
newpath
translate
0.5 setlinewidth
1 setlinejoin
0 setlinecap
0 0 m
-4 0 l
gsave
0.000 setgray
fill
grestore
stroke
grestore
} bind def
194.4 108 o
grestore
gsave
9.875000 104.593750 translate
0.000000 rotate
0.000000 0.125000 m /zero glyphshow
5.726074 0.125000 m /period glyphshow
8.586914 0.125000 m /zero glyphshow
grestore
gsave
/o {
gsave
newpath
translate
0.5 setlinewidth
1 setlinejoin
0 setlinecap
0 0 m
4 0 l
gsave
0.000 setgray
fill
grestore
stroke
grestore
} bind def
27 146.045 o
grestore
gsave
/o {
gsave
newpath
translate
0.5 setlinewidth
1 setlinejoin
0 setlinecap
0 0 m
-4 0 l
gsave
0.000 setgray
fill
grestore
stroke
grestore
} bind def
194.4 146.045 o
grestore
gsave
10.062500 142.639205 translate
0.000000 rotate
0.000000 0.125000 m /zero glyphshow
5.726074 0.125000 m /period glyphshow
8.586914 0.125000 m /five glyphshow
grestore
gsave
/o {
gsave
newpath
translate
0.5 setlinewidth
1 setlinejoin
0 setlinecap
0 0 m
4 0 l
gsave
0.000 setgray
fill
grestore
stroke
grestore
} bind def
27 184.091 o
grestore
gsave
/o {
gsave
newpath
translate
0.5 setlinewidth
1 setlinejoin
0 setlinecap
0 0 m
-4 0 l
gsave
0.000 setgray
fill
grestore
stroke
grestore
} bind def
194.4 184.091 o
grestore
gsave
10.265625 180.684659 translate
0.000000 rotate
0.000000 0.125000 m /one glyphshow
5.726074 0.125000 m /period glyphshow
8.586914 0.125000 m /zero glyphshow
grestore
1.000 setlinewidth
2 setlinecap
gsave
27 191.7 m
194.4 191.7 l
stroke
grestore
gsave
194.4 24.3 m
194.4 191.7 l
stroke
grestore
gsave
27 24.3 m
194.4 24.3 l
stroke
grestore
gsave
27 24.3 m
27 191.7 l
stroke
grestore

end
showpage
