%!PS-Adobe-3.0 EPSF-3.0
%%Title: ../../thesis/images/4l_2d_bloch//F.eps
%%Creator: matplotlib version 1.2.1, http://matplotlib.org/
%%CreationDate: Mon May 20 13:30:18 2013
%%Orientation: portrait
%%BoundingBox: 198 288 414 504
%%EndComments
%%BeginProlog
/mpldict 8 dict def
mpldict begin
/m { moveto } bind def
/l { lineto } bind def
/r { rlineto } bind def
/c { curveto } bind def
/cl { closepath } bind def
/box {
m
1 index 0 r
0 exch r
neg 0 r
cl
} bind def
/clipbox {
box
clip
newpath
} bind def
%!PS-Adobe-3.0 Resource-Font
%%Title: Bitstream Vera Sans
%%Copyright: Copyright (c) 2003 by Bitstream, Inc. All Rights Reserved.
%%Creator: Converted from TrueType to type 3 by PPR
25 dict begin
/_d{bind def}bind def
/_m{moveto}_d
/_l{lineto}_d
/_cl{closepath eofill}_d
/_c{curveto}_d
/_sc{7 -1 roll{setcachedevice}{pop pop pop pop pop pop}ifelse}_d
/_e{exec}_d
/FontName /BitstreamVeraSans-Roman def
/PaintType 0 def
/FontMatrix[.001 0 0 .001 0 0]def
/FontBBox[-183 -236 1287 928]def
/FontType 3 def
/Encoding [ /period /zero /one /five /minus ] def
/FontInfo 10 dict dup begin
/FamilyName (Bitstream Vera Sans) def
/FullName (Bitstream Vera Sans) def
/Notice (Copyright (c) 2003 by Bitstream, Inc. All Rights Reserved. Bitstream Vera is a trademark of Bitstream, Inc.) def
/Weight (Roman) def
/Version (Release 1.10) def
/ItalicAngle 0.0 def
/isFixedPitch false def
/UnderlinePosition -213 def
/UnderlineThickness 143 def
end readonly def
/CharStrings 5 dict dup begin
/period{318 0 107 0 210 124 _sc
107 124 _m
210 124 _l
210 0 _l
107 0 _l
107 124 _l
_cl}_d
/zero{636 0 66 -13 570 742 _sc
318 664 _m
267 664 229 639 203 589 _c
177 539 165 464 165 364 _c
165 264 177 189 203 139 _c
229 89 267 64 318 64 _c
369 64 407 89 433 139 _c
458 189 471 264 471 364 _c
471 464 458 539 433 589 _c
407 639 369 664 318 664 _c
318 742 _m
399 742 461 709 505 645 _c
548 580 570 486 570 364 _c
570 241 548 147 505 83 _c
461 19 399 -13 318 -13 _c
236 -13 173 19 130 83 _c
87 147 66 241 66 364 _c
66 486 87 580 130 645 _c
173 709 236 742 318 742 _c
_cl}_d
/one{636 0 110 0 544 729 _sc
124 83 _m
285 83 _l
285 639 _l
110 604 _l
110 694 _l
284 729 _l
383 729 _l
383 83 _l
544 83 _l
544 0 _l
124 0 _l
124 83 _l
_cl}_d
/five{{636 0 77 -13 549 729 _sc
108 729 _m
495 729 _l
495 646 _l
198 646 _l
198 467 _l
212 472 227 476 241 478 _c
255 480 270 482 284 482 _c
365 482 429 459 477 415 _c
525 370 549 310 549 234 _c
549 155 524 94 475 51 _c
426 8 357 -13 269 -13 _c
238 -13 207 -10 175 -6 _c
143 -1 111 6 77 17 _c
77 116 _l
106 100 136 88 168 80 _c
199 72 232 69 267 69 _c
}_e{323 69 368 83 401 113 _c
433 143 450 183 450 234 _c
450 284 433 324 401 354 _c
368 384 323 399 267 399 _c
241 399 214 396 188 390 _c
162 384 135 375 108 363 _c
108 729 _l
_cl}_e}_d
/minus{838 0 106 272 732 355 _sc
106 355 _m
732 355 _l
732 272 _l
106 272 _l
106 355 _l
_cl}_d
end readonly def

/BuildGlyph
 {exch begin
 CharStrings exch
 2 copy known not{pop /.notdef}if
 true 3 1 roll get exec
 end}_d

/BuildChar {
 1 index /Encoding get exch get
 1 index /BuildGlyph get exec
}_d

FontName currentdict end definefont pop
end
%%EndProlog
mpldict begin
198 288 translate
216 216 0 0 clipbox
gsave
0 0 m
216 0 l
216 216 l
0 216 l
cl
1.000 setgray
fill
grestore
gsave
27 24.3 m
194.4 24.3 l
194.4 191.7 l
27 191.7 l
cl
1.000 setgray
fill
grestore
2.000 setlinewidth
1 setlinejoin
2 setlinecap
[] 0 setdash
0.000 0.000 1.000 setrgbcolor
gsave
167.4 167.4 27 24.3 clipbox
141.764 108 m
141.759 108.381 l
141.745 108.762 l
141.722 109.143 l
141.69 109.522 l
141.648 109.901 l
141.597 110.279 l
141.537 110.656 l
141.468 111.03 l
141.391 111.404 l
141.305 111.775 l
141.211 112.144 l
141.109 112.511 l
140.999 112.875 l
140.881 113.237 l
140.756 113.596 l
140.624 113.952 l
140.484 114.305 l
140.338 114.655 l
140.186 115.002 l
140.027 115.346 l
139.862 115.686 l
139.692 116.023 l
139.516 116.357 l
139.335 116.686 l
139.149 117.013 l
138.959 117.335 l
138.764 117.655 l
138.564 117.97 l
138.361 118.282 l
138.154 118.59 l
137.943 118.895 l
137.729 119.196 l
137.512 119.493 l
137.291 119.787 l
137.068 120.078 l
136.843 120.365 l
136.614 120.648 l
136.384 120.928 l
136.151 121.205 l
135.916 121.478 l
135.679 121.748 l
135.441 122.015 l
135.2 122.279 l
134.958 122.54 l
134.715 122.798 l
134.47 123.052 l
134.224 123.304 l
133.977 123.553 l
133.728 123.799 l
133.479 124.043 l
133.228 124.284 l
132.977 124.522 l
132.724 124.757 l
132.471 124.99 l
132.217 125.221 l
131.962 125.45 l
131.707 125.676 l
131.45 125.899 l
131.193 126.121 l
130.936 126.341 l
130.677 126.558 l
130.418 126.774 l
130.159 126.987 l
129.899 127.199 l
129.638 127.409 l
129.377 127.617 l
129.115 127.823 l
128.852 128.028 l
128.589 128.231 l
128.325 128.432 l
128.06 128.632 l
127.795 128.831 l
127.53 129.028 l
127.263 129.224 l
126.996 129.418 l
126.728 129.612 l
126.46 129.804 l
126.191 129.995 l
125.921 130.185 l
125.65 130.374 l
125.378 130.562 l
125.105 130.748 l
124.832 130.934 l
124.557 131.12 l
124.282 131.304 l
124.005 131.487 l
123.728 131.67 l
123.449 131.852 l
123.17 132.034 l
122.889 132.215 l
122.607 132.395 l
122.323 132.575 l
122.038 132.754 l
121.752 132.933 l
121.464 133.112 l
121.175 133.29 l
120.885 133.468 l
120.592 133.645 l
120.299 133.823 l
120.003 134 l
119.705 134.177 l
119.406 134.354 l
119.105 134.531 l
118.802 134.708 l
118.496 134.885 l
118.189 135.062 l
117.879 135.239 l
117.567 135.416 l
117.253 135.594 l
116.936 135.772 l
116.617 135.949 l
116.295 136.128 l
115.97 136.306 l
115.643 136.486 l
115.312 136.665 l
114.979 136.845 l
114.642 137.026 l
114.302 137.208 l
113.959 137.389 l
113.613 137.572 l
113.262 137.755 l
112.908 137.939 l
112.551 138.125 l
112.189 138.311 l
111.823 138.497 l
111.453 138.685 l
111.079 138.874 l
110.7 139.064 l
110.316 139.255 l
109.928 139.448 l
109.535 139.641 l
109.136 139.836 l
108.732 140.033 l
108.322 140.231 l
107.907 140.43 l
107.486 140.632 l
107.059 140.834 l
106.625 141.039 l
106.185 141.245 l
105.738 141.453 l
105.283 141.664 l
104.822 141.876 l
104.353 142.09 l
103.876 142.307 l
103.391 142.526 l
102.897 142.747 l
102.395 142.971 l
101.884 143.197 l
101.363 143.427 l
100.832 143.658 l
100.291 143.893 l
99.7398 144.131 l
99.1774 144.372 l
98.6037 144.616 l
98.0181 144.864 l
97.4201 145.115 l
96.8094 145.37 l
96.1853 145.628 l
95.5473 145.89 l
94.8949 146.157 l
94.2275 146.428 l
93.5443 146.703 l
92.8447 146.982 l
92.1281 147.267 l
91.3937 147.556 l
90.6407 147.851 l
89.8683 148.151 l
89.0756 148.456 l
88.2617 148.768 l
87.4257 149.085 l
86.5665 149.408 l
85.6828 149.739 l
84.7739 150.075 l
83.8382 150.419 l
82.8745 150.771 l
81.8815 151.13 l
80.8576 151.497 l
79.8014 151.873 l
79.636 150.977 l
79.636 149.885 l
79.6359 148.828 l
79.636 147.805 l
79.6359 146.813 l
79.6359 145.852 l
79.6359 144.918 l
79.6359 144.012 l
79.6359 143.131 l
79.6359 142.274 l
79.6359 141.44 l
79.6359 140.628 l
79.6359 139.836 l
79.6359 139.064 l
79.6359 138.311 l
79.636 137.575 l
79.636 136.857 l
79.6359 136.155 l
79.636 135.468 l
79.6359 134.796 l
79.6359 134.138 l
79.6359 133.494 l
79.6359 132.862 l
79.6359 132.243 l
79.6359 131.635 l
79.6359 131.039 l
79.636 130.453 l
79.6358 129.878 l
79.6359 129.312 l
79.6359 128.756 l
79.6359 128.209 l
79.636 127.671 l
79.6358 127.141 l
79.6359 126.619 l
79.6359 126.105 l
79.636 125.598 l
79.636 125.097 l
79.6358 124.604 l
79.636 124.117 l
79.6359 123.636 l
79.636 123.161 l
79.6359 122.692 l
79.6358 122.228 l
79.6359 121.77 l
79.636 121.316 l
79.636 120.867 l
79.6359 120.423 l
79.6359 119.983 l
79.6358 119.547 l
79.6359 119.115 l
79.6358 118.687 l
79.636 118.262 l
79.6359 117.841 l
79.636 117.423 l
79.6358 117.008 l
79.6359 116.597 l
79.6359 116.188 l
79.6359 115.781 l
79.636 115.377 l
79.6359 114.976 l
79.6359 114.576 l
79.6359 114.179 l
79.6359 113.784 l
79.6359 113.39 l
79.6359 112.998 l
79.6359 112.608 l
79.6358 112.219 l
79.6359 111.831 l
79.636 111.445 l
79.6359 111.06 l
79.6358 110.675 l
79.636 110.291 l
79.6358 109.908 l
79.6358 109.526 l
79.636 109.144 l
79.6358 108.763 l
79.636 108.381 l
79.6358 108 l
79.636 107.619 l
79.6358 107.237 l
79.636 106.856 l
79.6358 106.474 l
79.6358 106.092 l
79.636 105.709 l
79.6358 105.325 l
79.6359 104.94 l
79.636 104.555 l
79.6359 104.169 l
79.6358 103.781 l
79.6359 103.392 l
79.6359 103.002 l
79.6359 102.61 l
79.6359 102.216 l
79.6359 101.821 l
79.6359 101.424 l
79.6359 101.024 l
79.636 100.623 l
79.6359 100.219 l
79.6359 99.8124 l
79.6359 99.4034 l
79.6358 98.9916 l
79.636 98.5768 l
79.6359 98.1589 l
79.636 97.7378 l
79.6358 97.3132 l
79.6359 96.8851 l
79.6358 96.4531 l
79.6359 96.0172 l
79.6359 95.5772 l
79.636 95.1329 l
79.636 94.6839 l
79.6359 94.2302 l
79.6358 93.7716 l
79.6359 93.3078 l
79.636 92.8386 l
79.6359 92.3637 l
79.636 91.8829 l
79.6358 91.3959 l
79.636 90.9025 l
79.636 90.4024 l
79.6359 89.8953 l
79.6359 89.3809 l
79.6358 88.8588 l
79.636 88.3289 l
79.6359 87.7906 l
79.6359 87.2437 l
79.6359 86.6877 l
79.6358 86.1222 l
79.636 85.547 l
79.6359 84.9613 l
79.6359 84.365 l
79.6359 83.7573 l
79.6359 83.138 l
79.6359 82.5063 l
79.6359 81.8618 l
79.6359 81.2039 l
79.636 80.532 l
79.6359 79.8451 l
79.636 79.143 l
79.636 78.4246 l
79.6359 77.6891 l
79.6359 76.9359 l
79.6359 76.164 l
79.6359 75.3724 l
79.6359 74.5601 l
79.6359 73.7261 l
79.6359 72.8691 l
79.6359 71.9881 l
79.6359 71.0816 l
79.6359 70.1483 l
79.6359 69.1867 l
79.636 68.1952 l
79.6359 67.1718 l
79.636 66.115 l
79.636 65.0226 l
79.8014 64.1274 l
80.8576 64.5028 l
81.8815 64.87 l
82.8745 65.2291 l
83.8382 65.5806 l
84.7739 65.9245 l
85.6828 66.2614 l
86.5665 66.5916 l
87.4257 66.9151 l
88.2617 67.2324 l
89.0756 67.5436 l
89.8683 67.8492 l
90.6407 68.149 l
91.3937 68.4437 l
92.1281 68.733 l
92.8447 69.0175 l
93.5443 69.2973 l
94.2275 69.5725 l
94.8949 69.8431 l
95.5473 70.1096 l
96.1853 70.3722 l
96.8094 70.6305 l
97.4201 70.8853 l
98.0181 71.1364 l
98.6037 71.384 l
99.1774 71.628 l
99.7398 71.8691 l
100.291 72.1068 l
100.832 72.3416 l
101.363 72.5735 l
101.884 72.8026 l
102.395 73.029 l
102.897 73.253 l
103.391 73.4742 l
103.876 73.6931 l
104.353 73.9098 l
104.822 74.1241 l
105.283 74.3365 l
105.738 74.5467 l
106.185 74.7549 l
106.625 74.9613 l
107.059 75.1656 l
107.486 75.3685 l
107.907 75.5696 l
108.322 75.769 l
108.732 75.9669 l
109.136 76.1635 l
109.535 76.3586 l
109.928 76.5524 l
110.316 76.7446 l
110.7 76.9358 l
111.079 77.126 l
111.453 77.3149 l
111.823 77.5027 l
112.189 77.6895 l
112.551 77.8754 l
112.908 78.0606 l
113.262 78.2446 l
113.613 78.428 l
113.959 78.6107 l
114.302 78.7925 l
114.642 78.9739 l
114.979 79.1546 l
115.312 79.3348 l
115.643 79.5143 l
115.97 79.6935 l
116.295 79.8722 l
116.617 80.0505 l
116.936 80.2285 l
117.253 80.4062 l
117.567 80.5837 l
117.879 80.761 l
118.189 80.9382 l
118.496 81.1152 l
118.802 81.2923 l
119.105 81.4692 l
119.406 81.6461 l
119.705 81.8231 l
120.003 82.0001 l
120.299 82.1774 l
120.592 82.3549 l
120.885 82.5324 l
121.175 82.7103 l
121.464 82.8884 l
121.752 83.067 l
122.038 83.2459 l
122.323 83.4252 l
122.607 83.6049 l
122.889 83.7854 l
123.17 83.9663 l
123.449 84.1476 l
123.728 84.3297 l
124.005 84.5126 l
124.282 84.6961 l
124.557 84.8804 l
124.832 85.0655 l
125.105 85.2515 l
125.378 85.4384 l
125.65 85.6264 l
125.921 85.8151 l
126.191 86.005 l
126.46 86.196 l
126.728 86.3883 l
126.996 86.5816 l
127.263 86.7761 l
127.53 86.972 l
127.795 87.1691 l
128.06 87.3678 l
128.325 87.5677 l
128.589 87.7693 l
128.852 87.9724 l
129.115 88.177 l
129.377 88.3834 l
129.638 88.5915 l
129.899 88.8013 l
130.159 89.013 l
130.418 89.2265 l
130.677 89.442 l
130.936 89.6594 l
131.193 89.879 l
131.45 90.1006 l
131.707 90.3245 l
131.962 90.5504 l
132.217 90.7788 l
132.471 91.0096 l
132.724 91.2427 l
132.977 91.4783 l
133.228 91.7165 l
133.479 91.9572 l
133.728 92.2007 l
133.977 92.4469 l
134.224 92.6958 l
134.47 92.9476 l
134.715 93.2024 l
134.958 93.46 l
135.2 93.7208 l
135.441 93.9846 l
135.679 94.2515 l
135.916 94.5217 l
136.151 94.7952 l
136.384 95.0719 l
136.614 95.352 l
136.843 95.6354 l
137.068 95.9224 l
137.291 96.2128 l
137.512 96.5067 l
137.729 96.8042 l
137.943 97.1052 l
138.154 97.4099 l
138.361 97.7182 l
138.564 98.03 l
138.764 98.3455 l
138.959 98.6646 l
139.149 98.9873 l
139.335 99.3136 l
139.516 99.6435 l
139.692 99.9769 l
139.862 100.314 l
140.027 100.654 l
140.186 100.998 l
140.338 101.345 l
140.484 101.695 l
140.624 102.048 l
140.756 102.404 l
140.881 102.763 l
140.999 103.125 l
141.109 103.489 l
141.211 103.856 l
141.305 104.225 l
141.391 104.596 l
141.468 104.97 l
141.537 105.344 l
141.597 105.721 l
141.648 106.099 l
141.69 106.478 l
141.722 106.857 l
141.745 107.238 l
141.759 107.619 l
141.764 108 l
cl
gsave
0.500 0.500 1.000 setrgbcolor
fill
grestore
stroke
grestore
1.000 setlinewidth
1.000 0.000 0.000 setrgbcolor
gsave
167.4 167.4 27 24.3 clipbox
186.791 108 m
186.425 115.458 l
185.329 122.845 l
183.514 130.088 l
180.999 137.119 l
177.806 143.869 l
173.967 150.274 l
169.519 156.272 l
164.504 161.804 l
158.972 166.819 l
152.974 171.267 l
146.569 175.106 l
139.819 178.299 l
132.788 180.814 l
125.545 182.629 l
118.158 183.725 l
110.7 184.091 l
103.242 183.725 l
95.8554 182.629 l
88.612 180.814 l
81.5813 178.299 l
74.831 175.106 l
68.4262 171.267 l
62.4284 166.819 l
56.8956 161.804 l
51.8809 156.272 l
47.4327 150.274 l
43.5938 143.869 l
40.4012 137.119 l
37.8855 130.088 l
36.0712 122.845 l
34.9755 115.458 l
34.6091 108 l
34.9755 100.542 l
36.0712 93.1554 l
37.8855 85.912 l
40.4012 78.8813 l
43.5938 72.131 l
47.4327 65.7262 l
51.8809 59.7284 l
56.8956 54.1956 l
62.4284 49.1809 l
68.4262 44.7327 l
74.831 40.8938 l
81.5813 37.7012 l
88.612 35.1855 l
95.8554 33.3712 l
103.242 32.2755 l
110.7 31.9091 l
118.158 32.2755 l
125.545 33.3712 l
132.788 35.1855 l
139.819 37.7012 l
146.569 40.8938 l
152.974 44.7327 l
158.972 49.1809 l
164.504 54.1956 l
169.519 59.7284 l
173.967 65.7262 l
177.806 72.131 l
180.999 78.8813 l
183.514 85.912 l
185.329 93.1554 l
186.425 100.542 l
186.791 108 l
stroke
grestore
0.750 0.750 0.000 setrgbcolor
gsave
167.4 167.4 27 24.3 clipbox
154.631 108 m
154.42 112.306 l
153.787 116.571 l
152.739 120.753 l
151.287 124.812 l
149.444 128.709 l
147.227 132.407 l
144.659 135.87 l
141.764 139.064 l
138.57 141.959 l
135.107 144.527 l
131.409 146.744 l
127.512 148.587 l
123.453 150.039 l
119.271 151.087 l
115.006 151.72 l
110.7 151.931 l
106.394 151.72 l
102.129 151.087 l
97.9475 150.039 l
93.8883 148.587 l
89.991 146.744 l
86.2932 144.527 l
82.8304 141.959 l
79.636 139.064 l
76.7408 135.87 l
74.1726 132.407 l
71.9562 128.709 l
70.1129 124.812 l
68.6606 120.753 l
67.613 116.571 l
66.9804 112.306 l
66.7689 108 l
66.9804 103.694 l
67.613 99.4295 l
68.6606 95.2475 l
70.1129 91.1883 l
71.9562 87.291 l
74.1726 83.5932 l
76.7408 80.1304 l
79.636 76.936 l
82.8304 74.0408 l
86.2932 71.4726 l
89.991 69.2562 l
93.8883 67.4129 l
97.9475 65.9606 l
102.129 64.913 l
106.394 64.2804 l
110.7 64.0689 l
115.006 64.2804 l
119.271 64.913 l
123.453 65.9606 l
127.512 67.4129 l
131.409 69.2562 l
135.107 71.4726 l
138.57 74.0408 l
141.764 76.936 l
144.659 80.1304 l
147.227 83.5932 l
149.444 87.291 l
151.287 91.1883 l
152.739 95.2475 l
153.787 99.4295 l
154.42 103.694 l
154.631 108 l
stroke
grestore
gsave
167.4 167.4 27 24.3 clipbox
164.504 108 m
164.245 113.274 l
163.471 118.497 l
162.188 123.619 l
160.409 128.59 l
158.151 133.363 l
155.437 137.892 l
152.291 142.133 l
148.745 146.045 l
144.833 149.591 l
140.592 152.737 l
136.063 155.451 l
131.29 157.709 l
126.319 159.488 l
121.197 160.771 l
115.974 161.545 l
110.7 161.804 l
105.426 161.545 l
100.203 160.771 l
95.0814 159.488 l
90.1099 157.709 l
85.3368 155.451 l
80.8079 152.737 l
76.5669 149.591 l
72.6545 146.045 l
69.1086 142.133 l
65.9633 137.892 l
63.2488 133.363 l
60.9912 128.59 l
59.2124 123.619 l
57.9294 118.497 l
57.1547 113.274 l
56.8956 108 l
57.1547 102.726 l
57.9294 97.5033 l
59.2124 92.3814 l
60.9912 87.4099 l
63.2488 82.6368 l
65.9633 78.1079 l
69.1086 73.8669 l
72.6545 69.9545 l
76.5669 66.4086 l
80.8079 63.2633 l
85.3368 60.5488 l
90.1099 58.2912 l
95.0814 56.5124 l
100.203 55.2294 l
105.426 54.4547 l
110.7 54.1956 l
115.974 54.4547 l
121.197 55.2294 l
126.319 56.5124 l
131.29 58.2912 l
136.063 60.5488 l
140.592 63.2633 l
144.833 66.4086 l
148.745 69.9545 l
152.291 73.8669 l
155.437 78.1079 l
158.151 82.6368 l
160.409 87.4099 l
162.188 92.3814 l
163.471 97.5033 l
164.245 102.726 l
164.504 108 l
stroke
grestore
gsave
167.4 167.4 27 24.3 clipbox
141.764 108 m
141.614 111.045 l
141.167 114.06 l
140.426 117.017 l
139.399 119.888 l
138.096 122.643 l
136.529 125.258 l
134.713 127.707 l
132.666 129.966 l
130.407 132.013 l
127.958 133.829 l
125.343 135.396 l
122.588 136.699 l
119.717 137.726 l
116.76 138.467 l
113.745 138.914 l
110.7 139.064 l
107.655 138.914 l
104.64 138.467 l
101.683 137.726 l
98.8123 136.699 l
96.0565 135.396 l
93.4418 133.829 l
90.9932 132.013 l
88.7344 129.966 l
86.6872 127.707 l
84.8712 125.258 l
83.304 122.643 l
82.0006 119.888 l
80.9736 117.017 l
80.2329 114.06 l
79.7856 111.045 l
79.636 108 l
79.7856 104.955 l
80.2329 101.94 l
80.9736 98.9826 l
82.0006 96.1123 l
83.304 93.3565 l
84.8712 90.7418 l
86.6872 88.2932 l
88.7344 86.0344 l
90.9932 83.9872 l
93.4418 82.1712 l
96.0565 80.604 l
98.8123 79.3006 l
101.683 78.2736 l
104.64 77.5329 l
107.655 77.0856 l
110.7 76.936 l
113.745 77.0856 l
116.76 77.5329 l
119.717 78.2736 l
122.588 79.3006 l
125.343 80.604 l
127.958 82.1712 l
130.407 83.9872 l
132.666 86.0344 l
134.713 88.2932 l
136.529 90.7418 l
138.096 93.3565 l
139.399 96.1123 l
140.426 98.9826 l
141.167 101.94 l
141.614 104.955 l
141.764 108 l
stroke
grestore
0.000 0.500 0.000 setrgbcolor
gsave
167.4 167.4 27 24.3 clipbox
136.064 108 m
135.942 110.486 l
135.576 112.948 l
134.971 115.363 l
134.133 117.706 l
133.069 119.956 l
131.789 122.091 l
130.306 124.091 l
128.635 125.935 l
126.791 127.606 l
124.791 129.089 l
122.656 130.369 l
120.406 131.433 l
118.063 132.271 l
115.648 132.876 l
113.186 133.242 l
110.7 133.364 l
108.214 133.242 l
105.752 132.876 l
103.337 132.271 l
100.994 131.433 l
98.7437 130.369 l
96.6087 129.089 l
94.6095 127.606 l
92.7652 125.935 l
91.0936 124.091 l
89.6109 122.091 l
88.3313 119.956 l
87.2671 117.706 l
86.4285 115.363 l
85.8237 112.948 l
85.4585 110.486 l
85.3364 108 l
85.4585 105.514 l
85.8237 103.052 l
86.4285 100.637 l
87.2671 98.2938 l
88.3313 96.0437 l
89.6109 93.9087 l
91.0936 91.9095 l
92.7652 90.0652 l
94.6095 88.3936 l
96.6087 86.9109 l
98.7437 85.6313 l
100.994 84.5671 l
103.337 83.7285 l
105.752 83.1237 l
108.214 82.7585 l
110.7 82.6364 l
113.186 82.7585 l
115.648 83.1237 l
118.063 83.7285 l
120.406 84.5671 l
122.656 85.6313 l
124.791 86.9109 l
126.791 88.3936 l
128.635 90.0652 l
130.306 91.9095 l
131.789 93.9087 l
133.069 96.0437 l
134.133 98.2938 l
134.971 100.637 l
135.576 103.052 l
135.942 105.514 l
136.064 108 l
stroke
grestore
0.500 setlinewidth
0 setlinecap
0.000 setgray
gsave
/o {
gsave
newpath
translate
0.5 setlinewidth
1 setlinejoin
0 setlinecap
0 0 m
0 4 l
gsave
0.000 setgray
fill
grestore
stroke
grestore
} bind def
34.6091 24.3 o
grestore
gsave
/o {
gsave
newpath
translate
0.5 setlinewidth
1 setlinejoin
0 setlinecap
0 0 m
0 -4 l
gsave
0.000 setgray
fill
grestore
stroke
grestore
} bind def
34.6091 191.7 o
grestore
/BitstreamVeraSans-Roman findfont
9.000 scalefont
setfont
gsave
24.452841 13.487500 translate
0.000000 rotate
0.000000 0.125000 m /minus glyphshow
7.541016 0.125000 m /one glyphshow
13.267090 0.125000 m /period glyphshow
16.127930 0.125000 m /zero glyphshow
grestore
gsave
/o {
gsave
newpath
translate
0.5 setlinewidth
1 setlinejoin
0 setlinecap
0 0 m
0 4 l
gsave
0.000 setgray
fill
grestore
stroke
grestore
} bind def
72.6545 24.3 o
grestore
gsave
/o {
gsave
newpath
translate
0.5 setlinewidth
1 setlinejoin
0 setlinecap
0 0 m
0 -4 l
gsave
0.000 setgray
fill
grestore
stroke
grestore
} bind def
72.6545 191.7 o
grestore
gsave
62.592045 13.487500 translate
0.000000 rotate
0.000000 0.125000 m /minus glyphshow
7.541016 0.125000 m /zero glyphshow
13.267090 0.125000 m /period glyphshow
16.127930 0.125000 m /five glyphshow
grestore
gsave
/o {
gsave
newpath
translate
0.5 setlinewidth
1 setlinejoin
0 setlinecap
0 0 m
0 4 l
gsave
0.000 setgray
fill
grestore
stroke
grestore
} bind def
110.7 24.3 o
grestore
gsave
/o {
gsave
newpath
translate
0.5 setlinewidth
1 setlinejoin
0 setlinecap
0 0 m
0 -4 l
gsave
0.000 setgray
fill
grestore
stroke
grestore
} bind def
110.7 191.7 o
grestore
gsave
104.137500 13.487500 translate
0.000000 rotate
0.000000 0.125000 m /zero glyphshow
5.726074 0.125000 m /period glyphshow
8.586914 0.125000 m /zero glyphshow
grestore
gsave
/o {
gsave
newpath
translate
0.5 setlinewidth
1 setlinejoin
0 setlinecap
0 0 m
0 4 l
gsave
0.000 setgray
fill
grestore
stroke
grestore
} bind def
148.745 24.3 o
grestore
gsave
/o {
gsave
newpath
translate
0.5 setlinewidth
1 setlinejoin
0 setlinecap
0 0 m
0 -4 l
gsave
0.000 setgray
fill
grestore
stroke
grestore
} bind def
148.745 191.7 o
grestore
gsave
142.276705 13.487500 translate
0.000000 rotate
0.000000 0.125000 m /zero glyphshow
5.726074 0.125000 m /period glyphshow
8.586914 0.125000 m /five glyphshow
grestore
gsave
/o {
gsave
newpath
translate
0.5 setlinewidth
1 setlinejoin
0 setlinecap
0 0 m
0 4 l
gsave
0.000 setgray
fill
grestore
stroke
grestore
} bind def
186.791 24.3 o
grestore
gsave
/o {
gsave
newpath
translate
0.5 setlinewidth
1 setlinejoin
0 setlinecap
0 0 m
0 -4 l
gsave
0.000 setgray
fill
grestore
stroke
grestore
} bind def
186.791 191.7 o
grestore
gsave
180.423722 13.487500 translate
0.000000 rotate
0.000000 0.125000 m /one glyphshow
5.726074 0.125000 m /period glyphshow
8.586914 0.125000 m /zero glyphshow
grestore
gsave
/o {
gsave
newpath
translate
0.5 setlinewidth
1 setlinejoin
0 setlinecap
0 0 m
4 0 l
gsave
0.000 setgray
fill
grestore
stroke
grestore
} bind def
27 31.9091 o
grestore
gsave
/o {
gsave
newpath
translate
0.5 setlinewidth
1 setlinejoin
0 setlinecap
0 0 m
-4 0 l
gsave
0.000 setgray
fill
grestore
stroke
grestore
} bind def
194.4 31.9091 o
grestore
gsave
2.687500 28.502841 translate
0.000000 rotate
0.000000 0.125000 m /minus glyphshow
7.541016 0.125000 m /one glyphshow
13.267090 0.125000 m /period glyphshow
16.127930 0.125000 m /zero glyphshow
grestore
gsave
/o {
gsave
newpath
translate
0.5 setlinewidth
1 setlinejoin
0 setlinecap
0 0 m
4 0 l
gsave
0.000 setgray
fill
grestore
stroke
grestore
} bind def
27 69.9545 o
grestore
gsave
/o {
gsave
newpath
translate
0.5 setlinewidth
1 setlinejoin
0 setlinecap
0 0 m
-4 0 l
gsave
0.000 setgray
fill
grestore
stroke
grestore
} bind def
194.4 69.9545 o
grestore
gsave
2.875000 66.548295 translate
0.000000 rotate
0.000000 0.125000 m /minus glyphshow
7.541016 0.125000 m /zero glyphshow
13.267090 0.125000 m /period glyphshow
16.127930 0.125000 m /five glyphshow
grestore
gsave
/o {
gsave
newpath
translate
0.5 setlinewidth
1 setlinejoin
0 setlinecap
0 0 m
4 0 l
gsave
0.000 setgray
fill
grestore
stroke
grestore
} bind def
27 108 o
grestore
gsave
/o {
gsave
newpath
translate
0.5 setlinewidth
1 setlinejoin
0 setlinecap
0 0 m
-4 0 l
gsave
0.000 setgray
fill
grestore
stroke
grestore
} bind def
194.4 108 o
grestore
gsave
9.875000 104.593750 translate
0.000000 rotate
0.000000 0.125000 m /zero glyphshow
5.726074 0.125000 m /period glyphshow
8.586914 0.125000 m /zero glyphshow
grestore
gsave
/o {
gsave
newpath
translate
0.5 setlinewidth
1 setlinejoin
0 setlinecap
0 0 m
4 0 l
gsave
0.000 setgray
fill
grestore
stroke
grestore
} bind def
27 146.045 o
grestore
gsave
/o {
gsave
newpath
translate
0.5 setlinewidth
1 setlinejoin
0 setlinecap
0 0 m
-4 0 l
gsave
0.000 setgray
fill
grestore
stroke
grestore
} bind def
194.4 146.045 o
grestore
gsave
10.062500 142.639205 translate
0.000000 rotate
0.000000 0.125000 m /zero glyphshow
5.726074 0.125000 m /period glyphshow
8.586914 0.125000 m /five glyphshow
grestore
gsave
/o {
gsave
newpath
translate
0.5 setlinewidth
1 setlinejoin
0 setlinecap
0 0 m
4 0 l
gsave
0.000 setgray
fill
grestore
stroke
grestore
} bind def
27 184.091 o
grestore
gsave
/o {
gsave
newpath
translate
0.5 setlinewidth
1 setlinejoin
0 setlinecap
0 0 m
-4 0 l
gsave
0.000 setgray
fill
grestore
stroke
grestore
} bind def
194.4 184.091 o
grestore
gsave
10.265625 180.684659 translate
0.000000 rotate
0.000000 0.125000 m /one glyphshow
5.726074 0.125000 m /period glyphshow
8.586914 0.125000 m /zero glyphshow
grestore
1.000 setlinewidth
2 setlinecap
gsave
27 191.7 m
194.4 191.7 l
stroke
grestore
gsave
194.4 24.3 m
194.4 191.7 l
stroke
grestore
gsave
27 24.3 m
194.4 24.3 l
stroke
grestore
gsave
27 24.3 m
27 191.7 l
stroke
grestore

end
showpage
