%!PS-Adobe-3.0 EPSF-3.0
%%Title: ../../thesis/images/4l_2d_bloch//G.eps
%%Creator: matplotlib version 1.2.1, http://matplotlib.org/
%%CreationDate: Mon May 20 13:30:21 2013
%%Orientation: portrait
%%BoundingBox: 198 288 414 504
%%EndComments
%%BeginProlog
/mpldict 8 dict def
mpldict begin
/m { moveto } bind def
/l { lineto } bind def
/r { rlineto } bind def
/c { curveto } bind def
/cl { closepath } bind def
/box {
m
1 index 0 r
0 exch r
neg 0 r
cl
} bind def
/clipbox {
box
clip
newpath
} bind def
%!PS-Adobe-3.0 Resource-Font
%%Title: Bitstream Vera Sans
%%Copyright: Copyright (c) 2003 by Bitstream, Inc. All Rights Reserved.
%%Creator: Converted from TrueType to type 3 by PPR
25 dict begin
/_d{bind def}bind def
/_m{moveto}_d
/_l{lineto}_d
/_cl{closepath eofill}_d
/_c{curveto}_d
/_sc{7 -1 roll{setcachedevice}{pop pop pop pop pop pop}ifelse}_d
/_e{exec}_d
/FontName /BitstreamVeraSans-Roman def
/PaintType 0 def
/FontMatrix[.001 0 0 .001 0 0]def
/FontBBox[-183 -236 1287 928]def
/FontType 3 def
/Encoding [ /period /zero /one /five /minus ] def
/FontInfo 10 dict dup begin
/FamilyName (Bitstream Vera Sans) def
/FullName (Bitstream Vera Sans) def
/Notice (Copyright (c) 2003 by Bitstream, Inc. All Rights Reserved. Bitstream Vera is a trademark of Bitstream, Inc.) def
/Weight (Roman) def
/Version (Release 1.10) def
/ItalicAngle 0.0 def
/isFixedPitch false def
/UnderlinePosition -213 def
/UnderlineThickness 143 def
end readonly def
/CharStrings 5 dict dup begin
/period{318 0 107 0 210 124 _sc
107 124 _m
210 124 _l
210 0 _l
107 0 _l
107 124 _l
_cl}_d
/zero{636 0 66 -13 570 742 _sc
318 664 _m
267 664 229 639 203 589 _c
177 539 165 464 165 364 _c
165 264 177 189 203 139 _c
229 89 267 64 318 64 _c
369 64 407 89 433 139 _c
458 189 471 264 471 364 _c
471 464 458 539 433 589 _c
407 639 369 664 318 664 _c
318 742 _m
399 742 461 709 505 645 _c
548 580 570 486 570 364 _c
570 241 548 147 505 83 _c
461 19 399 -13 318 -13 _c
236 -13 173 19 130 83 _c
87 147 66 241 66 364 _c
66 486 87 580 130 645 _c
173 709 236 742 318 742 _c
_cl}_d
/one{636 0 110 0 544 729 _sc
124 83 _m
285 83 _l
285 639 _l
110 604 _l
110 694 _l
284 729 _l
383 729 _l
383 83 _l
544 83 _l
544 0 _l
124 0 _l
124 83 _l
_cl}_d
/five{{636 0 77 -13 549 729 _sc
108 729 _m
495 729 _l
495 646 _l
198 646 _l
198 467 _l
212 472 227 476 241 478 _c
255 480 270 482 284 482 _c
365 482 429 459 477 415 _c
525 370 549 310 549 234 _c
549 155 524 94 475 51 _c
426 8 357 -13 269 -13 _c
238 -13 207 -10 175 -6 _c
143 -1 111 6 77 17 _c
77 116 _l
106 100 136 88 168 80 _c
199 72 232 69 267 69 _c
}_e{323 69 368 83 401 113 _c
433 143 450 183 450 234 _c
450 284 433 324 401 354 _c
368 384 323 399 267 399 _c
241 399 214 396 188 390 _c
162 384 135 375 108 363 _c
108 729 _l
_cl}_e}_d
/minus{838 0 106 272 732 355 _sc
106 355 _m
732 355 _l
732 272 _l
106 272 _l
106 355 _l
_cl}_d
end readonly def

/BuildGlyph
 {exch begin
 CharStrings exch
 2 copy known not{pop /.notdef}if
 true 3 1 roll get exec
 end}_d

/BuildChar {
 1 index /Encoding get exch get
 1 index /BuildGlyph get exec
}_d

FontName currentdict end definefont pop
end
%%EndProlog
mpldict begin
198 288 translate
216 216 0 0 clipbox
gsave
0 0 m
216 0 l
216 216 l
0 216 l
cl
1.000 setgray
fill
grestore
gsave
27 24.3 m
194.4 24.3 l
194.4 191.7 l
27 191.7 l
cl
1.000 setgray
fill
grestore
2.000 setlinewidth
1 setlinejoin
2 setlinecap
[] 0 setdash
0.000 0.000 1.000 setrgbcolor
gsave
167.4 167.4 27 24.3 clipbox
141.764 108 m
141.653 108.38 l
141.538 108.757 l
141.422 109.132 l
141.302 109.503 l
141.18 109.873 l
141.056 110.239 l
140.929 110.603 l
140.799 110.965 l
140.667 111.323 l
140.532 111.679 l
140.395 112.033 l
140.256 112.384 l
140.114 112.733 l
139.969 113.079 l
139.823 113.422 l
139.674 113.763 l
139.522 114.102 l
139.369 114.438 l
139.213 114.771 l
139.054 115.102 l
138.894 115.431 l
138.731 115.757 l
138.566 116.081 l
138.399 116.402 l
138.229 116.721 l
138.057 117.038 l
137.884 117.352 l
137.708 117.663 l
137.529 117.973 l
137.349 118.28 l
137.166 118.584 l
136.982 118.886 l
136.795 119.186 l
136.606 119.483 l
136.415 119.778 l
136.222 120.071 l
136.026 120.361 l
135.829 120.649 l
135.629 120.934 l
135.428 121.217 l
135.224 121.498 l
135.018 121.776 l
134.811 122.052 l
134.601 122.326 l
134.389 122.597 l
134.175 122.865 l
133.958 123.131 l
133.74 123.395 l
133.52 123.656 l
133.298 123.915 l
133.074 124.172 l
132.848 124.426 l
132.619 124.677 l
132.389 124.926 l
132.157 125.173 l
131.922 125.417 l
131.686 125.658 l
131.448 125.897 l
131.207 126.133 l
130.965 126.367 l
130.721 126.598 l
130.474 126.827 l
130.226 127.053 l
129.976 127.276 l
129.724 127.496 l
129.47 127.714 l
129.214 127.93 l
128.956 128.142 l
128.696 128.352 l
128.434 128.559 l
128.17 128.763 l
127.905 128.964 l
127.637 129.162 l
127.368 129.358 l
127.097 129.551 l
126.824 129.74 l
126.549 129.927 l
126.272 130.111 l
125.994 130.292 l
125.714 130.469 l
125.432 130.644 l
125.148 130.816 l
124.862 130.984 l
124.575 131.15 l
124.287 131.312 l
123.996 131.471 l
123.704 131.626 l
123.41 131.779 l
123.115 131.928 l
122.818 132.074 l
122.519 132.216 l
122.219 132.356 l
121.918 132.491 l
121.615 132.624 l
121.311 132.753 l
121.005 132.878 l
120.698 133 l
120.389 133.118 l
120.079 133.233 l
119.768 133.344 l
119.456 133.451 l
119.142 133.555 l
118.828 133.655 l
118.512 133.752 l
118.195 133.844 l
117.877 133.933 l
117.558 134.019 l
117.238 134.1 l
116.917 134.177 l
116.595 134.251 l
116.272 134.321 l
115.949 134.387 l
115.624 134.449 l
115.299 134.507 l
114.974 134.561 l
114.647 134.612 l
114.321 134.658 l
113.993 134.7 l
113.665 134.739 l
113.337 134.773 l
113.008 134.803 l
112.679 134.83 l
112.35 134.852 l
112.02 134.87 l
111.69 134.884 l
111.36 134.894 l
111.03 134.9 l
110.7 134.902 l
110.37 134.9 l
110.04 134.894 l
109.71 134.884 l
109.38 134.87 l
109.05 134.852 l
108.721 134.83 l
108.392 134.803 l
108.063 134.773 l
107.735 134.739 l
107.407 134.7 l
107.079 134.658 l
106.753 134.612 l
106.426 134.561 l
106.101 134.507 l
105.776 134.449 l
105.451 134.387 l
105.128 134.321 l
104.805 134.251 l
104.483 134.177 l
104.162 134.1 l
103.842 134.019 l
103.523 133.933 l
103.205 133.844 l
102.888 133.752 l
102.572 133.655 l
102.258 133.555 l
101.944 133.451 l
101.632 133.344 l
101.321 133.233 l
101.011 133.118 l
100.702 133 l
100.395 132.878 l
100.089 132.753 l
99.785 132.624 l
99.4821 132.491 l
99.1806 132.356 l
98.8807 132.216 l
98.5821 132.074 l
98.2852 131.928 l
97.9898 131.779 l
97.6962 131.626 l
97.404 131.471 l
97.1135 131.312 l
96.8247 131.15 l
96.5376 130.984 l
96.252 130.816 l
95.9684 130.644 l
95.6864 130.469 l
95.4062 130.292 l
95.1277 130.111 l
94.8511 129.927 l
94.5763 129.74 l
94.3032 129.551 l
94.0321 129.358 l
93.7628 129.162 l
93.4953 128.964 l
93.2298 128.763 l
92.9661 128.559 l
92.7042 128.352 l
92.4444 128.142 l
92.1864 127.93 l
91.9304 127.714 l
91.6763 127.496 l
91.424 127.276 l
91.1738 127.053 l
90.9256 126.827 l
90.6794 126.598 l
90.4351 126.367 l
90.1927 126.133 l
89.9524 125.897 l
89.714 125.658 l
89.4777 125.417 l
89.2433 125.173 l
89.011 124.926 l
88.7807 124.677 l
88.5525 124.426 l
88.3261 124.172 l
88.102 123.915 l
87.8798 123.656 l
87.6595 123.395 l
87.4415 123.131 l
87.2254 122.865 l
87.0114 122.597 l
86.7993 122.326 l
86.5894 122.052 l
86.3816 121.776 l
86.1759 121.498 l
85.9722 121.217 l
85.7707 120.934 l
85.571 120.649 l
85.3737 120.361 l
85.1784 120.071 l
84.9851 119.778 l
84.7942 119.483 l
84.6052 119.186 l
84.4184 118.886 l
84.2336 118.584 l
84.0511 118.28 l
83.8706 117.973 l
83.6925 117.663 l
83.5164 117.352 l
83.3425 117.038 l
83.1708 116.721 l
83.0013 116.402 l
82.834 116.081 l
82.6689 115.757 l
82.5062 115.431 l
82.3457 115.102 l
82.1874 114.771 l
82.0315 114.438 l
81.8777 114.102 l
81.7263 113.763 l
81.5772 113.422 l
81.4305 113.079 l
81.2864 112.733 l
81.1444 112.384 l
81.0048 112.033 l
80.8679 111.679 l
80.7332 111.323 l
80.6009 110.965 l
80.4713 110.603 l
80.3442 110.239 l
80.2197 109.873 l
80.0977 109.503 l
79.9782 109.132 l
79.8615 108.757 l
79.7472 108.38 l
79.6358 108 l
79.5271 107.617 l
79.4212 107.232 l
79.3181 106.844 l
79.2179 106.453 l
79.1204 106.06 l
79.0259 105.664 l
78.9344 105.265 l
78.8458 104.863 l
78.7603 104.458 l
78.6779 104.05 l
78.5987 103.64 l
78.5224 103.227 l
78.4495 102.811 l
78.3798 102.392 l
78.3134 101.97 l
78.2507 101.545 l
78.1911 101.118 l
78.1351 100.687 l
78.0826 100.254 l
78.0335 99.8175 l
77.9884 99.3782 l
77.9469 98.936 l
77.9092 98.4908 l
77.8752 98.0427 l
77.8453 97.5917 l
77.8194 97.1377 l
77.7975 96.6808 l
77.7798 96.221 l
77.7663 95.7582 l
77.7571 95.2925 l
77.7524 94.824 l
77.752 94.3525 l
77.7561 93.8781 l
77.7649 93.4009 l
77.7783 92.9208 l
77.7966 92.4379 l
77.8198 91.9522 l
77.8479 91.4637 l
77.8812 90.9724 l
77.9196 90.4785 l
77.9633 89.9819 l
78.0123 89.4826 l
78.0667 88.9807 l
78.1268 88.4764 l
78.1924 87.9694 l
78.2639 87.4601 l
78.3412 86.9483 l
78.4246 86.4343 l
78.514 85.9179 l
78.6096 85.3994 l
78.7117 84.8789 l
78.82 84.3562 l
78.9348 83.8315 l
79.0565 83.3051 l
79.1848 82.7769 l
79.32 82.2471 l
79.4621 81.7157 l
79.6115 81.1829 l
79.7679 80.6486 l
79.9318 80.1134 l
80.1032 79.577 l
80.2822 79.0399 l
80.4688 78.5019 l
80.6632 77.9632 l
80.8656 77.4242 l
81.0759 76.8849 l
81.2944 76.3454 l
81.5211 75.8061 l
81.7563 75.2671 l
81.9998 74.7285 l
82.252 74.1907 l
82.5127 73.6537 l
82.7822 73.1178 l
83.0606 72.5834 l
83.3478 72.0504 l
83.6441 71.5193 l
83.9494 70.9903 l
84.264 70.4637 l
84.5877 69.9397 l
84.9206 69.4184 l
85.2631 68.9006 l
85.6148 68.3862 l
85.9759 67.8754 l
86.3465 67.3687 l
86.7267 66.8666 l
87.1163 66.369 l
87.5154 65.8764 l
87.9241 65.3892 l
88.3422 64.9077 l
88.7699 64.4324 l
89.207 63.9633 l
89.6535 63.501 l
90.1094 63.0457 l
90.5747 62.598 l
91.0491 62.158 l
91.5328 61.7262 l
92.0255 61.3031 l
92.5271 60.8885 l
93.0376 60.4834 l
93.5568 60.088 l
94.0845 59.7023 l
94.6206 59.327 l
95.165 58.9625 l
95.7174 58.6089 l
96.2776 58.2667 l
96.8455 57.9363 l
97.4208 57.6179 l
98.0033 57.312 l
98.5927 57.0187 l
99.1888 56.7385 l
99.7913 56.4714 l
100.4 56.218 l
101.014 55.9784 l
101.634 55.753 l
102.259 55.5421 l
102.889 55.3458 l
103.524 55.1641 l
104.163 54.9977 l
104.805 54.8466 l
105.451 54.7107 l
106.101 54.5907 l
106.753 54.4861 l
107.407 54.3976 l
108.063 54.3249 l
108.721 54.2683 l
109.38 54.2279 l
110.04 54.2035 l
110.7 54.1955 l
111.36 54.2035 l
112.02 54.2279 l
112.679 54.2683 l
113.337 54.3249 l
113.993 54.3976 l
114.647 54.4861 l
115.299 54.5907 l
115.949 54.7107 l
116.595 54.8466 l
117.237 54.9977 l
117.876 55.1641 l
118.511 55.3458 l
119.141 55.5421 l
119.766 55.753 l
120.386 55.9784 l
121 56.218 l
121.609 56.4714 l
122.211 56.7385 l
122.807 57.0187 l
123.397 57.312 l
123.979 57.6179 l
124.554 57.9363 l
125.122 58.2667 l
125.683 58.6089 l
126.235 58.9625 l
126.779 59.327 l
127.315 59.7023 l
127.843 60.088 l
128.362 60.4834 l
128.873 60.8885 l
129.374 61.3031 l
129.867 61.7262 l
130.351 62.158 l
130.825 62.598 l
131.291 63.0457 l
131.746 63.501 l
132.193 63.9633 l
132.63 64.4324 l
133.058 64.9077 l
133.476 65.3892 l
133.885 65.8764 l
134.284 66.369 l
134.673 66.8666 l
135.053 67.3687 l
135.424 67.8754 l
135.785 68.3862 l
136.137 68.9006 l
136.479 69.4184 l
136.812 69.9397 l
137.136 70.4637 l
137.451 70.9903 l
137.756 71.5193 l
138.052 72.0504 l
138.339 72.5834 l
138.618 73.1178 l
138.887 73.6537 l
139.148 74.1907 l
139.4 74.7285 l
139.644 75.2671 l
139.879 75.8061 l
140.106 76.3454 l
140.324 76.8849 l
140.534 77.4242 l
140.737 77.9632 l
140.931 78.5019 l
141.118 79.0399 l
141.297 79.577 l
141.468 80.1134 l
141.632 80.6486 l
141.789 81.1829 l
141.938 81.7157 l
142.08 82.2471 l
142.215 82.7769 l
142.344 83.3051 l
142.465 83.8315 l
142.58 84.3562 l
142.688 84.8789 l
142.79 85.3994 l
142.886 85.9179 l
142.975 86.4343 l
143.059 86.9483 l
143.136 87.4601 l
143.208 87.9694 l
143.273 88.4764 l
143.333 88.9807 l
143.388 89.4826 l
143.437 89.9819 l
143.48 90.4785 l
143.519 90.9724 l
143.552 91.4637 l
143.58 91.9522 l
143.603 92.4379 l
143.622 92.9208 l
143.635 93.4009 l
143.644 93.8781 l
143.648 94.3525 l
143.648 94.824 l
143.643 95.2925 l
143.634 95.7582 l
143.62 96.221 l
143.602 96.6808 l
143.581 97.1377 l
143.555 97.5917 l
143.525 98.0427 l
143.491 98.4908 l
143.453 98.936 l
143.412 99.3782 l
143.366 99.8175 l
143.317 100.254 l
143.265 100.687 l
143.209 101.118 l
143.149 101.545 l
143.087 101.97 l
143.02 102.392 l
142.951 102.811 l
142.878 103.227 l
142.801 103.64 l
142.722 104.05 l
142.64 104.458 l
142.554 104.863 l
142.466 105.265 l
142.374 105.664 l
142.28 106.06 l
142.182 106.453 l
142.082 106.844 l
141.979 107.232 l
141.873 107.617 l
141.764 108 l
cl
gsave
0.500 0.500 1.000 setrgbcolor
fill
grestore
stroke
grestore
1.000 setlinewidth
1.000 0.000 0.000 setrgbcolor
gsave
167.4 167.4 27 24.3 clipbox
186.791 108 m
186.425 115.458 l
185.329 122.845 l
183.514 130.088 l
180.999 137.119 l
177.806 143.869 l
173.967 150.274 l
169.519 156.272 l
164.504 161.804 l
158.972 166.819 l
152.974 171.267 l
146.569 175.106 l
139.819 178.299 l
132.788 180.814 l
125.545 182.629 l
118.158 183.725 l
110.7 184.091 l
103.242 183.725 l
95.8554 182.629 l
88.612 180.814 l
81.5813 178.299 l
74.831 175.106 l
68.4262 171.267 l
62.4284 166.819 l
56.8956 161.804 l
51.8809 156.272 l
47.4327 150.274 l
43.5938 143.869 l
40.4012 137.119 l
37.8855 130.088 l
36.0712 122.845 l
34.9755 115.458 l
34.6091 108 l
34.9755 100.542 l
36.0712 93.1554 l
37.8855 85.912 l
40.4012 78.8813 l
43.5938 72.131 l
47.4327 65.7262 l
51.8809 59.7284 l
56.8956 54.1956 l
62.4284 49.1809 l
68.4262 44.7327 l
74.831 40.8938 l
81.5813 37.7012 l
88.612 35.1855 l
95.8554 33.3712 l
103.242 32.2755 l
110.7 31.9091 l
118.158 32.2755 l
125.545 33.3712 l
132.788 35.1855 l
139.819 37.7012 l
146.569 40.8938 l
152.974 44.7327 l
158.972 49.1809 l
164.504 54.1956 l
169.519 59.7284 l
173.967 65.7262 l
177.806 72.131 l
180.999 78.8813 l
183.514 85.912 l
185.329 93.1554 l
186.425 100.542 l
186.791 108 l
stroke
grestore
0.750 0.750 0.000 setrgbcolor
gsave
167.4 167.4 27 24.3 clipbox
154.631 108 m
154.42 112.306 l
153.787 116.571 l
152.739 120.753 l
151.287 124.812 l
149.444 128.709 l
147.227 132.407 l
144.659 135.87 l
141.764 139.064 l
138.57 141.959 l
135.107 144.527 l
131.409 146.744 l
127.512 148.587 l
123.453 150.039 l
119.271 151.087 l
115.006 151.72 l
110.7 151.931 l
106.394 151.72 l
102.129 151.087 l
97.9475 150.039 l
93.8883 148.587 l
89.991 146.744 l
86.2932 144.527 l
82.8304 141.959 l
79.636 139.064 l
76.7408 135.87 l
74.1726 132.407 l
71.9562 128.709 l
70.1129 124.812 l
68.6606 120.753 l
67.613 116.571 l
66.9804 112.306 l
66.7689 108 l
66.9804 103.694 l
67.613 99.4295 l
68.6606 95.2475 l
70.1129 91.1883 l
71.9562 87.291 l
74.1726 83.5932 l
76.7408 80.1304 l
79.636 76.936 l
82.8304 74.0408 l
86.2932 71.4726 l
89.991 69.2562 l
93.8883 67.4129 l
97.9475 65.9606 l
102.129 64.913 l
106.394 64.2804 l
110.7 64.0689 l
115.006 64.2804 l
119.271 64.913 l
123.453 65.9606 l
127.512 67.4129 l
131.409 69.2562 l
135.107 71.4726 l
138.57 74.0408 l
141.764 76.936 l
144.659 80.1304 l
147.227 83.5932 l
149.444 87.291 l
151.287 91.1883 l
152.739 95.2475 l
153.787 99.4295 l
154.42 103.694 l
154.631 108 l
stroke
grestore
gsave
167.4 167.4 27 24.3 clipbox
164.504 108 m
164.245 113.274 l
163.471 118.497 l
162.188 123.619 l
160.409 128.59 l
158.151 133.363 l
155.437 137.892 l
152.291 142.133 l
148.745 146.045 l
144.833 149.591 l
140.592 152.737 l
136.063 155.451 l
131.29 157.709 l
126.319 159.488 l
121.197 160.771 l
115.974 161.545 l
110.7 161.804 l
105.426 161.545 l
100.203 160.771 l
95.0814 159.488 l
90.1099 157.709 l
85.3368 155.451 l
80.8079 152.737 l
76.5669 149.591 l
72.6545 146.045 l
69.1086 142.133 l
65.9633 137.892 l
63.2488 133.363 l
60.9912 128.59 l
59.2124 123.619 l
57.9294 118.497 l
57.1547 113.274 l
56.8956 108 l
57.1547 102.726 l
57.9294 97.5033 l
59.2124 92.3814 l
60.9912 87.4099 l
63.2488 82.6368 l
65.9633 78.1079 l
69.1086 73.8669 l
72.6545 69.9545 l
76.5669 66.4086 l
80.8079 63.2633 l
85.3368 60.5488 l
90.1099 58.2912 l
95.0814 56.5124 l
100.203 55.2294 l
105.426 54.4547 l
110.7 54.1956 l
115.974 54.4547 l
121.197 55.2294 l
126.319 56.5124 l
131.29 58.2912 l
136.063 60.5488 l
140.592 63.2633 l
144.833 66.4086 l
148.745 69.9545 l
152.291 73.8669 l
155.437 78.1079 l
158.151 82.6368 l
160.409 87.4099 l
162.188 92.3814 l
163.471 97.5033 l
164.245 102.726 l
164.504 108 l
stroke
grestore
gsave
167.4 167.4 27 24.3 clipbox
141.764 108 m
141.614 111.045 l
141.167 114.06 l
140.426 117.017 l
139.399 119.888 l
138.096 122.643 l
136.529 125.258 l
134.713 127.707 l
132.666 129.966 l
130.407 132.013 l
127.958 133.829 l
125.343 135.396 l
122.588 136.699 l
119.717 137.726 l
116.76 138.467 l
113.745 138.914 l
110.7 139.064 l
107.655 138.914 l
104.64 138.467 l
101.683 137.726 l
98.8123 136.699 l
96.0565 135.396 l
93.4418 133.829 l
90.9932 132.013 l
88.7344 129.966 l
86.6872 127.707 l
84.8712 125.258 l
83.304 122.643 l
82.0006 119.888 l
80.9736 117.017 l
80.2329 114.06 l
79.7856 111.045 l
79.636 108 l
79.7856 104.955 l
80.2329 101.94 l
80.9736 98.9826 l
82.0006 96.1123 l
83.304 93.3565 l
84.8712 90.7418 l
86.6872 88.2932 l
88.7344 86.0344 l
90.9932 83.9872 l
93.4418 82.1712 l
96.0565 80.604 l
98.8123 79.3006 l
101.683 78.2736 l
104.64 77.5329 l
107.655 77.0856 l
110.7 76.936 l
113.745 77.0856 l
116.76 77.5329 l
119.717 78.2736 l
122.588 79.3006 l
125.343 80.604 l
127.958 82.1712 l
130.407 83.9872 l
132.666 86.0344 l
134.713 88.2932 l
136.529 90.7418 l
138.096 93.3565 l
139.399 96.1123 l
140.426 98.9826 l
141.167 101.94 l
141.614 104.955 l
141.764 108 l
stroke
grestore
0.000 0.500 0.000 setrgbcolor
gsave
167.4 167.4 27 24.3 clipbox
136.064 108 m
135.942 110.486 l
135.576 112.948 l
134.971 115.363 l
134.133 117.706 l
133.069 119.956 l
131.789 122.091 l
130.306 124.091 l
128.635 125.935 l
126.791 127.606 l
124.791 129.089 l
122.656 130.369 l
120.406 131.433 l
118.063 132.271 l
115.648 132.876 l
113.186 133.242 l
110.7 133.364 l
108.214 133.242 l
105.752 132.876 l
103.337 132.271 l
100.994 131.433 l
98.7437 130.369 l
96.6087 129.089 l
94.6095 127.606 l
92.7652 125.935 l
91.0936 124.091 l
89.6109 122.091 l
88.3313 119.956 l
87.2671 117.706 l
86.4285 115.363 l
85.8237 112.948 l
85.4585 110.486 l
85.3364 108 l
85.4585 105.514 l
85.8237 103.052 l
86.4285 100.637 l
87.2671 98.2938 l
88.3313 96.0437 l
89.6109 93.9087 l
91.0936 91.9095 l
92.7652 90.0652 l
94.6095 88.3936 l
96.6087 86.9109 l
98.7437 85.6313 l
100.994 84.5671 l
103.337 83.7285 l
105.752 83.1237 l
108.214 82.7585 l
110.7 82.6364 l
113.186 82.7585 l
115.648 83.1237 l
118.063 83.7285 l
120.406 84.5671 l
122.656 85.6313 l
124.791 86.9109 l
126.791 88.3936 l
128.635 90.0652 l
130.306 91.9095 l
131.789 93.9087 l
133.069 96.0437 l
134.133 98.2938 l
134.971 100.637 l
135.576 103.052 l
135.942 105.514 l
136.064 108 l
stroke
grestore
0.500 setlinewidth
0 setlinecap
0.000 setgray
gsave
/o {
gsave
newpath
translate
0.5 setlinewidth
1 setlinejoin
0 setlinecap
0 0 m
0 4 l
gsave
0.000 setgray
fill
grestore
stroke
grestore
} bind def
34.6091 24.3 o
grestore
gsave
/o {
gsave
newpath
translate
0.5 setlinewidth
1 setlinejoin
0 setlinecap
0 0 m
0 -4 l
gsave
0.000 setgray
fill
grestore
stroke
grestore
} bind def
34.6091 191.7 o
grestore
/BitstreamVeraSans-Roman findfont
9.000 scalefont
setfont
gsave
24.452841 13.487500 translate
0.000000 rotate
0.000000 0.125000 m /minus glyphshow
7.541016 0.125000 m /one glyphshow
13.267090 0.125000 m /period glyphshow
16.127930 0.125000 m /zero glyphshow
grestore
gsave
/o {
gsave
newpath
translate
0.5 setlinewidth
1 setlinejoin
0 setlinecap
0 0 m
0 4 l
gsave
0.000 setgray
fill
grestore
stroke
grestore
} bind def
72.6545 24.3 o
grestore
gsave
/o {
gsave
newpath
translate
0.5 setlinewidth
1 setlinejoin
0 setlinecap
0 0 m
0 -4 l
gsave
0.000 setgray
fill
grestore
stroke
grestore
} bind def
72.6545 191.7 o
grestore
gsave
62.592045 13.487500 translate
0.000000 rotate
0.000000 0.125000 m /minus glyphshow
7.541016 0.125000 m /zero glyphshow
13.267090 0.125000 m /period glyphshow
16.127930 0.125000 m /five glyphshow
grestore
gsave
/o {
gsave
newpath
translate
0.5 setlinewidth
1 setlinejoin
0 setlinecap
0 0 m
0 4 l
gsave
0.000 setgray
fill
grestore
stroke
grestore
} bind def
110.7 24.3 o
grestore
gsave
/o {
gsave
newpath
translate
0.5 setlinewidth
1 setlinejoin
0 setlinecap
0 0 m
0 -4 l
gsave
0.000 setgray
fill
grestore
stroke
grestore
} bind def
110.7 191.7 o
grestore
gsave
104.137500 13.487500 translate
0.000000 rotate
0.000000 0.125000 m /zero glyphshow
5.726074 0.125000 m /period glyphshow
8.586914 0.125000 m /zero glyphshow
grestore
gsave
/o {
gsave
newpath
translate
0.5 setlinewidth
1 setlinejoin
0 setlinecap
0 0 m
0 4 l
gsave
0.000 setgray
fill
grestore
stroke
grestore
} bind def
148.745 24.3 o
grestore
gsave
/o {
gsave
newpath
translate
0.5 setlinewidth
1 setlinejoin
0 setlinecap
0 0 m
0 -4 l
gsave
0.000 setgray
fill
grestore
stroke
grestore
} bind def
148.745 191.7 o
grestore
gsave
142.276705 13.487500 translate
0.000000 rotate
0.000000 0.125000 m /zero glyphshow
5.726074 0.125000 m /period glyphshow
8.586914 0.125000 m /five glyphshow
grestore
gsave
/o {
gsave
newpath
translate
0.5 setlinewidth
1 setlinejoin
0 setlinecap
0 0 m
0 4 l
gsave
0.000 setgray
fill
grestore
stroke
grestore
} bind def
186.791 24.3 o
grestore
gsave
/o {
gsave
newpath
translate
0.5 setlinewidth
1 setlinejoin
0 setlinecap
0 0 m
0 -4 l
gsave
0.000 setgray
fill
grestore
stroke
grestore
} bind def
186.791 191.7 o
grestore
gsave
180.423722 13.487500 translate
0.000000 rotate
0.000000 0.125000 m /one glyphshow
5.726074 0.125000 m /period glyphshow
8.586914 0.125000 m /zero glyphshow
grestore
gsave
/o {
gsave
newpath
translate
0.5 setlinewidth
1 setlinejoin
0 setlinecap
0 0 m
4 0 l
gsave
0.000 setgray
fill
grestore
stroke
grestore
} bind def
27 31.9091 o
grestore
gsave
/o {
gsave
newpath
translate
0.5 setlinewidth
1 setlinejoin
0 setlinecap
0 0 m
-4 0 l
gsave
0.000 setgray
fill
grestore
stroke
grestore
} bind def
194.4 31.9091 o
grestore
gsave
2.687500 28.502841 translate
0.000000 rotate
0.000000 0.125000 m /minus glyphshow
7.541016 0.125000 m /one glyphshow
13.267090 0.125000 m /period glyphshow
16.127930 0.125000 m /zero glyphshow
grestore
gsave
/o {
gsave
newpath
translate
0.5 setlinewidth
1 setlinejoin
0 setlinecap
0 0 m
4 0 l
gsave
0.000 setgray
fill
grestore
stroke
grestore
} bind def
27 69.9545 o
grestore
gsave
/o {
gsave
newpath
translate
0.5 setlinewidth
1 setlinejoin
0 setlinecap
0 0 m
-4 0 l
gsave
0.000 setgray
fill
grestore
stroke
grestore
} bind def
194.4 69.9545 o
grestore
gsave
2.875000 66.548295 translate
0.000000 rotate
0.000000 0.125000 m /minus glyphshow
7.541016 0.125000 m /zero glyphshow
13.267090 0.125000 m /period glyphshow
16.127930 0.125000 m /five glyphshow
grestore
gsave
/o {
gsave
newpath
translate
0.5 setlinewidth
1 setlinejoin
0 setlinecap
0 0 m
4 0 l
gsave
0.000 setgray
fill
grestore
stroke
grestore
} bind def
27 108 o
grestore
gsave
/o {
gsave
newpath
translate
0.5 setlinewidth
1 setlinejoin
0 setlinecap
0 0 m
-4 0 l
gsave
0.000 setgray
fill
grestore
stroke
grestore
} bind def
194.4 108 o
grestore
gsave
9.875000 104.593750 translate
0.000000 rotate
0.000000 0.125000 m /zero glyphshow
5.726074 0.125000 m /period glyphshow
8.586914 0.125000 m /zero glyphshow
grestore
gsave
/o {
gsave
newpath
translate
0.5 setlinewidth
1 setlinejoin
0 setlinecap
0 0 m
4 0 l
gsave
0.000 setgray
fill
grestore
stroke
grestore
} bind def
27 146.045 o
grestore
gsave
/o {
gsave
newpath
translate
0.5 setlinewidth
1 setlinejoin
0 setlinecap
0 0 m
-4 0 l
gsave
0.000 setgray
fill
grestore
stroke
grestore
} bind def
194.4 146.045 o
grestore
gsave
10.062500 142.639205 translate
0.000000 rotate
0.000000 0.125000 m /zero glyphshow
5.726074 0.125000 m /period glyphshow
8.586914 0.125000 m /five glyphshow
grestore
gsave
/o {
gsave
newpath
translate
0.5 setlinewidth
1 setlinejoin
0 setlinecap
0 0 m
4 0 l
gsave
0.000 setgray
fill
grestore
stroke
grestore
} bind def
27 184.091 o
grestore
gsave
/o {
gsave
newpath
translate
0.5 setlinewidth
1 setlinejoin
0 setlinecap
0 0 m
-4 0 l
gsave
0.000 setgray
fill
grestore
stroke
grestore
} bind def
194.4 184.091 o
grestore
gsave
10.265625 180.684659 translate
0.000000 rotate
0.000000 0.125000 m /one glyphshow
5.726074 0.125000 m /period glyphshow
8.586914 0.125000 m /zero glyphshow
grestore
1.000 setlinewidth
2 setlinecap
gsave
27 191.7 m
194.4 191.7 l
stroke
grestore
gsave
194.4 24.3 m
194.4 191.7 l
stroke
grestore
gsave
27 24.3 m
194.4 24.3 l
stroke
grestore
gsave
27 24.3 m
27 191.7 l
stroke
grestore

end
showpage
