%!PS-Adobe-3.0 EPSF-3.0
%%Title: ../../thesis/images/4l_2d_bloch//H.eps
%%Creator: matplotlib version 1.2.1, http://matplotlib.org/
%%CreationDate: Mon May 20 13:30:25 2013
%%Orientation: portrait
%%BoundingBox: 198 288 414 504
%%EndComments
%%BeginProlog
/mpldict 8 dict def
mpldict begin
/m { moveto } bind def
/l { lineto } bind def
/r { rlineto } bind def
/c { curveto } bind def
/cl { closepath } bind def
/box {
m
1 index 0 r
0 exch r
neg 0 r
cl
} bind def
/clipbox {
box
clip
newpath
} bind def
%!PS-Adobe-3.0 Resource-Font
%%Title: Bitstream Vera Sans
%%Copyright: Copyright (c) 2003 by Bitstream, Inc. All Rights Reserved.
%%Creator: Converted from TrueType to type 3 by PPR
25 dict begin
/_d{bind def}bind def
/_m{moveto}_d
/_l{lineto}_d
/_cl{closepath eofill}_d
/_c{curveto}_d
/_sc{7 -1 roll{setcachedevice}{pop pop pop pop pop pop}ifelse}_d
/_e{exec}_d
/FontName /BitstreamVeraSans-Roman def
/PaintType 0 def
/FontMatrix[.001 0 0 .001 0 0]def
/FontBBox[-183 -236 1287 928]def
/FontType 3 def
/Encoding [ /period /zero /one /five /minus ] def
/FontInfo 10 dict dup begin
/FamilyName (Bitstream Vera Sans) def
/FullName (Bitstream Vera Sans) def
/Notice (Copyright (c) 2003 by Bitstream, Inc. All Rights Reserved. Bitstream Vera is a trademark of Bitstream, Inc.) def
/Weight (Roman) def
/Version (Release 1.10) def
/ItalicAngle 0.0 def
/isFixedPitch false def
/UnderlinePosition -213 def
/UnderlineThickness 143 def
end readonly def
/CharStrings 5 dict dup begin
/period{318 0 107 0 210 124 _sc
107 124 _m
210 124 _l
210 0 _l
107 0 _l
107 124 _l
_cl}_d
/zero{636 0 66 -13 570 742 _sc
318 664 _m
267 664 229 639 203 589 _c
177 539 165 464 165 364 _c
165 264 177 189 203 139 _c
229 89 267 64 318 64 _c
369 64 407 89 433 139 _c
458 189 471 264 471 364 _c
471 464 458 539 433 589 _c
407 639 369 664 318 664 _c
318 742 _m
399 742 461 709 505 645 _c
548 580 570 486 570 364 _c
570 241 548 147 505 83 _c
461 19 399 -13 318 -13 _c
236 -13 173 19 130 83 _c
87 147 66 241 66 364 _c
66 486 87 580 130 645 _c
173 709 236 742 318 742 _c
_cl}_d
/one{636 0 110 0 544 729 _sc
124 83 _m
285 83 _l
285 639 _l
110 604 _l
110 694 _l
284 729 _l
383 729 _l
383 83 _l
544 83 _l
544 0 _l
124 0 _l
124 83 _l
_cl}_d
/five{{636 0 77 -13 549 729 _sc
108 729 _m
495 729 _l
495 646 _l
198 646 _l
198 467 _l
212 472 227 476 241 478 _c
255 480 270 482 284 482 _c
365 482 429 459 477 415 _c
525 370 549 310 549 234 _c
549 155 524 94 475 51 _c
426 8 357 -13 269 -13 _c
238 -13 207 -10 175 -6 _c
143 -1 111 6 77 17 _c
77 116 _l
106 100 136 88 168 80 _c
199 72 232 69 267 69 _c
}_e{323 69 368 83 401 113 _c
433 143 450 183 450 234 _c
450 284 433 324 401 354 _c
368 384 323 399 267 399 _c
241 399 214 396 188 390 _c
162 384 135 375 108 363 _c
108 729 _l
_cl}_e}_d
/minus{838 0 106 272 732 355 _sc
106 355 _m
732 355 _l
732 272 _l
106 272 _l
106 355 _l
_cl}_d
end readonly def

/BuildGlyph
 {exch begin
 CharStrings exch
 2 copy known not{pop /.notdef}if
 true 3 1 roll get exec
 end}_d

/BuildChar {
 1 index /Encoding get exch get
 1 index /BuildGlyph get exec
}_d

FontName currentdict end definefont pop
end
%%EndProlog
mpldict begin
198 288 translate
216 216 0 0 clipbox
gsave
0 0 m
216 0 l
216 216 l
0 216 l
cl
1.000 setgray
fill
grestore
gsave
27 24.3 m
194.4 24.3 l
194.4 191.7 l
27 191.7 l
cl
1.000 setgray
fill
grestore
2.000 setlinewidth
1 setlinejoin
2 setlinecap
[] 0 setdash
0.000 0.000 1.000 setrgbcolor
gsave
167.4 167.4 27 24.3 clipbox
137.602 108 m
137.602 108.33 l
137.602 108.66 l
137.602 108.991 l
137.602 109.322 l
137.602 109.653 l
137.602 109.984 l
137.602 110.317 l
137.602 110.65 l
137.602 110.983 l
137.602 111.318 l
137.602 111.654 l
137.602 111.991 l
137.602 112.329 l
137.602 112.668 l
137.602 113.009 l
137.602 113.351 l
137.602 113.695 l
137.602 114.041 l
137.602 114.389 l
137.602 114.739 l
137.602 115.091 l
137.602 115.445 l
137.602 115.802 l
137.602 116.161 l
137.602 116.523 l
137.602 116.887 l
137.602 117.255 l
137.602 117.626 l
137.602 118 l
137.602 118.377 l
137.602 118.758 l
137.602 119.143 l
137.602 119.532 l
137.602 119.925 l
137.602 120.322 l
137.602 120.724 l
137.602 121.13 l
137.602 121.542 l
137.602 121.958 l
137.602 122.38 l
137.602 122.807 l
137.602 123.24 l
137.602 123.679 l
137.602 124.125 l
137.602 124.577 l
137.602 125.036 l
137.602 125.502 l
137.602 125.976 l
137.602 126.457 l
137.602 126.947 l
137.602 127.445 l
137.602 127.952 l
137.602 128.469 l
137.602 128.995 l
137.602 129.531 l
137.602 130.078 l
137.602 130.636 l
137.602 131.206 l
137.602 131.788 l
137.602 132.383 l
137.602 132.991 l
137.602 133.613 l
137.602 134.25 l
137.602 134.902 l
137.602 135.571 l
137.602 136.256 l
137.602 136.96 l
137.602 137.682 l
137.602 138.424 l
137.602 139.187 l
137.602 139.972 l
137.602 140.78 l
137.602 141.613 l
137.602 142.472 l
137.602 143.358 l
137.602 144.273 l
137.602 145.22 l
137.473 146.015 l
136.647 145.82 l
135.843 145.629 l
135.058 145.441 l
134.293 145.257 l
133.546 145.077 l
132.817 144.901 l
132.105 144.727 l
131.409 144.557 l
130.728 144.389 l
130.063 144.225 l
129.411 144.063 l
128.773 143.904 l
128.147 143.748 l
127.535 143.594 l
126.934 143.442 l
126.344 143.292 l
125.765 143.145 l
125.197 143 l
124.639 142.857 l
124.091 142.715 l
123.552 142.576 l
123.022 142.438 l
122.501 142.302 l
121.987 142.168 l
121.482 142.035 l
120.984 141.903 l
120.494 141.773 l
120.011 141.645 l
119.534 141.517 l
119.064 141.391 l
118.6 141.267 l
118.142 141.143 l
117.69 141.02 l
117.244 140.899 l
116.803 140.778 l
116.367 140.659 l
115.936 140.54 l
115.509 140.423 l
115.088 140.306 l
114.67 140.19 l
114.257 140.074 l
113.848 139.96 l
113.442 139.846 l
113.041 139.733 l
112.643 139.62 l
112.248 139.508 l
111.856 139.396 l
111.468 139.285 l
111.083 139.174 l
110.7 139.064 l
110.32 138.954 l
109.943 138.845 l
109.568 138.736 l
109.195 138.627 l
108.825 138.518 l
108.457 138.41 l
108.091 138.302 l
107.726 138.193 l
107.364 138.086 l
107.003 137.978 l
106.643 137.87 l
106.285 137.762 l
105.929 137.655 l
105.573 137.547 l
105.219 137.439 l
104.866 137.332 l
104.513 137.224 l
104.162 137.116 l
103.811 137.007 l
103.461 136.899 l
103.112 136.79 l
102.763 136.682 l
102.414 136.572 l
102.066 136.463 l
101.718 136.353 l
101.37 136.243 l
101.022 136.132 l
100.674 136.021 l
100.326 135.909 l
99.9776 135.797 l
99.6288 135.684 l
99.2797 135.571 l
98.9301 135.457 l
98.58 135.342 l
98.2291 135.227 l
97.8774 135.111 l
97.525 134.994 l
97.1715 134.877 l
96.817 134.758 l
96.4614 134.639 l
96.1046 134.518 l
95.7464 134.397 l
95.3869 134.274 l
95.0258 134.151 l
94.6632 134.026 l
94.2988 133.9 l
93.9327 133.773 l
93.5647 133.645 l
93.1946 133.515 l
92.8225 133.384 l
92.4482 133.252 l
92.0716 133.117 l
91.6927 132.982 l
91.3112 132.844 l
90.9271 132.705 l
90.5404 132.565 l
90.1508 132.422 l
89.7582 132.277 l
89.3626 132.131 l
88.9639 131.982 l
88.5619 131.831 l
88.1564 131.678 l
87.7474 131.523 l
87.3349 131.365 l
86.9186 131.205 l
86.4984 131.042 l
86.0743 130.876 l
85.646 130.708 l
85.2135 130.536 l
84.7767 130.362 l
84.3353 130.184 l
83.8894 130.003 l
83.4387 129.818 l
82.9832 129.63 l
82.5226 129.439 l
82.0569 129.243 l
81.5861 129.043 l
81.1101 128.84 l
80.6286 128.631 l
80.1415 128.419 l
79.6489 128.201 l
79.1504 127.979 l
78.6463 127.751 l
78.1362 127.518 l
77.6204 127.279 l
77.0983 127.035 l
76.5703 126.785 l
76.0364 126.528 l
75.4964 126.265 l
74.9504 125.995 l
74.3985 125.718 l
73.8408 125.433 l
73.2773 125.141 l
72.7084 124.841 l
72.134 124.532 l
71.5547 124.214 l
70.9704 123.888 l
70.382 123.552 l
69.7893 123.207 l
69.1934 122.851 l
68.5945 122.485 l
67.9937 122.108 l
67.3913 121.72 l
66.7887 121.32 l
66.1865 120.909 l
65.5862 120.485 l
64.9889 120.048 l
64.3962 119.599 l
63.8095 119.136 l
63.231 118.66 l
62.6621 118.17 l
62.1051 117.666 l
61.5623 117.149 l
61.0361 116.618 l
60.529 116.073 l
60.0437 115.514 l
59.583 114.943 l
59.1494 114.358 l
58.7464 113.762 l
58.3763 113.153 l
58.042 112.535 l
57.7463 111.906 l
57.4913 111.269 l
57.2795 110.624 l
57.1128 109.974 l
56.9925 109.318 l
56.9198 108.66 l
56.8955 108 l
56.9198 107.34 l
56.9925 106.682 l
57.1128 106.026 l
57.2795 105.376 l
57.4913 104.731 l
57.7463 104.094 l
58.042 103.465 l
58.3763 102.847 l
58.7464 102.238 l
59.1494 101.642 l
59.583 101.057 l
60.0437 100.486 l
60.529 99.9274 l
61.0361 99.3825 l
61.5623 98.8513 l
62.1051 98.3339 l
62.6621 97.8303 l
63.231 97.3405 l
63.8095 96.8642 l
64.3962 96.4015 l
64.9889 95.9519 l
65.5862 95.5153 l
66.1865 95.0913 l
66.7887 94.6796 l
67.3913 94.2799 l
67.9937 93.8917 l
68.5945 93.5148 l
69.1934 93.1487 l
69.7893 92.7931 l
70.382 92.4476 l
70.9704 92.1118 l
71.5547 91.7855 l
72.134 91.4681 l
72.7084 91.1595 l
73.2773 90.8592 l
73.8408 90.5669 l
74.3985 90.2823 l
74.9504 90.0052 l
75.4964 89.7351 l
76.0364 89.4719 l
76.5703 89.2152 l
77.0983 88.9649 l
77.6204 88.7206 l
78.1362 88.482 l
78.6463 88.2491 l
79.1504 88.0215 l
79.6489 87.799 l
80.1415 87.5815 l
80.6286 87.3687 l
81.1101 87.1604 l
81.5861 86.9565 l
82.0569 86.7568 l
82.5226 86.5613 l
82.9832 86.3696 l
83.4387 86.1815 l
83.8894 85.9971 l
84.3353 85.8161 l
84.7767 85.6384 l
85.2135 85.4638 l
85.646 85.2924 l
86.0743 85.1239 l
86.4984 84.9582 l
86.9186 84.7952 l
87.3349 84.6349 l
87.7474 84.4771 l
88.1564 84.3217 l
88.5619 84.1687 l
88.9639 84.0179 l
89.3626 83.8692 l
89.7582 83.7226 l
90.1508 83.5781 l
90.5404 83.4354 l
90.9271 83.2946 l
91.3112 83.1556 l
91.6927 83.0183 l
92.0716 82.8826 l
92.4482 82.7485 l
92.8225 82.6159 l
93.1946 82.4848 l
93.5647 82.3552 l
93.9327 82.2267 l
94.2988 82.0996 l
94.6632 81.9739 l
95.0258 81.8493 l
95.3869 81.7257 l
95.7464 81.6032 l
96.1046 81.4819 l
96.4614 81.3614 l
96.817 81.2421 l
97.1715 81.1235 l
97.525 81.0059 l
97.8774 80.8889 l
98.2291 80.773 l
98.58 80.6576 l
98.9301 80.543 l
99.2797 80.429 l
99.6288 80.3158 l
99.9776 80.2031 l
100.326 80.091 l
100.674 79.9793 l
101.022 79.868 l
101.37 79.7574 l
101.718 79.6471 l
102.066 79.5373 l
102.414 79.4277 l
102.763 79.3185 l
103.112 79.2096 l
103.461 79.1011 l
103.811 78.9926 l
104.162 78.8844 l
104.513 78.7763 l
104.866 78.6684 l
105.219 78.5607 l
105.573 78.453 l
105.929 78.3452 l
106.285 78.2376 l
106.643 78.13 l
107.003 78.0222 l
107.364 77.9144 l
107.726 77.8066 l
108.091 77.6985 l
108.457 77.5903 l
108.825 77.4819 l
109.195 77.3733 l
109.568 77.2645 l
109.943 77.1552 l
110.32 77.0457 l
110.7 76.9358 l
111.083 76.8256 l
111.468 76.7149 l
111.856 76.6038 l
112.248 76.4923 l
112.643 76.38 l
113.041 76.2675 l
113.442 76.1542 l
113.848 76.0401 l
114.257 75.9255 l
114.67 75.8102 l
115.088 75.6942 l
115.509 75.5773 l
115.936 75.4595 l
116.367 75.3409 l
116.803 75.2216 l
117.244 75.101 l
117.69 74.9795 l
118.142 74.8571 l
118.6 74.7334 l
119.064 74.6086 l
119.534 74.4826 l
120.011 74.3554 l
120.494 74.2267 l
120.984 74.0968 l
121.482 73.9655 l
121.987 73.8325 l
122.501 73.6981 l
123.022 73.562 l
123.552 73.4242 l
124.091 73.2848 l
124.639 73.1434 l
125.197 73.0002 l
125.765 72.855 l
126.344 72.7077 l
126.934 72.5582 l
127.535 72.4064 l
128.147 72.2524 l
128.773 72.0958 l
129.411 71.9369 l
130.063 71.7751 l
130.728 71.6107 l
131.409 71.4433 l
132.105 71.273 l
132.817 71.0995 l
133.546 70.9227 l
134.293 70.7426 l
135.058 70.559 l
135.843 70.3715 l
136.647 70.1802 l
137.473 69.9849 l
137.602 70.7804 l
137.602 71.7265 l
137.602 72.6417 l
137.602 73.528 l
137.602 74.3867 l
137.602 75.2195 l
137.602 76.0277 l
137.602 76.8127 l
137.602 77.5758 l
137.602 78.3179 l
137.602 79.0402 l
137.602 79.7437 l
137.602 80.4292 l
137.602 81.0977 l
137.602 81.7501 l
137.602 82.3869 l
137.602 83.0091 l
137.602 83.6171 l
137.602 84.212 l
137.602 84.7939 l
137.602 85.3638 l
137.602 85.9218 l
137.602 86.4689 l
137.602 87.0052 l
137.602 87.5315 l
137.602 88.048 l
137.602 88.5551 l
137.602 89.0533 l
137.602 89.543 l
137.602 90.0245 l
137.602 90.4982 l
137.602 90.9644 l
137.602 91.4233 l
137.602 91.8754 l
137.602 92.3208 l
137.602 92.76 l
137.602 93.1931 l
137.602 93.6204 l
137.602 94.0421 l
137.602 94.4585 l
137.602 94.8697 l
137.602 95.2762 l
137.602 95.6779 l
137.602 96.075 l
137.602 96.4679 l
137.602 96.8567 l
137.602 97.2415 l
137.602 97.6226 l
137.602 98.0002 l
137.602 98.3742 l
137.602 98.745 l
137.602 99.1127 l
137.602 99.4774 l
137.602 99.8393 l
137.602 100.198 l
137.602 100.555 l
137.602 100.909 l
137.602 101.261 l
137.602 101.611 l
137.602 101.959 l
137.602 102.305 l
137.602 102.649 l
137.602 102.991 l
137.602 103.332 l
137.602 103.671 l
137.602 104.009 l
137.602 104.346 l
137.602 104.682 l
137.602 105.017 l
137.602 105.35 l
137.602 105.683 l
137.602 106.016 l
137.602 106.347 l
137.602 106.678 l
137.602 107.009 l
137.602 107.34 l
137.602 107.67 l
137.602 108 l
cl
gsave
0.500 0.500 1.000 setrgbcolor
fill
grestore
stroke
grestore
1.000 setlinewidth
1.000 0.000 0.000 setrgbcolor
gsave
167.4 167.4 27 24.3 clipbox
186.791 108 m
186.425 115.458 l
185.329 122.845 l
183.514 130.088 l
180.999 137.119 l
177.806 143.869 l
173.967 150.274 l
169.519 156.272 l
164.504 161.804 l
158.972 166.819 l
152.974 171.267 l
146.569 175.106 l
139.819 178.299 l
132.788 180.814 l
125.545 182.629 l
118.158 183.725 l
110.7 184.091 l
103.242 183.725 l
95.8554 182.629 l
88.612 180.814 l
81.5813 178.299 l
74.831 175.106 l
68.4262 171.267 l
62.4284 166.819 l
56.8956 161.804 l
51.8809 156.272 l
47.4327 150.274 l
43.5938 143.869 l
40.4012 137.119 l
37.8855 130.088 l
36.0712 122.845 l
34.9755 115.458 l
34.6091 108 l
34.9755 100.542 l
36.0712 93.1554 l
37.8855 85.912 l
40.4012 78.8813 l
43.5938 72.131 l
47.4327 65.7262 l
51.8809 59.7284 l
56.8956 54.1956 l
62.4284 49.1809 l
68.4262 44.7327 l
74.831 40.8938 l
81.5813 37.7012 l
88.612 35.1855 l
95.8554 33.3712 l
103.242 32.2755 l
110.7 31.9091 l
118.158 32.2755 l
125.545 33.3712 l
132.788 35.1855 l
139.819 37.7012 l
146.569 40.8938 l
152.974 44.7327 l
158.972 49.1809 l
164.504 54.1956 l
169.519 59.7284 l
173.967 65.7262 l
177.806 72.131 l
180.999 78.8813 l
183.514 85.912 l
185.329 93.1554 l
186.425 100.542 l
186.791 108 l
stroke
grestore
0.750 0.750 0.000 setrgbcolor
gsave
167.4 167.4 27 24.3 clipbox
154.631 108 m
154.42 112.306 l
153.787 116.571 l
152.739 120.753 l
151.287 124.812 l
149.444 128.709 l
147.227 132.407 l
144.659 135.87 l
141.764 139.064 l
138.57 141.959 l
135.107 144.527 l
131.409 146.744 l
127.512 148.587 l
123.453 150.039 l
119.271 151.087 l
115.006 151.72 l
110.7 151.931 l
106.394 151.72 l
102.129 151.087 l
97.9475 150.039 l
93.8883 148.587 l
89.991 146.744 l
86.2932 144.527 l
82.8304 141.959 l
79.636 139.064 l
76.7408 135.87 l
74.1726 132.407 l
71.9562 128.709 l
70.1129 124.812 l
68.6606 120.753 l
67.613 116.571 l
66.9804 112.306 l
66.7689 108 l
66.9804 103.694 l
67.613 99.4295 l
68.6606 95.2475 l
70.1129 91.1883 l
71.9562 87.291 l
74.1726 83.5932 l
76.7408 80.1304 l
79.636 76.936 l
82.8304 74.0408 l
86.2932 71.4726 l
89.991 69.2562 l
93.8883 67.4129 l
97.9475 65.9606 l
102.129 64.913 l
106.394 64.2804 l
110.7 64.0689 l
115.006 64.2804 l
119.271 64.913 l
123.453 65.9606 l
127.512 67.4129 l
131.409 69.2562 l
135.107 71.4726 l
138.57 74.0408 l
141.764 76.936 l
144.659 80.1304 l
147.227 83.5932 l
149.444 87.291 l
151.287 91.1883 l
152.739 95.2475 l
153.787 99.4295 l
154.42 103.694 l
154.631 108 l
stroke
grestore
gsave
167.4 167.4 27 24.3 clipbox
164.504 108 m
164.245 113.274 l
163.471 118.497 l
162.188 123.619 l
160.409 128.59 l
158.151 133.363 l
155.437 137.892 l
152.291 142.133 l
148.745 146.045 l
144.833 149.591 l
140.592 152.737 l
136.063 155.451 l
131.29 157.709 l
126.319 159.488 l
121.197 160.771 l
115.974 161.545 l
110.7 161.804 l
105.426 161.545 l
100.203 160.771 l
95.0814 159.488 l
90.1099 157.709 l
85.3368 155.451 l
80.8079 152.737 l
76.5669 149.591 l
72.6545 146.045 l
69.1086 142.133 l
65.9633 137.892 l
63.2488 133.363 l
60.9912 128.59 l
59.2124 123.619 l
57.9294 118.497 l
57.1547 113.274 l
56.8956 108 l
57.1547 102.726 l
57.9294 97.5033 l
59.2124 92.3814 l
60.9912 87.4099 l
63.2488 82.6368 l
65.9633 78.1079 l
69.1086 73.8669 l
72.6545 69.9545 l
76.5669 66.4086 l
80.8079 63.2633 l
85.3368 60.5488 l
90.1099 58.2912 l
95.0814 56.5124 l
100.203 55.2294 l
105.426 54.4547 l
110.7 54.1956 l
115.974 54.4547 l
121.197 55.2294 l
126.319 56.5124 l
131.29 58.2912 l
136.063 60.5488 l
140.592 63.2633 l
144.833 66.4086 l
148.745 69.9545 l
152.291 73.8669 l
155.437 78.1079 l
158.151 82.6368 l
160.409 87.4099 l
162.188 92.3814 l
163.471 97.5033 l
164.245 102.726 l
164.504 108 l
stroke
grestore
gsave
167.4 167.4 27 24.3 clipbox
141.764 108 m
141.614 111.045 l
141.167 114.06 l
140.426 117.017 l
139.399 119.888 l
138.096 122.643 l
136.529 125.258 l
134.713 127.707 l
132.666 129.966 l
130.407 132.013 l
127.958 133.829 l
125.343 135.396 l
122.588 136.699 l
119.717 137.726 l
116.76 138.467 l
113.745 138.914 l
110.7 139.064 l
107.655 138.914 l
104.64 138.467 l
101.683 137.726 l
98.8123 136.699 l
96.0565 135.396 l
93.4418 133.829 l
90.9932 132.013 l
88.7344 129.966 l
86.6872 127.707 l
84.8712 125.258 l
83.304 122.643 l
82.0006 119.888 l
80.9736 117.017 l
80.2329 114.06 l
79.7856 111.045 l
79.636 108 l
79.7856 104.955 l
80.2329 101.94 l
80.9736 98.9826 l
82.0006 96.1123 l
83.304 93.3565 l
84.8712 90.7418 l
86.6872 88.2932 l
88.7344 86.0344 l
90.9932 83.9872 l
93.4418 82.1712 l
96.0565 80.604 l
98.8123 79.3006 l
101.683 78.2736 l
104.64 77.5329 l
107.655 77.0856 l
110.7 76.936 l
113.745 77.0856 l
116.76 77.5329 l
119.717 78.2736 l
122.588 79.3006 l
125.343 80.604 l
127.958 82.1712 l
130.407 83.9872 l
132.666 86.0344 l
134.713 88.2932 l
136.529 90.7418 l
138.096 93.3565 l
139.399 96.1123 l
140.426 98.9826 l
141.167 101.94 l
141.614 104.955 l
141.764 108 l
stroke
grestore
0.000 0.500 0.000 setrgbcolor
gsave
167.4 167.4 27 24.3 clipbox
136.064 108 m
135.942 110.486 l
135.576 112.948 l
134.971 115.363 l
134.133 117.706 l
133.069 119.956 l
131.789 122.091 l
130.306 124.091 l
128.635 125.935 l
126.791 127.606 l
124.791 129.089 l
122.656 130.369 l
120.406 131.433 l
118.063 132.271 l
115.648 132.876 l
113.186 133.242 l
110.7 133.364 l
108.214 133.242 l
105.752 132.876 l
103.337 132.271 l
100.994 131.433 l
98.7437 130.369 l
96.6087 129.089 l
94.6095 127.606 l
92.7652 125.935 l
91.0936 124.091 l
89.6109 122.091 l
88.3313 119.956 l
87.2671 117.706 l
86.4285 115.363 l
85.8237 112.948 l
85.4585 110.486 l
85.3364 108 l
85.4585 105.514 l
85.8237 103.052 l
86.4285 100.637 l
87.2671 98.2938 l
88.3313 96.0437 l
89.6109 93.9087 l
91.0936 91.9095 l
92.7652 90.0652 l
94.6095 88.3936 l
96.6087 86.9109 l
98.7437 85.6313 l
100.994 84.5671 l
103.337 83.7285 l
105.752 83.1237 l
108.214 82.7585 l
110.7 82.6364 l
113.186 82.7585 l
115.648 83.1237 l
118.063 83.7285 l
120.406 84.5671 l
122.656 85.6313 l
124.791 86.9109 l
126.791 88.3936 l
128.635 90.0652 l
130.306 91.9095 l
131.789 93.9087 l
133.069 96.0437 l
134.133 98.2938 l
134.971 100.637 l
135.576 103.052 l
135.942 105.514 l
136.064 108 l
stroke
grestore
0.500 setlinewidth
0 setlinecap
0.000 setgray
gsave
/o {
gsave
newpath
translate
0.5 setlinewidth
1 setlinejoin
0 setlinecap
0 0 m
0 4 l
gsave
0.000 setgray
fill
grestore
stroke
grestore
} bind def
34.6091 24.3 o
grestore
gsave
/o {
gsave
newpath
translate
0.5 setlinewidth
1 setlinejoin
0 setlinecap
0 0 m
0 -4 l
gsave
0.000 setgray
fill
grestore
stroke
grestore
} bind def
34.6091 191.7 o
grestore
/BitstreamVeraSans-Roman findfont
9.000 scalefont
setfont
gsave
24.452841 13.487500 translate
0.000000 rotate
0.000000 0.125000 m /minus glyphshow
7.541016 0.125000 m /one glyphshow
13.267090 0.125000 m /period glyphshow
16.127930 0.125000 m /zero glyphshow
grestore
gsave
/o {
gsave
newpath
translate
0.5 setlinewidth
1 setlinejoin
0 setlinecap
0 0 m
0 4 l
gsave
0.000 setgray
fill
grestore
stroke
grestore
} bind def
72.6545 24.3 o
grestore
gsave
/o {
gsave
newpath
translate
0.5 setlinewidth
1 setlinejoin
0 setlinecap
0 0 m
0 -4 l
gsave
0.000 setgray
fill
grestore
stroke
grestore
} bind def
72.6545 191.7 o
grestore
gsave
62.592045 13.487500 translate
0.000000 rotate
0.000000 0.125000 m /minus glyphshow
7.541016 0.125000 m /zero glyphshow
13.267090 0.125000 m /period glyphshow
16.127930 0.125000 m /five glyphshow
grestore
gsave
/o {
gsave
newpath
translate
0.5 setlinewidth
1 setlinejoin
0 setlinecap
0 0 m
0 4 l
gsave
0.000 setgray
fill
grestore
stroke
grestore
} bind def
110.7 24.3 o
grestore
gsave
/o {
gsave
newpath
translate
0.5 setlinewidth
1 setlinejoin
0 setlinecap
0 0 m
0 -4 l
gsave
0.000 setgray
fill
grestore
stroke
grestore
} bind def
110.7 191.7 o
grestore
gsave
104.137500 13.487500 translate
0.000000 rotate
0.000000 0.125000 m /zero glyphshow
5.726074 0.125000 m /period glyphshow
8.586914 0.125000 m /zero glyphshow
grestore
gsave
/o {
gsave
newpath
translate
0.5 setlinewidth
1 setlinejoin
0 setlinecap
0 0 m
0 4 l
gsave
0.000 setgray
fill
grestore
stroke
grestore
} bind def
148.745 24.3 o
grestore
gsave
/o {
gsave
newpath
translate
0.5 setlinewidth
1 setlinejoin
0 setlinecap
0 0 m
0 -4 l
gsave
0.000 setgray
fill
grestore
stroke
grestore
} bind def
148.745 191.7 o
grestore
gsave
142.276705 13.487500 translate
0.000000 rotate
0.000000 0.125000 m /zero glyphshow
5.726074 0.125000 m /period glyphshow
8.586914 0.125000 m /five glyphshow
grestore
gsave
/o {
gsave
newpath
translate
0.5 setlinewidth
1 setlinejoin
0 setlinecap
0 0 m
0 4 l
gsave
0.000 setgray
fill
grestore
stroke
grestore
} bind def
186.791 24.3 o
grestore
gsave
/o {
gsave
newpath
translate
0.5 setlinewidth
1 setlinejoin
0 setlinecap
0 0 m
0 -4 l
gsave
0.000 setgray
fill
grestore
stroke
grestore
} bind def
186.791 191.7 o
grestore
gsave
180.423722 13.487500 translate
0.000000 rotate
0.000000 0.125000 m /one glyphshow
5.726074 0.125000 m /period glyphshow
8.586914 0.125000 m /zero glyphshow
grestore
gsave
/o {
gsave
newpath
translate
0.5 setlinewidth
1 setlinejoin
0 setlinecap
0 0 m
4 0 l
gsave
0.000 setgray
fill
grestore
stroke
grestore
} bind def
27 31.9091 o
grestore
gsave
/o {
gsave
newpath
translate
0.5 setlinewidth
1 setlinejoin
0 setlinecap
0 0 m
-4 0 l
gsave
0.000 setgray
fill
grestore
stroke
grestore
} bind def
194.4 31.9091 o
grestore
gsave
2.687500 28.502841 translate
0.000000 rotate
0.000000 0.125000 m /minus glyphshow
7.541016 0.125000 m /one glyphshow
13.267090 0.125000 m /period glyphshow
16.127930 0.125000 m /zero glyphshow
grestore
gsave
/o {
gsave
newpath
translate
0.5 setlinewidth
1 setlinejoin
0 setlinecap
0 0 m
4 0 l
gsave
0.000 setgray
fill
grestore
stroke
grestore
} bind def
27 69.9545 o
grestore
gsave
/o {
gsave
newpath
translate
0.5 setlinewidth
1 setlinejoin
0 setlinecap
0 0 m
-4 0 l
gsave
0.000 setgray
fill
grestore
stroke
grestore
} bind def
194.4 69.9545 o
grestore
gsave
2.875000 66.548295 translate
0.000000 rotate
0.000000 0.125000 m /minus glyphshow
7.541016 0.125000 m /zero glyphshow
13.267090 0.125000 m /period glyphshow
16.127930 0.125000 m /five glyphshow
grestore
gsave
/o {
gsave
newpath
translate
0.5 setlinewidth
1 setlinejoin
0 setlinecap
0 0 m
4 0 l
gsave
0.000 setgray
fill
grestore
stroke
grestore
} bind def
27 108 o
grestore
gsave
/o {
gsave
newpath
translate
0.5 setlinewidth
1 setlinejoin
0 setlinecap
0 0 m
-4 0 l
gsave
0.000 setgray
fill
grestore
stroke
grestore
} bind def
194.4 108 o
grestore
gsave
9.875000 104.593750 translate
0.000000 rotate
0.000000 0.125000 m /zero glyphshow
5.726074 0.125000 m /period glyphshow
8.586914 0.125000 m /zero glyphshow
grestore
gsave
/o {
gsave
newpath
translate
0.5 setlinewidth
1 setlinejoin
0 setlinecap
0 0 m
4 0 l
gsave
0.000 setgray
fill
grestore
stroke
grestore
} bind def
27 146.045 o
grestore
gsave
/o {
gsave
newpath
translate
0.5 setlinewidth
1 setlinejoin
0 setlinecap
0 0 m
-4 0 l
gsave
0.000 setgray
fill
grestore
stroke
grestore
} bind def
194.4 146.045 o
grestore
gsave
10.062500 142.639205 translate
0.000000 rotate
0.000000 0.125000 m /zero glyphshow
5.726074 0.125000 m /period glyphshow
8.586914 0.125000 m /five glyphshow
grestore
gsave
/o {
gsave
newpath
translate
0.5 setlinewidth
1 setlinejoin
0 setlinecap
0 0 m
4 0 l
gsave
0.000 setgray
fill
grestore
stroke
grestore
} bind def
27 184.091 o
grestore
gsave
/o {
gsave
newpath
translate
0.5 setlinewidth
1 setlinejoin
0 setlinecap
0 0 m
-4 0 l
gsave
0.000 setgray
fill
grestore
stroke
grestore
} bind def
194.4 184.091 o
grestore
gsave
10.265625 180.684659 translate
0.000000 rotate
0.000000 0.125000 m /one glyphshow
5.726074 0.125000 m /period glyphshow
8.586914 0.125000 m /zero glyphshow
grestore
1.000 setlinewidth
2 setlinecap
gsave
27 191.7 m
194.4 191.7 l
stroke
grestore
gsave
194.4 24.3 m
194.4 191.7 l
stroke
grestore
gsave
27 24.3 m
194.4 24.3 l
stroke
grestore
gsave
27 24.3 m
27 191.7 l
stroke
grestore

end
showpage
