%!PS-Adobe-3.0 EPSF-3.0
%%Title: ../../thesis/images/4l_2d_bloch//I.eps
%%Creator: matplotlib version 1.2.1, http://matplotlib.org/
%%CreationDate: Mon May 20 13:30:29 2013
%%Orientation: portrait
%%BoundingBox: 198 288 414 504
%%EndComments
%%BeginProlog
/mpldict 8 dict def
mpldict begin
/m { moveto } bind def
/l { lineto } bind def
/r { rlineto } bind def
/c { curveto } bind def
/cl { closepath } bind def
/box {
m
1 index 0 r
0 exch r
neg 0 r
cl
} bind def
/clipbox {
box
clip
newpath
} bind def
%!PS-Adobe-3.0 Resource-Font
%%Title: Bitstream Vera Sans
%%Copyright: Copyright (c) 2003 by Bitstream, Inc. All Rights Reserved.
%%Creator: Converted from TrueType to type 3 by PPR
25 dict begin
/_d{bind def}bind def
/_m{moveto}_d
/_l{lineto}_d
/_cl{closepath eofill}_d
/_c{curveto}_d
/_sc{7 -1 roll{setcachedevice}{pop pop pop pop pop pop}ifelse}_d
/_e{exec}_d
/FontName /BitstreamVeraSans-Roman def
/PaintType 0 def
/FontMatrix[.001 0 0 .001 0 0]def
/FontBBox[-183 -236 1287 928]def
/FontType 3 def
/Encoding [ /period /zero /one /five /minus ] def
/FontInfo 10 dict dup begin
/FamilyName (Bitstream Vera Sans) def
/FullName (Bitstream Vera Sans) def
/Notice (Copyright (c) 2003 by Bitstream, Inc. All Rights Reserved. Bitstream Vera is a trademark of Bitstream, Inc.) def
/Weight (Roman) def
/Version (Release 1.10) def
/ItalicAngle 0.0 def
/isFixedPitch false def
/UnderlinePosition -213 def
/UnderlineThickness 143 def
end readonly def
/CharStrings 5 dict dup begin
/period{318 0 107 0 210 124 _sc
107 124 _m
210 124 _l
210 0 _l
107 0 _l
107 124 _l
_cl}_d
/zero{636 0 66 -13 570 742 _sc
318 664 _m
267 664 229 639 203 589 _c
177 539 165 464 165 364 _c
165 264 177 189 203 139 _c
229 89 267 64 318 64 _c
369 64 407 89 433 139 _c
458 189 471 264 471 364 _c
471 464 458 539 433 589 _c
407 639 369 664 318 664 _c
318 742 _m
399 742 461 709 505 645 _c
548 580 570 486 570 364 _c
570 241 548 147 505 83 _c
461 19 399 -13 318 -13 _c
236 -13 173 19 130 83 _c
87 147 66 241 66 364 _c
66 486 87 580 130 645 _c
173 709 236 742 318 742 _c
_cl}_d
/one{636 0 110 0 544 729 _sc
124 83 _m
285 83 _l
285 639 _l
110 604 _l
110 694 _l
284 729 _l
383 729 _l
383 83 _l
544 83 _l
544 0 _l
124 0 _l
124 83 _l
_cl}_d
/five{{636 0 77 -13 549 729 _sc
108 729 _m
495 729 _l
495 646 _l
198 646 _l
198 467 _l
212 472 227 476 241 478 _c
255 480 270 482 284 482 _c
365 482 429 459 477 415 _c
525 370 549 310 549 234 _c
549 155 524 94 475 51 _c
426 8 357 -13 269 -13 _c
238 -13 207 -10 175 -6 _c
143 -1 111 6 77 17 _c
77 116 _l
106 100 136 88 168 80 _c
199 72 232 69 267 69 _c
}_e{323 69 368 83 401 113 _c
433 143 450 183 450 234 _c
450 284 433 324 401 354 _c
368 384 323 399 267 399 _c
241 399 214 396 188 390 _c
162 384 135 375 108 363 _c
108 729 _l
_cl}_e}_d
/minus{838 0 106 272 732 355 _sc
106 355 _m
732 355 _l
732 272 _l
106 272 _l
106 355 _l
_cl}_d
end readonly def

/BuildGlyph
 {exch begin
 CharStrings exch
 2 copy known not{pop /.notdef}if
 true 3 1 roll get exec
 end}_d

/BuildChar {
 1 index /Encoding get exch get
 1 index /BuildGlyph get exec
}_d

FontName currentdict end definefont pop
end
%%EndProlog
mpldict begin
198 288 translate
216 216 0 0 clipbox
gsave
0 0 m
216 0 l
216 216 l
0 216 l
cl
1.000 setgray
fill
grestore
gsave
27 24.3 m
194.4 24.3 l
194.4 191.7 l
27 191.7 l
cl
1.000 setgray
fill
grestore
2.000 setlinewidth
1 setlinejoin
2 setlinecap
[] 0 setdash
0.000 0.000 1.000 setrgbcolor
gsave
167.4 167.4 27 24.3 clipbox
137.602 108 m
137.599 108.33 l
137.59 108.66 l
137.575 108.99 l
137.554 109.319 l
137.527 109.648 l
137.494 109.976 l
137.454 110.304 l
137.409 110.631 l
137.359 110.956 l
137.302 111.281 l
137.24 111.605 l
137.172 111.927 l
137.099 112.248 l
137.021 112.567 l
136.937 112.885 l
136.848 113.201 l
136.754 113.516 l
136.655 113.828 l
136.551 114.139 l
136.443 114.448 l
136.33 114.755 l
136.213 115.06 l
136.091 115.363 l
135.965 115.664 l
135.835 115.963 l
135.701 116.259 l
135.563 116.553 l
135.421 116.845 l
135.276 117.135 l
135.127 117.423 l
134.975 117.708 l
134.82 117.991 l
134.661 118.271 l
134.5 118.55 l
134.335 118.826 l
134.168 119.099 l
133.998 119.371 l
133.825 119.64 l
133.65 119.907 l
133.472 120.172 l
133.292 120.434 l
133.109 120.695 l
132.925 120.953 l
132.738 121.209 l
132.549 121.463 l
132.358 121.715 l
132.165 121.965 l
131.971 122.213 l
131.774 122.459 l
131.576 122.703 l
131.376 122.944 l
131.174 123.185 l
130.971 123.423 l
130.766 123.659 l
130.559 123.894 l
130.351 124.127 l
130.142 124.359 l
129.931 124.589 l
129.718 124.817 l
129.504 125.043 l
129.289 125.268 l
129.072 125.492 l
128.854 125.714 l
128.635 125.935 l
128.414 126.154 l
128.192 126.372 l
127.969 126.589 l
127.744 126.805 l
127.518 127.019 l
127.29 127.233 l
127.061 127.445 l
126.831 127.656 l
126.6 127.866 l
126.367 128.075 l
126.133 128.283 l
125.897 128.491 l
125.66 128.697 l
125.421 128.903 l
125.181 129.108 l
124.94 129.312 l
124.697 129.515 l
124.453 129.718 l
124.207 129.92 l
123.959 130.122 l
123.71 130.323 l
123.459 130.523 l
123.207 130.724 l
122.953 130.923 l
122.697 131.123 l
122.439 131.322 l
122.18 131.52 l
121.918 131.719 l
121.655 131.917 l
121.39 132.115 l
121.122 132.313 l
120.853 132.511 l
120.581 132.709 l
120.308 132.907 l
120.032 133.105 l
119.753 133.303 l
119.473 133.501 l
119.19 133.699 l
118.904 133.898 l
118.616 134.097 l
118.326 134.295 l
118.032 134.495 l
117.736 134.695 l
117.437 134.895 l
117.135 135.095 l
116.83 135.297 l
116.521 135.498 l
116.21 135.701 l
115.895 135.904 l
115.577 136.108 l
115.255 136.312 l
114.93 136.517 l
114.601 136.724 l
114.268 136.931 l
113.931 137.139 l
113.591 137.348 l
113.245 137.558 l
112.896 137.769 l
112.542 137.982 l
112.183 138.196 l
111.82 138.41 l
111.452 138.627 l
111.079 138.845 l
110.7 139.064 l
110.316 139.285 l
109.927 139.507 l
109.531 139.732 l
109.13 139.958 l
108.723 140.185 l
108.309 140.415 l
107.889 140.647 l
107.462 140.881 l
107.027 141.117 l
106.586 141.355 l
106.137 141.595 l
105.681 141.838 l
105.216 142.083 l
104.743 142.332 l
104.261 142.582 l
103.771 142.836 l
103.271 143.092 l
102.762 143.352 l
102.242 143.614 l
101.713 143.88 l
101.172 144.149 l
100.621 144.421 l
100.058 144.698 l
99.4831 144.977 l
98.8958 145.261 l
98.2955 145.549 l
97.6819 145.841 l
97.0543 146.137 l
96.4122 146.438 l
95.755 146.743 l
95.0821 147.054 l
94.3929 147.369 l
93.6866 147.689 l
92.9625 148.015 l
92.2199 148.347 l
91.4579 148.684 l
90.6758 149.027 l
89.8726 149.377 l
89.0474 149.733 l
88.1992 150.096 l
87.327 150.466 l
86.4296 150.843 l
85.5058 151.228 l
84.5545 151.621 l
83.5743 152.022 l
82.5636 152.432 l
81.5213 152.851 l
80.4455 153.279 l
79.3347 153.717 l
78.1869 154.165 l
77.0005 154.624 l
75.7731 155.093 l
74.5029 155.575 l
73.1873 156.068 l
71.824 156.574 l
70.41 157.093 l
68.943 157.626 l
67.4196 158.174 l
65.8366 158.737 l
64.1907 159.315 l
62.4777 159.91 l
60.6938 160.523 l
58.8346 161.154 l
56.8955 161.805 l
56.8956 160.5 l
56.8955 159.226 l
56.8955 157.982 l
56.8955 156.766 l
56.8955 155.576 l
56.8955 154.412 l
56.8955 153.272 l
56.8955 152.156 l
56.8956 151.062 l
56.8955 149.989 l
56.8956 148.937 l
56.8956 147.904 l
56.8955 146.89 l
56.8956 145.893 l
56.8954 144.914 l
56.8956 143.951 l
56.8955 143.004 l
56.8956 142.071 l
56.8956 141.153 l
56.8956 140.249 l
56.8955 139.358 l
56.8954 138.48 l
56.8954 137.614 l
56.8955 136.759 l
56.8954 135.916 l
56.8954 135.083 l
56.8954 134.26 l
56.8954 133.448 l
56.8956 132.644 l
56.8955 131.85 l
56.8954 131.064 l
56.8954 130.287 l
56.8954 129.517 l
56.8954 128.755 l
56.8956 128 l
56.8954 127.252 l
56.8954 126.51 l
56.8956 125.775 l
56.8955 125.045 l
56.8956 124.321 l
56.8955 123.603 l
56.8954 122.89 l
56.8955 122.181 l
56.8955 121.477 l
56.8955 120.778 l
56.8955 120.082 l
56.8955 119.391 l
56.8955 118.702 l
56.8956 118.018 l
56.8956 117.336 l
56.8955 116.657 l
56.8954 115.981 l
56.8956 115.308 l
56.8955 114.636 l
56.8956 113.967 l
56.8955 113.299 l
56.8955 112.633 l
56.8954 111.969 l
56.8955 111.306 l
56.8956 110.643 l
56.8955 109.982 l
56.8954 109.321 l
56.8955 108.66 l
56.8955 108 l
56.8955 107.34 l
56.8954 106.679 l
56.8955 106.018 l
56.8956 105.357 l
56.8955 104.694 l
56.8954 104.031 l
56.8955 103.367 l
56.8955 102.701 l
56.8956 102.033 l
56.8955 101.364 l
56.8956 100.692 l
56.8954 100.019 l
56.8955 99.3428 l
56.8956 98.664 l
56.8956 97.9824 l
56.8955 97.2976 l
56.8955 96.6095 l
56.8955 95.9178 l
56.8955 95.2223 l
56.8955 94.5227 l
56.8955 93.8188 l
56.8954 93.1103 l
56.8955 92.397 l
56.8956 91.6786 l
56.8955 90.9548 l
56.8956 90.2254 l
56.8954 89.49 l
56.8954 88.7484 l
56.8956 88.0003 l
56.8954 87.2453 l
56.8954 86.4831 l
56.8954 85.7134 l
56.8954 84.9359 l
56.8955 84.1501 l
56.8956 83.3558 l
56.8954 82.5523 l
56.8954 81.7396 l
56.8954 80.9171 l
56.8954 80.0843 l
56.8955 79.2409 l
56.8954 78.3863 l
56.8954 77.5201 l
56.8955 76.6418 l
56.8956 75.7509 l
56.8956 74.8467 l
56.8956 73.9287 l
56.8955 72.9963 l
56.8956 72.049 l
56.8954 71.0859 l
56.8956 70.1067 l
56.8955 69.1102 l
56.8956 68.0959 l
56.8956 67.063 l
56.8955 66.0106 l
56.8956 64.9379 l
56.8955 63.8438 l
56.8955 62.7275 l
56.8955 61.5879 l
56.8955 60.424 l
56.8955 59.2344 l
56.8955 58.0182 l
56.8955 56.7739 l
56.8956 55.5002 l
56.8955 54.1955 l
58.8346 54.8458 l
60.6938 55.4769 l
62.4777 56.0895 l
64.1907 56.6849 l
65.8366 57.2633 l
67.4196 57.826 l
68.943 58.3736 l
70.41 58.9066 l
71.824 59.4259 l
73.1873 59.932 l
74.5029 60.4254 l
75.7731 60.9066 l
77.0005 61.3764 l
78.1869 61.8349 l
79.3347 62.2831 l
80.4455 62.7209 l
81.5213 63.149 l
82.5636 63.5677 l
83.5743 63.9777 l
84.5545 64.3788 l
85.5058 64.7717 l
86.4296 65.1567 l
87.327 65.534 l
88.1992 65.9039 l
89.0474 66.2669 l
89.8726 66.6231 l
90.6758 66.9726 l
91.4579 67.3161 l
92.2199 67.6534 l
92.9625 67.9847 l
93.6866 68.3107 l
94.3929 68.6311 l
95.0821 68.9463 l
95.755 69.2567 l
96.4122 69.562 l
97.0543 69.8629 l
97.6819 70.1592 l
98.2955 70.4511 l
98.8958 70.739 l
99.4831 71.0227 l
100.058 71.3025 l
100.621 71.5787 l
101.172 71.8512 l
101.713 72.1203 l
102.242 72.3859 l
102.762 72.6485 l
103.271 72.9079 l
103.771 73.1642 l
104.261 73.4178 l
104.743 73.6685 l
105.216 73.9165 l
105.681 74.1619 l
106.137 74.4046 l
106.586 74.6452 l
107.027 74.8833 l
107.462 75.1193 l
107.889 75.3532 l
108.309 75.5847 l
108.723 75.8146 l
109.13 76.0424 l
109.531 76.2683 l
109.927 76.4925 l
110.316 76.715 l
110.7 76.9358 l
111.079 77.1552 l
111.452 77.373 l
111.82 77.5895 l
112.183 77.8045 l
112.542 78.0181 l
112.896 78.2308 l
113.245 78.442 l
113.591 78.6522 l
113.931 78.8613 l
114.268 79.0693 l
114.601 79.2764 l
114.93 79.4825 l
115.255 79.6879 l
115.577 79.8924 l
115.895 80.0961 l
116.21 80.2992 l
116.521 80.5016 l
116.83 80.7034 l
117.135 80.9046 l
117.437 81.1051 l
117.736 81.3054 l
118.032 81.5052 l
118.326 81.7046 l
118.616 81.9035 l
118.904 82.1022 l
119.19 82.3008 l
119.473 82.4991 l
119.753 82.6972 l
120.032 82.8951 l
120.308 83.0932 l
120.581 83.291 l
120.853 83.4889 l
121.122 83.6868 l
121.39 83.8848 l
121.655 84.0829 l
121.918 84.2811 l
122.18 84.4796 l
122.439 84.6783 l
122.697 84.8774 l
122.953 85.0767 l
123.207 85.2765 l
123.459 85.4765 l
123.71 85.6771 l
123.959 85.8782 l
124.207 86.0799 l
124.453 86.282 l
124.697 86.4847 l
124.94 86.6882 l
125.181 86.8923 l
125.421 87.0973 l
125.66 87.3028 l
125.897 87.5093 l
126.133 87.7165 l
126.367 87.9248 l
126.6 88.134 l
126.831 88.3441 l
127.061 88.5552 l
127.29 88.7673 l
127.518 88.9807 l
127.744 89.1951 l
127.969 89.4108 l
128.192 89.6275 l
128.414 89.8458 l
128.635 90.0651 l
128.854 90.2859 l
129.072 90.5081 l
129.289 90.7316 l
129.504 90.9568 l
129.718 91.1834 l
129.931 91.4115 l
130.142 91.6413 l
130.351 91.8727 l
130.559 92.1056 l
130.766 92.3405 l
130.971 92.577 l
131.174 92.8154 l
131.376 93.0555 l
131.576 93.2974 l
131.774 93.5414 l
131.971 93.7873 l
132.165 94.0352 l
132.358 94.285 l
132.549 94.5369 l
132.738 94.7909 l
132.925 95.047 l
133.109 95.3052 l
133.292 95.5655 l
133.472 95.8281 l
133.65 96.0929 l
133.825 96.3599 l
133.998 96.6291 l
134.168 96.9006 l
134.335 97.1743 l
134.5 97.4504 l
134.661 97.7287 l
134.82 98.0093 l
134.975 98.2922 l
135.127 98.5774 l
135.276 98.8649 l
135.421 99.1547 l
135.563 99.4467 l
135.701 99.7409 l
135.835 100.037 l
135.965 100.336 l
136.091 100.637 l
136.213 100.94 l
136.33 101.245 l
136.443 101.552 l
136.551 101.861 l
136.655 102.172 l
136.754 102.484 l
136.848 102.799 l
136.937 103.115 l
137.021 103.433 l
137.099 103.752 l
137.172 104.073 l
137.24 104.395 l
137.302 104.719 l
137.359 105.044 l
137.409 105.369 l
137.454 105.696 l
137.494 106.024 l
137.527 106.352 l
137.554 106.681 l
137.575 107.01 l
137.59 107.34 l
137.599 107.67 l
137.602 108 l
cl
gsave
0.500 0.500 1.000 setrgbcolor
fill
grestore
stroke
grestore
1.000 setlinewidth
1.000 0.000 0.000 setrgbcolor
gsave
167.4 167.4 27 24.3 clipbox
186.791 108 m
186.425 115.458 l
185.329 122.845 l
183.514 130.088 l
180.999 137.119 l
177.806 143.869 l
173.967 150.274 l
169.519 156.272 l
164.504 161.804 l
158.972 166.819 l
152.974 171.267 l
146.569 175.106 l
139.819 178.299 l
132.788 180.814 l
125.545 182.629 l
118.158 183.725 l
110.7 184.091 l
103.242 183.725 l
95.8554 182.629 l
88.612 180.814 l
81.5813 178.299 l
74.831 175.106 l
68.4262 171.267 l
62.4284 166.819 l
56.8956 161.804 l
51.8809 156.272 l
47.4327 150.274 l
43.5938 143.869 l
40.4012 137.119 l
37.8855 130.088 l
36.0712 122.845 l
34.9755 115.458 l
34.6091 108 l
34.9755 100.542 l
36.0712 93.1554 l
37.8855 85.912 l
40.4012 78.8813 l
43.5938 72.131 l
47.4327 65.7262 l
51.8809 59.7284 l
56.8956 54.1956 l
62.4284 49.1809 l
68.4262 44.7327 l
74.831 40.8938 l
81.5813 37.7012 l
88.612 35.1855 l
95.8554 33.3712 l
103.242 32.2755 l
110.7 31.9091 l
118.158 32.2755 l
125.545 33.3712 l
132.788 35.1855 l
139.819 37.7012 l
146.569 40.8938 l
152.974 44.7327 l
158.972 49.1809 l
164.504 54.1956 l
169.519 59.7284 l
173.967 65.7262 l
177.806 72.131 l
180.999 78.8813 l
183.514 85.912 l
185.329 93.1554 l
186.425 100.542 l
186.791 108 l
stroke
grestore
0.750 0.750 0.000 setrgbcolor
gsave
167.4 167.4 27 24.3 clipbox
154.631 108 m
154.42 112.306 l
153.787 116.571 l
152.739 120.753 l
151.287 124.812 l
149.444 128.709 l
147.227 132.407 l
144.659 135.87 l
141.764 139.064 l
138.57 141.959 l
135.107 144.527 l
131.409 146.744 l
127.512 148.587 l
123.453 150.039 l
119.271 151.087 l
115.006 151.72 l
110.7 151.931 l
106.394 151.72 l
102.129 151.087 l
97.9475 150.039 l
93.8883 148.587 l
89.991 146.744 l
86.2932 144.527 l
82.8304 141.959 l
79.636 139.064 l
76.7408 135.87 l
74.1726 132.407 l
71.9562 128.709 l
70.1129 124.812 l
68.6606 120.753 l
67.613 116.571 l
66.9804 112.306 l
66.7689 108 l
66.9804 103.694 l
67.613 99.4295 l
68.6606 95.2475 l
70.1129 91.1883 l
71.9562 87.291 l
74.1726 83.5932 l
76.7408 80.1304 l
79.636 76.936 l
82.8304 74.0408 l
86.2932 71.4726 l
89.991 69.2562 l
93.8883 67.4129 l
97.9475 65.9606 l
102.129 64.913 l
106.394 64.2804 l
110.7 64.0689 l
115.006 64.2804 l
119.271 64.913 l
123.453 65.9606 l
127.512 67.4129 l
131.409 69.2562 l
135.107 71.4726 l
138.57 74.0408 l
141.764 76.936 l
144.659 80.1304 l
147.227 83.5932 l
149.444 87.291 l
151.287 91.1883 l
152.739 95.2475 l
153.787 99.4295 l
154.42 103.694 l
154.631 108 l
stroke
grestore
gsave
167.4 167.4 27 24.3 clipbox
164.504 108 m
164.245 113.274 l
163.471 118.497 l
162.188 123.619 l
160.409 128.59 l
158.151 133.363 l
155.437 137.892 l
152.291 142.133 l
148.745 146.045 l
144.833 149.591 l
140.592 152.737 l
136.063 155.451 l
131.29 157.709 l
126.319 159.488 l
121.197 160.771 l
115.974 161.545 l
110.7 161.804 l
105.426 161.545 l
100.203 160.771 l
95.0814 159.488 l
90.1099 157.709 l
85.3368 155.451 l
80.8079 152.737 l
76.5669 149.591 l
72.6545 146.045 l
69.1086 142.133 l
65.9633 137.892 l
63.2488 133.363 l
60.9912 128.59 l
59.2124 123.619 l
57.9294 118.497 l
57.1547 113.274 l
56.8956 108 l
57.1547 102.726 l
57.9294 97.5033 l
59.2124 92.3814 l
60.9912 87.4099 l
63.2488 82.6368 l
65.9633 78.1079 l
69.1086 73.8669 l
72.6545 69.9545 l
76.5669 66.4086 l
80.8079 63.2633 l
85.3368 60.5488 l
90.1099 58.2912 l
95.0814 56.5124 l
100.203 55.2294 l
105.426 54.4547 l
110.7 54.1956 l
115.974 54.4547 l
121.197 55.2294 l
126.319 56.5124 l
131.29 58.2912 l
136.063 60.5488 l
140.592 63.2633 l
144.833 66.4086 l
148.745 69.9545 l
152.291 73.8669 l
155.437 78.1079 l
158.151 82.6368 l
160.409 87.4099 l
162.188 92.3814 l
163.471 97.5033 l
164.245 102.726 l
164.504 108 l
stroke
grestore
gsave
167.4 167.4 27 24.3 clipbox
141.764 108 m
141.614 111.045 l
141.167 114.06 l
140.426 117.017 l
139.399 119.888 l
138.096 122.643 l
136.529 125.258 l
134.713 127.707 l
132.666 129.966 l
130.407 132.013 l
127.958 133.829 l
125.343 135.396 l
122.588 136.699 l
119.717 137.726 l
116.76 138.467 l
113.745 138.914 l
110.7 139.064 l
107.655 138.914 l
104.64 138.467 l
101.683 137.726 l
98.8123 136.699 l
96.0565 135.396 l
93.4418 133.829 l
90.9932 132.013 l
88.7344 129.966 l
86.6872 127.707 l
84.8712 125.258 l
83.304 122.643 l
82.0006 119.888 l
80.9736 117.017 l
80.2329 114.06 l
79.7856 111.045 l
79.636 108 l
79.7856 104.955 l
80.2329 101.94 l
80.9736 98.9826 l
82.0006 96.1123 l
83.304 93.3565 l
84.8712 90.7418 l
86.6872 88.2932 l
88.7344 86.0344 l
90.9932 83.9872 l
93.4418 82.1712 l
96.0565 80.604 l
98.8123 79.3006 l
101.683 78.2736 l
104.64 77.5329 l
107.655 77.0856 l
110.7 76.936 l
113.745 77.0856 l
116.76 77.5329 l
119.717 78.2736 l
122.588 79.3006 l
125.343 80.604 l
127.958 82.1712 l
130.407 83.9872 l
132.666 86.0344 l
134.713 88.2932 l
136.529 90.7418 l
138.096 93.3565 l
139.399 96.1123 l
140.426 98.9826 l
141.167 101.94 l
141.614 104.955 l
141.764 108 l
stroke
grestore
0.000 0.500 0.000 setrgbcolor
gsave
167.4 167.4 27 24.3 clipbox
136.064 108 m
135.942 110.486 l
135.576 112.948 l
134.971 115.363 l
134.133 117.706 l
133.069 119.956 l
131.789 122.091 l
130.306 124.091 l
128.635 125.935 l
126.791 127.606 l
124.791 129.089 l
122.656 130.369 l
120.406 131.433 l
118.063 132.271 l
115.648 132.876 l
113.186 133.242 l
110.7 133.364 l
108.214 133.242 l
105.752 132.876 l
103.337 132.271 l
100.994 131.433 l
98.7437 130.369 l
96.6087 129.089 l
94.6095 127.606 l
92.7652 125.935 l
91.0936 124.091 l
89.6109 122.091 l
88.3313 119.956 l
87.2671 117.706 l
86.4285 115.363 l
85.8237 112.948 l
85.4585 110.486 l
85.3364 108 l
85.4585 105.514 l
85.8237 103.052 l
86.4285 100.637 l
87.2671 98.2938 l
88.3313 96.0437 l
89.6109 93.9087 l
91.0936 91.9095 l
92.7652 90.0652 l
94.6095 88.3936 l
96.6087 86.9109 l
98.7437 85.6313 l
100.994 84.5671 l
103.337 83.7285 l
105.752 83.1237 l
108.214 82.7585 l
110.7 82.6364 l
113.186 82.7585 l
115.648 83.1237 l
118.063 83.7285 l
120.406 84.5671 l
122.656 85.6313 l
124.791 86.9109 l
126.791 88.3936 l
128.635 90.0652 l
130.306 91.9095 l
131.789 93.9087 l
133.069 96.0437 l
134.133 98.2938 l
134.971 100.637 l
135.576 103.052 l
135.942 105.514 l
136.064 108 l
stroke
grestore
0.500 setlinewidth
0 setlinecap
0.000 setgray
gsave
/o {
gsave
newpath
translate
0.5 setlinewidth
1 setlinejoin
0 setlinecap
0 0 m
0 4 l
gsave
0.000 setgray
fill
grestore
stroke
grestore
} bind def
34.6091 24.3 o
grestore
gsave
/o {
gsave
newpath
translate
0.5 setlinewidth
1 setlinejoin
0 setlinecap
0 0 m
0 -4 l
gsave
0.000 setgray
fill
grestore
stroke
grestore
} bind def
34.6091 191.7 o
grestore
/BitstreamVeraSans-Roman findfont
9.000 scalefont
setfont
gsave
24.452841 13.487500 translate
0.000000 rotate
0.000000 0.125000 m /minus glyphshow
7.541016 0.125000 m /one glyphshow
13.267090 0.125000 m /period glyphshow
16.127930 0.125000 m /zero glyphshow
grestore
gsave
/o {
gsave
newpath
translate
0.5 setlinewidth
1 setlinejoin
0 setlinecap
0 0 m
0 4 l
gsave
0.000 setgray
fill
grestore
stroke
grestore
} bind def
72.6545 24.3 o
grestore
gsave
/o {
gsave
newpath
translate
0.5 setlinewidth
1 setlinejoin
0 setlinecap
0 0 m
0 -4 l
gsave
0.000 setgray
fill
grestore
stroke
grestore
} bind def
72.6545 191.7 o
grestore
gsave
62.592045 13.487500 translate
0.000000 rotate
0.000000 0.125000 m /minus glyphshow
7.541016 0.125000 m /zero glyphshow
13.267090 0.125000 m /period glyphshow
16.127930 0.125000 m /five glyphshow
grestore
gsave
/o {
gsave
newpath
translate
0.5 setlinewidth
1 setlinejoin
0 setlinecap
0 0 m
0 4 l
gsave
0.000 setgray
fill
grestore
stroke
grestore
} bind def
110.7 24.3 o
grestore
gsave
/o {
gsave
newpath
translate
0.5 setlinewidth
1 setlinejoin
0 setlinecap
0 0 m
0 -4 l
gsave
0.000 setgray
fill
grestore
stroke
grestore
} bind def
110.7 191.7 o
grestore
gsave
104.137500 13.487500 translate
0.000000 rotate
0.000000 0.125000 m /zero glyphshow
5.726074 0.125000 m /period glyphshow
8.586914 0.125000 m /zero glyphshow
grestore
gsave
/o {
gsave
newpath
translate
0.5 setlinewidth
1 setlinejoin
0 setlinecap
0 0 m
0 4 l
gsave
0.000 setgray
fill
grestore
stroke
grestore
} bind def
148.745 24.3 o
grestore
gsave
/o {
gsave
newpath
translate
0.5 setlinewidth
1 setlinejoin
0 setlinecap
0 0 m
0 -4 l
gsave
0.000 setgray
fill
grestore
stroke
grestore
} bind def
148.745 191.7 o
grestore
gsave
142.276705 13.487500 translate
0.000000 rotate
0.000000 0.125000 m /zero glyphshow
5.726074 0.125000 m /period glyphshow
8.586914 0.125000 m /five glyphshow
grestore
gsave
/o {
gsave
newpath
translate
0.5 setlinewidth
1 setlinejoin
0 setlinecap
0 0 m
0 4 l
gsave
0.000 setgray
fill
grestore
stroke
grestore
} bind def
186.791 24.3 o
grestore
gsave
/o {
gsave
newpath
translate
0.5 setlinewidth
1 setlinejoin
0 setlinecap
0 0 m
0 -4 l
gsave
0.000 setgray
fill
grestore
stroke
grestore
} bind def
186.791 191.7 o
grestore
gsave
180.423722 13.487500 translate
0.000000 rotate
0.000000 0.125000 m /one glyphshow
5.726074 0.125000 m /period glyphshow
8.586914 0.125000 m /zero glyphshow
grestore
gsave
/o {
gsave
newpath
translate
0.5 setlinewidth
1 setlinejoin
0 setlinecap
0 0 m
4 0 l
gsave
0.000 setgray
fill
grestore
stroke
grestore
} bind def
27 31.9091 o
grestore
gsave
/o {
gsave
newpath
translate
0.5 setlinewidth
1 setlinejoin
0 setlinecap
0 0 m
-4 0 l
gsave
0.000 setgray
fill
grestore
stroke
grestore
} bind def
194.4 31.9091 o
grestore
gsave
2.687500 28.502841 translate
0.000000 rotate
0.000000 0.125000 m /minus glyphshow
7.541016 0.125000 m /one glyphshow
13.267090 0.125000 m /period glyphshow
16.127930 0.125000 m /zero glyphshow
grestore
gsave
/o {
gsave
newpath
translate
0.5 setlinewidth
1 setlinejoin
0 setlinecap
0 0 m
4 0 l
gsave
0.000 setgray
fill
grestore
stroke
grestore
} bind def
27 69.9545 o
grestore
gsave
/o {
gsave
newpath
translate
0.5 setlinewidth
1 setlinejoin
0 setlinecap
0 0 m
-4 0 l
gsave
0.000 setgray
fill
grestore
stroke
grestore
} bind def
194.4 69.9545 o
grestore
gsave
2.875000 66.548295 translate
0.000000 rotate
0.000000 0.125000 m /minus glyphshow
7.541016 0.125000 m /zero glyphshow
13.267090 0.125000 m /period glyphshow
16.127930 0.125000 m /five glyphshow
grestore
gsave
/o {
gsave
newpath
translate
0.5 setlinewidth
1 setlinejoin
0 setlinecap
0 0 m
4 0 l
gsave
0.000 setgray
fill
grestore
stroke
grestore
} bind def
27 108 o
grestore
gsave
/o {
gsave
newpath
translate
0.5 setlinewidth
1 setlinejoin
0 setlinecap
0 0 m
-4 0 l
gsave
0.000 setgray
fill
grestore
stroke
grestore
} bind def
194.4 108 o
grestore
gsave
9.875000 104.593750 translate
0.000000 rotate
0.000000 0.125000 m /zero glyphshow
5.726074 0.125000 m /period glyphshow
8.586914 0.125000 m /zero glyphshow
grestore
gsave
/o {
gsave
newpath
translate
0.5 setlinewidth
1 setlinejoin
0 setlinecap
0 0 m
4 0 l
gsave
0.000 setgray
fill
grestore
stroke
grestore
} bind def
27 146.045 o
grestore
gsave
/o {
gsave
newpath
translate
0.5 setlinewidth
1 setlinejoin
0 setlinecap
0 0 m
-4 0 l
gsave
0.000 setgray
fill
grestore
stroke
grestore
} bind def
194.4 146.045 o
grestore
gsave
10.062500 142.639205 translate
0.000000 rotate
0.000000 0.125000 m /zero glyphshow
5.726074 0.125000 m /period glyphshow
8.586914 0.125000 m /five glyphshow
grestore
gsave
/o {
gsave
newpath
translate
0.5 setlinewidth
1 setlinejoin
0 setlinecap
0 0 m
4 0 l
gsave
0.000 setgray
fill
grestore
stroke
grestore
} bind def
27 184.091 o
grestore
gsave
/o {
gsave
newpath
translate
0.5 setlinewidth
1 setlinejoin
0 setlinecap
0 0 m
-4 0 l
gsave
0.000 setgray
fill
grestore
stroke
grestore
} bind def
194.4 184.091 o
grestore
gsave
10.265625 180.684659 translate
0.000000 rotate
0.000000 0.125000 m /one glyphshow
5.726074 0.125000 m /period glyphshow
8.586914 0.125000 m /zero glyphshow
grestore
1.000 setlinewidth
2 setlinecap
gsave
27 191.7 m
194.4 191.7 l
stroke
grestore
gsave
194.4 24.3 m
194.4 191.7 l
stroke
grestore
gsave
27 24.3 m
194.4 24.3 l
stroke
grestore
gsave
27 24.3 m
27 191.7 l
stroke
grestore

end
showpage
