%!PS-Adobe-3.0 EPSF-3.0
%%Title: ../../thesis/images/4l_2d_bloch//J.eps
%%Creator: matplotlib version 1.2.1, http://matplotlib.org/
%%CreationDate: Mon May 20 13:30:33 2013
%%Orientation: portrait
%%BoundingBox: 198 288 414 504
%%EndComments
%%BeginProlog
/mpldict 8 dict def
mpldict begin
/m { moveto } bind def
/l { lineto } bind def
/r { rlineto } bind def
/c { curveto } bind def
/cl { closepath } bind def
/box {
m
1 index 0 r
0 exch r
neg 0 r
cl
} bind def
/clipbox {
box
clip
newpath
} bind def
%!PS-Adobe-3.0 Resource-Font
%%Title: Bitstream Vera Sans
%%Copyright: Copyright (c) 2003 by Bitstream, Inc. All Rights Reserved.
%%Creator: Converted from TrueType to type 3 by PPR
25 dict begin
/_d{bind def}bind def
/_m{moveto}_d
/_l{lineto}_d
/_cl{closepath eofill}_d
/_c{curveto}_d
/_sc{7 -1 roll{setcachedevice}{pop pop pop pop pop pop}ifelse}_d
/_e{exec}_d
/FontName /BitstreamVeraSans-Roman def
/PaintType 0 def
/FontMatrix[.001 0 0 .001 0 0]def
/FontBBox[-183 -236 1287 928]def
/FontType 3 def
/Encoding [ /period /zero /one /five /minus ] def
/FontInfo 10 dict dup begin
/FamilyName (Bitstream Vera Sans) def
/FullName (Bitstream Vera Sans) def
/Notice (Copyright (c) 2003 by Bitstream, Inc. All Rights Reserved. Bitstream Vera is a trademark of Bitstream, Inc.) def
/Weight (Roman) def
/Version (Release 1.10) def
/ItalicAngle 0.0 def
/isFixedPitch false def
/UnderlinePosition -213 def
/UnderlineThickness 143 def
end readonly def
/CharStrings 5 dict dup begin
/period{318 0 107 0 210 124 _sc
107 124 _m
210 124 _l
210 0 _l
107 0 _l
107 124 _l
_cl}_d
/zero{636 0 66 -13 570 742 _sc
318 664 _m
267 664 229 639 203 589 _c
177 539 165 464 165 364 _c
165 264 177 189 203 139 _c
229 89 267 64 318 64 _c
369 64 407 89 433 139 _c
458 189 471 264 471 364 _c
471 464 458 539 433 589 _c
407 639 369 664 318 664 _c
318 742 _m
399 742 461 709 505 645 _c
548 580 570 486 570 364 _c
570 241 548 147 505 83 _c
461 19 399 -13 318 -13 _c
236 -13 173 19 130 83 _c
87 147 66 241 66 364 _c
66 486 87 580 130 645 _c
173 709 236 742 318 742 _c
_cl}_d
/one{636 0 110 0 544 729 _sc
124 83 _m
285 83 _l
285 639 _l
110 604 _l
110 694 _l
284 729 _l
383 729 _l
383 83 _l
544 83 _l
544 0 _l
124 0 _l
124 83 _l
_cl}_d
/five{{636 0 77 -13 549 729 _sc
108 729 _m
495 729 _l
495 646 _l
198 646 _l
198 467 _l
212 472 227 476 241 478 _c
255 480 270 482 284 482 _c
365 482 429 459 477 415 _c
525 370 549 310 549 234 _c
549 155 524 94 475 51 _c
426 8 357 -13 269 -13 _c
238 -13 207 -10 175 -6 _c
143 -1 111 6 77 17 _c
77 116 _l
106 100 136 88 168 80 _c
199 72 232 69 267 69 _c
}_e{323 69 368 83 401 113 _c
433 143 450 183 450 234 _c
450 284 433 324 401 354 _c
368 384 323 399 267 399 _c
241 399 214 396 188 390 _c
162 384 135 375 108 363 _c
108 729 _l
_cl}_e}_d
/minus{838 0 106 272 732 355 _sc
106 355 _m
732 355 _l
732 272 _l
106 272 _l
106 355 _l
_cl}_d
end readonly def

/BuildGlyph
 {exch begin
 CharStrings exch
 2 copy known not{pop /.notdef}if
 true 3 1 roll get exec
 end}_d

/BuildChar {
 1 index /Encoding get exch get
 1 index /BuildGlyph get exec
}_d

FontName currentdict end definefont pop
end
%%EndProlog
mpldict begin
198 288 translate
216 216 0 0 clipbox
gsave
0 0 m
216 0 l
216 216 l
0 216 l
cl
1.000 setgray
fill
grestore
gsave
27 24.3 m
194.4 24.3 l
194.4 191.7 l
27 191.7 l
cl
1.000 setgray
fill
grestore
2.000 setlinewidth
1 setlinejoin
2 setlinecap
[] 0 setdash
0.000 0.000 1.000 setrgbcolor
gsave
167.4 167.4 27 24.3 clipbox
137.602 108 m
137.719 108.332 l
137.838 108.666 l
137.957 109.004 l
138.078 109.345 l
138.2 109.689 l
138.323 110.038 l
138.447 110.389 l
138.573 110.745 l
138.7 111.105 l
138.829 111.469 l
138.959 111.838 l
139.091 112.211 l
139.225 112.59 l
139.361 112.973 l
139.498 113.362 l
139.637 113.756 l
139.779 114.156 l
139.922 114.562 l
140.068 114.974 l
140.216 115.393 l
140.367 115.819 l
140.52 116.252 l
140.676 116.693 l
140.834 117.141 l
140.996 117.598 l
141.16 118.063 l
141.328 118.537 l
141.498 119.02 l
141.673 119.513 l
141.851 120.016 l
142.032 120.53 l
142.218 121.055 l
142.408 121.592 l
142.602 122.141 l
142.801 122.703 l
143.004 123.279 l
143.213 123.868 l
143.426 124.473 l
143.646 125.093 l
143.871 125.73 l
144.102 126.384 l
144.34 127.057 l
144.584 127.748 l
144.836 128.46 l
145.095 129.194 l
145.363 129.95 l
145.638 130.73 l
145.923 131.535 l
146.218 132.368 l
146.522 133.229 l
145.791 133.364 l
144.899 133.364 l
144.036 133.364 l
143.201 133.364 l
142.391 133.364 l
141.606 133.364 l
140.844 133.364 l
140.104 133.364 l
139.384 133.364 l
138.685 133.364 l
138.004 133.364 l
137.34 133.364 l
136.694 133.364 l
136.064 133.364 l
135.449 133.364 l
134.848 133.364 l
134.262 133.364 l
133.688 133.364 l
133.128 133.364 l
132.579 133.364 l
132.042 133.364 l
131.515 133.364 l
131 133.364 l
130.494 133.364 l
129.998 133.364 l
129.511 133.364 l
129.033 133.364 l
128.563 133.364 l
128.101 133.364 l
127.647 133.364 l
127.201 133.364 l
126.761 133.364 l
126.329 133.364 l
125.902 133.364 l
125.482 133.364 l
125.068 133.364 l
124.66 133.364 l
124.257 133.364 l
123.86 133.364 l
123.467 133.364 l
123.079 133.364 l
122.696 133.364 l
122.317 133.364 l
121.943 133.364 l
121.573 133.364 l
121.206 133.364 l
120.843 133.364 l
120.484 133.364 l
120.128 133.364 l
119.775 133.364 l
119.426 133.364 l
119.079 133.364 l
118.735 133.364 l
118.394 133.364 l
118.055 133.364 l
117.719 133.364 l
117.385 133.364 l
117.053 133.364 l
116.723 133.364 l
116.396 133.364 l
116.07 133.364 l
115.745 133.364 l
115.422 133.364 l
115.101 133.364 l
114.781 133.364 l
114.462 133.364 l
114.145 133.364 l
113.828 133.364 l
113.513 133.364 l
113.198 133.364 l
112.884 133.364 l
112.571 133.364 l
112.258 133.364 l
111.946 133.364 l
111.634 133.364 l
111.323 133.364 l
111.011 133.364 l
110.7 133.364 l
110.389 133.364 l
110.077 133.364 l
109.766 133.364 l
109.454 133.364 l
109.142 133.364 l
108.829 133.364 l
108.516 133.364 l
108.202 133.364 l
107.887 133.364 l
107.572 133.364 l
107.255 133.364 l
106.938 133.364 l
106.619 133.364 l
106.299 133.364 l
105.978 133.364 l
105.655 133.364 l
105.33 133.364 l
105.004 133.364 l
104.677 133.364 l
104.347 133.364 l
104.015 133.364 l
103.681 133.364 l
103.345 133.364 l
103.006 133.364 l
102.665 133.364 l
102.321 133.364 l
101.974 133.364 l
101.625 133.364 l
101.272 133.364 l
100.916 133.364 l
100.557 133.364 l
100.194 133.364 l
99.8275 133.364 l
99.457 133.364 l
99.0825 133.364 l
98.7039 133.364 l
98.3207 133.364 l
97.933 133.364 l
97.5404 133.364 l
97.1428 133.364 l
96.74 133.364 l
96.3316 133.364 l
95.9176 133.364 l
95.4976 133.364 l
95.0713 133.364 l
94.6386 133.364 l
94.1991 133.364 l
93.7525 133.364 l
93.2986 133.364 l
92.8368 133.364 l
92.3671 133.364 l
91.889 133.364 l
91.402 133.364 l
90.9059 133.364 l
90.4003 133.364 l
89.8845 133.364 l
89.3583 133.364 l
88.8211 133.364 l
88.2724 133.364 l
87.7117 133.364 l
87.1383 133.364 l
86.5517 133.364 l
85.9513 133.364 l
85.3363 133.364 l
84.706 133.364 l
84.0596 133.364 l
83.3965 133.364 l
82.7155 133.364 l
82.0157 133.364 l
81.2963 133.364 l
80.5562 133.364 l
79.7942 133.364 l
79.009 133.364 l
78.1994 133.364 l
77.3639 133.364 l
76.501 133.364 l
75.6091 133.364 l
74.6864 133.364 l
73.7309 133.364 l
72.7406 133.364 l
71.7132 133.364 l
70.6464 133.364 l
69.5373 133.364 l
68.3833 133.364 l
67.1809 133.364 l
65.9268 133.364 l
64.6172 133.364 l
63.2479 133.364 l
61.8143 133.364 l
60.311 133.364 l
58.7327 133.364 l
57.0729 133.364 l
55.3249 133.364 l
53.4805 133.364 l
51.5311 133.364 l
49.4666 133.364 l
47.2763 133.364 l
44.9472 133.364 l
42.4649 133.364 l
39.8133 133.364 l
39.5996 132.46 l
40.4962 131.192 l
41.3633 129.966 l
42.2031 128.778 l
43.0165 127.628 l
43.8054 126.512 l
44.571 125.43 l
45.3143 124.378 l
46.0368 123.356 l
46.7394 122.363 l
47.4233 121.396 l
48.0891 120.454 l
48.738 119.536 l
49.3707 118.642 l
49.988 117.769 l
50.5906 116.916 l
51.1793 116.084 l
51.7548 115.27 l
52.3174 114.475 l
52.8678 113.696 l
53.4067 112.934 l
53.9347 112.187 l
54.4519 111.456 l
54.9591 110.738 l
55.4568 110.035 l
55.945 109.344 l
56.4244 108.666 l
56.8955 108 l
57.3585 107.345 l
57.8136 106.702 l
58.2612 106.069 l
58.7018 105.445 l
59.1356 104.832 l
59.5628 104.228 l
59.9836 103.633 l
60.3987 103.046 l
60.8078 102.467 l
61.2115 101.896 l
61.6098 101.333 l
62.0033 100.777 l
62.3918 100.227 l
62.7757 99.6843 l
63.1548 99.1478 l
63.5301 98.6173 l
63.9012 98.0926 l
64.2682 97.5734 l
64.6316 97.0595 l
64.9915 96.5506 l
65.3478 96.0465 l
65.701 95.5471 l
66.051 95.052 l
66.3981 94.5612 l
66.7425 94.0743 l
67.0839 93.5912 l
67.423 93.1117 l
67.7596 92.6357 l
68.094 92.1629 l
68.4262 91.6932 l
68.7562 91.2263 l
69.0845 90.7623 l
69.4108 90.3008 l
69.7354 89.8416 l
70.0585 89.3848 l
70.3799 88.93 l
70.7001 88.4773 l
71.0189 88.0262 l
71.3368 87.577 l
71.6534 87.1291 l
71.9691 86.6827 l
72.2838 86.2375 l
72.5979 85.7934 l
72.9112 85.3503 l
73.2241 84.908 l
73.5362 84.4663 l
73.8482 84.0253 l
74.1597 83.5845 l
74.4712 83.1443 l
74.7825 82.7041 l
75.0937 82.2638 l
75.405 81.8235 l
75.7166 81.383 l
76.0284 80.942 l
76.3406 80.5006 l
76.653 80.0584 l
76.9663 79.6156 l
77.2801 79.1718 l
77.5946 78.7269 l
77.9101 78.2809 l
78.2264 77.8335 l
78.5438 77.3848 l
78.8623 76.9342 l
79.182 76.482 l
79.5032 76.0279 l
79.8257 75.5717 l
80.1498 75.1133 l
80.4757 74.6526 l
80.8033 74.1893 l
81.1327 73.7233 l
81.4643 73.2546 l
81.7979 72.7826 l
82.1337 72.3076 l
82.4721 71.8293 l
82.8129 71.3473 l
83.1562 70.8615 l
83.5025 70.3719 l
83.8517 69.8783 l
84.2038 69.3801 l
84.5592 68.8776 l
84.918 68.3702 l
85.2803 67.8579 l
85.6462 67.3403 l
86.016 66.8173 l
86.3899 66.2886 l
86.7679 65.754 l
87.1503 65.2131 l
87.5374 64.6658 l
87.9292 64.1118 l
88.326 63.5506 l
88.728 62.982 l
89.1355 62.4058 l
89.5486 61.8214 l
89.9677 61.2288 l
90.393 60.6273 l
90.8247 60.0168 l
91.2632 59.3967 l
91.7087 58.7668 l
92.1614 58.1263 l
92.6219 57.4752 l
93.0904 56.8127 l
93.5672 56.1383 l
94.0528 55.4517 l
94.5475 54.7522 l
95.0516 54.0391 l
95.5658 53.3119 l
96.0904 52.5701 l
96.6258 51.8128 l
97.1727 51.0394 l
97.7316 50.249 l
98.303 49.441 l
98.8875 48.6145 l
99.4857 47.7684 l
100.098 46.9017 l
100.726 46.0139 l
101.37 45.1032 l
102.031 44.1692 l
102.709 43.2101 l
103.406 42.2248 l
104.122 41.2117 l
104.859 40.1697 l
105.617 39.0969 l
106.399 37.9915 l
107.205 36.852 l
108.036 35.6763 l
108.895 34.4621 l
109.782 33.2071 l
110.7 31.9089 l
111.602 34.4615 l
112.447 36.8493 l
113.238 39.0881 l
113.982 41.192 l
114.683 43.1738 l
115.344 45.0439 l
115.969 46.8124 l
116.561 48.4877 l
117.123 50.0774 l
117.658 51.5883 l
118.166 53.0268 l
118.651 54.398 l
119.114 55.7074 l
119.556 56.9589 l
119.98 58.1569 l
120.386 59.3052 l
120.776 60.407 l
121.15 61.4652 l
121.51 62.4831 l
121.856 63.4628 l
122.19 64.407 l
122.512 65.3177 l
122.823 66.1969 l
123.123 67.0467 l
123.414 67.8684 l
123.695 68.6639 l
123.967 69.4346 l
124.232 70.1818 l
124.488 70.907 l
124.737 71.6109 l
124.979 72.2951 l
125.214 72.9603 l
125.443 73.6077 l
125.666 74.238 l
125.883 74.8523 l
126.095 75.451 l
126.301 76.0352 l
126.503 76.6056 l
126.7 77.1624 l
126.892 77.7069 l
127.08 78.2391 l
127.264 78.7598 l
127.445 79.2696 l
127.621 79.7689 l
127.794 80.258 l
127.964 80.7377 l
128.13 81.2081 l
128.293 81.6699 l
128.453 82.1233 l
128.611 82.5684 l
128.766 83.0061 l
128.918 83.4363 l
129.067 83.8594 l
129.215 84.2758 l
129.359 84.6858 l
129.502 85.0895 l
129.643 85.4872 l
129.781 85.8793 l
129.918 86.2659 l
130.053 86.6473 l
130.186 87.0237 l
130.317 87.3951 l
130.447 87.7622 l
130.575 88.1248 l
130.702 88.483 l
130.827 88.8372 l
130.951 89.1876 l
131.074 89.5343 l
131.195 89.8774 l
131.315 90.2172 l
131.434 90.5538 l
131.552 90.8871 l
131.669 91.2176 l
131.785 91.5453 l
131.9 91.8703 l
132.014 92.1927 l
132.127 92.5127 l
132.239 92.8305 l
132.351 93.146 l
132.461 93.4595 l
132.572 93.7709 l
132.681 94.0806 l
132.79 94.3886 l
132.898 94.6948 l
133.006 94.9997 l
133.113 95.3031 l
133.22 95.6051 l
133.326 95.9059 l
133.432 96.2056 l
133.538 96.5044 l
133.643 96.8021 l
133.748 97.099 l
133.853 97.3952 l
133.957 97.6907 l
134.062 97.9856 l
134.166 98.2801 l
134.27 98.5742 l
134.374 98.868 l
134.478 99.1617 l
134.581 99.4551 l
134.685 99.7486 l
134.789 100.042 l
134.893 100.336 l
134.997 100.63 l
135.1 100.924 l
135.205 101.219 l
135.309 101.514 l
135.414 101.81 l
135.518 102.106 l
135.624 102.403 l
135.729 102.701 l
135.835 103 l
135.941 103.301 l
136.047 103.602 l
136.154 103.904 l
136.262 104.208 l
136.37 104.514 l
136.478 104.821 l
136.587 105.129 l
136.697 105.44 l
136.807 105.752 l
136.919 106.066 l
137.03 106.382 l
137.143 106.701 l
137.257 107.022 l
137.371 107.345 l
137.486 107.671 l
137.602 108 l
cl
gsave
0.500 0.500 1.000 setrgbcolor
fill
grestore
stroke
grestore
1.000 setlinewidth
1.000 0.000 0.000 setrgbcolor
gsave
167.4 167.4 27 24.3 clipbox
186.791 108 m
186.425 115.458 l
185.329 122.845 l
183.514 130.088 l
180.999 137.119 l
177.806 143.869 l
173.967 150.274 l
169.519 156.272 l
164.504 161.804 l
158.972 166.819 l
152.974 171.267 l
146.569 175.106 l
139.819 178.299 l
132.788 180.814 l
125.545 182.629 l
118.158 183.725 l
110.7 184.091 l
103.242 183.725 l
95.8554 182.629 l
88.612 180.814 l
81.5813 178.299 l
74.831 175.106 l
68.4262 171.267 l
62.4284 166.819 l
56.8956 161.804 l
51.8809 156.272 l
47.4327 150.274 l
43.5938 143.869 l
40.4012 137.119 l
37.8855 130.088 l
36.0712 122.845 l
34.9755 115.458 l
34.6091 108 l
34.9755 100.542 l
36.0712 93.1554 l
37.8855 85.912 l
40.4012 78.8813 l
43.5938 72.131 l
47.4327 65.7262 l
51.8809 59.7284 l
56.8956 54.1956 l
62.4284 49.1809 l
68.4262 44.7327 l
74.831 40.8938 l
81.5813 37.7012 l
88.612 35.1855 l
95.8554 33.3712 l
103.242 32.2755 l
110.7 31.9091 l
118.158 32.2755 l
125.545 33.3712 l
132.788 35.1855 l
139.819 37.7012 l
146.569 40.8938 l
152.974 44.7327 l
158.972 49.1809 l
164.504 54.1956 l
169.519 59.7284 l
173.967 65.7262 l
177.806 72.131 l
180.999 78.8813 l
183.514 85.912 l
185.329 93.1554 l
186.425 100.542 l
186.791 108 l
stroke
grestore
0.750 0.750 0.000 setrgbcolor
gsave
167.4 167.4 27 24.3 clipbox
154.631 108 m
154.42 112.306 l
153.787 116.571 l
152.739 120.753 l
151.287 124.812 l
149.444 128.709 l
147.227 132.407 l
144.659 135.87 l
141.764 139.064 l
138.57 141.959 l
135.107 144.527 l
131.409 146.744 l
127.512 148.587 l
123.453 150.039 l
119.271 151.087 l
115.006 151.72 l
110.7 151.931 l
106.394 151.72 l
102.129 151.087 l
97.9475 150.039 l
93.8883 148.587 l
89.991 146.744 l
86.2932 144.527 l
82.8304 141.959 l
79.636 139.064 l
76.7408 135.87 l
74.1726 132.407 l
71.9562 128.709 l
70.1129 124.812 l
68.6606 120.753 l
67.613 116.571 l
66.9804 112.306 l
66.7689 108 l
66.9804 103.694 l
67.613 99.4295 l
68.6606 95.2475 l
70.1129 91.1883 l
71.9562 87.291 l
74.1726 83.5932 l
76.7408 80.1304 l
79.636 76.936 l
82.8304 74.0408 l
86.2932 71.4726 l
89.991 69.2562 l
93.8883 67.4129 l
97.9475 65.9606 l
102.129 64.913 l
106.394 64.2804 l
110.7 64.0689 l
115.006 64.2804 l
119.271 64.913 l
123.453 65.9606 l
127.512 67.4129 l
131.409 69.2562 l
135.107 71.4726 l
138.57 74.0408 l
141.764 76.936 l
144.659 80.1304 l
147.227 83.5932 l
149.444 87.291 l
151.287 91.1883 l
152.739 95.2475 l
153.787 99.4295 l
154.42 103.694 l
154.631 108 l
stroke
grestore
gsave
167.4 167.4 27 24.3 clipbox
164.504 108 m
164.245 113.274 l
163.471 118.497 l
162.188 123.619 l
160.409 128.59 l
158.151 133.363 l
155.437 137.892 l
152.291 142.133 l
148.745 146.045 l
144.833 149.591 l
140.592 152.737 l
136.063 155.451 l
131.29 157.709 l
126.319 159.488 l
121.197 160.771 l
115.974 161.545 l
110.7 161.804 l
105.426 161.545 l
100.203 160.771 l
95.0814 159.488 l
90.1099 157.709 l
85.3368 155.451 l
80.8079 152.737 l
76.5669 149.591 l
72.6545 146.045 l
69.1086 142.133 l
65.9633 137.892 l
63.2488 133.363 l
60.9912 128.59 l
59.2124 123.619 l
57.9294 118.497 l
57.1547 113.274 l
56.8956 108 l
57.1547 102.726 l
57.9294 97.5033 l
59.2124 92.3814 l
60.9912 87.4099 l
63.2488 82.6368 l
65.9633 78.1079 l
69.1086 73.8669 l
72.6545 69.9545 l
76.5669 66.4086 l
80.8079 63.2633 l
85.3368 60.5488 l
90.1099 58.2912 l
95.0814 56.5124 l
100.203 55.2294 l
105.426 54.4547 l
110.7 54.1956 l
115.974 54.4547 l
121.197 55.2294 l
126.319 56.5124 l
131.29 58.2912 l
136.063 60.5488 l
140.592 63.2633 l
144.833 66.4086 l
148.745 69.9545 l
152.291 73.8669 l
155.437 78.1079 l
158.151 82.6368 l
160.409 87.4099 l
162.188 92.3814 l
163.471 97.5033 l
164.245 102.726 l
164.504 108 l
stroke
grestore
gsave
167.4 167.4 27 24.3 clipbox
141.764 108 m
141.614 111.045 l
141.167 114.06 l
140.426 117.017 l
139.399 119.888 l
138.096 122.643 l
136.529 125.258 l
134.713 127.707 l
132.666 129.966 l
130.407 132.013 l
127.958 133.829 l
125.343 135.396 l
122.588 136.699 l
119.717 137.726 l
116.76 138.467 l
113.745 138.914 l
110.7 139.064 l
107.655 138.914 l
104.64 138.467 l
101.683 137.726 l
98.8123 136.699 l
96.0565 135.396 l
93.4418 133.829 l
90.9932 132.013 l
88.7344 129.966 l
86.6872 127.707 l
84.8712 125.258 l
83.304 122.643 l
82.0006 119.888 l
80.9736 117.017 l
80.2329 114.06 l
79.7856 111.045 l
79.636 108 l
79.7856 104.955 l
80.2329 101.94 l
80.9736 98.9826 l
82.0006 96.1123 l
83.304 93.3565 l
84.8712 90.7418 l
86.6872 88.2932 l
88.7344 86.0344 l
90.9932 83.9872 l
93.4418 82.1712 l
96.0565 80.604 l
98.8123 79.3006 l
101.683 78.2736 l
104.64 77.5329 l
107.655 77.0856 l
110.7 76.936 l
113.745 77.0856 l
116.76 77.5329 l
119.717 78.2736 l
122.588 79.3006 l
125.343 80.604 l
127.958 82.1712 l
130.407 83.9872 l
132.666 86.0344 l
134.713 88.2932 l
136.529 90.7418 l
138.096 93.3565 l
139.399 96.1123 l
140.426 98.9826 l
141.167 101.94 l
141.614 104.955 l
141.764 108 l
stroke
grestore
0.000 0.500 0.000 setrgbcolor
gsave
167.4 167.4 27 24.3 clipbox
136.064 108 m
135.942 110.486 l
135.576 112.948 l
134.971 115.363 l
134.133 117.706 l
133.069 119.956 l
131.789 122.091 l
130.306 124.091 l
128.635 125.935 l
126.791 127.606 l
124.791 129.089 l
122.656 130.369 l
120.406 131.433 l
118.063 132.271 l
115.648 132.876 l
113.186 133.242 l
110.7 133.364 l
108.214 133.242 l
105.752 132.876 l
103.337 132.271 l
100.994 131.433 l
98.7437 130.369 l
96.6087 129.089 l
94.6095 127.606 l
92.7652 125.935 l
91.0936 124.091 l
89.6109 122.091 l
88.3313 119.956 l
87.2671 117.706 l
86.4285 115.363 l
85.8237 112.948 l
85.4585 110.486 l
85.3364 108 l
85.4585 105.514 l
85.8237 103.052 l
86.4285 100.637 l
87.2671 98.2938 l
88.3313 96.0437 l
89.6109 93.9087 l
91.0936 91.9095 l
92.7652 90.0652 l
94.6095 88.3936 l
96.6087 86.9109 l
98.7437 85.6313 l
100.994 84.5671 l
103.337 83.7285 l
105.752 83.1237 l
108.214 82.7585 l
110.7 82.6364 l
113.186 82.7585 l
115.648 83.1237 l
118.063 83.7285 l
120.406 84.5671 l
122.656 85.6313 l
124.791 86.9109 l
126.791 88.3936 l
128.635 90.0652 l
130.306 91.9095 l
131.789 93.9087 l
133.069 96.0437 l
134.133 98.2938 l
134.971 100.637 l
135.576 103.052 l
135.942 105.514 l
136.064 108 l
stroke
grestore
0.500 setlinewidth
0 setlinecap
0.000 setgray
gsave
/o {
gsave
newpath
translate
0.5 setlinewidth
1 setlinejoin
0 setlinecap
0 0 m
0 4 l
gsave
0.000 setgray
fill
grestore
stroke
grestore
} bind def
34.6091 24.3 o
grestore
gsave
/o {
gsave
newpath
translate
0.5 setlinewidth
1 setlinejoin
0 setlinecap
0 0 m
0 -4 l
gsave
0.000 setgray
fill
grestore
stroke
grestore
} bind def
34.6091 191.7 o
grestore
/BitstreamVeraSans-Roman findfont
9.000 scalefont
setfont
gsave
24.452841 13.487500 translate
0.000000 rotate
0.000000 0.125000 m /minus glyphshow
7.541016 0.125000 m /one glyphshow
13.267090 0.125000 m /period glyphshow
16.127930 0.125000 m /zero glyphshow
grestore
gsave
/o {
gsave
newpath
translate
0.5 setlinewidth
1 setlinejoin
0 setlinecap
0 0 m
0 4 l
gsave
0.000 setgray
fill
grestore
stroke
grestore
} bind def
72.6545 24.3 o
grestore
gsave
/o {
gsave
newpath
translate
0.5 setlinewidth
1 setlinejoin
0 setlinecap
0 0 m
0 -4 l
gsave
0.000 setgray
fill
grestore
stroke
grestore
} bind def
72.6545 191.7 o
grestore
gsave
62.592045 13.487500 translate
0.000000 rotate
0.000000 0.125000 m /minus glyphshow
7.541016 0.125000 m /zero glyphshow
13.267090 0.125000 m /period glyphshow
16.127930 0.125000 m /five glyphshow
grestore
gsave
/o {
gsave
newpath
translate
0.5 setlinewidth
1 setlinejoin
0 setlinecap
0 0 m
0 4 l
gsave
0.000 setgray
fill
grestore
stroke
grestore
} bind def
110.7 24.3 o
grestore
gsave
/o {
gsave
newpath
translate
0.5 setlinewidth
1 setlinejoin
0 setlinecap
0 0 m
0 -4 l
gsave
0.000 setgray
fill
grestore
stroke
grestore
} bind def
110.7 191.7 o
grestore
gsave
104.137500 13.487500 translate
0.000000 rotate
0.000000 0.125000 m /zero glyphshow
5.726074 0.125000 m /period glyphshow
8.586914 0.125000 m /zero glyphshow
grestore
gsave
/o {
gsave
newpath
translate
0.5 setlinewidth
1 setlinejoin
0 setlinecap
0 0 m
0 4 l
gsave
0.000 setgray
fill
grestore
stroke
grestore
} bind def
148.745 24.3 o
grestore
gsave
/o {
gsave
newpath
translate
0.5 setlinewidth
1 setlinejoin
0 setlinecap
0 0 m
0 -4 l
gsave
0.000 setgray
fill
grestore
stroke
grestore
} bind def
148.745 191.7 o
grestore
gsave
142.276705 13.487500 translate
0.000000 rotate
0.000000 0.125000 m /zero glyphshow
5.726074 0.125000 m /period glyphshow
8.586914 0.125000 m /five glyphshow
grestore
gsave
/o {
gsave
newpath
translate
0.5 setlinewidth
1 setlinejoin
0 setlinecap
0 0 m
0 4 l
gsave
0.000 setgray
fill
grestore
stroke
grestore
} bind def
186.791 24.3 o
grestore
gsave
/o {
gsave
newpath
translate
0.5 setlinewidth
1 setlinejoin
0 setlinecap
0 0 m
0 -4 l
gsave
0.000 setgray
fill
grestore
stroke
grestore
} bind def
186.791 191.7 o
grestore
gsave
180.423722 13.487500 translate
0.000000 rotate
0.000000 0.125000 m /one glyphshow
5.726074 0.125000 m /period glyphshow
8.586914 0.125000 m /zero glyphshow
grestore
gsave
/o {
gsave
newpath
translate
0.5 setlinewidth
1 setlinejoin
0 setlinecap
0 0 m
4 0 l
gsave
0.000 setgray
fill
grestore
stroke
grestore
} bind def
27 31.9091 o
grestore
gsave
/o {
gsave
newpath
translate
0.5 setlinewidth
1 setlinejoin
0 setlinecap
0 0 m
-4 0 l
gsave
0.000 setgray
fill
grestore
stroke
grestore
} bind def
194.4 31.9091 o
grestore
gsave
2.687500 28.502841 translate
0.000000 rotate
0.000000 0.125000 m /minus glyphshow
7.541016 0.125000 m /one glyphshow
13.267090 0.125000 m /period glyphshow
16.127930 0.125000 m /zero glyphshow
grestore
gsave
/o {
gsave
newpath
translate
0.5 setlinewidth
1 setlinejoin
0 setlinecap
0 0 m
4 0 l
gsave
0.000 setgray
fill
grestore
stroke
grestore
} bind def
27 69.9545 o
grestore
gsave
/o {
gsave
newpath
translate
0.5 setlinewidth
1 setlinejoin
0 setlinecap
0 0 m
-4 0 l
gsave
0.000 setgray
fill
grestore
stroke
grestore
} bind def
194.4 69.9545 o
grestore
gsave
2.875000 66.548295 translate
0.000000 rotate
0.000000 0.125000 m /minus glyphshow
7.541016 0.125000 m /zero glyphshow
13.267090 0.125000 m /period glyphshow
16.127930 0.125000 m /five glyphshow
grestore
gsave
/o {
gsave
newpath
translate
0.5 setlinewidth
1 setlinejoin
0 setlinecap
0 0 m
4 0 l
gsave
0.000 setgray
fill
grestore
stroke
grestore
} bind def
27 108 o
grestore
gsave
/o {
gsave
newpath
translate
0.5 setlinewidth
1 setlinejoin
0 setlinecap
0 0 m
-4 0 l
gsave
0.000 setgray
fill
grestore
stroke
grestore
} bind def
194.4 108 o
grestore
gsave
9.875000 104.593750 translate
0.000000 rotate
0.000000 0.125000 m /zero glyphshow
5.726074 0.125000 m /period glyphshow
8.586914 0.125000 m /zero glyphshow
grestore
gsave
/o {
gsave
newpath
translate
0.5 setlinewidth
1 setlinejoin
0 setlinecap
0 0 m
4 0 l
gsave
0.000 setgray
fill
grestore
stroke
grestore
} bind def
27 146.045 o
grestore
gsave
/o {
gsave
newpath
translate
0.5 setlinewidth
1 setlinejoin
0 setlinecap
0 0 m
-4 0 l
gsave
0.000 setgray
fill
grestore
stroke
grestore
} bind def
194.4 146.045 o
grestore
gsave
10.062500 142.639205 translate
0.000000 rotate
0.000000 0.125000 m /zero glyphshow
5.726074 0.125000 m /period glyphshow
8.586914 0.125000 m /five glyphshow
grestore
gsave
/o {
gsave
newpath
translate
0.5 setlinewidth
1 setlinejoin
0 setlinecap
0 0 m
4 0 l
gsave
0.000 setgray
fill
grestore
stroke
grestore
} bind def
27 184.091 o
grestore
gsave
/o {
gsave
newpath
translate
0.5 setlinewidth
1 setlinejoin
0 setlinecap
0 0 m
-4 0 l
gsave
0.000 setgray
fill
grestore
stroke
grestore
} bind def
194.4 184.091 o
grestore
gsave
10.265625 180.684659 translate
0.000000 rotate
0.000000 0.125000 m /one glyphshow
5.726074 0.125000 m /period glyphshow
8.586914 0.125000 m /zero glyphshow
grestore
1.000 setlinewidth
2 setlinecap
gsave
27 191.7 m
194.4 191.7 l
stroke
grestore
gsave
194.4 24.3 m
194.4 191.7 l
stroke
grestore
gsave
27 24.3 m
194.4 24.3 l
stroke
grestore
gsave
27 24.3 m
27 191.7 l
stroke
grestore

end
showpage
