%!PS-Adobe-3.0 EPSF-3.0
%%Title: ../../thesis/images/4l_2d_bloch//K.eps
%%Creator: matplotlib version 1.2.1, http://matplotlib.org/
%%CreationDate: Mon May 20 13:30:37 2013
%%Orientation: portrait
%%BoundingBox: 198 288 414 504
%%EndComments
%%BeginProlog
/mpldict 8 dict def
mpldict begin
/m { moveto } bind def
/l { lineto } bind def
/r { rlineto } bind def
/c { curveto } bind def
/cl { closepath } bind def
/box {
m
1 index 0 r
0 exch r
neg 0 r
cl
} bind def
/clipbox {
box
clip
newpath
} bind def
%!PS-Adobe-3.0 Resource-Font
%%Title: Bitstream Vera Sans
%%Copyright: Copyright (c) 2003 by Bitstream, Inc. All Rights Reserved.
%%Creator: Converted from TrueType to type 3 by PPR
25 dict begin
/_d{bind def}bind def
/_m{moveto}_d
/_l{lineto}_d
/_cl{closepath eofill}_d
/_c{curveto}_d
/_sc{7 -1 roll{setcachedevice}{pop pop pop pop pop pop}ifelse}_d
/_e{exec}_d
/FontName /BitstreamVeraSans-Roman def
/PaintType 0 def
/FontMatrix[.001 0 0 .001 0 0]def
/FontBBox[-183 -236 1287 928]def
/FontType 3 def
/Encoding [ /period /zero /one /five /minus ] def
/FontInfo 10 dict dup begin
/FamilyName (Bitstream Vera Sans) def
/FullName (Bitstream Vera Sans) def
/Notice (Copyright (c) 2003 by Bitstream, Inc. All Rights Reserved. Bitstream Vera is a trademark of Bitstream, Inc.) def
/Weight (Roman) def
/Version (Release 1.10) def
/ItalicAngle 0.0 def
/isFixedPitch false def
/UnderlinePosition -213 def
/UnderlineThickness 143 def
end readonly def
/CharStrings 5 dict dup begin
/period{318 0 107 0 210 124 _sc
107 124 _m
210 124 _l
210 0 _l
107 0 _l
107 124 _l
_cl}_d
/zero{636 0 66 -13 570 742 _sc
318 664 _m
267 664 229 639 203 589 _c
177 539 165 464 165 364 _c
165 264 177 189 203 139 _c
229 89 267 64 318 64 _c
369 64 407 89 433 139 _c
458 189 471 264 471 364 _c
471 464 458 539 433 589 _c
407 639 369 664 318 664 _c
318 742 _m
399 742 461 709 505 645 _c
548 580 570 486 570 364 _c
570 241 548 147 505 83 _c
461 19 399 -13 318 -13 _c
236 -13 173 19 130 83 _c
87 147 66 241 66 364 _c
66 486 87 580 130 645 _c
173 709 236 742 318 742 _c
_cl}_d
/one{636 0 110 0 544 729 _sc
124 83 _m
285 83 _l
285 639 _l
110 604 _l
110 694 _l
284 729 _l
383 729 _l
383 83 _l
544 83 _l
544 0 _l
124 0 _l
124 83 _l
_cl}_d
/five{{636 0 77 -13 549 729 _sc
108 729 _m
495 729 _l
495 646 _l
198 646 _l
198 467 _l
212 472 227 476 241 478 _c
255 480 270 482 284 482 _c
365 482 429 459 477 415 _c
525 370 549 310 549 234 _c
549 155 524 94 475 51 _c
426 8 357 -13 269 -13 _c
238 -13 207 -10 175 -6 _c
143 -1 111 6 77 17 _c
77 116 _l
106 100 136 88 168 80 _c
199 72 232 69 267 69 _c
}_e{323 69 368 83 401 113 _c
433 143 450 183 450 234 _c
450 284 433 324 401 354 _c
368 384 323 399 267 399 _c
241 399 214 396 188 390 _c
162 384 135 375 108 363 _c
108 729 _l
_cl}_e}_d
/minus{838 0 106 272 732 355 _sc
106 355 _m
732 355 _l
732 272 _l
106 272 _l
106 355 _l
_cl}_d
end readonly def

/BuildGlyph
 {exch begin
 CharStrings exch
 2 copy known not{pop /.notdef}if
 true 3 1 roll get exec
 end}_d

/BuildChar {
 1 index /Encoding get exch get
 1 index /BuildGlyph get exec
}_d

FontName currentdict end definefont pop
end
%%EndProlog
mpldict begin
198 288 translate
216 216 0 0 clipbox
gsave
0 0 m
216 0 l
216 216 l
0 216 l
cl
1.000 setgray
fill
grestore
gsave
27 24.3 m
194.4 24.3 l
194.4 191.7 l
27 191.7 l
cl
1.000 setgray
fill
grestore
2.000 setlinewidth
1 setlinejoin
2 setlinecap
[] 0 setdash
0.000 0.000 1.000 setrgbcolor
gsave
167.4 167.4 27 24.3 clipbox
141.764 108 m
141.608 108.379 l
141.45 108.755 l
141.29 109.127 l
141.129 109.495 l
140.967 109.859 l
140.803 110.221 l
140.638 110.578 l
140.471 110.932 l
140.303 111.283 l
140.133 111.63 l
139.962 111.974 l
139.79 112.315 l
139.616 112.653 l
139.441 112.987 l
139.265 113.318 l
139.087 113.647 l
138.908 113.972 l
138.727 114.294 l
138.546 114.613 l
138.363 114.929 l
138.178 115.242 l
137.993 115.553 l
137.806 115.86 l
137.617 116.165 l
137.428 116.467 l
137.237 116.767 l
137.045 117.063 l
136.851 117.357 l
136.656 117.648 l
136.46 117.937 l
136.262 118.223 l
136.064 118.506 l
135.864 118.787 l
135.662 119.065 l
135.459 119.341 l
135.255 119.614 l
135.05 119.885 l
134.843 120.153 l
134.635 120.418 l
134.426 120.682 l
134.215 120.943 l
134.003 121.201 l
133.789 121.457 l
133.574 121.71 l
133.358 121.962 l
133.141 122.21 l
132.922 122.457 l
132.701 122.701 l
132.48 122.942 l
132.256 123.182 l
132.032 123.419 l
131.806 123.653 l
131.578 123.885 l
131.349 124.115 l
131.119 124.342 l
130.887 124.567 l
130.654 124.79 l
130.42 125.01 l
130.183 125.228 l
129.946 125.443 l
129.707 125.657 l
129.466 125.867 l
129.225 126.075 l
128.981 126.281 l
128.736 126.484 l
128.49 126.685 l
128.242 126.884 l
127.993 127.079 l
127.742 127.273 l
127.49 127.464 l
127.236 127.652 l
126.98 127.838 l
126.724 128.021 l
126.465 128.201 l
126.206 128.379 l
125.944 128.555 l
125.682 128.727 l
125.417 128.897 l
125.152 129.064 l
124.885 129.229 l
124.616 129.391 l
124.346 129.549 l
124.075 129.706 l
123.802 129.859 l
123.527 130.009 l
123.252 130.157 l
122.974 130.301 l
122.696 130.443 l
122.416 130.582 l
122.135 130.717 l
121.852 130.85 l
121.568 130.979 l
121.283 131.106 l
120.997 131.229 l
120.709 131.349 l
120.42 131.466 l
120.13 131.58 l
119.838 131.69 l
119.546 131.797 l
119.252 131.901 l
118.957 132.001 l
118.661 132.098 l
118.364 132.192 l
118.066 132.283 l
117.767 132.37 l
117.467 132.453 l
117.166 132.533 l
116.864 132.609 l
116.562 132.682 l
116.258 132.751 l
115.954 132.817 l
115.649 132.879 l
115.343 132.937 l
115.036 132.992 l
114.729 133.043 l
114.422 133.09 l
114.114 133.133 l
113.805 133.173 l
113.496 133.209 l
113.186 133.242 l
112.876 133.27 l
112.566 133.295 l
112.255 133.316 l
111.945 133.333 l
111.634 133.347 l
111.322 133.356 l
111.011 133.362 l
110.7 133.364 l
110.389 133.362 l
110.078 133.356 l
109.766 133.347 l
109.455 133.333 l
109.145 133.316 l
108.834 133.295 l
108.524 133.27 l
108.214 133.242 l
107.904 133.209 l
107.595 133.173 l
107.286 133.133 l
106.978 133.09 l
106.671 133.043 l
106.364 132.992 l
106.057 132.937 l
105.751 132.879 l
105.446 132.817 l
105.142 132.751 l
104.838 132.682 l
104.536 132.609 l
104.234 132.533 l
103.933 132.453 l
103.633 132.37 l
103.334 132.283 l
103.036 132.192 l
102.739 132.098 l
102.443 132.001 l
102.148 131.901 l
101.854 131.797 l
101.562 131.69 l
101.27 131.58 l
100.98 131.466 l
100.691 131.349 l
100.403 131.229 l
100.117 131.106 l
99.8317 130.979 l
99.5477 130.85 l
99.2651 130.717 l
98.9839 130.582 l
98.704 130.443 l
98.4255 130.301 l
98.1484 130.157 l
97.8727 130.009 l
97.5983 129.859 l
97.3255 129.706 l
97.0539 129.549 l
96.7839 129.391 l
96.5154 129.229 l
96.2482 129.064 l
95.9825 128.897 l
95.7184 128.727 l
95.4557 128.555 l
95.1945 128.379 l
94.9347 128.201 l
94.6764 128.021 l
94.4196 127.838 l
94.1643 127.652 l
93.9104 127.464 l
93.6581 127.273 l
93.4074 127.079 l
93.158 126.884 l
92.9101 126.685 l
92.6638 126.484 l
92.4189 126.281 l
92.1754 126.075 l
91.9335 125.867 l
91.693 125.657 l
91.4541 125.443 l
91.2165 125.228 l
90.9804 125.01 l
90.7458 124.79 l
90.5126 124.567 l
90.2809 124.342 l
90.0505 124.115 l
89.8218 123.885 l
89.5943 123.653 l
89.3683 123.419 l
89.1437 123.182 l
88.9204 122.942 l
88.6987 122.701 l
88.4784 122.457 l
88.2594 122.21 l
88.0417 121.962 l
87.8255 121.71 l
87.6107 121.457 l
87.3971 121.201 l
87.185 120.943 l
86.9742 120.682 l
86.7649 120.418 l
86.5567 120.153 l
86.3499 119.885 l
86.1445 119.614 l
85.9405 119.341 l
85.7377 119.065 l
85.5364 118.787 l
85.3363 118.506 l
85.1376 118.223 l
84.9401 117.937 l
84.7438 117.648 l
84.549 117.357 l
84.3555 117.063 l
84.1632 116.767 l
83.9723 116.467 l
83.7827 116.165 l
83.5944 115.86 l
83.4074 115.553 l
83.2217 115.242 l
83.0373 114.929 l
82.8542 114.613 l
82.6725 114.294 l
82.4922 113.972 l
82.313 113.647 l
82.1352 113.318 l
81.9588 112.987 l
81.7837 112.653 l
81.6102 112.315 l
81.4377 111.974 l
81.2667 111.63 l
81.0971 111.283 l
80.9291 110.932 l
80.7624 110.578 l
80.5969 110.221 l
80.4331 109.859 l
80.2708 109.495 l
80.1098 109.127 l
79.9503 108.755 l
79.7923 108.379 l
79.6358 108 l
79.481 107.617 l
79.3279 107.23 l
79.1761 106.839 l
79.0262 106.444 l
78.8777 106.045 l
78.7311 105.642 l
78.5863 105.235 l
78.443 104.823 l
78.3016 104.407 l
78.1621 103.987 l
78.0244 103.562 l
77.8886 103.133 l
77.755 102.699 l
77.6231 102.261 l
77.4933 101.817 l
77.3659 101.369 l
77.2404 100.917 l
77.117 100.459 l
76.996 99.9958 l
76.8774 99.5279 l
76.7609 99.0547 l
76.6471 98.5763 l
76.5359 98.0926 l
76.4272 97.6035 l
76.3212 97.1088 l
76.2178 96.6086 l
76.1173 96.1028 l
76.0197 95.5912 l
75.9251 95.0738 l
75.8336 94.5506 l
75.7454 94.0214 l
75.6603 93.4861 l
75.5788 92.9448 l
75.5007 92.3972 l
75.426 91.8433 l
75.3553 91.2832 l
75.2883 90.7166 l
75.2254 90.1436 l
75.1664 89.5639 l
75.1117 88.9777 l
75.0614 88.3847 l
75.0155 87.785 l
74.9744 87.1785 l
74.9381 86.5652 l
74.9067 85.9448 l
74.8805 85.3175 l
74.8595 84.6832 l
74.8441 84.0418 l
74.8344 83.3934 l
74.8304 82.7378 l
74.8326 82.0751 l
74.8409 81.4051 l
74.8557 80.728 l
74.8771 80.0436 l
74.9056 79.3521 l
74.9411 78.6534 l
74.9839 77.9476 l
75.0343 77.2346 l
75.0924 76.5144 l
75.1587 75.7873 l
75.2334 75.0532 l
75.3165 74.3121 l
75.4087 73.5644 l
75.5097 72.8097 l
75.6204 72.0486 l
75.7405 71.2809 l
75.8708 70.507 l
76.0113 69.7269 l
76.1624 68.9409 l
76.3242 68.1489 l
76.4973 67.3515 l
76.6819 66.5488 l
76.8783 65.7411 l
77.0867 64.9285 l
77.3076 64.1116 l
77.5412 63.2906 l
77.7879 62.4657 l
78.0479 61.6376 l
78.3216 60.8065 l
78.6093 59.9728 l
78.9112 59.137 l
79.2277 58.2998 l
79.5592 57.4616 l
79.9058 56.623 l
80.2678 55.7844 l
80.6455 54.9465 l
81.0393 54.11 l
81.4492 53.2757 l
81.8756 52.4441 l
82.3187 51.616 l
82.7785 50.7921 l
83.2554 49.9734 l
83.7496 49.1606 l
84.261 48.3547 l
84.79 47.5565 l
85.3363 46.7666 l
85.9002 45.9864 l
86.4818 45.2167 l
87.081 44.4586 l
87.6977 43.7128 l
88.3318 42.9804 l
88.9833 42.2626 l
89.6521 41.5605 l
90.3378 40.8747 l
91.0404 40.2069 l
91.7595 39.5577 l
92.4947 38.9281 l
93.246 38.3196 l
94.0126 37.7328 l
94.7943 37.1689 l
95.5906 36.6289 l
96.401 36.1138 l
97.2248 35.6247 l
98.0614 35.1621 l
98.9103 34.7273 l
99.7708 34.3211 l
100.642 33.944 l
101.523 33.5971 l
102.414 33.2811 l
103.313 32.9964 l
104.219 32.7437 l
105.133 32.5237 l
106.052 32.3368 l
106.975 32.1832 l
107.903 32.0634 l
108.834 31.9778 l
109.766 31.9262 l
110.7 31.9089 l
111.634 31.9262 l
112.566 31.9778 l
113.497 32.0634 l
114.425 32.1832 l
115.348 32.3368 l
116.267 32.5237 l
117.181 32.7437 l
118.087 32.9964 l
118.986 33.2811 l
119.877 33.5971 l
120.758 33.944 l
121.629 34.3211 l
122.49 34.7273 l
123.339 35.1621 l
124.175 35.6247 l
124.999 36.1138 l
125.809 36.6289 l
126.606 37.1689 l
127.387 37.7328 l
128.154 38.3196 l
128.905 38.9281 l
129.641 39.5577 l
130.36 40.2069 l
131.062 40.8747 l
131.748 41.5605 l
132.417 42.2626 l
133.068 42.9804 l
133.702 43.7128 l
134.319 44.4586 l
134.918 45.2167 l
135.5 45.9864 l
136.064 46.7666 l
136.61 47.5565 l
137.139 48.3547 l
137.65 49.1606 l
138.145 49.9734 l
138.621 50.7921 l
139.081 51.616 l
139.524 52.4441 l
139.951 53.2757 l
140.361 54.11 l
140.754 54.9465 l
141.132 55.7844 l
141.494 56.623 l
141.841 57.4616 l
142.172 58.2998 l
142.489 59.137 l
142.791 59.9728 l
143.078 60.8065 l
143.352 61.6376 l
143.612 62.4657 l
143.859 63.2906 l
144.092 64.1116 l
144.313 64.9285 l
144.522 65.7411 l
144.718 66.5488 l
144.903 67.3515 l
145.076 68.1489 l
145.238 68.9409 l
145.389 69.7269 l
145.529 70.507 l
145.659 71.2809 l
145.78 72.0486 l
145.89 72.8097 l
145.991 73.5644 l
146.083 74.3121 l
146.167 75.0532 l
146.241 75.7873 l
146.308 76.5144 l
146.366 77.2346 l
146.416 77.9476 l
146.459 78.6534 l
146.494 79.3521 l
146.523 80.0436 l
146.544 80.728 l
146.559 81.4051 l
146.567 82.0751 l
146.57 82.7378 l
146.566 83.3934 l
146.556 84.0418 l
146.54 84.6832 l
146.52 85.3175 l
146.493 85.9448 l
146.462 86.5652 l
146.426 87.1785 l
146.384 87.785 l
146.339 88.3847 l
146.288 88.9777 l
146.234 89.5639 l
146.175 90.1436 l
146.112 90.7166 l
146.045 91.2832 l
145.974 91.8433 l
145.899 92.3972 l
145.821 92.9448 l
145.74 93.4861 l
145.655 94.0214 l
145.566 94.5506 l
145.475 95.0738 l
145.38 95.5912 l
145.283 96.1028 l
145.182 96.6086 l
145.079 97.1088 l
144.973 97.6035 l
144.864 98.0926 l
144.753 98.5763 l
144.639 99.0547 l
144.523 99.5279 l
144.404 99.9958 l
144.283 100.459 l
144.16 100.917 l
144.034 101.369 l
143.907 101.817 l
143.777 102.261 l
143.645 102.699 l
143.511 103.133 l
143.376 103.562 l
143.238 103.987 l
143.098 104.407 l
142.957 104.823 l
142.814 105.235 l
142.669 105.642 l
142.522 106.045 l
142.374 106.444 l
142.224 106.839 l
142.072 107.23 l
141.919 107.617 l
141.764 108 l
cl
gsave
0.500 0.500 1.000 setrgbcolor
fill
grestore
stroke
grestore
1.000 setlinewidth
1.000 0.000 0.000 setrgbcolor
gsave
167.4 167.4 27 24.3 clipbox
186.791 108 m
186.425 115.458 l
185.329 122.845 l
183.514 130.088 l
180.999 137.119 l
177.806 143.869 l
173.967 150.274 l
169.519 156.272 l
164.504 161.804 l
158.972 166.819 l
152.974 171.267 l
146.569 175.106 l
139.819 178.299 l
132.788 180.814 l
125.545 182.629 l
118.158 183.725 l
110.7 184.091 l
103.242 183.725 l
95.8554 182.629 l
88.612 180.814 l
81.5813 178.299 l
74.831 175.106 l
68.4262 171.267 l
62.4284 166.819 l
56.8956 161.804 l
51.8809 156.272 l
47.4327 150.274 l
43.5938 143.869 l
40.4012 137.119 l
37.8855 130.088 l
36.0712 122.845 l
34.9755 115.458 l
34.6091 108 l
34.9755 100.542 l
36.0712 93.1554 l
37.8855 85.912 l
40.4012 78.8813 l
43.5938 72.131 l
47.4327 65.7262 l
51.8809 59.7284 l
56.8956 54.1956 l
62.4284 49.1809 l
68.4262 44.7327 l
74.831 40.8938 l
81.5813 37.7012 l
88.612 35.1855 l
95.8554 33.3712 l
103.242 32.2755 l
110.7 31.9091 l
118.158 32.2755 l
125.545 33.3712 l
132.788 35.1855 l
139.819 37.7012 l
146.569 40.8938 l
152.974 44.7327 l
158.972 49.1809 l
164.504 54.1956 l
169.519 59.7284 l
173.967 65.7262 l
177.806 72.131 l
180.999 78.8813 l
183.514 85.912 l
185.329 93.1554 l
186.425 100.542 l
186.791 108 l
stroke
grestore
0.750 0.750 0.000 setrgbcolor
gsave
167.4 167.4 27 24.3 clipbox
154.631 108 m
154.42 112.306 l
153.787 116.571 l
152.739 120.753 l
151.287 124.812 l
149.444 128.709 l
147.227 132.407 l
144.659 135.87 l
141.764 139.064 l
138.57 141.959 l
135.107 144.527 l
131.409 146.744 l
127.512 148.587 l
123.453 150.039 l
119.271 151.087 l
115.006 151.72 l
110.7 151.931 l
106.394 151.72 l
102.129 151.087 l
97.9475 150.039 l
93.8883 148.587 l
89.991 146.744 l
86.2932 144.527 l
82.8304 141.959 l
79.636 139.064 l
76.7408 135.87 l
74.1726 132.407 l
71.9562 128.709 l
70.1129 124.812 l
68.6606 120.753 l
67.613 116.571 l
66.9804 112.306 l
66.7689 108 l
66.9804 103.694 l
67.613 99.4295 l
68.6606 95.2475 l
70.1129 91.1883 l
71.9562 87.291 l
74.1726 83.5932 l
76.7408 80.1304 l
79.636 76.936 l
82.8304 74.0408 l
86.2932 71.4726 l
89.991 69.2562 l
93.8883 67.4129 l
97.9475 65.9606 l
102.129 64.913 l
106.394 64.2804 l
110.7 64.0689 l
115.006 64.2804 l
119.271 64.913 l
123.453 65.9606 l
127.512 67.4129 l
131.409 69.2562 l
135.107 71.4726 l
138.57 74.0408 l
141.764 76.936 l
144.659 80.1304 l
147.227 83.5932 l
149.444 87.291 l
151.287 91.1883 l
152.739 95.2475 l
153.787 99.4295 l
154.42 103.694 l
154.631 108 l
stroke
grestore
gsave
167.4 167.4 27 24.3 clipbox
164.504 108 m
164.245 113.274 l
163.471 118.497 l
162.188 123.619 l
160.409 128.59 l
158.151 133.363 l
155.437 137.892 l
152.291 142.133 l
148.745 146.045 l
144.833 149.591 l
140.592 152.737 l
136.063 155.451 l
131.29 157.709 l
126.319 159.488 l
121.197 160.771 l
115.974 161.545 l
110.7 161.804 l
105.426 161.545 l
100.203 160.771 l
95.0814 159.488 l
90.1099 157.709 l
85.3368 155.451 l
80.8079 152.737 l
76.5669 149.591 l
72.6545 146.045 l
69.1086 142.133 l
65.9633 137.892 l
63.2488 133.363 l
60.9912 128.59 l
59.2124 123.619 l
57.9294 118.497 l
57.1547 113.274 l
56.8956 108 l
57.1547 102.726 l
57.9294 97.5033 l
59.2124 92.3814 l
60.9912 87.4099 l
63.2488 82.6368 l
65.9633 78.1079 l
69.1086 73.8669 l
72.6545 69.9545 l
76.5669 66.4086 l
80.8079 63.2633 l
85.3368 60.5488 l
90.1099 58.2912 l
95.0814 56.5124 l
100.203 55.2294 l
105.426 54.4547 l
110.7 54.1956 l
115.974 54.4547 l
121.197 55.2294 l
126.319 56.5124 l
131.29 58.2912 l
136.063 60.5488 l
140.592 63.2633 l
144.833 66.4086 l
148.745 69.9545 l
152.291 73.8669 l
155.437 78.1079 l
158.151 82.6368 l
160.409 87.4099 l
162.188 92.3814 l
163.471 97.5033 l
164.245 102.726 l
164.504 108 l
stroke
grestore
gsave
167.4 167.4 27 24.3 clipbox
141.764 108 m
141.614 111.045 l
141.167 114.06 l
140.426 117.017 l
139.399 119.888 l
138.096 122.643 l
136.529 125.258 l
134.713 127.707 l
132.666 129.966 l
130.407 132.013 l
127.958 133.829 l
125.343 135.396 l
122.588 136.699 l
119.717 137.726 l
116.76 138.467 l
113.745 138.914 l
110.7 139.064 l
107.655 138.914 l
104.64 138.467 l
101.683 137.726 l
98.8123 136.699 l
96.0565 135.396 l
93.4418 133.829 l
90.9932 132.013 l
88.7344 129.966 l
86.6872 127.707 l
84.8712 125.258 l
83.304 122.643 l
82.0006 119.888 l
80.9736 117.017 l
80.2329 114.06 l
79.7856 111.045 l
79.636 108 l
79.7856 104.955 l
80.2329 101.94 l
80.9736 98.9826 l
82.0006 96.1123 l
83.304 93.3565 l
84.8712 90.7418 l
86.6872 88.2932 l
88.7344 86.0344 l
90.9932 83.9872 l
93.4418 82.1712 l
96.0565 80.604 l
98.8123 79.3006 l
101.683 78.2736 l
104.64 77.5329 l
107.655 77.0856 l
110.7 76.936 l
113.745 77.0856 l
116.76 77.5329 l
119.717 78.2736 l
122.588 79.3006 l
125.343 80.604 l
127.958 82.1712 l
130.407 83.9872 l
132.666 86.0344 l
134.713 88.2932 l
136.529 90.7418 l
138.096 93.3565 l
139.399 96.1123 l
140.426 98.9826 l
141.167 101.94 l
141.614 104.955 l
141.764 108 l
stroke
grestore
0.000 0.500 0.000 setrgbcolor
gsave
167.4 167.4 27 24.3 clipbox
136.064 108 m
135.942 110.486 l
135.576 112.948 l
134.971 115.363 l
134.133 117.706 l
133.069 119.956 l
131.789 122.091 l
130.306 124.091 l
128.635 125.935 l
126.791 127.606 l
124.791 129.089 l
122.656 130.369 l
120.406 131.433 l
118.063 132.271 l
115.648 132.876 l
113.186 133.242 l
110.7 133.364 l
108.214 133.242 l
105.752 132.876 l
103.337 132.271 l
100.994 131.433 l
98.7437 130.369 l
96.6087 129.089 l
94.6095 127.606 l
92.7652 125.935 l
91.0936 124.091 l
89.6109 122.091 l
88.3313 119.956 l
87.2671 117.706 l
86.4285 115.363 l
85.8237 112.948 l
85.4585 110.486 l
85.3364 108 l
85.4585 105.514 l
85.8237 103.052 l
86.4285 100.637 l
87.2671 98.2938 l
88.3313 96.0437 l
89.6109 93.9087 l
91.0936 91.9095 l
92.7652 90.0652 l
94.6095 88.3936 l
96.6087 86.9109 l
98.7437 85.6313 l
100.994 84.5671 l
103.337 83.7285 l
105.752 83.1237 l
108.214 82.7585 l
110.7 82.6364 l
113.186 82.7585 l
115.648 83.1237 l
118.063 83.7285 l
120.406 84.5671 l
122.656 85.6313 l
124.791 86.9109 l
126.791 88.3936 l
128.635 90.0652 l
130.306 91.9095 l
131.789 93.9087 l
133.069 96.0437 l
134.133 98.2938 l
134.971 100.637 l
135.576 103.052 l
135.942 105.514 l
136.064 108 l
stroke
grestore
0.500 setlinewidth
0 setlinecap
0.000 setgray
gsave
/o {
gsave
newpath
translate
0.5 setlinewidth
1 setlinejoin
0 setlinecap
0 0 m
0 4 l
gsave
0.000 setgray
fill
grestore
stroke
grestore
} bind def
34.6091 24.3 o
grestore
gsave
/o {
gsave
newpath
translate
0.5 setlinewidth
1 setlinejoin
0 setlinecap
0 0 m
0 -4 l
gsave
0.000 setgray
fill
grestore
stroke
grestore
} bind def
34.6091 191.7 o
grestore
/BitstreamVeraSans-Roman findfont
9.000 scalefont
setfont
gsave
24.452841 13.487500 translate
0.000000 rotate
0.000000 0.125000 m /minus glyphshow
7.541016 0.125000 m /one glyphshow
13.267090 0.125000 m /period glyphshow
16.127930 0.125000 m /zero glyphshow
grestore
gsave
/o {
gsave
newpath
translate
0.5 setlinewidth
1 setlinejoin
0 setlinecap
0 0 m
0 4 l
gsave
0.000 setgray
fill
grestore
stroke
grestore
} bind def
72.6545 24.3 o
grestore
gsave
/o {
gsave
newpath
translate
0.5 setlinewidth
1 setlinejoin
0 setlinecap
0 0 m
0 -4 l
gsave
0.000 setgray
fill
grestore
stroke
grestore
} bind def
72.6545 191.7 o
grestore
gsave
62.592045 13.487500 translate
0.000000 rotate
0.000000 0.125000 m /minus glyphshow
7.541016 0.125000 m /zero glyphshow
13.267090 0.125000 m /period glyphshow
16.127930 0.125000 m /five glyphshow
grestore
gsave
/o {
gsave
newpath
translate
0.5 setlinewidth
1 setlinejoin
0 setlinecap
0 0 m
0 4 l
gsave
0.000 setgray
fill
grestore
stroke
grestore
} bind def
110.7 24.3 o
grestore
gsave
/o {
gsave
newpath
translate
0.5 setlinewidth
1 setlinejoin
0 setlinecap
0 0 m
0 -4 l
gsave
0.000 setgray
fill
grestore
stroke
grestore
} bind def
110.7 191.7 o
grestore
gsave
104.137500 13.487500 translate
0.000000 rotate
0.000000 0.125000 m /zero glyphshow
5.726074 0.125000 m /period glyphshow
8.586914 0.125000 m /zero glyphshow
grestore
gsave
/o {
gsave
newpath
translate
0.5 setlinewidth
1 setlinejoin
0 setlinecap
0 0 m
0 4 l
gsave
0.000 setgray
fill
grestore
stroke
grestore
} bind def
148.745 24.3 o
grestore
gsave
/o {
gsave
newpath
translate
0.5 setlinewidth
1 setlinejoin
0 setlinecap
0 0 m
0 -4 l
gsave
0.000 setgray
fill
grestore
stroke
grestore
} bind def
148.745 191.7 o
grestore
gsave
142.276705 13.487500 translate
0.000000 rotate
0.000000 0.125000 m /zero glyphshow
5.726074 0.125000 m /period glyphshow
8.586914 0.125000 m /five glyphshow
grestore
gsave
/o {
gsave
newpath
translate
0.5 setlinewidth
1 setlinejoin
0 setlinecap
0 0 m
0 4 l
gsave
0.000 setgray
fill
grestore
stroke
grestore
} bind def
186.791 24.3 o
grestore
gsave
/o {
gsave
newpath
translate
0.5 setlinewidth
1 setlinejoin
0 setlinecap
0 0 m
0 -4 l
gsave
0.000 setgray
fill
grestore
stroke
grestore
} bind def
186.791 191.7 o
grestore
gsave
180.423722 13.487500 translate
0.000000 rotate
0.000000 0.125000 m /one glyphshow
5.726074 0.125000 m /period glyphshow
8.586914 0.125000 m /zero glyphshow
grestore
gsave
/o {
gsave
newpath
translate
0.5 setlinewidth
1 setlinejoin
0 setlinecap
0 0 m
4 0 l
gsave
0.000 setgray
fill
grestore
stroke
grestore
} bind def
27 31.9091 o
grestore
gsave
/o {
gsave
newpath
translate
0.5 setlinewidth
1 setlinejoin
0 setlinecap
0 0 m
-4 0 l
gsave
0.000 setgray
fill
grestore
stroke
grestore
} bind def
194.4 31.9091 o
grestore
gsave
2.687500 28.502841 translate
0.000000 rotate
0.000000 0.125000 m /minus glyphshow
7.541016 0.125000 m /one glyphshow
13.267090 0.125000 m /period glyphshow
16.127930 0.125000 m /zero glyphshow
grestore
gsave
/o {
gsave
newpath
translate
0.5 setlinewidth
1 setlinejoin
0 setlinecap
0 0 m
4 0 l
gsave
0.000 setgray
fill
grestore
stroke
grestore
} bind def
27 69.9545 o
grestore
gsave
/o {
gsave
newpath
translate
0.5 setlinewidth
1 setlinejoin
0 setlinecap
0 0 m
-4 0 l
gsave
0.000 setgray
fill
grestore
stroke
grestore
} bind def
194.4 69.9545 o
grestore
gsave
2.875000 66.548295 translate
0.000000 rotate
0.000000 0.125000 m /minus glyphshow
7.541016 0.125000 m /zero glyphshow
13.267090 0.125000 m /period glyphshow
16.127930 0.125000 m /five glyphshow
grestore
gsave
/o {
gsave
newpath
translate
0.5 setlinewidth
1 setlinejoin
0 setlinecap
0 0 m
4 0 l
gsave
0.000 setgray
fill
grestore
stroke
grestore
} bind def
27 108 o
grestore
gsave
/o {
gsave
newpath
translate
0.5 setlinewidth
1 setlinejoin
0 setlinecap
0 0 m
-4 0 l
gsave
0.000 setgray
fill
grestore
stroke
grestore
} bind def
194.4 108 o
grestore
gsave
9.875000 104.593750 translate
0.000000 rotate
0.000000 0.125000 m /zero glyphshow
5.726074 0.125000 m /period glyphshow
8.586914 0.125000 m /zero glyphshow
grestore
gsave
/o {
gsave
newpath
translate
0.5 setlinewidth
1 setlinejoin
0 setlinecap
0 0 m
4 0 l
gsave
0.000 setgray
fill
grestore
stroke
grestore
} bind def
27 146.045 o
grestore
gsave
/o {
gsave
newpath
translate
0.5 setlinewidth
1 setlinejoin
0 setlinecap
0 0 m
-4 0 l
gsave
0.000 setgray
fill
grestore
stroke
grestore
} bind def
194.4 146.045 o
grestore
gsave
10.062500 142.639205 translate
0.000000 rotate
0.000000 0.125000 m /zero glyphshow
5.726074 0.125000 m /period glyphshow
8.586914 0.125000 m /five glyphshow
grestore
gsave
/o {
gsave
newpath
translate
0.5 setlinewidth
1 setlinejoin
0 setlinecap
0 0 m
4 0 l
gsave
0.000 setgray
fill
grestore
stroke
grestore
} bind def
27 184.091 o
grestore
gsave
/o {
gsave
newpath
translate
0.5 setlinewidth
1 setlinejoin
0 setlinecap
0 0 m
-4 0 l
gsave
0.000 setgray
fill
grestore
stroke
grestore
} bind def
194.4 184.091 o
grestore
gsave
10.265625 180.684659 translate
0.000000 rotate
0.000000 0.125000 m /one glyphshow
5.726074 0.125000 m /period glyphshow
8.586914 0.125000 m /zero glyphshow
grestore
1.000 setlinewidth
2 setlinecap
gsave
27 191.7 m
194.4 191.7 l
stroke
grestore
gsave
194.4 24.3 m
194.4 191.7 l
stroke
grestore
gsave
27 24.3 m
194.4 24.3 l
stroke
grestore
gsave
27 24.3 m
27 191.7 l
stroke
grestore

end
showpage
