%!PS-Adobe-3.0 EPSF-3.0
%%Title: 3d0.Hilbert-Schmidt.example.evolution.eps
%%Creator: matplotlib version 1.1.0, http://matplotlib.sourceforge.net/
%%CreationDate: Wed Dec  5 14:54:07 2012
%%Orientation: portrait
%%BoundingBox: -115 97 727 694
%%EndComments
%%BeginProlog
/mpldict 8 dict def
mpldict begin
/m { moveto } bind def
/l { lineto } bind def
/r { rlineto } bind def
/c { curveto } bind def
/cl { closepath } bind def
/box {
m
1 index 0 r
0 exch r
neg 0 r
cl
} bind def
/clipbox {
box
clip
newpath
} bind def
%!PS-Adobe-3.0 Resource-Font
%%Title: Bitstream Vera Sans
%%Copyright: Copyright (c) 2003 by Bitstream, Inc. All Rights Reserved.
%%Creator: Converted from TrueType to type 3 by PPR
25 dict begin
/_d{bind def}bind def
/_m{moveto}_d
/_l{lineto}_d
/_cl{closepath eofill}_d
/_c{curveto}_d
/_sc{7 -1 roll{setcachedevice}{pop pop pop pop pop pop}ifelse}_d
/_e{exec}_d
/FontName /BitstreamVeraSans-Roman def
/PaintType 0 def
/FontMatrix[.001 0 0 .001 0 0]def
/FontBBox[-183 -236 1287 928]def
/FontType 3 def
/Encoding [ /space /parenleft /parenright /hyphen /period /zero /one /two /three /four /five /six /seven /eight /nine /colon /equal /E /G /H /S /a /b /c /d /e /f /g /h /i /l /m /n /o /p /r /s /t /u /v ] def
/FontInfo 10 dict dup begin
/FamilyName (Bitstream Vera Sans) def
/FullName (Bitstream Vera Sans) def
/Notice (Copyright (c) 2003 by Bitstream, Inc. All Rights Reserved. Bitstream Vera is a trademark of Bitstream, Inc.) def
/Weight (Roman) def
/Version (Release 1.10) def
/ItalicAngle 0.0 def
/isFixedPitch false def
/UnderlinePosition -213 def
/UnderlineThickness 143 def
end readonly def
/CharStrings 40 dict dup begin
/space{318 0 0 0 0 0 _sc
}_d
/parenleft{390 0 86 -131 310 759 _sc
310 759 _m
266 683 234 609 213 536 _c
191 463 181 389 181 314 _c
181 238 191 164 213 91 _c
234 17 266 -56 310 -131 _c
232 -131 _l
183 -54 146 20 122 94 _c
98 168 86 241 86 314 _c
86 386 98 459 122 533 _c
146 607 182 682 232 759 _c
310 759 _l
_cl}_d
/parenright{390 0 80 -131 304 759 _sc
80 759 _m
158 759 _l
206 682 243 607 267 533 _c
291 459 304 386 304 314 _c
304 241 291 168 267 94 _c
243 20 206 -54 158 -131 _c
80 -131 _l
123 -56 155 17 177 91 _c
198 164 209 238 209 314 _c
209 389 198 463 177 536 _c
155 609 123 683 80 759 _c
_cl}_d
/hyphen{361 0 49 234 312 314 _sc
49 314 _m
312 314 _l
312 234 _l
49 234 _l
49 314 _l
_cl}_d
/period{318 0 107 0 210 124 _sc
107 124 _m
210 124 _l
210 0 _l
107 0 _l
107 124 _l
_cl}_d
/zero{636 0 66 -13 570 742 _sc
318 664 _m
267 664 229 639 203 589 _c
177 539 165 464 165 364 _c
165 264 177 189 203 139 _c
229 89 267 64 318 64 _c
369 64 407 89 433 139 _c
458 189 471 264 471 364 _c
471 464 458 539 433 589 _c
407 639 369 664 318 664 _c
318 742 _m
399 742 461 709 505 645 _c
548 580 570 486 570 364 _c
570 241 548 147 505 83 _c
461 19 399 -13 318 -13 _c
236 -13 173 19 130 83 _c
87 147 66 241 66 364 _c
66 486 87 580 130 645 _c
173 709 236 742 318 742 _c
_cl}_d
/one{636 0 110 0 544 729 _sc
124 83 _m
285 83 _l
285 639 _l
110 604 _l
110 694 _l
284 729 _l
383 729 _l
383 83 _l
544 83 _l
544 0 _l
124 0 _l
124 83 _l
_cl}_d
/two{{636 0 73 0 536 742 _sc
192 83 _m
536 83 _l
536 0 _l
73 0 _l
73 83 _l
110 121 161 173 226 239 _c
290 304 331 346 348 365 _c
380 400 402 430 414 455 _c
426 479 433 504 433 528 _c
433 566 419 598 392 622 _c
365 646 330 659 286 659 _c
255 659 222 653 188 643 _c
154 632 117 616 78 594 _c
78 694 _l
118 710 155 722 189 730 _c
223 738 255 742 284 742 _c
359 742 419 723 464 685 _c
509 647 532 597 532 534 _c
532 504 526 475 515 449 _c
504 422 484 390 454 354 _c
446 344 420 317 376 272 _c
332 227 271 164 192 83 _c
_cl}_e}_d
/three{{636 0 76 -13 556 742 _sc
406 393 _m
453 383 490 362 516 330 _c
542 298 556 258 556 212 _c
556 140 531 84 482 45 _c
432 6 362 -13 271 -13 _c
240 -13 208 -10 176 -4 _c
144 1 110 10 76 22 _c
76 117 _l
103 101 133 89 166 81 _c
198 73 232 69 268 69 _c
330 69 377 81 409 105 _c
441 129 458 165 458 212 _c
458 254 443 288 413 312 _c
383 336 341 349 287 349 _c
202 349 _l
202 430 _l
291 430 _l
339 430 376 439 402 459 _c
428 478 441 506 441 543 _c
441 580 427 609 401 629 _c
374 649 336 659 287 659 _c
260 659 231 656 200 650 _c
169 644 135 635 98 623 _c
98 711 _l
135 721 170 729 203 734 _c
235 739 266 742 296 742 _c
}_e{370 742 429 725 473 691 _c
517 657 539 611 539 553 _c
539 513 527 479 504 451 _c
481 423 448 403 406 393 _c
_cl}_e}_d
/four{636 0 49 0 580 729 _sc
378 643 _m
129 254 _l
378 254 _l
378 643 _l
352 729 _m
476 729 _l
476 254 _l
580 254 _l
580 172 _l
476 172 _l
476 0 _l
378 0 _l
378 172 _l
49 172 _l
49 267 _l
352 729 _l
_cl}_d
/five{{636 0 77 -13 549 729 _sc
108 729 _m
495 729 _l
495 646 _l
198 646 _l
198 467 _l
212 472 227 476 241 478 _c
255 480 270 482 284 482 _c
365 482 429 459 477 415 _c
525 370 549 310 549 234 _c
549 155 524 94 475 51 _c
426 8 357 -13 269 -13 _c
238 -13 207 -10 175 -6 _c
143 -1 111 6 77 17 _c
77 116 _l
106 100 136 88 168 80 _c
199 72 232 69 267 69 _c
323 69 368 83 401 113 _c
433 143 450 183 450 234 _c
450 284 433 324 401 354 _c
368 384 323 399 267 399 _c
241 399 214 396 188 390 _c
162 384 135 375 108 363 _c
108 729 _l
_cl}_e}_d
/six{{636 0 70 -13 573 742 _sc
330 404 _m
286 404 251 388 225 358 _c
199 328 186 286 186 234 _c
186 181 199 139 225 109 _c
251 79 286 64 330 64 _c
374 64 409 79 435 109 _c
461 139 474 181 474 234 _c
474 286 461 328 435 358 _c
409 388 374 404 330 404 _c
526 713 _m
526 623 _l
501 635 476 644 451 650 _c
425 656 400 659 376 659 _c
310 659 260 637 226 593 _c
192 549 172 482 168 394 _c
187 422 211 444 240 459 _c
269 474 301 482 336 482 _c
409 482 467 459 509 415 _c
551 371 573 310 573 234 _c
573 159 550 99 506 54 _c
462 9 403 -13 330 -13 _c
246 -13 181 19 137 83 _c
92 147 70 241 70 364 _c
70 479 97 571 152 639 _c
206 707 280 742 372 742 _c
}_e{396 742 421 739 447 735 _c
472 730 498 723 526 713 _c
_cl}_e}_d
/seven{636 0 82 0 551 729 _sc
82 729 _m
551 729 _l
551 687 _l
286 0 _l
183 0 _l
432 646 _l
82 646 _l
82 729 _l
_cl}_d
/eight{{636 0 68 -13 568 742 _sc
318 346 _m
271 346 234 333 207 308 _c
180 283 167 249 167 205 _c
167 161 180 126 207 101 _c
234 76 271 64 318 64 _c
364 64 401 76 428 102 _c
455 127 469 161 469 205 _c
469 249 455 283 429 308 _c
402 333 365 346 318 346 _c
219 388 _m
177 398 144 418 120 447 _c
96 476 85 511 85 553 _c
85 611 105 657 147 691 _c
188 725 245 742 318 742 _c
390 742 447 725 489 691 _c
530 657 551 611 551 553 _c
551 511 539 476 515 447 _c
491 418 459 398 417 388 _c
464 377 501 355 528 323 _c
554 291 568 251 568 205 _c
568 134 546 80 503 43 _c
459 5 398 -13 318 -13 _c
237 -13 175 5 132 43 _c
89 80 68 134 68 205 _c
68 251 81 291 108 323 _c
134 355 171 377 219 388 _c
}_e{183 544 _m
183 506 194 476 218 455 _c
242 434 275 424 318 424 _c
360 424 393 434 417 455 _c
441 476 453 506 453 544 _c
453 582 441 611 417 632 _c
393 653 360 664 318 664 _c
275 664 242 653 218 632 _c
194 611 183 582 183 544 _c
_cl}_e}_d
/nine{{636 0 63 -13 566 742 _sc
110 15 _m
110 105 _l
134 93 159 84 185 78 _c
210 72 235 69 260 69 _c
324 69 374 90 408 134 _c
442 178 462 244 468 334 _c
448 306 424 284 396 269 _c
367 254 335 247 300 247 _c
226 247 168 269 126 313 _c
84 357 63 417 63 494 _c
63 568 85 628 129 674 _c
173 719 232 742 306 742 _c
390 742 455 709 499 645 _c
543 580 566 486 566 364 _c
566 248 538 157 484 89 _c
429 21 356 -13 264 -13 _c
239 -13 214 -10 189 -6 _c
163 -2 137 5 110 15 _c
306 324 _m
350 324 385 339 411 369 _c
437 399 450 441 450 494 _c
450 546 437 588 411 618 _c
385 648 350 664 306 664 _c
262 664 227 648 201 618 _c
175 588 162 546 162 494 _c
}_e{162 441 175 399 201 369 _c
227 339 262 324 306 324 _c
_cl}_e}_d
/colon{337 0 117 0 220 517 _sc
117 124 _m
220 124 _l
220 0 _l
117 0 _l
117 124 _l
117 517 _m
220 517 _l
220 393 _l
117 393 _l
117 517 _l
_cl}_d
/equal{838 0 106 172 732 454 _sc
106 454 _m
732 454 _l
732 372 _l
106 372 _l
106 454 _l
106 255 _m
732 255 _l
732 172 _l
106 172 _l
106 255 _l
_cl}_d
/E{632 0 98 0 568 729 _sc
98 729 _m
559 729 _l
559 646 _l
197 646 _l
197 430 _l
544 430 _l
544 347 _l
197 347 _l
197 83 _l
568 83 _l
568 0 _l
98 0 _l
98 729 _l
_cl}_d
/G{{775 0 56 -13 693 742 _sc
595 104 _m
595 300 _l
434 300 _l
434 381 _l
693 381 _l
693 68 _l
655 40 613 20 567 7 _c
521 -6 472 -13 420 -13 _c
306 -13 216 20 152 86 _c
88 152 56 245 56 364 _c
56 482 88 575 152 642 _c
216 708 306 742 420 742 _c
467 742 512 736 555 724 _c
598 712 638 695 674 673 _c
674 568 _l
637 598 598 621 557 637 _c
516 653 473 661 428 661 _c
338 661 271 636 227 586 _c
182 536 160 462 160 364 _c
160 265 182 191 227 141 _c
271 91 338 67 428 67 _c
462 67 493 70 521 76 _c
549 82 573 91 595 104 _c
_cl}_e}_d
/H{752 0 98 0 654 729 _sc
98 729 _m
197 729 _l
197 430 _l
555 430 _l
555 729 _l
654 729 _l
654 0 _l
555 0 _l
555 347 _l
197 347 _l
197 0 _l
98 0 _l
98 729 _l
_cl}_d
/S{{635 0 66 -13 579 742 _sc
535 705 _m
535 609 _l
497 627 462 640 429 649 _c
395 657 363 662 333 662 _c
279 662 237 651 208 631 _c
179 610 165 580 165 542 _c
165 510 174 485 194 469 _c
213 452 250 439 304 429 _c
364 417 _l
437 403 491 378 526 343 _c
561 307 579 260 579 201 _c
579 130 555 77 508 41 _c
460 5 391 -13 300 -13 _c
265 -13 228 -9 189 -2 _c
150 5 110 16 69 32 _c
69 134 _l
109 111 148 94 186 83 _c
224 71 262 66 300 66 _c
356 66 399 77 430 99 _c
460 121 476 152 476 194 _c
476 230 465 258 443 278 _c
421 298 385 313 335 323 _c
275 335 _l
201 349 148 372 115 404 _c
82 435 66 478 66 534 _c
66 598 88 649 134 686 _c
179 723 242 742 322 742 _c
}_e{356 742 390 739 426 733 _c
461 727 497 717 535 705 _c
_cl}_e}_d
/a{{613 0 60 -13 522 560 _sc
343 275 _m
270 275 220 266 192 250 _c
164 233 150 205 150 165 _c
150 133 160 107 181 89 _c
202 70 231 61 267 61 _c
317 61 357 78 387 114 _c
417 149 432 196 432 255 _c
432 275 _l
343 275 _l
522 312 _m
522 0 _l
432 0 _l
432 83 _l
411 49 385 25 355 10 _c
325 -5 287 -13 243 -13 _c
187 -13 142 2 109 33 _c
76 64 60 106 60 159 _c
60 220 80 266 122 298 _c
163 329 224 345 306 345 _c
432 345 _l
432 354 _l
432 395 418 427 391 450 _c
364 472 326 484 277 484 _c
245 484 215 480 185 472 _c
155 464 127 453 100 439 _c
100 522 _l
}_e{132 534 164 544 195 550 _c
226 556 256 560 286 560 _c
365 560 424 539 463 498 _c
502 457 522 395 522 312 _c
_cl}_e}_d
/b{{635 0 91 -13 580 760 _sc
487 273 _m
487 339 473 390 446 428 _c
418 466 381 485 334 485 _c
286 485 249 466 222 428 _c
194 390 181 339 181 273 _c
181 207 194 155 222 117 _c
249 79 286 61 334 61 _c
381 61 418 79 446 117 _c
473 155 487 207 487 273 _c
181 464 _m
199 496 223 520 252 536 _c
281 552 316 560 356 560 _c
422 560 476 533 518 481 _c
559 428 580 359 580 273 _c
580 187 559 117 518 65 _c
476 13 422 -13 356 -13 _c
316 -13 281 -5 252 10 _c
223 25 199 49 181 82 _c
181 0 _l
91 0 _l
91 760 _l
181 760 _l
181 464 _l
_cl}_e}_d
/c{{550 0 55 -13 488 560 _sc
488 526 _m
488 442 _l
462 456 437 466 411 473 _c
385 480 360 484 334 484 _c
276 484 230 465 198 428 _c
166 391 150 339 150 273 _c
150 206 166 154 198 117 _c
230 80 276 62 334 62 _c
360 62 385 65 411 72 _c
437 79 462 90 488 104 _c
488 21 _l
462 9 436 0 410 -5 _c
383 -10 354 -13 324 -13 _c
242 -13 176 12 128 64 _c
79 115 55 185 55 273 _c
55 362 79 432 128 483 _c
177 534 244 560 330 560 _c
358 560 385 557 411 551 _c
437 545 463 537 488 526 _c
_cl}_e}_d
/d{{635 0 55 -13 544 760 _sc
454 464 _m
454 760 _l
544 760 _l
544 0 _l
454 0 _l
454 82 _l
435 49 411 25 382 10 _c
353 -5 319 -13 279 -13 _c
213 -13 159 13 117 65 _c
75 117 55 187 55 273 _c
55 359 75 428 117 481 _c
159 533 213 560 279 560 _c
319 560 353 552 382 536 _c
411 520 435 496 454 464 _c
148 273 _m
148 207 161 155 188 117 _c
215 79 253 61 301 61 _c
348 61 385 79 413 117 _c
440 155 454 207 454 273 _c
454 339 440 390 413 428 _c
385 466 348 485 301 485 _c
253 485 215 466 188 428 _c
161 390 148 339 148 273 _c
_cl}_e}_d
/e{{615 0 55 -13 562 560 _sc
562 296 _m
562 252 _l
149 252 _l
153 190 171 142 205 110 _c
238 78 284 62 344 62 _c
378 62 412 66 444 74 _c
476 82 509 95 541 113 _c
541 28 _l
509 14 476 3 442 -3 _c
408 -9 373 -13 339 -13 _c
251 -13 182 12 131 62 _c
80 112 55 181 55 268 _c
55 357 79 428 127 481 _c
175 533 241 560 323 560 _c
397 560 455 536 498 489 _c
540 441 562 377 562 296 _c
472 322 _m
471 371 457 410 431 440 _c
404 469 368 484 324 484 _c
274 484 234 469 204 441 _c
174 413 156 373 152 322 _c
472 322 _l
_cl}_e}_d
/f{352 0 23 0 371 760 _sc
371 760 _m
371 685 _l
285 685 _l
253 685 230 678 218 665 _c
205 652 199 629 199 595 _c
199 547 _l
347 547 _l
347 477 _l
199 477 _l
199 0 _l
109 0 _l
109 477 _l
23 477 _l
23 547 _l
109 547 _l
109 585 _l
109 645 123 690 151 718 _c
179 746 224 760 286 760 _c
371 760 _l
_cl}_d
/g{{635 0 55 -207 544 560 _sc
454 280 _m
454 344 440 395 414 431 _c
387 467 349 485 301 485 _c
253 485 215 467 188 431 _c
161 395 148 344 148 280 _c
148 215 161 165 188 129 _c
215 93 253 75 301 75 _c
349 75 387 93 414 129 _c
440 165 454 215 454 280 _c
544 68 _m
544 -24 523 -93 482 -139 _c
440 -184 377 -207 292 -207 _c
260 -207 231 -204 203 -200 _c
175 -195 147 -188 121 -178 _c
121 -91 _l
147 -105 173 -115 199 -122 _c
225 -129 251 -133 278 -133 _c
336 -133 380 -117 410 -87 _c
439 -56 454 -10 454 52 _c
454 96 _l
435 64 411 40 382 24 _c
353 8 319 0 279 0 _c
211 0 157 25 116 76 _c
75 127 55 195 55 280 _c
55 364 75 432 116 483 _c
157 534 211 560 279 560 _c
}_e{319 560 353 552 382 536 _c
411 520 435 496 454 464 _c
454 547 _l
544 547 _l
544 68 _l
_cl}_e}_d
/h{634 0 91 0 549 760 _sc
549 330 _m
549 0 _l
459 0 _l
459 327 _l
459 379 448 417 428 443 _c
408 469 378 482 338 482 _c
289 482 251 466 223 435 _c
195 404 181 362 181 309 _c
181 0 _l
91 0 _l
91 760 _l
181 760 _l
181 462 _l
202 494 227 519 257 535 _c
286 551 320 560 358 560 _c
420 560 468 540 500 501 _c
532 462 549 405 549 330 _c
_cl}_d
/i{278 0 94 0 184 760 _sc
94 547 _m
184 547 _l
184 0 _l
94 0 _l
94 547 _l
94 760 _m
184 760 _l
184 646 _l
94 646 _l
94 760 _l
_cl}_d
/l{278 0 94 0 184 760 _sc
94 760 _m
184 760 _l
184 0 _l
94 0 _l
94 760 _l
_cl}_d
/m{{974 0 91 0 889 560 _sc
520 442 _m
542 482 569 511 600 531 _c
631 550 668 560 711 560 _c
767 560 811 540 842 500 _c
873 460 889 403 889 330 _c
889 0 _l
799 0 _l
799 327 _l
799 379 789 418 771 444 _c
752 469 724 482 686 482 _c
639 482 602 466 575 435 _c
548 404 535 362 535 309 _c
535 0 _l
445 0 _l
445 327 _l
445 379 435 418 417 444 _c
398 469 369 482 331 482 _c
285 482 248 466 221 435 _c
194 404 181 362 181 309 _c
181 0 _l
91 0 _l
91 547 _l
181 547 _l
181 462 _l
201 495 226 520 255 536 _c
283 552 317 560 357 560 _c
397 560 430 550 458 530 _c
486 510 506 480 520 442 _c
}_e{_cl}_e}_d
/n{634 0 91 0 549 560 _sc
549 330 _m
549 0 _l
459 0 _l
459 327 _l
459 379 448 417 428 443 _c
408 469 378 482 338 482 _c
289 482 251 466 223 435 _c
195 404 181 362 181 309 _c
181 0 _l
91 0 _l
91 547 _l
181 547 _l
181 462 _l
202 494 227 519 257 535 _c
286 551 320 560 358 560 _c
420 560 468 540 500 501 _c
532 462 549 405 549 330 _c
_cl}_d
/o{612 0 55 -13 557 560 _sc
306 484 _m
258 484 220 465 192 427 _c
164 389 150 338 150 273 _c
150 207 163 156 191 118 _c
219 80 257 62 306 62 _c
354 62 392 80 420 118 _c
448 156 462 207 462 273 _c
462 337 448 389 420 427 _c
392 465 354 484 306 484 _c
306 560 _m
384 560 445 534 490 484 _c
534 433 557 363 557 273 _c
557 183 534 113 490 63 _c
445 12 384 -13 306 -13 _c
227 -13 165 12 121 63 _c
77 113 55 183 55 273 _c
55 363 77 433 121 484 _c
165 534 227 560 306 560 _c
_cl}_d
/p{{635 0 91 -207 580 560 _sc
181 82 _m
181 -207 _l
91 -207 _l
91 547 _l
181 547 _l
181 464 _l
199 496 223 520 252 536 _c
281 552 316 560 356 560 _c
422 560 476 533 518 481 _c
559 428 580 359 580 273 _c
580 187 559 117 518 65 _c
476 13 422 -13 356 -13 _c
316 -13 281 -5 252 10 _c
223 25 199 49 181 82 _c
487 273 _m
487 339 473 390 446 428 _c
418 466 381 485 334 485 _c
286 485 249 466 222 428 _c
194 390 181 339 181 273 _c
181 207 194 155 222 117 _c
249 79 286 61 334 61 _c
381 61 418 79 446 117 _c
473 155 487 207 487 273 _c
_cl}_e}_d
/r{411 0 91 0 411 560 _sc
411 463 _m
401 469 390 473 378 476 _c
366 478 353 480 339 480 _c
288 480 249 463 222 430 _c
194 397 181 350 181 288 _c
181 0 _l
91 0 _l
91 547 _l
181 547 _l
181 462 _l
199 495 224 520 254 536 _c
284 552 321 560 365 560 _c
371 560 378 559 386 559 _c
393 558 401 557 411 555 _c
411 463 _l
_cl}_d
/s{{521 0 54 -13 472 560 _sc
443 531 _m
443 446 _l
417 458 391 468 364 475 _c
336 481 308 485 279 485 _c
234 485 200 478 178 464 _c
156 450 145 430 145 403 _c
145 382 153 366 169 354 _c
185 342 217 330 265 320 _c
296 313 _l
360 299 405 279 432 255 _c
458 230 472 195 472 151 _c
472 100 452 60 412 31 _c
372 1 316 -13 246 -13 _c
216 -13 186 -10 154 -5 _c
122 0 89 8 54 20 _c
54 113 _l
87 95 120 82 152 74 _c
184 65 216 61 248 61 _c
290 61 323 68 346 82 _c
368 96 380 117 380 144 _c
380 168 371 187 355 200 _c
339 213 303 226 247 238 _c
216 245 _l
160 257 119 275 95 299 _c
70 323 58 356 58 399 _c
58 450 76 490 112 518 _c
148 546 200 560 268 560 _c
}_e{301 560 332 557 362 552 _c
391 547 418 540 443 531 _c
_cl}_e}_d
/t{392 0 27 0 368 702 _sc
183 702 _m
183 547 _l
368 547 _l
368 477 _l
183 477 _l
183 180 _l
183 135 189 106 201 94 _c
213 81 238 75 276 75 _c
368 75 _l
368 0 _l
276 0 _l
206 0 158 13 132 39 _c
106 65 93 112 93 180 _c
93 477 _l
27 477 _l
27 547 _l
93 547 _l
93 702 _l
183 702 _l
_cl}_d
/u{634 0 85 -13 543 547 _sc
85 216 _m
85 547 _l
175 547 _l
175 219 _l
175 167 185 129 205 103 _c
225 77 255 64 296 64 _c
344 64 383 79 411 110 _c
439 141 453 183 453 237 _c
453 547 _l
543 547 _l
543 0 _l
453 0 _l
453 84 _l
431 50 405 26 377 10 _c
348 -5 315 -13 277 -13 _c
214 -13 166 6 134 45 _c
101 83 85 140 85 216 _c
_cl}_d
/v{592 0 30 0 562 547 _sc
30 547 _m
125 547 _l
296 88 _l
467 547 _l
562 547 _l
357 0 _l
235 0 _l
30 547 _l
_cl}_d
end readonly def

/BuildGlyph
 {exch begin
 CharStrings exch
 2 copy known not{pop /.notdef}if
 true 3 1 roll get exec
 end}_d

/BuildChar {
 1 index /Encoding get exch get
 1 index /BuildGlyph get exec
}_d

FontName currentdict end definefont pop
end
%%EndProlog
mpldict begin
-115.2 97.2 translate
842.4 597.6 0 0 clipbox
gsave
0 0 m
842.4 0 l
842.4 597.6 l
0 597.6 l
cl
1.000 setgray
fill
grestore
gsave
105.3 59.76 m
758.16 59.76 l
758.16 537.84 l
105.3 537.84 l
cl
1.000 setgray
fill
grestore
1.000 setlinewidth
1 setlinejoin
2 setlinecap
[] 0 setdash
0.000 0.000 1.000 setrgbcolor
gsave
652.9 478.1 105.3 59.76 clipbox
105.3 501.449 m
107.911 501.449 l
110.523 463.283 l
115.746 463.283 l
118.357 433.21 l
123.58 433.21 l
126.192 404.819 l
134.026 404.819 l
136.637 369.567 l
139.249 367.299 l
144.472 339.192 l
147.083 315.099 l
149.694 304.131 l
152.306 298.405 l
154.917 298.035 l
157.529 292.61 l
160.14 284.759 l
162.752 284.158 l
165.363 277.57 l
167.975 264.275 l
175.809 264.275 l
178.42 258.205 l
181.032 254.57 l
188.866 254.57 l
191.478 249.163 l
194.089 246.549 l
199.312 246.549 l
201.923 236.845 l
207.146 236.845 l
212.369 229.303 l
214.98 227.996 l
217.592 227.996 l
220.203 227.835 l
222.815 224.904 l
225.426 224.763 l
228.038 224.353 l
230.649 224.353 l
233.261 223.469 l
235.872 222.461 l
238.483 222.196 l
241.095 220.871 l
243.706 220.278 l
246.318 218.25 l
248.929 218.25 l
251.541 217.715 l
254.152 217.715 l
256.764 213.883 l
259.375 213.883 l
261.986 213.697 l
264.598 212.925 l
267.209 212.925 l
269.821 212.365 l
272.432 210.038 l
277.655 210.038 l
280.266 208.614 l
282.878 208.614 l
285.489 208.42 l
288.101 207.151 l
290.712 205.527 l
293.324 205.527 l
295.935 205.4 l
298.547 205.4 l
301.158 203.788 l
306.381 203.788 l
308.992 203.612 l
311.604 203.324 l
314.215 203.324 l
316.827 203.09 l
322.05 203.053 l
324.661 202.88 l
327.272 202.88 l
329.884 202.589 l
332.495 202.589 l
335.107 201.804 l
337.718 201.77 l
340.33 201.334 l
342.941 201.167 l
355.998 201.096 l
358.61 200.588 l
361.221 200.553 l
363.833 200.335 l
379.501 200.316 l
382.113 200.316 l
387.336 199.58 l
408.227 199.567 l
410.838 199.39 l
413.45 199.39 l
416.061 199.216 l
418.673 199.216 l
426.507 198.807 l
431.73 198.807 l
434.341 198.618 l
460.456 198.542 l
470.902 198.325 l
491.793 198.198 l
515.296 198.094 l
591.028 197.851 l
648.48 197.743 l
724.211 197.668 l
755.549 197.65 l
755.549 197.65 l
stroke
grestore
0.000 0.500 0.000 setrgbcolor
gsave
652.9 478.1 105.3 59.76 clipbox
105.3 464.005 m
107.911 464.005 l
110.523 429.984 l
113.134 382.47 l
118.357 382.47 l
120.969 326.933 l
123.58 321.412 l
126.192 293.221 l
136.637 293.221 l
139.249 292.521 l
141.86 285.05 l
144.472 280.945 l
152.306 280.945 l
154.917 274.989 l
160.14 274.989 l
162.752 274.371 l
165.363 270.4 l
167.975 270.4 l
170.586 262.66 l
173.197 260.855 l
175.809 257.126 l
178.42 257.126 l
181.032 250.557 l
186.255 250.557 l
188.866 249.692 l
191.478 246.295 l
194.089 246.295 l
196.7 237.18 l
204.535 237.18 l
207.146 235.48 l
209.758 233.326 l
212.369 232.968 l
214.98 225.375 l
217.592 225.375 l
220.203 224.679 l
225.426 224.679 l
228.038 222.764 l
230.649 222.764 l
233.261 221.49 l
235.872 220.814 l
238.483 218.05 l
241.095 218.05 l
246.318 209.068 l
248.929 209.068 l
251.541 208.26 l
256.764 208.26 l
259.375 207.161 l
261.986 206.431 l
267.209 204.082 l
269.821 201.78 l
272.432 201.559 l
275.044 201.483 l
277.655 200.928 l
280.266 199.392 l
282.878 199.392 l
285.489 199.15 l
288.101 198.681 l
290.712 198.492 l
293.324 196.764 l
298.547 196.764 l
301.158 196.324 l
306.381 194.63 l
311.604 192.515 l
314.215 192.271 l
316.827 190.109 l
322.05 190.101 l
324.661 189.038 l
327.272 189.038 l
329.884 188.134 l
335.107 188.134 l
337.718 187.375 l
340.33 187.375 l
342.941 186.701 l
345.552 186.701 l
348.164 186.126 l
350.775 184.286 l
353.387 183.897 l
355.998 183.897 l
358.61 182.933 l
361.221 182.863 l
363.833 182.518 l
366.444 182.324 l
369.055 181.969 l
371.667 181.387 l
374.278 180.612 l
376.89 180.612 l
379.501 179.619 l
382.113 179.619 l
384.724 179.307 l
389.947 179.265 l
392.558 178.584 l
395.17 178.584 l
397.781 177.902 l
400.393 176.623 l
403.004 176.623 l
405.616 176.102 l
408.227 176.102 l
410.838 175.785 l
418.673 175.651 l
421.284 174.773 l
423.896 174.514 l
426.507 174.369 l
429.119 173.96 l
431.73 173.96 l
434.341 173.396 l
436.953 173.329 l
439.564 172.977 l
442.176 172.895 l
444.787 172.428 l
447.399 172.428 l
450.01 171.824 l
452.622 171.502 l
457.844 171.35 l
470.902 170.392 l
473.513 170.392 l
476.124 170.091 l
478.736 169.431 l
483.959 169.345 l
486.57 169.145 l
489.182 168.775 l
494.405 168.729 l
497.016 168.501 l
502.239 167.202 l
504.85 166.858 l
510.073 166.856 l
515.296 166.327 l
517.908 166.009 l
523.13 165.958 l
528.353 165.777 l
530.965 165.441 l
538.799 164.828 l
541.41 164.828 l
544.022 164.326 l
549.245 164.326 l
554.468 164 l
559.691 163.981 l
562.302 163.744 l
564.913 163.711 l
567.525 163.566 l
570.136 163.271 l
575.359 163.222 l
598.862 162.393 l
601.474 162.123 l
604.085 162.106 l
614.531 161.604 l
619.754 161.528 l
622.365 161.381 l
627.588 161.334 l
630.199 161.139 l
632.811 161.107 l
635.422 160.951 l
648.48 160.717 l
656.314 160.489 l
687.651 159.902 l
690.263 159.785 l
698.097 159.738 l
700.708 159.56 l
703.32 159.558 l
705.931 159.429 l
713.766 159.302 l
721.6 159.15 l
729.434 159.068 l
752.937 158.84 l
755.549 158.794 l
755.549 158.794 l
stroke
grestore
1.000 0.000 0.000 setrgbcolor
gsave
652.9 478.1 105.3 59.76 clipbox
105.3 424.287 m
107.911 424.287 l
110.523 407.038 l
113.134 373.178 l
115.746 270.805 l
120.969 270.805 l
123.58 262.368 l
126.192 262.368 l
128.803 254.892 l
131.414 252.569 l
134.026 252.569 l
136.637 250.33 l
139.249 231.154 l
141.86 231.154 l
144.472 227.791 l
152.306 227.791 l
154.917 224.924 l
157.529 215.757 l
170.586 215.757 l
173.197 215.604 l
175.809 213.377 l
178.42 213.377 l
181.032 207.166 l
183.643 206.1 l
188.866 206.1 l
191.478 199.51 l
201.923 199.51 l
204.535 198.016 l
209.758 197.693 l
212.369 195.273 l
214.98 194.886 l
217.592 194.14 l
220.203 192.774 l
222.815 189.246 l
225.426 184.703 l
228.038 184.703 l
230.649 183.623 l
233.261 182.032 l
241.095 182.032 l
246.318 180.765 l
248.929 180.765 l
251.541 180.541 l
254.152 179.49 l
259.375 179.49 l
261.986 178.265 l
264.598 176.469 l
267.209 175.873 l
269.821 173.282 l
272.432 170.046 l
277.655 169.972 l
280.266 169.972 l
282.878 169.055 l
285.489 168.371 l
288.101 168.371 l
290.712 167.866 l
295.935 167.866 l
298.547 167.726 l
301.158 167.309 l
303.769 165.632 l
308.992 165.632 l
311.604 165.452 l
314.215 165.101 l
316.827 164.911 l
324.661 164.891 l
327.272 164.414 l
332.495 164.414 l
335.107 163.858 l
337.718 163.543 l
340.33 163.543 l
342.941 162.53 l
348.164 162.53 l
350.775 162.291 l
353.387 162.269 l
355.998 161.917 l
358.61 161.452 l
363.833 161.351 l
366.444 161.152 l
369.055 161.152 l
371.667 160.925 l
374.278 160.311 l
376.89 160.079 l
379.501 159.995 l
382.113 159.772 l
384.724 159.436 l
387.336 159.436 l
389.947 159.247 l
392.558 158.354 l
395.17 158.354 l
397.781 157.181 l
400.393 155.57 l
403.004 154.441 l
405.616 154.441 l
410.838 152.649 l
413.45 152.649 l
416.061 152.472 l
421.284 151.261 l
426.507 151.227 l
429.119 151.018 l
431.73 150.362 l
436.953 150.362 l
439.564 150.005 l
444.787 149.933 l
452.622 149.662 l
455.233 149.662 l
460.456 149.289 l
463.067 149.289 l
468.29 148.88 l
470.902 148.402 l
478.736 147.806 l
481.347 147.635 l
483.959 147.592 l
486.57 147.383 l
489.182 147.383 l
491.793 147.085 l
494.405 147.085 l
497.016 146.965 l
499.627 146.56 l
507.462 146.56 l
512.685 145.74 l
523.13 145.74 l
525.742 145.567 l
533.576 145.496 l
536.188 145.322 l
538.799 145.322 l
551.856 144.798 l
572.748 144.583 l
577.971 144.303 l
606.696 143.98 l
611.919 143.859 l
622.365 143.771 l
648.48 143.367 l
658.925 143.278 l
664.148 143.181 l
671.982 143.072 l
682.428 142.973 l
695.485 142.883 l
703.32 142.754 l
721.6 142.653 l
729.434 142.564 l
745.103 142.474 l
755.549 142.359 l
755.549 142.359 l
stroke
grestore
0.000 0.750 0.750 setrgbcolor
gsave
652.9 478.1 105.3 59.76 clipbox
105.3 438.643 m
107.911 374.522 l
110.523 374.522 l
113.134 323.579 l
115.746 323.579 l
118.357 248.445 l
123.58 248.445 l
126.192 227.18 l
131.414 227.18 l
134.026 212.369 l
136.637 209.989 l
139.249 204.245 l
141.86 199.639 l
147.083 199.639 l
149.694 197.478 l
157.529 197.478 l
160.14 189.265 l
170.586 189.218 l
173.197 188.932 l
175.809 188.932 l
178.42 188.8 l
181.032 187.07 l
183.643 187.07 l
186.255 184.144 l
194.089 184.144 l
199.312 180.209 l
204.535 180.209 l
207.146 177.255 l
209.758 175.946 l
212.369 175.02 l
217.592 175.02 l
220.203 173.643 l
222.815 173.643 l
228.038 170.985 l
233.261 169.221 l
235.872 169.221 l
238.483 165.611 l
241.095 165.611 l
243.706 164.158 l
246.318 163.633 l
248.929 162.867 l
254.152 162.867 l
256.764 161.414 l
261.986 161.414 l
264.598 160.349 l
267.209 160.204 l
269.821 157.623 l
272.432 157.048 l
275.044 157.048 l
277.655 156.07 l
280.266 154.747 l
285.489 154.722 l
288.101 153.243 l
290.712 152.743 l
295.935 152.739 l
298.547 151.929 l
301.158 151.815 l
303.769 151.261 l
306.381 151.034 l
308.992 151.034 l
311.604 150.59 l
322.05 150.59 l
324.661 150.461 l
327.272 149.672 l
329.884 149.672 l
332.495 149.056 l
335.107 149.056 l
337.718 148.358 l
340.33 148.358 l
342.941 147.798 l
345.552 147.798 l
348.164 147.118 l
350.775 146.196 l
353.387 146.097 l
355.998 145.724 l
363.833 145.724 l
366.444 145.373 l
369.055 144.442 l
374.278 144.195 l
376.89 144.195 l
379.501 143.979 l
382.113 143.951 l
384.724 143.731 l
389.947 143.731 l
392.558 143.214 l
397.781 143.214 l
403.004 142.585 l
408.227 142.503 l
413.45 142.405 l
421.284 142.044 l
426.507 141.866 l
429.119 141.245 l
434.341 141.189 l
444.787 140.828 l
450.01 140.828 l
452.622 140.627 l
470.902 140.521 l
473.513 140.463 l
476.124 140.256 l
528.353 139.516 l
533.576 139.494 l
538.799 139.246 l
564.913 139.027 l
575.359 138.93 l
593.639 138.767 l
601.474 138.679 l
622.365 138.557 l
638.034 138.461 l
653.702 138.354 l
687.651 138.129 l
703.32 138.03 l
721.6 137.958 l
755.549 137.779 l
755.549 137.779 l
stroke
grestore
0.750 0.000 0.750 setrgbcolor
gsave
652.9 478.1 105.3 59.76 clipbox
105.3 471.455 m
107.911 379.29 l
110.523 368.816 l
113.134 361.717 l
115.746 318.96 l
118.357 318.96 l
120.969 249.304 l
126.192 249.304 l
128.803 224.772 l
134.026 224.772 l
136.637 214.74 l
139.249 204.161 l
141.86 202.679 l
144.472 192.175 l
149.694 192.136 l
152.306 189.271 l
157.529 184.925 l
160.14 184.925 l
162.752 182.885 l
165.363 182.885 l
167.975 182.45 l
170.586 178.801 l
173.197 178.801 l
175.809 171.804 l
188.866 171.804 l
191.478 169.306 l
194.089 168.824 l
199.312 168.824 l
201.923 165.742 l
209.758 165.742 l
212.369 165.396 l
217.592 165.396 l
220.203 165.262 l
222.815 164.608 l
225.426 164.494 l
228.038 163.304 l
230.649 162.253 l
235.872 162.253 l
238.483 161.593 l
241.095 161.593 l
243.706 160.263 l
246.318 159.431 l
254.152 159.413 l
256.764 157.536 l
259.375 156.451 l
261.986 156.451 l
264.598 156.08 l
267.209 154.421 l
272.432 153.213 l
275.044 150.25 l
285.489 150.25 l
288.101 150.138 l
290.712 150.138 l
293.324 148.27 l
295.935 147.272 l
298.547 146.837 l
301.158 146.043 l
303.769 144.547 l
306.381 143.751 l
314.215 143.726 l
319.438 143.381 l
322.05 143.063 l
337.718 142.126 l
342.941 141.444 l
345.552 140.756 l
350.775 140.756 l
353.387 139.529 l
358.61 139.529 l
361.221 139.034 l
366.444 138.972 l
369.055 138.972 l
371.667 138.786 l
374.278 138.455 l
387.336 138.262 l
389.947 138.235 l
392.558 137.942 l
397.781 137.676 l
403.004 137.676 l
405.616 137.117 l
418.673 137.089 l
421.284 136.855 l
426.507 136.752 l
429.119 136.434 l
444.787 136.391 l
447.399 136.215 l
463.067 136.03 l
473.513 135.958 l
499.627 135.586 l
557.079 134.916 l
575.359 134.836 l
580.582 134.76 l
635.422 134.486 l
669.371 134.377 l
721.6 134.199 l
755.549 134.097 l
755.549 134.097 l
stroke
grestore
0.750 0.750 0.000 setrgbcolor
gsave
652.9 478.1 105.3 59.76 clipbox
105.3 447.092 m
107.911 447.092 l
110.523 358.331 l
113.134 358.331 l
115.746 336.05 l
118.357 328.302 l
120.969 319.836 l
123.58 268.945 l
126.192 268.945 l
128.803 259.632 l
131.414 241.174 l
134.026 241.174 l
136.637 239.12 l
139.249 234.122 l
141.86 216.331 l
144.472 196.132 l
149.694 196.132 l
152.306 193.782 l
162.752 193.782 l
165.363 188.399 l
167.975 188.399 l
170.586 182.457 l
173.197 178.641 l
175.809 178.641 l
178.42 171.086 l
181.032 170.04 l
183.643 170.04 l
186.255 168.798 l
191.478 168.798 l
194.089 168.24 l
196.7 166.112 l
199.312 165.986 l
204.535 165.986 l
212.369 164.66 l
217.592 163.183 l
222.815 163.183 l
225.426 162.464 l
228.038 162.464 l
230.649 161.37 l
238.483 161.354 l
241.095 157.982 l
243.706 157.774 l
248.929 157.774 l
251.541 156.297 l
254.152 153.802 l
259.375 153.775 l
261.986 153.061 l
264.598 153.061 l
267.209 152.001 l
275.044 152.001 l
280.266 151.235 l
282.878 151.121 l
288.101 150.045 l
290.712 150.045 l
293.324 149.465 l
306.381 149.465 l
308.992 148.657 l
314.215 148.657 l
316.827 147.941 l
322.05 147.941 l
327.272 147.25 l
332.495 147.25 l
335.107 147.049 l
337.718 147.049 l
340.33 146.751 l
342.941 146.337 l
348.164 145.725 l
355.998 145.636 l
358.61 145.316 l
361.221 145.137 l
366.444 145.038 l
369.055 144.871 l
371.667 144.824 l
374.278 144.391 l
379.501 144.391 l
382.113 144.061 l
384.724 144.061 l
387.336 143.795 l
389.947 143.409 l
395.17 143.124 l
397.781 143.124 l
405.616 142.568 l
408.227 142.383 l
413.45 142.31 l
416.061 141.668 l
421.284 141.584 l
423.896 141.065 l
429.119 140.985 l
431.73 140.856 l
434.341 140.849 l
442.176 140.534 l
444.787 140.534 l
450.01 140.014 l
452.622 139.835 l
460.456 139.697 l
465.679 139.468 l
468.29 139.002 l
473.513 138.696 l
476.124 138.552 l
481.347 138.525 l
483.959 138.339 l
489.182 138.269 l
491.793 138.086 l
499.627 137.942 l
502.239 137.942 l
504.85 137.825 l
515.296 137.775 l
564.913 136.681 l
575.359 136.562 l
577.971 136.417 l
593.639 136.328 l
606.696 136.207 l
624.977 136.074 l
632.811 135.941 l
664.148 135.828 l
692.874 135.735 l
724.211 135.605 l
755.549 135.513 l
755.549 135.513 l
stroke
grestore
0.000 setgray
gsave
652.9 478.1 105.3 59.76 clipbox
105.3 429.914 m
107.911 429.914 l
110.523 412.221 l
113.134 367.381 l
115.746 338.348 l
118.357 318.936 l
120.969 318.936 l
123.58 294.206 l
126.192 283.618 l
128.803 277.243 l
131.414 251.309 l
134.026 243.849 l
136.637 230.069 l
141.86 230.069 l
144.472 222.54 l
147.083 195.696 l
157.529 195.696 l
160.14 191.263 l
162.752 189.411 l
167.975 189.411 l
170.586 188.687 l
173.197 186.308 l
181.032 186.308 l
183.643 183.72 l
196.7 183.72 l
199.312 180.979 l
201.923 177.406 l
209.758 177.406 l
212.369 176.468 l
214.98 174.246 l
217.592 174.246 l
220.203 172.275 l
222.815 172.211 l
225.426 170.498 l
228.038 170.498 l
230.649 169.391 l
233.261 169.391 l
235.872 167.475 l
238.483 167.101 l
243.706 167.101 l
246.318 166.118 l
259.375 166.118 l
261.986 165.101 l
264.598 164.938 l
269.821 164.898 l
272.432 163.958 l
275.044 163.958 l
277.655 162.233 l
285.489 162.233 l
288.101 160.955 l
290.712 160.771 l
293.324 160.325 l
295.935 159.999 l
298.547 159.999 l
301.158 159.75 l
306.381 159.75 l
308.992 158.62 l
311.604 158.108 l
316.827 158.108 l
319.438 157.198 l
327.272 157.156 l
329.884 156.93 l
332.495 156.93 l
335.107 156.025 l
337.718 156.025 l
340.33 155.533 l
345.552 155.46 l
348.164 154.579 l
350.775 154.579 l
353.387 154.264 l
355.998 154.264 l
361.221 153.75 l
363.833 153.721 l
371.667 153.321 l
374.278 152.832 l
376.89 152.805 l
379.501 152.378 l
384.724 152.363 l
387.336 151.938 l
389.947 151.938 l
392.558 151.666 l
397.781 151.643 l
400.393 150.977 l
403.004 150.88 l
405.616 150.598 l
408.227 150.598 l
410.838 150.447 l
413.45 149.982 l
421.284 149.859 l
423.896 149.534 l
426.507 148.966 l
434.341 148.966 l
436.953 148.426 l
444.787 148.426 l
447.399 147.984 l
450.01 147.984 l
452.622 147.627 l
455.233 147.627 l
457.844 147.384 l
473.513 146.76 l
481.347 146.368 l
483.959 146.368 l
486.57 146.189 l
491.793 146.189 l
494.405 146.041 l
497.016 146.018 l
502.239 145.686 l
512.685 145.422 l
523.13 145.1 l
528.353 144.967 l
538.799 144.861 l
541.41 144.628 l
546.633 144.618 l
554.468 144.398 l
559.691 144.336 l
564.913 144.257 l
570.136 144.148 l
580.582 144.064 l
583.194 144.024 l
585.805 143.862 l
596.251 143.796 l
622.365 143.439 l
674.594 143.073 l
687.651 143.002 l
724.211 142.828 l
732.046 142.787 l
755.549 142.676 l
755.549 142.676 l
stroke
grestore
0.000 0.000 1.000 setrgbcolor
gsave
652.9 478.1 105.3 59.76 clipbox
105.3 379.111 m
115.746 379.111 l
118.357 358.251 l
120.969 319.269 l
123.58 304.772 l
126.192 298.179 l
128.803 283.654 l
131.414 266.695 l
136.637 252.47 l
139.249 248.896 l
141.86 237.054 l
144.472 214.867 l
147.083 214.867 l
149.694 212.772 l
152.306 212.772 l
154.917 211.962 l
160.14 211.962 l
162.752 200.823 l
165.363 200.823 l
167.975 199.674 l
170.586 199.674 l
173.197 198.373 l
178.42 198.373 l
181.032 197.752 l
183.643 194.58 l
186.255 192.644 l
191.478 192.644 l
194.089 191.071 l
196.7 190.151 l
201.923 190.151 l
204.535 189.838 l
209.758 189.838 l
212.369 187.987 l
217.592 185.725 l
233.261 185.725 l
235.872 185.243 l
246.318 185.227 l
248.929 184.942 l
256.764 184.875 l
259.375 183.874 l
267.209 183.874 l
269.821 183.746 l
272.432 183.746 l
277.655 183.271 l
288.101 183.179 l
290.712 182.949 l
295.935 182.949 l
298.547 182.819 l
301.158 182.075 l
303.769 180.376 l
308.992 180.376 l
311.604 179.218 l
314.215 175.651 l
316.827 175.651 l
322.05 175.243 l
324.661 174.569 l
327.272 174.372 l
329.884 174.372 l
332.495 173.188 l
337.718 173.181 l
340.33 172.946 l
342.941 172.592 l
345.552 172.499 l
348.164 172.152 l
350.775 172.152 l
355.998 171.937 l
358.61 171.937 l
361.221 171.6 l
363.833 171.6 l
369.055 170.915 l
376.89 170.734 l
379.501 170.579 l
382.113 170.074 l
392.558 170.074 l
395.17 169.19 l
403.004 169.117 l
405.616 168.977 l
408.227 168.654 l
410.838 167.915 l
413.45 167.915 l
416.061 167.296 l
418.673 166.54 l
423.896 166.215 l
426.507 165.565 l
429.119 165.272 l
431.73 164.73 l
439.564 164.167 l
442.176 163.375 l
444.787 162.832 l
447.399 162.832 l
450.01 162.69 l
455.233 162.655 l
460.456 162.218 l
463.067 161.838 l
465.679 161.826 l
468.29 161.447 l
470.902 161.447 l
473.513 160.94 l
478.736 160.94 l
481.347 160.732 l
486.57 160.521 l
491.793 159.648 l
504.85 159.299 l
510.073 158.664 l
512.685 158.661 l
525.742 158.162 l
528.353 158.076 l
530.965 157.841 l
536.188 157.821 l
541.41 157.303 l
549.245 157.267 l
557.079 156.788 l
559.691 156.788 l
562.302 156.56 l
575.359 156.101 l
640.645 154.912 l
645.868 154.819 l
658.925 154.739 l
669.371 154.504 l
685.04 154.424 l
690.263 154.331 l
734.657 154.017 l
755.549 153.907 l
755.549 153.907 l
stroke
grestore
0.000 0.500 0.000 setrgbcolor
gsave
652.9 478.1 105.3 59.76 clipbox
105.3 451.987 m
107.911 350.265 l
113.134 350.265 l
115.746 314.809 l
118.357 289.141 l
120.969 289.141 l
123.58 277.904 l
126.192 261.475 l
131.414 261.475 l
134.026 257.699 l
136.637 252.527 l
139.249 239.731 l
141.86 239.714 l
144.472 230.76 l
147.083 230.76 l
149.694 224.076 l
154.917 224.076 l
160.14 214.552 l
162.752 214.552 l
165.363 212.529 l
173.197 212.529 l
175.809 210.511 l
178.42 208.033 l
186.255 208.033 l
188.866 206.234 l
220.203 206.15 l
222.815 205.425 l
225.426 205.425 l
228.038 205.063 l
233.261 205.063 l
235.872 204.402 l
238.483 202.268 l
243.706 202.268 l
246.318 202.023 l
248.929 202.023 l
251.541 201.313 l
254.152 201.313 l
256.764 200.771 l
261.986 200.771 l
264.598 200.64 l
272.432 200.544 l
275.044 200.083 l
288.101 200.083 l
290.712 199.934 l
295.935 199.886 l
298.547 199.482 l
301.158 199.482 l
303.769 199.256 l
348.164 199.155 l
363.833 199.052 l
397.781 198.943 l
418.673 198.846 l
421.284 198.36 l
429.119 198.36 l
431.73 197.986 l
434.341 194.679 l
436.953 194.679 l
439.564 193.331 l
442.176 191.851 l
444.787 189.962 l
447.399 189.09 l
450.01 187.928 l
452.622 187.726 l
455.233 186.988 l
457.844 186.988 l
460.456 186.782 l
463.067 185.868 l
465.679 185.159 l
468.29 185.01 l
470.902 183.959 l
473.513 183.709 l
476.124 183.217 l
478.736 183.136 l
486.57 182.261 l
489.182 182.261 l
491.793 181.784 l
494.405 181.784 l
497.016 181.379 l
499.627 181.379 l
502.239 180.98 l
507.462 180.829 l
510.073 180.392 l
512.685 180.392 l
520.519 179.556 l
523.13 179.556 l
525.742 179.125 l
528.353 178.937 l
530.965 178.415 l
533.576 178.313 l
538.799 177.821 l
546.633 177.613 l
557.079 177.133 l
559.691 176.972 l
562.302 176.683 l
567.525 176.604 l
570.136 176.419 l
577.971 176.313 l
580.582 176.003 l
583.194 175.969 l
585.805 175.801 l
588.416 175.8 l
591.028 175.299 l
593.639 175.299 l
601.474 175.026 l
604.085 175.026 l
606.696 174.794 l
622.365 174.281 l
624.977 174.078 l
638.034 173.682 l
645.868 173.571 l
664.148 172.97 l
666.76 172.956 l
669.371 172.739 l
700.708 172.04 l
703.32 172.04 l
708.543 171.826 l
716.377 171.749 l
721.6 171.593 l
729.434 171.524 l
755.549 171.196 l
755.549 171.196 l
stroke
grestore
1.000 0.000 0.000 setrgbcolor
gsave
652.9 478.1 105.3 59.76 clipbox
105.3 464.472 m
107.911 458.294 l
110.523 329.258 l
113.134 329.258 l
115.746 305.843 l
118.357 290.753 l
120.969 278.663 l
123.58 278.469 l
126.192 277.415 l
128.803 265.165 l
131.414 265.165 l
134.026 264 l
136.637 255.411 l
139.249 251.021 l
141.86 251.021 l
144.472 250.272 l
147.083 246.732 l
149.694 246.732 l
152.306 242.06 l
160.14 242.06 l
162.752 236.643 l
167.975 231.711 l
170.586 231.711 l
173.197 231.471 l
178.42 231.471 l
181.032 230.994 l
183.643 227.605 l
214.98 227.604 l
217.592 227.038 l
238.483 227.038 l
241.095 226.661 l
243.706 225.497 l
246.318 225.497 l
248.929 224.888 l
251.541 224.604 l
261.986 224.595 l
264.598 224.048 l
267.209 223.993 l
269.821 223.723 l
272.432 223.723 l
275.044 223.448 l
277.655 223.395 l
280.266 222.992 l
285.489 222.887 l
288.101 222.431 l
295.935 222.431 l
298.547 222.275 l
301.158 221.887 l
303.769 221.734 l
306.381 221.734 l
308.992 221.31 l
316.827 221.264 l
322.05 221.264 l
324.661 221.075 l
327.272 221.075 l
329.884 220.684 l
332.495 220.683 l
335.107 220.392 l
337.718 220.392 l
350.775 219.667 l
353.387 219.667 l
363.833 219.102 l
379.501 218.999 l
382.113 218.836 l
387.336 218.808 l
395.17 218.597 l
403.004 218.528 l
405.616 218.276 l
418.673 218.215 l
423.896 218.118 l
426.507 217.928 l
447.399 217.615 l
463.067 217.521 l
486.57 217.35 l
497.016 217.277 l
504.85 217.204 l
538.799 217.103 l
544.022 216.208 l
546.633 215.315 l
549.245 215.203 l
551.856 212.954 l
554.468 211.213 l
557.079 210.719 l
559.691 209.858 l
562.302 208.406 l
564.913 207.599 l
567.525 206.527 l
570.136 205.88 l
572.748 205.88 l
575.359 205.448 l
577.971 203.409 l
583.194 203.409 l
585.805 202.524 l
588.416 202.524 l
596.251 201.168 l
598.862 201.166 l
601.474 200.687 l
604.085 200.687 l
606.696 200.402 l
614.531 199.978 l
617.142 199.544 l
619.754 199.376 l
624.977 199.376 l
627.588 199.119 l
630.199 199.068 l
632.811 198.829 l
635.422 198.829 l
640.645 198.496 l
645.868 198.126 l
648.48 197.782 l
651.091 197.727 l
653.702 197.439 l
658.925 197.198 l
661.537 197.16 l
671.982 196.575 l
677.205 196.487 l
679.817 196.342 l
682.428 196.032 l
687.651 196.012 l
690.263 195.817 l
698.097 195.657 l
705.931 195.25 l
718.988 194.865 l
721.6 194.848 l
726.823 194.649 l
729.434 194.616 l
734.657 194.414 l
737.268 194.394 l
739.88 194.159 l
755.549 193.882 l
755.549 193.882 l
stroke
grestore
0.000 0.750 0.750 setrgbcolor
gsave
652.9 478.1 105.3 59.76 clipbox
105.3 390.877 m
107.911 390.877 l
110.523 390.877 l
113.134 349.569 l
115.746 349.569 l
118.357 304.327 l
120.969 296.528 l
123.58 278.448 l
126.192 278.448 l
128.803 275.31 l
131.414 274.495 l
134.026 260.382 l
136.637 260.382 l
139.249 253.448 l
141.86 249.187 l
144.472 249.187 l
147.083 248.886 l
157.529 248.886 l
160.14 245.299 l
175.809 245.299 l
178.42 243.242 l
183.643 243.242 l
186.255 243.054 l
188.866 240.761 l
207.146 240.761 l
209.758 240.165 l
212.369 239.71 l
214.98 239.049 l
217.592 239.049 l
220.203 238.548 l
222.815 238.548 l
225.426 237.874 l
228.038 237.874 l
230.649 237.446 l
233.261 236.822 l
235.872 235.78 l
243.706 235.78 l
248.929 234.219 l
251.541 233.66 l
261.986 233.66 l
264.598 233.5 l
269.821 232.74 l
272.432 232.516 l
275.044 232.043 l
288.101 231.967 l
293.324 231.849 l
298.547 231.584 l
301.158 231.277 l
303.769 231.123 l
324.661 231.059 l
335.107 230.847 l
363.833 230.762 l
369.055 230.679 l
374.278 230.674 l
376.89 230.41 l
382.113 230.41 l
387.336 230.155 l
392.558 229.972 l
403.004 229.818 l
405.616 229.543 l
423.896 229.057 l
426.507 228.883 l
429.119 228.883 l
436.953 228.298 l
460.456 227.632 l
463.067 227.368 l
473.513 227.178 l
476.124 227.117 l
483.959 226.504 l
489.182 226.504 l
497.016 226.141 l
515.296 225.748 l
517.908 225.525 l
525.742 225.396 l
530.965 225.294 l
557.079 224.94 l
596.251 224.552 l
724.211 224.19 l
755.549 224.171 l
755.549 224.171 l
stroke
grestore
0.500 setlinewidth
0 setlinecap
0.000 setgray
gsave
/o {
gsave
newpath
translate
0 0 m
0 4 l
gsave
0.000 setgray
fill
grestore
stroke
grestore
} bind def
105.3 59.76 o
grestore
gsave
/o {
gsave
newpath
translate
0 0 m
0 -4 l
gsave
0.000 setgray
fill
grestore
stroke
grestore
} bind def
105.3 537.84 o
grestore
/BitstreamVeraSans-Roman findfont
12.000 scalefont
setfont
gsave
102.276562 46.681875 translate
0.000000 rotate
0.000000 0.171875 m /zero glyphshow
grestore
gsave
/o {
gsave
newpath
translate
0 0 m
0 4 l
gsave
0.000 setgray
fill
grestore
stroke
grestore
} bind def
235.872 59.76 o
grestore
gsave
/o {
gsave
newpath
translate
0 0 m
0 -4 l
gsave
0.000 setgray
fill
grestore
stroke
grestore
} bind def
235.872 537.84 o
grestore
gsave
229.090750 46.681875 translate
0.000000 rotate
0.000000 0.171875 m /five glyphshow
7.634766 0.171875 m /zero glyphshow
grestore
gsave
/o {
gsave
newpath
translate
0 0 m
0 4 l
gsave
0.000 setgray
fill
grestore
stroke
grestore
} bind def
366.444 59.76 o
grestore
gsave
/o {
gsave
newpath
translate
0 0 m
0 -4 l
gsave
0.000 setgray
fill
grestore
stroke
grestore
} bind def
366.444 537.84 o
grestore
gsave
356.037750 46.681875 translate
0.000000 rotate
0.000000 0.171875 m /one glyphshow
7.634766 0.171875 m /zero glyphshow
15.269531 0.171875 m /zero glyphshow
grestore
gsave
/o {
gsave
newpath
translate
0 0 m
0 4 l
gsave
0.000 setgray
fill
grestore
stroke
grestore
} bind def
497.016 59.76 o
grestore
gsave
/o {
gsave
newpath
translate
0 0 m
0 -4 l
gsave
0.000 setgray
fill
grestore
stroke
grestore
} bind def
497.016 537.84 o
grestore
gsave
486.609750 46.681875 translate
0.000000 rotate
0.000000 0.171875 m /one glyphshow
7.634766 0.171875 m /five glyphshow
15.269531 0.171875 m /zero glyphshow
grestore
gsave
/o {
gsave
newpath
translate
0 0 m
0 4 l
gsave
0.000 setgray
fill
grestore
stroke
grestore
} bind def
627.588 59.76 o
grestore
gsave
/o {
gsave
newpath
translate
0 0 m
0 -4 l
gsave
0.000 setgray
fill
grestore
stroke
grestore
} bind def
627.588 537.84 o
grestore
gsave
616.963000 46.681875 translate
0.000000 rotate
0.000000 0.171875 m /two glyphshow
7.634766 0.171875 m /zero glyphshow
15.269531 0.171875 m /zero glyphshow
grestore
gsave
/o {
gsave
newpath
translate
0 0 m
0 4 l
gsave
0.000 setgray
fill
grestore
stroke
grestore
} bind def
758.16 59.76 o
grestore
gsave
/o {
gsave
newpath
translate
0 0 m
0 -4 l
gsave
0.000 setgray
fill
grestore
stroke
grestore
} bind def
758.16 537.84 o
grestore
gsave
747.535000 46.681875 translate
0.000000 rotate
0.000000 0.171875 m /two glyphshow
7.634766 0.171875 m /five glyphshow
15.269531 0.171875 m /zero glyphshow
grestore
gsave
399.089375 32.385000 translate
0.000000 rotate
0.000000 0.171875 m /G glyphshow
9.298828 0.171875 m /e glyphshow
16.681641 0.171875 m /n glyphshow
24.287109 0.171875 m /e glyphshow
31.669922 0.171875 m /r glyphshow
36.603516 0.171875 m /a glyphshow
43.957031 0.171875 m /t glyphshow
48.662109 0.171875 m /i glyphshow
51.996094 0.171875 m /o glyphshow
59.337891 0.171875 m /n glyphshow
grestore
gsave
/o {
gsave
newpath
translate
0 0 m
4 0 l
gsave
0.000 setgray
fill
grestore
stroke
grestore
} bind def
105.3 59.76 o
grestore
gsave
/o {
gsave
newpath
translate
0 0 m
-4 0 l
gsave
0.000 setgray
fill
grestore
stroke
grestore
} bind def
758.16 59.76 o
grestore
gsave
83.831250 55.220937 translate
0.000000 rotate
0.000000 0.171875 m /zero glyphshow
7.634766 0.171875 m /period glyphshow
11.449219 0.171875 m /eight glyphshow
grestore
gsave
/o {
gsave
newpath
translate
0 0 m
4 0 l
gsave
0.000 setgray
fill
grestore
stroke
grestore
} bind def
105.3 139.44 o
grestore
gsave
/o {
gsave
newpath
translate
0 0 m
-4 0 l
gsave
0.000 setgray
fill
grestore
stroke
grestore
} bind def
758.16 139.44 o
grestore
gsave
83.846875 134.900937 translate
0.000000 rotate
0.000000 0.171875 m /zero glyphshow
7.634766 0.171875 m /period glyphshow
11.449219 0.171875 m /nine glyphshow
grestore
gsave
/o {
gsave
newpath
translate
0 0 m
4 0 l
gsave
0.000 setgray
fill
grestore
stroke
grestore
} bind def
105.3 219.12 o
grestore
gsave
/o {
gsave
newpath
translate
0 0 m
-4 0 l
gsave
0.000 setgray
fill
grestore
stroke
grestore
} bind def
758.16 219.12 o
grestore
gsave
84.315625 214.580937 translate
0.000000 rotate
0.000000 0.171875 m /one glyphshow
7.634766 0.171875 m /period glyphshow
11.449219 0.171875 m /zero glyphshow
grestore
gsave
/o {
gsave
newpath
translate
0 0 m
4 0 l
gsave
0.000 setgray
fill
grestore
stroke
grestore
} bind def
105.3 298.8 o
grestore
gsave
/o {
gsave
newpath
translate
0 0 m
-4 0 l
gsave
0.000 setgray
fill
grestore
stroke
grestore
} bind def
758.16 298.8 o
grestore
gsave
84.628125 294.425000 translate
0.000000 rotate
0.000000 0.000000 m /one glyphshow
7.634766 0.000000 m /period glyphshow
11.449219 0.000000 m /one glyphshow
grestore
gsave
/o {
gsave
newpath
translate
0 0 m
4 0 l
gsave
0.000 setgray
fill
grestore
stroke
grestore
} bind def
105.3 378.48 o
grestore
gsave
/o {
gsave
newpath
translate
0 0 m
-4 0 l
gsave
0.000 setgray
fill
grestore
stroke
grestore
} bind def
758.16 378.48 o
grestore
gsave
84.721875 374.026875 translate
0.000000 rotate
0.000000 0.000000 m /one glyphshow
7.634766 0.000000 m /period glyphshow
11.449219 0.000000 m /two glyphshow
grestore
gsave
/o {
gsave
newpath
translate
0 0 m
4 0 l
gsave
0.000 setgray
fill
grestore
stroke
grestore
} bind def
105.3 458.16 o
grestore
gsave
/o {
gsave
newpath
translate
0 0 m
-4 0 l
gsave
0.000 setgray
fill
grestore
stroke
grestore
} bind def
758.16 458.16 o
grestore
gsave
84.487500 453.620937 translate
0.000000 rotate
0.000000 0.171875 m /one glyphshow
7.634766 0.171875 m /period glyphshow
11.449219 0.171875 m /three glyphshow
grestore
gsave
/o {
gsave
newpath
translate
0 0 m
4 0 l
gsave
0.000 setgray
fill
grestore
stroke
grestore
} bind def
105.3 537.84 o
grestore
gsave
/o {
gsave
newpath
translate
0 0 m
-4 0 l
gsave
0.000 setgray
fill
grestore
stroke
grestore
} bind def
758.16 537.84 o
grestore
gsave
84.190625 533.465000 translate
0.000000 rotate
0.000000 0.000000 m /one glyphshow
7.634766 0.000000 m /period glyphshow
11.449219 0.000000 m /four glyphshow
grestore
gsave
78.831250 257.229688 translate
90.000000 rotate
0.000000 2.500000 m /E glyphshow
7.582031 2.500000 m /n glyphshow
15.187500 2.500000 m /t glyphshow
19.892578 2.500000 m /a glyphshow
27.246094 2.500000 m /n glyphshow
34.851562 2.500000 m /g glyphshow
42.468750 2.500000 m /l glyphshow
45.802734 2.500000 m /e glyphshow
53.185547 2.500000 m /m glyphshow
64.875000 2.500000 m /e glyphshow
72.257812 2.500000 m /n glyphshow
79.863281 2.500000 m /t glyphshow
grestore
1.000 setlinewidth
2 setlinecap
gsave
105.3 537.84 m
758.16 537.84 l
stroke
grestore
gsave
758.16 59.76 m
758.16 537.84 l
stroke
grestore
gsave
105.3 59.76 m
758.16 59.76 l
stroke
grestore
gsave
105.3 59.76 m
105.3 537.84 l
stroke
grestore
/BitstreamVeraSans-Roman findfont
14.400 scalefont
setfont
gsave
273.480000 540.996250 translate
0.000000 rotate
0.000000 1.843750 m /E glyphshow
9.082642 1.843750 m /v glyphshow
17.589722 1.843750 m /o glyphshow
26.384583 1.843750 m /l glyphshow
30.378418 1.843750 m /u glyphshow
39.489136 1.843750 m /t glyphshow
45.125427 1.843750 m /i glyphshow
49.119263 1.843750 m /o glyphshow
57.914124 1.843750 m /n glyphshow
67.024841 1.843750 m /space glyphshow
71.594238 1.843750 m /o glyphshow
80.389099 1.843750 m /f glyphshow
85.449829 1.843750 m /space glyphshow
90.019226 1.843750 m /three glyphshow
99.165039 1.843750 m /d glyphshow
108.289795 1.843750 m /zero glyphshow
117.435608 1.843750 m /space glyphshow
122.005005 1.843750 m /parenleft glyphshow
127.613220 1.843750 m /m glyphshow
141.616211 1.843750 m /e glyphshow
150.460205 1.843750 m /a glyphshow
159.269104 1.843750 m /s glyphshow
166.758423 1.843750 m /u glyphshow
175.869141 1.843750 m /r glyphshow
181.404175 1.843750 m /e glyphshow
190.248169 1.843750 m /colon glyphshow
195.091309 1.843750 m /space glyphshow
199.660706 1.843750 m /H glyphshow
210.470032 1.843750 m /i glyphshow
214.463867 1.843750 m /l glyphshow
218.457703 1.843750 m /b glyphshow
227.582458 1.843750 m /e glyphshow
236.426453 1.843750 m /r glyphshow
242.336487 1.843750 m /t glyphshow
247.972778 1.843750 m /hyphen glyphshow
253.159851 1.843750 m /S glyphshow
262.284607 1.843750 m /c glyphshow
270.188049 1.843750 m /h glyphshow
279.298767 1.843750 m /m glyphshow
293.301758 1.843750 m /i glyphshow
297.295593 1.843750 m /d glyphshow
306.420349 1.843750 m /t glyphshow
312.056641 1.843750 m /parenright glyphshow
grestore
gsave
601.183 298.104 m
750.96 298.104 l
750.96 530.64 l
601.183 530.64 l
601.183 298.104 l
cl
gsave
1.000 setgray
fill
grestore
stroke
grestore
0.000 0.000 1.000 setrgbcolor
gsave
611.263 519.279 m
631.423 519.279 l
stroke
grestore
0.000 setgray
gsave
647.262500 511.333125 translate
0.000000 rotate
0.000000 2.906250 m /p glyphshow
9.124756 2.906250 m /space glyphshow
13.694153 2.906250 m /equal glyphshow
25.738831 2.906250 m /space glyphshow
30.308228 2.906250 m /zero glyphshow
39.454041 2.906250 m /period glyphshow
44.023438 2.906250 m /zero glyphshow
53.169250 2.906250 m /zero glyphshow
62.315063 2.906250 m /zero glyphshow
71.460876 2.906250 m /zero glyphshow
80.606689 2.906250 m /zero glyphshow
89.752502 2.906250 m /zero glyphshow
grestore
0.000 0.500 0.000 setrgbcolor
gsave
611.263 498.533 m
631.423 498.533 l
stroke
grestore
0.000 setgray
gsave
647.262500 490.586250 translate
0.000000 rotate
0.000000 2.906250 m /p glyphshow
9.124756 2.906250 m /space glyphshow
13.694153 2.906250 m /equal glyphshow
25.738831 2.906250 m /space glyphshow
30.308228 2.906250 m /zero glyphshow
39.454041 2.906250 m /period glyphshow
44.023438 2.906250 m /one glyphshow
53.169250 2.906250 m /zero glyphshow
62.315063 2.906250 m /zero glyphshow
71.460876 2.906250 m /zero glyphshow
80.606689 2.906250 m /zero glyphshow
89.752502 2.906250 m /zero glyphshow
grestore
1.000 0.000 0.000 setrgbcolor
gsave
611.263 477.786 m
631.423 477.786 l
stroke
grestore
0.000 setgray
gsave
647.262500 469.839375 translate
0.000000 rotate
0.000000 2.906250 m /p glyphshow
9.124756 2.906250 m /space glyphshow
13.694153 2.906250 m /equal glyphshow
25.738831 2.906250 m /space glyphshow
30.308228 2.906250 m /zero glyphshow
39.454041 2.906250 m /period glyphshow
44.023438 2.906250 m /two glyphshow
53.169250 2.906250 m /zero glyphshow
62.315063 2.906250 m /zero glyphshow
71.460876 2.906250 m /zero glyphshow
80.606689 2.906250 m /zero glyphshow
89.752502 2.906250 m /zero glyphshow
grestore
0.000 0.750 0.750 setrgbcolor
gsave
611.263 457.039 m
631.423 457.039 l
stroke
grestore
0.000 setgray
gsave
647.262500 449.092500 translate
0.000000 rotate
0.000000 2.906250 m /p glyphshow
9.124756 2.906250 m /space glyphshow
13.694153 2.906250 m /equal glyphshow
25.738831 2.906250 m /space glyphshow
30.308228 2.906250 m /zero glyphshow
39.454041 2.906250 m /period glyphshow
44.023438 2.906250 m /three glyphshow
53.169250 2.906250 m /zero glyphshow
62.315063 2.906250 m /zero glyphshow
71.460876 2.906250 m /zero glyphshow
80.606689 2.906250 m /zero glyphshow
89.752502 2.906250 m /zero glyphshow
grestore
0.750 0.000 0.750 setrgbcolor
gsave
611.263 436.292 m
631.423 436.292 l
stroke
grestore
0.000 setgray
gsave
647.262500 428.345625 translate
0.000000 rotate
0.000000 2.906250 m /p glyphshow
9.124756 2.906250 m /space glyphshow
13.694153 2.906250 m /equal glyphshow
25.738831 2.906250 m /space glyphshow
30.308228 2.906250 m /zero glyphshow
39.454041 2.906250 m /period glyphshow
44.023438 2.906250 m /four glyphshow
53.169250 2.906250 m /zero glyphshow
62.315063 2.906250 m /zero glyphshow
71.460876 2.906250 m /zero glyphshow
80.606689 2.906250 m /zero glyphshow
89.752502 2.906250 m /zero glyphshow
grestore
0.750 0.750 0.000 setrgbcolor
gsave
611.263 415.545 m
631.423 415.545 l
stroke
grestore
0.000 setgray
gsave
647.262500 407.598750 translate
0.000000 rotate
0.000000 2.906250 m /p glyphshow
9.124756 2.906250 m /space glyphshow
13.694153 2.906250 m /equal glyphshow
25.738831 2.906250 m /space glyphshow
30.308228 2.906250 m /zero glyphshow
39.454041 2.906250 m /period glyphshow
44.023438 2.906250 m /five glyphshow
53.169250 2.906250 m /zero glyphshow
62.315063 2.906250 m /zero glyphshow
71.460876 2.906250 m /zero glyphshow
80.606689 2.906250 m /zero glyphshow
89.752502 2.906250 m /zero glyphshow
grestore
gsave
611.263 394.798 m
631.423 394.798 l
stroke
grestore
gsave
647.262500 386.851875 translate
0.000000 rotate
0.000000 2.906250 m /p glyphshow
9.124756 2.906250 m /space glyphshow
13.694153 2.906250 m /equal glyphshow
25.738831 2.906250 m /space glyphshow
30.308228 2.906250 m /zero glyphshow
39.454041 2.906250 m /period glyphshow
44.023438 2.906250 m /six glyphshow
53.169250 2.906250 m /zero glyphshow
62.315063 2.906250 m /zero glyphshow
71.460876 2.906250 m /zero glyphshow
80.606689 2.906250 m /zero glyphshow
89.752502 2.906250 m /zero glyphshow
grestore
0.000 0.000 1.000 setrgbcolor
gsave
611.263 374.051 m
631.423 374.051 l
stroke
grestore
0.000 setgray
gsave
647.262500 366.105000 translate
0.000000 rotate
0.000000 2.906250 m /p glyphshow
9.124756 2.906250 m /space glyphshow
13.694153 2.906250 m /equal glyphshow
25.738831 2.906250 m /space glyphshow
30.308228 2.906250 m /zero glyphshow
39.454041 2.906250 m /period glyphshow
44.023438 2.906250 m /seven glyphshow
53.169250 2.906250 m /zero glyphshow
62.315063 2.906250 m /zero glyphshow
71.460876 2.906250 m /zero glyphshow
80.606689 2.906250 m /zero glyphshow
89.752502 2.906250 m /zero glyphshow
grestore
0.000 0.500 0.000 setrgbcolor
gsave
611.263 353.304 m
631.423 353.304 l
stroke
grestore
0.000 setgray
gsave
647.262500 345.358125 translate
0.000000 rotate
0.000000 2.906250 m /p glyphshow
9.124756 2.906250 m /space glyphshow
13.694153 2.906250 m /equal glyphshow
25.738831 2.906250 m /space glyphshow
30.308228 2.906250 m /zero glyphshow
39.454041 2.906250 m /period glyphshow
44.023438 2.906250 m /eight glyphshow
53.169250 2.906250 m /zero glyphshow
62.315063 2.906250 m /zero glyphshow
71.460876 2.906250 m /zero glyphshow
80.606689 2.906250 m /zero glyphshow
89.752502 2.906250 m /zero glyphshow
grestore
1.000 0.000 0.000 setrgbcolor
gsave
611.263 332.558 m
631.423 332.558 l
stroke
grestore
0.000 setgray
gsave
647.262500 324.611250 translate
0.000000 rotate
0.000000 2.906250 m /p glyphshow
9.124756 2.906250 m /space glyphshow
13.694153 2.906250 m /equal glyphshow
25.738831 2.906250 m /space glyphshow
30.308228 2.906250 m /zero glyphshow
39.454041 2.906250 m /period glyphshow
44.023438 2.906250 m /nine glyphshow
53.169250 2.906250 m /zero glyphshow
62.315063 2.906250 m /zero glyphshow
71.460876 2.906250 m /zero glyphshow
80.606689 2.906250 m /zero glyphshow
89.752502 2.906250 m /zero glyphshow
grestore
0.000 0.750 0.750 setrgbcolor
gsave
611.263 311.811 m
631.423 311.811 l
stroke
grestore
0.000 setgray
gsave
647.262500 303.864375 translate
0.000000 rotate
0.000000 2.906250 m /p glyphshow
9.124756 2.906250 m /space glyphshow
13.694153 2.906250 m /equal glyphshow
25.738831 2.906250 m /space glyphshow
30.308228 2.906250 m /one glyphshow
39.454041 2.906250 m /period glyphshow
44.023438 2.906250 m /zero glyphshow
53.169250 2.906250 m /zero glyphshow
62.315063 2.906250 m /zero glyphshow
71.460876 2.906250 m /zero glyphshow
80.606689 2.906250 m /zero glyphshow
89.752502 2.906250 m /zero glyphshow
grestore

end
showpage
