%!PS-Adobe-3.0 EPSF-3.0
%%Title: 3d1.Hilbert-Schmidt.example.evolution.eps
%%Creator: matplotlib version 1.1.0, http://matplotlib.sourceforge.net/
%%CreationDate: Wed Dec  5 14:54:39 2012
%%Orientation: portrait
%%BoundingBox: -115 97 727 694
%%EndComments
%%BeginProlog
/mpldict 8 dict def
mpldict begin
/m { moveto } bind def
/l { lineto } bind def
/r { rlineto } bind def
/c { curveto } bind def
/cl { closepath } bind def
/box {
m
1 index 0 r
0 exch r
neg 0 r
cl
} bind def
/clipbox {
box
clip
newpath
} bind def
%!PS-Adobe-3.0 Resource-Font
%%Title: Bitstream Vera Sans
%%Copyright: Copyright (c) 2003 by Bitstream, Inc. All Rights Reserved.
%%Creator: Converted from TrueType to type 3 by PPR
25 dict begin
/_d{bind def}bind def
/_m{moveto}_d
/_l{lineto}_d
/_cl{closepath eofill}_d
/_c{curveto}_d
/_sc{7 -1 roll{setcachedevice}{pop pop pop pop pop pop}ifelse}_d
/_e{exec}_d
/FontName /BitstreamVeraSans-Roman def
/PaintType 0 def
/FontMatrix[.001 0 0 .001 0 0]def
/FontBBox[-183 -236 1287 928]def
/FontType 3 def
/Encoding [ /space /parenleft /parenright /hyphen /period /zero /one /two /three /four /five /six /seven /eight /nine /colon /equal /E /G /H /S /a /b /c /d /e /f /g /h /i /l /m /n /o /p /r /s /t /u /v ] def
/FontInfo 10 dict dup begin
/FamilyName (Bitstream Vera Sans) def
/FullName (Bitstream Vera Sans) def
/Notice (Copyright (c) 2003 by Bitstream, Inc. All Rights Reserved. Bitstream Vera is a trademark of Bitstream, Inc.) def
/Weight (Roman) def
/Version (Release 1.10) def
/ItalicAngle 0.0 def
/isFixedPitch false def
/UnderlinePosition -213 def
/UnderlineThickness 143 def
end readonly def
/CharStrings 40 dict dup begin
/space{318 0 0 0 0 0 _sc
}_d
/parenleft{390 0 86 -131 310 759 _sc
310 759 _m
266 683 234 609 213 536 _c
191 463 181 389 181 314 _c
181 238 191 164 213 91 _c
234 17 266 -56 310 -131 _c
232 -131 _l
183 -54 146 20 122 94 _c
98 168 86 241 86 314 _c
86 386 98 459 122 533 _c
146 607 182 682 232 759 _c
310 759 _l
_cl}_d
/parenright{390 0 80 -131 304 759 _sc
80 759 _m
158 759 _l
206 682 243 607 267 533 _c
291 459 304 386 304 314 _c
304 241 291 168 267 94 _c
243 20 206 -54 158 -131 _c
80 -131 _l
123 -56 155 17 177 91 _c
198 164 209 238 209 314 _c
209 389 198 463 177 536 _c
155 609 123 683 80 759 _c
_cl}_d
/hyphen{361 0 49 234 312 314 _sc
49 314 _m
312 314 _l
312 234 _l
49 234 _l
49 314 _l
_cl}_d
/period{318 0 107 0 210 124 _sc
107 124 _m
210 124 _l
210 0 _l
107 0 _l
107 124 _l
_cl}_d
/zero{636 0 66 -13 570 742 _sc
318 664 _m
267 664 229 639 203 589 _c
177 539 165 464 165 364 _c
165 264 177 189 203 139 _c
229 89 267 64 318 64 _c
369 64 407 89 433 139 _c
458 189 471 264 471 364 _c
471 464 458 539 433 589 _c
407 639 369 664 318 664 _c
318 742 _m
399 742 461 709 505 645 _c
548 580 570 486 570 364 _c
570 241 548 147 505 83 _c
461 19 399 -13 318 -13 _c
236 -13 173 19 130 83 _c
87 147 66 241 66 364 _c
66 486 87 580 130 645 _c
173 709 236 742 318 742 _c
_cl}_d
/one{636 0 110 0 544 729 _sc
124 83 _m
285 83 _l
285 639 _l
110 604 _l
110 694 _l
284 729 _l
383 729 _l
383 83 _l
544 83 _l
544 0 _l
124 0 _l
124 83 _l
_cl}_d
/two{{636 0 73 0 536 742 _sc
192 83 _m
536 83 _l
536 0 _l
73 0 _l
73 83 _l
110 121 161 173 226 239 _c
290 304 331 346 348 365 _c
380 400 402 430 414 455 _c
426 479 433 504 433 528 _c
433 566 419 598 392 622 _c
365 646 330 659 286 659 _c
255 659 222 653 188 643 _c
154 632 117 616 78 594 _c
78 694 _l
118 710 155 722 189 730 _c
223 738 255 742 284 742 _c
359 742 419 723 464 685 _c
509 647 532 597 532 534 _c
532 504 526 475 515 449 _c
504 422 484 390 454 354 _c
446 344 420 317 376 272 _c
332 227 271 164 192 83 _c
_cl}_e}_d
/three{{636 0 76 -13 556 742 _sc
406 393 _m
453 383 490 362 516 330 _c
542 298 556 258 556 212 _c
556 140 531 84 482 45 _c
432 6 362 -13 271 -13 _c
240 -13 208 -10 176 -4 _c
144 1 110 10 76 22 _c
76 117 _l
103 101 133 89 166 81 _c
198 73 232 69 268 69 _c
330 69 377 81 409 105 _c
441 129 458 165 458 212 _c
458 254 443 288 413 312 _c
383 336 341 349 287 349 _c
202 349 _l
202 430 _l
291 430 _l
339 430 376 439 402 459 _c
428 478 441 506 441 543 _c
441 580 427 609 401 629 _c
374 649 336 659 287 659 _c
260 659 231 656 200 650 _c
169 644 135 635 98 623 _c
98 711 _l
135 721 170 729 203 734 _c
235 739 266 742 296 742 _c
}_e{370 742 429 725 473 691 _c
517 657 539 611 539 553 _c
539 513 527 479 504 451 _c
481 423 448 403 406 393 _c
_cl}_e}_d
/four{636 0 49 0 580 729 _sc
378 643 _m
129 254 _l
378 254 _l
378 643 _l
352 729 _m
476 729 _l
476 254 _l
580 254 _l
580 172 _l
476 172 _l
476 0 _l
378 0 _l
378 172 _l
49 172 _l
49 267 _l
352 729 _l
_cl}_d
/five{{636 0 77 -13 549 729 _sc
108 729 _m
495 729 _l
495 646 _l
198 646 _l
198 467 _l
212 472 227 476 241 478 _c
255 480 270 482 284 482 _c
365 482 429 459 477 415 _c
525 370 549 310 549 234 _c
549 155 524 94 475 51 _c
426 8 357 -13 269 -13 _c
238 -13 207 -10 175 -6 _c
143 -1 111 6 77 17 _c
77 116 _l
106 100 136 88 168 80 _c
199 72 232 69 267 69 _c
323 69 368 83 401 113 _c
433 143 450 183 450 234 _c
450 284 433 324 401 354 _c
368 384 323 399 267 399 _c
241 399 214 396 188 390 _c
162 384 135 375 108 363 _c
108 729 _l
_cl}_e}_d
/six{{636 0 70 -13 573 742 _sc
330 404 _m
286 404 251 388 225 358 _c
199 328 186 286 186 234 _c
186 181 199 139 225 109 _c
251 79 286 64 330 64 _c
374 64 409 79 435 109 _c
461 139 474 181 474 234 _c
474 286 461 328 435 358 _c
409 388 374 404 330 404 _c
526 713 _m
526 623 _l
501 635 476 644 451 650 _c
425 656 400 659 376 659 _c
310 659 260 637 226 593 _c
192 549 172 482 168 394 _c
187 422 211 444 240 459 _c
269 474 301 482 336 482 _c
409 482 467 459 509 415 _c
551 371 573 310 573 234 _c
573 159 550 99 506 54 _c
462 9 403 -13 330 -13 _c
246 -13 181 19 137 83 _c
92 147 70 241 70 364 _c
70 479 97 571 152 639 _c
206 707 280 742 372 742 _c
}_e{396 742 421 739 447 735 _c
472 730 498 723 526 713 _c
_cl}_e}_d
/seven{636 0 82 0 551 729 _sc
82 729 _m
551 729 _l
551 687 _l
286 0 _l
183 0 _l
432 646 _l
82 646 _l
82 729 _l
_cl}_d
/eight{{636 0 68 -13 568 742 _sc
318 346 _m
271 346 234 333 207 308 _c
180 283 167 249 167 205 _c
167 161 180 126 207 101 _c
234 76 271 64 318 64 _c
364 64 401 76 428 102 _c
455 127 469 161 469 205 _c
469 249 455 283 429 308 _c
402 333 365 346 318 346 _c
219 388 _m
177 398 144 418 120 447 _c
96 476 85 511 85 553 _c
85 611 105 657 147 691 _c
188 725 245 742 318 742 _c
390 742 447 725 489 691 _c
530 657 551 611 551 553 _c
551 511 539 476 515 447 _c
491 418 459 398 417 388 _c
464 377 501 355 528 323 _c
554 291 568 251 568 205 _c
568 134 546 80 503 43 _c
459 5 398 -13 318 -13 _c
237 -13 175 5 132 43 _c
89 80 68 134 68 205 _c
68 251 81 291 108 323 _c
134 355 171 377 219 388 _c
}_e{183 544 _m
183 506 194 476 218 455 _c
242 434 275 424 318 424 _c
360 424 393 434 417 455 _c
441 476 453 506 453 544 _c
453 582 441 611 417 632 _c
393 653 360 664 318 664 _c
275 664 242 653 218 632 _c
194 611 183 582 183 544 _c
_cl}_e}_d
/nine{{636 0 63 -13 566 742 _sc
110 15 _m
110 105 _l
134 93 159 84 185 78 _c
210 72 235 69 260 69 _c
324 69 374 90 408 134 _c
442 178 462 244 468 334 _c
448 306 424 284 396 269 _c
367 254 335 247 300 247 _c
226 247 168 269 126 313 _c
84 357 63 417 63 494 _c
63 568 85 628 129 674 _c
173 719 232 742 306 742 _c
390 742 455 709 499 645 _c
543 580 566 486 566 364 _c
566 248 538 157 484 89 _c
429 21 356 -13 264 -13 _c
239 -13 214 -10 189 -6 _c
163 -2 137 5 110 15 _c
306 324 _m
350 324 385 339 411 369 _c
437 399 450 441 450 494 _c
450 546 437 588 411 618 _c
385 648 350 664 306 664 _c
262 664 227 648 201 618 _c
175 588 162 546 162 494 _c
}_e{162 441 175 399 201 369 _c
227 339 262 324 306 324 _c
_cl}_e}_d
/colon{337 0 117 0 220 517 _sc
117 124 _m
220 124 _l
220 0 _l
117 0 _l
117 124 _l
117 517 _m
220 517 _l
220 393 _l
117 393 _l
117 517 _l
_cl}_d
/equal{838 0 106 172 732 454 _sc
106 454 _m
732 454 _l
732 372 _l
106 372 _l
106 454 _l
106 255 _m
732 255 _l
732 172 _l
106 172 _l
106 255 _l
_cl}_d
/E{632 0 98 0 568 729 _sc
98 729 _m
559 729 _l
559 646 _l
197 646 _l
197 430 _l
544 430 _l
544 347 _l
197 347 _l
197 83 _l
568 83 _l
568 0 _l
98 0 _l
98 729 _l
_cl}_d
/G{{775 0 56 -13 693 742 _sc
595 104 _m
595 300 _l
434 300 _l
434 381 _l
693 381 _l
693 68 _l
655 40 613 20 567 7 _c
521 -6 472 -13 420 -13 _c
306 -13 216 20 152 86 _c
88 152 56 245 56 364 _c
56 482 88 575 152 642 _c
216 708 306 742 420 742 _c
467 742 512 736 555 724 _c
598 712 638 695 674 673 _c
674 568 _l
637 598 598 621 557 637 _c
516 653 473 661 428 661 _c
338 661 271 636 227 586 _c
182 536 160 462 160 364 _c
160 265 182 191 227 141 _c
271 91 338 67 428 67 _c
462 67 493 70 521 76 _c
549 82 573 91 595 104 _c
_cl}_e}_d
/H{752 0 98 0 654 729 _sc
98 729 _m
197 729 _l
197 430 _l
555 430 _l
555 729 _l
654 729 _l
654 0 _l
555 0 _l
555 347 _l
197 347 _l
197 0 _l
98 0 _l
98 729 _l
_cl}_d
/S{{635 0 66 -13 579 742 _sc
535 705 _m
535 609 _l
497 627 462 640 429 649 _c
395 657 363 662 333 662 _c
279 662 237 651 208 631 _c
179 610 165 580 165 542 _c
165 510 174 485 194 469 _c
213 452 250 439 304 429 _c
364 417 _l
437 403 491 378 526 343 _c
561 307 579 260 579 201 _c
579 130 555 77 508 41 _c
460 5 391 -13 300 -13 _c
265 -13 228 -9 189 -2 _c
150 5 110 16 69 32 _c
69 134 _l
109 111 148 94 186 83 _c
224 71 262 66 300 66 _c
356 66 399 77 430 99 _c
460 121 476 152 476 194 _c
476 230 465 258 443 278 _c
421 298 385 313 335 323 _c
275 335 _l
201 349 148 372 115 404 _c
82 435 66 478 66 534 _c
66 598 88 649 134 686 _c
179 723 242 742 322 742 _c
}_e{356 742 390 739 426 733 _c
461 727 497 717 535 705 _c
_cl}_e}_d
/a{{613 0 60 -13 522 560 _sc
343 275 _m
270 275 220 266 192 250 _c
164 233 150 205 150 165 _c
150 133 160 107 181 89 _c
202 70 231 61 267 61 _c
317 61 357 78 387 114 _c
417 149 432 196 432 255 _c
432 275 _l
343 275 _l
522 312 _m
522 0 _l
432 0 _l
432 83 _l
411 49 385 25 355 10 _c
325 -5 287 -13 243 -13 _c
187 -13 142 2 109 33 _c
76 64 60 106 60 159 _c
60 220 80 266 122 298 _c
163 329 224 345 306 345 _c
432 345 _l
432 354 _l
432 395 418 427 391 450 _c
364 472 326 484 277 484 _c
245 484 215 480 185 472 _c
155 464 127 453 100 439 _c
100 522 _l
}_e{132 534 164 544 195 550 _c
226 556 256 560 286 560 _c
365 560 424 539 463 498 _c
502 457 522 395 522 312 _c
_cl}_e}_d
/b{{635 0 91 -13 580 760 _sc
487 273 _m
487 339 473 390 446 428 _c
418 466 381 485 334 485 _c
286 485 249 466 222 428 _c
194 390 181 339 181 273 _c
181 207 194 155 222 117 _c
249 79 286 61 334 61 _c
381 61 418 79 446 117 _c
473 155 487 207 487 273 _c
181 464 _m
199 496 223 520 252 536 _c
281 552 316 560 356 560 _c
422 560 476 533 518 481 _c
559 428 580 359 580 273 _c
580 187 559 117 518 65 _c
476 13 422 -13 356 -13 _c
316 -13 281 -5 252 10 _c
223 25 199 49 181 82 _c
181 0 _l
91 0 _l
91 760 _l
181 760 _l
181 464 _l
_cl}_e}_d
/c{{550 0 55 -13 488 560 _sc
488 526 _m
488 442 _l
462 456 437 466 411 473 _c
385 480 360 484 334 484 _c
276 484 230 465 198 428 _c
166 391 150 339 150 273 _c
150 206 166 154 198 117 _c
230 80 276 62 334 62 _c
360 62 385 65 411 72 _c
437 79 462 90 488 104 _c
488 21 _l
462 9 436 0 410 -5 _c
383 -10 354 -13 324 -13 _c
242 -13 176 12 128 64 _c
79 115 55 185 55 273 _c
55 362 79 432 128 483 _c
177 534 244 560 330 560 _c
358 560 385 557 411 551 _c
437 545 463 537 488 526 _c
_cl}_e}_d
/d{{635 0 55 -13 544 760 _sc
454 464 _m
454 760 _l
544 760 _l
544 0 _l
454 0 _l
454 82 _l
435 49 411 25 382 10 _c
353 -5 319 -13 279 -13 _c
213 -13 159 13 117 65 _c
75 117 55 187 55 273 _c
55 359 75 428 117 481 _c
159 533 213 560 279 560 _c
319 560 353 552 382 536 _c
411 520 435 496 454 464 _c
148 273 _m
148 207 161 155 188 117 _c
215 79 253 61 301 61 _c
348 61 385 79 413 117 _c
440 155 454 207 454 273 _c
454 339 440 390 413 428 _c
385 466 348 485 301 485 _c
253 485 215 466 188 428 _c
161 390 148 339 148 273 _c
_cl}_e}_d
/e{{615 0 55 -13 562 560 _sc
562 296 _m
562 252 _l
149 252 _l
153 190 171 142 205 110 _c
238 78 284 62 344 62 _c
378 62 412 66 444 74 _c
476 82 509 95 541 113 _c
541 28 _l
509 14 476 3 442 -3 _c
408 -9 373 -13 339 -13 _c
251 -13 182 12 131 62 _c
80 112 55 181 55 268 _c
55 357 79 428 127 481 _c
175 533 241 560 323 560 _c
397 560 455 536 498 489 _c
540 441 562 377 562 296 _c
472 322 _m
471 371 457 410 431 440 _c
404 469 368 484 324 484 _c
274 484 234 469 204 441 _c
174 413 156 373 152 322 _c
472 322 _l
_cl}_e}_d
/f{352 0 23 0 371 760 _sc
371 760 _m
371 685 _l
285 685 _l
253 685 230 678 218 665 _c
205 652 199 629 199 595 _c
199 547 _l
347 547 _l
347 477 _l
199 477 _l
199 0 _l
109 0 _l
109 477 _l
23 477 _l
23 547 _l
109 547 _l
109 585 _l
109 645 123 690 151 718 _c
179 746 224 760 286 760 _c
371 760 _l
_cl}_d
/g{{635 0 55 -207 544 560 _sc
454 280 _m
454 344 440 395 414 431 _c
387 467 349 485 301 485 _c
253 485 215 467 188 431 _c
161 395 148 344 148 280 _c
148 215 161 165 188 129 _c
215 93 253 75 301 75 _c
349 75 387 93 414 129 _c
440 165 454 215 454 280 _c
544 68 _m
544 -24 523 -93 482 -139 _c
440 -184 377 -207 292 -207 _c
260 -207 231 -204 203 -200 _c
175 -195 147 -188 121 -178 _c
121 -91 _l
147 -105 173 -115 199 -122 _c
225 -129 251 -133 278 -133 _c
336 -133 380 -117 410 -87 _c
439 -56 454 -10 454 52 _c
454 96 _l
435 64 411 40 382 24 _c
353 8 319 0 279 0 _c
211 0 157 25 116 76 _c
75 127 55 195 55 280 _c
55 364 75 432 116 483 _c
157 534 211 560 279 560 _c
}_e{319 560 353 552 382 536 _c
411 520 435 496 454 464 _c
454 547 _l
544 547 _l
544 68 _l
_cl}_e}_d
/h{634 0 91 0 549 760 _sc
549 330 _m
549 0 _l
459 0 _l
459 327 _l
459 379 448 417 428 443 _c
408 469 378 482 338 482 _c
289 482 251 466 223 435 _c
195 404 181 362 181 309 _c
181 0 _l
91 0 _l
91 760 _l
181 760 _l
181 462 _l
202 494 227 519 257 535 _c
286 551 320 560 358 560 _c
420 560 468 540 500 501 _c
532 462 549 405 549 330 _c
_cl}_d
/i{278 0 94 0 184 760 _sc
94 547 _m
184 547 _l
184 0 _l
94 0 _l
94 547 _l
94 760 _m
184 760 _l
184 646 _l
94 646 _l
94 760 _l
_cl}_d
/l{278 0 94 0 184 760 _sc
94 760 _m
184 760 _l
184 0 _l
94 0 _l
94 760 _l
_cl}_d
/m{{974 0 91 0 889 560 _sc
520 442 _m
542 482 569 511 600 531 _c
631 550 668 560 711 560 _c
767 560 811 540 842 500 _c
873 460 889 403 889 330 _c
889 0 _l
799 0 _l
799 327 _l
799 379 789 418 771 444 _c
752 469 724 482 686 482 _c
639 482 602 466 575 435 _c
548 404 535 362 535 309 _c
535 0 _l
445 0 _l
445 327 _l
445 379 435 418 417 444 _c
398 469 369 482 331 482 _c
285 482 248 466 221 435 _c
194 404 181 362 181 309 _c
181 0 _l
91 0 _l
91 547 _l
181 547 _l
181 462 _l
201 495 226 520 255 536 _c
283 552 317 560 357 560 _c
397 560 430 550 458 530 _c
486 510 506 480 520 442 _c
}_e{_cl}_e}_d
/n{634 0 91 0 549 560 _sc
549 330 _m
549 0 _l
459 0 _l
459 327 _l
459 379 448 417 428 443 _c
408 469 378 482 338 482 _c
289 482 251 466 223 435 _c
195 404 181 362 181 309 _c
181 0 _l
91 0 _l
91 547 _l
181 547 _l
181 462 _l
202 494 227 519 257 535 _c
286 551 320 560 358 560 _c
420 560 468 540 500 501 _c
532 462 549 405 549 330 _c
_cl}_d
/o{612 0 55 -13 557 560 _sc
306 484 _m
258 484 220 465 192 427 _c
164 389 150 338 150 273 _c
150 207 163 156 191 118 _c
219 80 257 62 306 62 _c
354 62 392 80 420 118 _c
448 156 462 207 462 273 _c
462 337 448 389 420 427 _c
392 465 354 484 306 484 _c
306 560 _m
384 560 445 534 490 484 _c
534 433 557 363 557 273 _c
557 183 534 113 490 63 _c
445 12 384 -13 306 -13 _c
227 -13 165 12 121 63 _c
77 113 55 183 55 273 _c
55 363 77 433 121 484 _c
165 534 227 560 306 560 _c
_cl}_d
/p{{635 0 91 -207 580 560 _sc
181 82 _m
181 -207 _l
91 -207 _l
91 547 _l
181 547 _l
181 464 _l
199 496 223 520 252 536 _c
281 552 316 560 356 560 _c
422 560 476 533 518 481 _c
559 428 580 359 580 273 _c
580 187 559 117 518 65 _c
476 13 422 -13 356 -13 _c
316 -13 281 -5 252 10 _c
223 25 199 49 181 82 _c
487 273 _m
487 339 473 390 446 428 _c
418 466 381 485 334 485 _c
286 485 249 466 222 428 _c
194 390 181 339 181 273 _c
181 207 194 155 222 117 _c
249 79 286 61 334 61 _c
381 61 418 79 446 117 _c
473 155 487 207 487 273 _c
_cl}_e}_d
/r{411 0 91 0 411 560 _sc
411 463 _m
401 469 390 473 378 476 _c
366 478 353 480 339 480 _c
288 480 249 463 222 430 _c
194 397 181 350 181 288 _c
181 0 _l
91 0 _l
91 547 _l
181 547 _l
181 462 _l
199 495 224 520 254 536 _c
284 552 321 560 365 560 _c
371 560 378 559 386 559 _c
393 558 401 557 411 555 _c
411 463 _l
_cl}_d
/s{{521 0 54 -13 472 560 _sc
443 531 _m
443 446 _l
417 458 391 468 364 475 _c
336 481 308 485 279 485 _c
234 485 200 478 178 464 _c
156 450 145 430 145 403 _c
145 382 153 366 169 354 _c
185 342 217 330 265 320 _c
296 313 _l
360 299 405 279 432 255 _c
458 230 472 195 472 151 _c
472 100 452 60 412 31 _c
372 1 316 -13 246 -13 _c
216 -13 186 -10 154 -5 _c
122 0 89 8 54 20 _c
54 113 _l
87 95 120 82 152 74 _c
184 65 216 61 248 61 _c
290 61 323 68 346 82 _c
368 96 380 117 380 144 _c
380 168 371 187 355 200 _c
339 213 303 226 247 238 _c
216 245 _l
160 257 119 275 95 299 _c
70 323 58 356 58 399 _c
58 450 76 490 112 518 _c
148 546 200 560 268 560 _c
}_e{301 560 332 557 362 552 _c
391 547 418 540 443 531 _c
_cl}_e}_d
/t{392 0 27 0 368 702 _sc
183 702 _m
183 547 _l
368 547 _l
368 477 _l
183 477 _l
183 180 _l
183 135 189 106 201 94 _c
213 81 238 75 276 75 _c
368 75 _l
368 0 _l
276 0 _l
206 0 158 13 132 39 _c
106 65 93 112 93 180 _c
93 477 _l
27 477 _l
27 547 _l
93 547 _l
93 702 _l
183 702 _l
_cl}_d
/u{634 0 85 -13 543 547 _sc
85 216 _m
85 547 _l
175 547 _l
175 219 _l
175 167 185 129 205 103 _c
225 77 255 64 296 64 _c
344 64 383 79 411 110 _c
439 141 453 183 453 237 _c
453 547 _l
543 547 _l
543 0 _l
453 0 _l
453 84 _l
431 50 405 26 377 10 _c
348 -5 315 -13 277 -13 _c
214 -13 166 6 134 45 _c
101 83 85 140 85 216 _c
_cl}_d
/v{592 0 30 0 562 547 _sc
30 547 _m
125 547 _l
296 88 _l
467 547 _l
562 547 _l
357 0 _l
235 0 _l
30 547 _l
_cl}_d
end readonly def

/BuildGlyph
 {exch begin
 CharStrings exch
 2 copy known not{pop /.notdef}if
 true 3 1 roll get exec
 end}_d

/BuildChar {
 1 index /Encoding get exch get
 1 index /BuildGlyph get exec
}_d

FontName currentdict end definefont pop
end
%%EndProlog
mpldict begin
-115.2 97.2 translate
842.4 597.6 0 0 clipbox
gsave
0 0 m
842.4 0 l
842.4 597.6 l
0 597.6 l
cl
1.000 setgray
fill
grestore
gsave
105.3 59.76 m
758.16 59.76 l
758.16 537.84 l
105.3 537.84 l
cl
1.000 setgray
fill
grestore
1.000 setlinewidth
1 setlinejoin
2 setlinecap
[] 0 setdash
0.000 0.000 1.000 setrgbcolor
gsave
652.9 478.1 105.3 59.76 clipbox
105.3 348.339 m
106.932 345.732 l
108.564 311.409 l
110.196 282.834 l
111.829 273.081 l
113.461 273.081 l
115.093 262.091 l
116.725 239.638 l
118.357 232.87 l
119.989 221.984 l
121.621 221.984 l
123.254 215.794 l
124.886 203.414 l
126.518 203.414 l
128.15 198.565 l
129.782 198.565 l
131.414 197.7 l
133.047 195.301 l
134.679 183.022 l
136.311 175.706 l
139.575 175.706 l
141.207 160.682 l
144.472 160.668 l
146.104 158.914 l
154.264 158.914 l
155.897 157.139 l
159.161 157.139 l
160.793 155.821 l
162.425 150.851 l
164.057 150.851 l
165.69 149.998 l
167.322 149.998 l
168.954 149.339 l
173.85 149.339 l
175.482 143.371 l
178.747 143.371 l
180.379 139.728 l
182.011 139.728 l
183.643 139.601 l
185.275 139.064 l
190.172 139.064 l
191.804 138.483 l
193.436 137.695 l
195.068 137.199 l
206.493 137.199 l
208.125 137.014 l
209.758 136.104 l
213.022 135.827 l
214.654 135.713 l
221.183 135.615 l
222.815 133.866 l
240.768 133.762 l
242.401 133.188 l
248.929 133.188 l
250.561 132.884 l
253.826 132.719 l
278.308 132.479 l
297.894 132.372 l
301.158 132.29 l
346.858 132.103 l
756.528 132.066 l
756.528 132.066 l
stroke
grestore
0.000 0.500 0.000 setrgbcolor
gsave
652.9 478.1 105.3 59.76 clipbox
105.3 511.573 m
106.932 369.223 l
108.564 369.223 l
110.196 335.967 l
111.829 265.891 l
113.461 247.975 l
115.093 235.135 l
116.725 217.978 l
118.357 198.723 l
119.989 198.723 l
121.621 188.335 l
123.254 183.489 l
124.886 172.261 l
126.518 169.028 l
128.15 164.687 l
129.782 164.687 l
131.414 160.59 l
133.047 152.663 l
137.943 152.663 l
139.575 150.885 l
141.207 150.885 l
146.104 150.54 l
160.793 150.54 l
162.425 150.351 l
164.057 144.721 l
165.69 144.721 l
167.322 142.972 l
175.482 142.972 l
177.115 142.693 l
178.747 142.693 l
182.011 141.709 l
190.172 141.709 l
191.804 141.364 l
196.7 141.364 l
198.333 141.024 l
203.229 140.602 l
204.861 140.602 l
208.125 139.383 l
211.39 139.383 l
214.654 138.858 l
216.286 138.858 l
217.918 138.622 l
219.55 138.607 l
221.183 138.346 l
226.079 138.346 l
227.711 137.159 l
240.768 137.159 l
242.401 132.611 l
244.033 132.611 l
245.665 130.125 l
247.297 123.905 l
252.194 123.905 l
253.826 123.088 l
257.09 123.088 l
258.722 122.451 l
261.986 122.37 l
263.619 122.079 l
265.251 121.378 l
268.515 121.299 l
271.779 119.744 l
273.411 119.457 l
275.044 119.053 l
283.204 119.003 l
284.837 118.615 l
289.733 118.518 l
291.365 118.185 l
294.629 118.114 l
296.262 117.725 l
299.526 117.725 l
301.158 117.604 l
309.319 117.529 l
310.951 117.154 l
314.215 117.072 l
325.64 116.97 l
328.905 116.782 l
335.433 116.697 l
337.065 116.519 l
348.49 116.466 l
351.755 116.401 l
358.283 116.327 l
364.812 116.256 l
376.237 116.156 l
389.294 115.998 l
410.512 115.903 l
425.201 115.857 l
483.959 115.747 l
635.749 115.635 l
756.528 115.599 l
756.528 115.599 l
stroke
grestore
1.000 0.000 0.000 setrgbcolor
gsave
652.9 478.1 105.3 59.76 clipbox
105.3 430.567 m
106.932 430.567 l
108.564 402.535 l
110.196 347.402 l
111.829 347.402 l
113.461 306.868 l
115.093 292.236 l
116.725 257.739 l
118.357 244.431 l
119.989 209.643 l
121.621 206.188 l
123.254 206.188 l
124.886 168.931 l
128.15 168.931 l
129.782 166.251 l
137.943 166.251 l
139.575 165.683 l
141.207 164.765 l
144.472 164.765 l
146.104 157.794 l
149.368 157.794 l
151 156.218 l
160.793 156.217 l
162.425 151.728 l
165.69 151.728 l
167.322 150.73 l
173.85 150.73 l
175.482 150.504 l
182.011 150.504 l
183.643 149.912 l
186.907 149.803 l
188.54 148.88 l
201.597 148.88 l
203.229 148.751 l
204.861 148.077 l
206.493 144.787 l
208.125 137.015 l
209.758 137.015 l
211.39 135.379 l
213.022 132.39 l
217.918 132.39 l
219.55 130.531 l
221.183 130.531 l
222.815 129.062 l
224.447 128.892 l
226.079 128.892 l
227.711 128.571 l
229.343 127.443 l
230.976 126.477 l
232.608 126.133 l
234.24 123.497 l
237.504 123.497 l
239.136 122.188 l
240.768 122.188 l
242.401 121.225 l
244.033 120.459 l
245.665 120.348 l
247.297 119.469 l
252.194 119.469 l
253.826 119.306 l
255.458 118.459 l
257.09 118.459 l
258.722 118.236 l
260.354 118.236 l
261.986 117.902 l
270.147 117.896 l
271.779 117.154 l
273.411 116.957 l
275.044 116.559 l
279.94 116.559 l
281.572 116.324 l
286.469 116.25 l
289.733 116.122 l
291.365 115.457 l
297.894 115.419 l
299.526 115.3 l
302.79 115.3 l
304.422 115.168 l
315.847 115.063 l
320.744 114.809 l
330.537 114.721 l
332.169 114.529 l
348.49 114.265 l
356.651 114.187 l
366.444 114.079 l
369.708 114.02 l
382.765 113.95 l
386.03 113.863 l
407.248 113.773 l
423.569 113.66 l
482.327 113.55 l
516.602 113.503 l
756.528 113.411 l
756.528 113.411 l
stroke
grestore
0.000 0.750 0.750 setrgbcolor
gsave
652.9 478.1 105.3 59.76 clipbox
105.3 486.193 m
106.932 396.589 l
108.564 396.589 l
110.196 339.4 l
113.461 339.4 l
115.093 301.764 l
116.725 301.764 l
118.357 294.011 l
119.989 259.738 l
121.621 241.356 l
123.254 241.356 l
124.886 229.383 l
126.518 196.545 l
133.047 196.545 l
134.679 191.816 l
136.311 188.713 l
139.575 188.713 l
141.207 186.735 l
142.839 180.904 l
144.472 179.119 l
146.104 179.119 l
147.736 177.581 l
151 177.581 l
152.632 176.417 l
154.264 174.839 l
155.897 174.839 l
157.529 172.366 l
160.793 172.366 l
162.425 170.007 l
167.322 170.007 l
168.954 165.787 l
170.586 165.787 l
172.218 165.436 l
180.379 165.436 l
182.011 164.114 l
183.643 161.452 l
186.907 161.452 l
188.54 153.029 l
190.172 150.34 l
191.804 150.34 l
193.436 146.536 l
195.068 145.487 l
196.7 145.487 l
198.333 143.74 l
199.965 143.006 l
201.597 141.548 l
203.229 139.445 l
204.861 137.967 l
206.493 137.967 l
208.125 136.274 l
209.758 134.784 l
211.39 134.784 l
213.022 133.566 l
214.654 133.199 l
216.286 131.627 l
217.918 131.627 l
219.55 130.763 l
221.183 130.763 l
222.815 129.793 l
224.447 128.111 l
227.711 128.111 l
229.343 127.166 l
234.24 127.166 l
235.872 125.368 l
237.504 125.324 l
239.136 123.598 l
242.401 123.598 l
244.033 123.215 l
247.297 123.188 l
250.561 123.086 l
252.194 122.675 l
253.826 122.641 l
257.09 122.144 l
260.354 122.045 l
263.619 122.045 l
265.251 121.503 l
270.147 121.503 l
271.779 120.801 l
273.411 120.801 l
275.044 120.627 l
278.308 120.627 l
279.94 120.058 l
283.204 119.957 l
286.469 119.957 l
288.101 119.749 l
289.733 119.749 l
291.365 119.573 l
297.894 119.505 l
299.526 119.313 l
307.687 119.259 l
309.319 119.093 l
314.215 119.008 l
315.847 118.981 l
317.479 118.777 l
327.272 118.668 l
332.169 118.62 l
341.962 118.526 l
345.226 118.361 l
361.548 118.252 l
374.605 118.146 l
448.051 117.859 l
529.659 117.748 l
611.266 117.697 l
756.528 117.661 l
756.528 117.661 l
stroke
grestore
0.750 0.000 0.750 setrgbcolor
gsave
652.9 478.1 105.3 59.76 clipbox
105.3 440.865 m
106.932 440.865 l
108.564 368.12 l
110.196 364.931 l
111.829 364.931 l
113.461 320.936 l
115.093 320.936 l
116.725 279.721 l
118.357 279.721 l
119.989 262.072 l
123.254 262.072 l
124.886 257.366 l
126.518 257.366 l
128.15 237.286 l
129.782 237.286 l
131.414 234.892 l
133.047 234.892 l
134.679 228.327 l
136.311 226.625 l
137.943 226.625 l
139.575 223.86 l
141.207 223.798 l
142.839 213.118 l
144.472 212.893 l
146.104 212.191 l
147.736 212.191 l
149.368 204.125 l
152.632 204.125 l
154.264 203.414 l
155.897 200.54 l
157.529 200.54 l
159.161 196.505 l
164.057 196.505 l
165.69 194.389 l
167.322 183.311 l
168.954 183.311 l
170.586 179.526 l
172.218 173.43 l
175.482 164.78 l
177.115 163.222 l
178.747 159.811 l
180.379 156.754 l
183.643 156.754 l
185.275 153.045 l
188.54 152.947 l
190.172 147.108 l
191.804 146.016 l
196.7 146.016 l
198.333 145.473 l
199.965 145.473 l
201.597 145.128 l
204.861 145.128 l
206.493 144.913 l
211.39 144.913 l
213.022 143.063 l
214.654 143.063 l
216.286 141.252 l
217.918 141.252 l
219.55 139.988 l
221.183 139.988 l
222.815 138.038 l
224.447 138.038 l
227.711 136.825 l
232.608 136.728 l
234.24 133.189 l
237.504 133.189 l
239.136 132.345 l
240.768 131.788 l
242.401 131.788 l
244.033 131.235 l
247.297 131.183 l
248.929 130.549 l
253.826 130.549 l
257.09 129.635 l
260.354 129.635 l
261.986 129.183 l
265.251 129.183 l
266.883 128.736 l
270.147 128.493 l
271.779 128.184 l
275.044 128.184 l
283.204 127.491 l
288.101 127.446 l
297.894 127.381 l
301.158 127.319 l
304.422 127.267 l
306.054 126.682 l
320.744 126.612 l
327.272 126.325 l
341.962 126.235 l
356.651 126.058 l
382.765 125.95 l
412.144 125.797 l
500.28 125.686 l
756.528 125.616 l
756.528 125.616 l
stroke
grestore
0.750 0.750 0.000 setrgbcolor
gsave
652.9 478.1 105.3 59.76 clipbox
105.3 508.781 m
106.932 429.75 l
108.564 421.106 l
110.196 351.801 l
111.829 350.749 l
113.461 346.025 l
115.093 316.374 l
116.725 316.374 l
118.357 285.821 l
119.989 285.353 l
121.621 253.504 l
128.15 253.504 l
129.782 248.336 l
131.414 246.818 l
133.047 243.753 l
134.679 243.753 l
136.311 243.641 l
137.943 239.434 l
142.839 239.434 l
144.472 231.421 l
149.368 231.421 l
151 227.651 l
152.632 225.814 l
154.264 212.076 l
155.897 212.076 l
157.529 208.931 l
159.161 208.931 l
160.793 205.116 l
162.425 205.116 l
164.057 183.195 l
165.69 183.195 l
167.322 181.994 l
168.954 181.994 l
170.586 177.143 l
172.218 174.813 l
173.85 174.813 l
175.482 174.576 l
177.115 170.929 l
178.747 170.552 l
180.379 168.185 l
182.011 168.185 l
183.643 166.888 l
186.907 166.888 l
188.54 165.938 l
190.172 162.936 l
191.804 162.038 l
193.436 160.76 l
195.068 160.76 l
196.7 160.551 l
201.597 160.551 l
203.229 159.898 l
204.861 157.982 l
209.758 157.982 l
211.39 155.545 l
213.022 155.296 l
214.654 151.512 l
216.286 150.901 l
219.55 150.814 l
222.815 150.814 l
224.447 149.405 l
226.079 148.785 l
227.711 148.483 l
229.343 146.61 l
230.976 145.146 l
235.872 145.146 l
237.504 144.613 l
239.136 143.475 l
245.665 143.371 l
248.929 142.975 l
252.194 142.975 l
253.826 142.762 l
255.458 142.17 l
258.722 142.108 l
260.354 141.435 l
261.986 141.435 l
263.619 141.187 l
265.251 140.391 l
270.147 140.342 l
271.779 140.161 l
275.044 140.161 l
276.676 139.685 l
278.308 139.452 l
283.204 139.353 l
284.837 139.191 l
286.469 139.191 l
288.101 139.015 l
289.733 139.015 l
291.365 138.769 l
297.894 138.566 l
302.79 138.543 l
304.422 138.424 l
307.687 138.399 l
309.319 138.137 l
312.583 138.137 l
314.215 137.879 l
324.008 137.828 l
325.64 137.628 l
328.905 137.556 l
335.433 137.449 l
372.973 137.128 l
376.237 137.059 l
387.662 136.951 l
518.234 136.166 l
541.084 136.058 l
756.528 135.416 l
756.528 135.416 l
stroke
grestore
0.000 setgray
gsave
652.9 478.1 105.3 59.76 clipbox
105.3 427.163 m
106.932 422.883 l
108.564 422.883 l
110.196 352.321 l
111.829 345.168 l
113.461 329.615 l
115.093 329.615 l
116.725 315.572 l
118.357 315.572 l
119.989 271.65 l
121.621 271.65 l
123.254 263.479 l
124.886 263.479 l
126.518 259.888 l
128.15 258.34 l
129.782 252.347 l
131.414 247.845 l
133.047 247.845 l
134.679 239.487 l
137.943 239.487 l
139.575 238.109 l
144.472 238.109 l
146.104 233.152 l
147.736 233.152 l
149.368 231.836 l
151 225.448 l
154.264 225.448 l
155.897 223.197 l
157.529 214.075 l
159.161 212.17 l
164.057 212.17 l
165.69 199.157 l
167.322 199.157 l
168.954 198.449 l
170.586 190.621 l
172.218 189.89 l
173.85 189.695 l
175.482 185.359 l
177.115 185.359 l
178.747 183.479 l
180.379 183.479 l
182.011 182.525 l
183.643 179.909 l
186.907 179.909 l
188.54 178.031 l
193.436 178.031 l
195.068 176.795 l
196.7 174.572 l
198.333 174.572 l
199.965 174.223 l
201.597 169.698 l
209.758 169.616 l
211.39 169.456 l
213.022 168.243 l
214.654 168.243 l
216.286 166.353 l
217.918 165.248 l
219.55 163.93 l
222.815 163.93 l
224.447 163.145 l
226.079 163.145 l
227.711 162.775 l
229.343 162.775 l
232.608 161.158 l
234.24 160.192 l
235.872 160.001 l
242.401 160.001 l
244.033 159.153 l
245.665 158.66 l
248.929 158.557 l
252.194 158.557 l
253.826 157.748 l
257.09 157.746 l
258.722 157.063 l
260.354 157.048 l
261.986 156.846 l
263.619 156.333 l
268.515 156.27 l
270.147 155.86 l
273.411 155.762 l
275.044 155.496 l
279.94 155.423 l
281.572 155.405 l
283.204 155.177 l
284.837 154.711 l
291.365 154.711 l
292.997 154.593 l
294.629 154.593 l
296.262 154.444 l
297.894 154.128 l
302.79 154.096 l
304.422 153.869 l
306.054 153.852 l
307.687 153.658 l
320.744 153.574 l
322.376 153.43 l
332.169 153.428 l
333.801 153.309 l
345.226 153.204 l
348.49 153.099 l
364.812 152.991 l
381.133 152.815 l
403.983 152.722 l
417.041 152.657 l
462.741 152.438 l
495.384 152.326 l
573.727 152.1 l
746.735 151.789 l
756.528 151.776 l
756.528 151.776 l
stroke
grestore
0.000 0.000 1.000 setrgbcolor
gsave
652.9 478.1 105.3 59.76 clipbox
105.3 421.795 m
106.932 416.988 l
108.564 416.988 l
110.196 391.022 l
111.829 348.986 l
113.461 348.986 l
115.093 319.582 l
119.989 319.582 l
121.621 282.627 l
124.886 282.627 l
126.518 280.017 l
128.15 280.017 l
131.414 264.389 l
133.047 252.911 l
136.311 252.911 l
137.943 243.216 l
139.575 239.597 l
141.207 239.42 l
142.839 239.42 l
144.472 238.994 l
147.736 238.994 l
151 232.193 l
152.632 225.118 l
157.529 225.118 l
159.161 224.184 l
160.793 216.092 l
165.69 216.092 l
167.322 211.131 l
170.586 211.131 l
172.218 208.598 l
173.85 206.466 l
175.482 205.892 l
177.115 201.559 l
178.747 201.559 l
180.379 199.218 l
182.011 196.385 l
185.275 196.385 l
186.907 192.144 l
190.172 192.144 l
191.804 191.969 l
193.436 189.403 l
195.068 189.403 l
196.7 189.16 l
198.333 187.597 l
199.965 185.501 l
201.597 182.318 l
206.493 182.301 l
208.125 181.27 l
209.758 180.615 l
222.815 180.615 l
224.447 179.472 l
226.079 179.051 l
227.711 179.051 l
229.343 177.496 l
230.976 177.496 l
232.608 177.384 l
234.24 177.384 l
235.872 177.117 l
237.504 176.419 l
240.768 176.243 l
242.401 176.004 l
247.297 175.93 l
248.929 175.805 l
257.09 175.805 l
260.354 175.213 l
265.251 175.213 l
266.883 174.836 l
270.147 174.763 l
278.308 173.937 l
279.94 173.937 l
283.204 173.808 l
288.101 173.753 l
291.365 173.753 l
292.997 173.6 l
296.262 173.473 l
297.894 173.323 l
307.687 173.231 l
317.479 172.824 l
319.112 172.669 l
322.376 172.573 l
327.272 172.364 l
338.697 172.261 l
377.869 171.355 l
379.501 171.355 l
381.133 171.193 l
386.03 171.109 l
392.558 171.055 l
444.787 170.29 l
480.695 169.835 l
488.855 169.736 l
506.809 169.602 l
519.866 169.494 l
541.084 169.333 l
557.406 169.2 l
590.049 169.013 l
606.37 168.914 l
634.117 168.813 l
661.863 168.706 l
756.528 168.408 l
756.528 168.408 l
stroke
grestore
0.000 0.500 0.000 setrgbcolor
gsave
652.9 478.1 105.3 59.76 clipbox
105.3 441.641 m
106.932 432.215 l
108.564 397.147 l
110.196 389.837 l
111.829 389.837 l
113.461 357.317 l
115.093 357.317 l
116.725 318.973 l
118.357 318.973 l
119.989 301.028 l
121.621 301.028 l
123.254 298.791 l
124.886 297.101 l
126.518 297.101 l
128.15 275.396 l
129.782 266.012 l
131.414 261.287 l
133.047 250.887 l
134.679 239.454 l
136.311 236.978 l
144.472 236.978 l
146.104 236.299 l
147.736 236.299 l
149.368 233.508 l
154.264 233.508 l
155.897 230.58 l
157.529 229.882 l
159.161 229.882 l
160.793 219.465 l
162.425 217.808 l
167.322 217.808 l
168.954 216.948 l
170.586 213.6 l
172.218 213.6 l
173.85 208.593 l
178.747 208.593 l
180.379 205.444 l
182.011 204.099 l
186.907 204.099 l
188.54 203.289 l
190.172 203.289 l
191.804 200.712 l
193.436 200.512 l
199.965 200.509 l
201.597 199.253 l
204.861 199.253 l
208.125 198.46 l
209.758 197.101 l
211.39 196.127 l
213.022 196.127 l
214.654 195.955 l
216.286 195.955 l
217.918 195.667 l
221.183 195.635 l
222.815 194.022 l
237.504 194.022 l
239.136 193.885 l
242.401 193.885 l
244.033 193.622 l
248.929 193.293 l
252.194 192.933 l
253.826 192.787 l
255.458 192.787 l
258.722 192.617 l
261.986 192.546 l
266.883 192.444 l
273.411 191.779 l
278.308 191.677 l
288.101 191.213 l
292.997 191.213 l
294.629 191.039 l
301.158 190.96 l
304.422 190.724 l
309.319 190.532 l
317.479 190.431 l
319.112 190.232 l
324.008 190.151 l
327.272 189.987 l
328.905 189.834 l
337.065 189.776 l
346.858 189.482 l
348.49 189.482 l
350.123 189.35 l
353.387 189.35 l
355.019 189.218 l
359.915 189.188 l
361.548 189.028 l
368.076 188.947 l
374.605 188.868 l
377.869 188.838 l
381.133 188.696 l
389.294 188.6 l
403.983 188.357 l
428.466 187.976 l
431.73 187.881 l
482.327 187.232 l
497.016 187.111 l
506.809 187.045 l
528.027 186.882 l
573.727 186.568 l
612.899 186.399 l
622.692 186.336 l
653.702 186.229 l
756.528 185.897 l
756.528 185.897 l
stroke
grestore
1.000 0.000 0.000 setrgbcolor
gsave
652.9 478.1 105.3 59.76 clipbox
105.3 456.936 m
106.932 456.936 l
108.564 451.824 l
111.829 395.243 l
113.461 386.056 l
115.093 385.65 l
116.725 363.636 l
118.357 333.774 l
121.621 319.111 l
123.254 314.659 l
124.886 287.775 l
128.15 287.775 l
129.782 281.835 l
131.414 250.701 l
134.679 250.701 l
136.311 250.503 l
137.943 250.454 l
141.207 244.651 l
147.736 244.651 l
149.368 244.333 l
151 237.226 l
154.264 237.226 l
155.897 236.248 l
157.529 234.958 l
159.161 234.958 l
160.793 234.798 l
162.425 230.614 l
164.057 230.614 l
165.69 229.187 l
167.322 228.124 l
168.954 228.124 l
170.586 226.259 l
177.115 226.168 l
178.747 224.12 l
180.379 224.12 l
182.011 221.745 l
183.643 221.745 l
185.275 220.131 l
186.907 219.313 l
188.54 219.313 l
190.172 218.395 l
191.804 218.395 l
195.068 217.161 l
196.7 216.972 l
198.333 216.613 l
199.965 215.856 l
203.229 215.856 l
204.861 215.625 l
206.493 215.625 l
208.125 215.421 l
211.39 215.421 l
213.022 215.224 l
214.654 215.224 l
216.286 214.225 l
221.183 214.225 l
222.815 213.954 l
224.447 213.325 l
227.711 212.923 l
229.343 212.354 l
230.976 211.994 l
237.504 211.994 l
239.136 211.382 l
240.768 211.382 l
242.401 211.201 l
248.929 211.191 l
250.561 210.646 l
252.194 210.379 l
253.826 210.379 l
257.09 210.044 l
258.722 210.044 l
261.986 209.654 l
265.251 209.653 l
266.883 209.37 l
268.515 209.37 l
270.147 209.141 l
271.779 209.141 l
273.411 208.98 l
275.044 208.626 l
276.676 208.626 l
278.308 208.342 l
283.204 208.277 l
284.837 207.958 l
288.101 207.895 l
291.365 207.704 l
292.997 207.704 l
296.262 207.205 l
297.894 207.205 l
299.526 206.771 l
301.158 206.771 l
302.79 206.527 l
307.687 206.475 l
309.319 206.14 l
310.951 206 l
314.215 205.53 l
315.847 205.358 l
319.112 205.305 l
320.744 205.003 l
322.376 204.973 l
325.64 204.702 l
327.272 204.64 l
332.169 204.133 l
335.433 203.939 l
338.697 203.602 l
340.33 203.587 l
341.962 203.24 l
345.226 202.755 l
348.49 202.687 l
350.123 202.237 l
353.387 202.135 l
355.019 201.891 l
358.283 201.835 l
363.18 201.439 l
369.708 201.253 l
371.34 201.197 l
372.973 200.917 l
374.605 200.774 l
376.237 200.764 l
377.869 200.535 l
379.501 200.535 l
381.133 200.351 l
384.398 200.284 l
386.03 200.065 l
387.662 200.065 l
397.455 199.5 l
400.719 199.319 l
407.248 198.726 l
408.88 198.726 l
413.776 198.398 l
417.041 198.327 l
425.201 198.041 l
428.466 197.898 l
439.891 197.328 l
444.787 197.272 l
448.051 197.165 l
470.902 196.514 l
537.82 195.631 l
652.07 195.068 l
756.528 194.877 l
756.528 194.877 l
stroke
grestore
0.000 0.750 0.750 setrgbcolor
gsave
652.9 478.1 105.3 59.76 clipbox
105.3 498.985 m
106.932 486.403 l
108.564 386.469 l
110.196 386.469 l
111.829 372.31 l
113.461 372.31 l
115.093 344.108 l
116.725 334.818 l
118.357 312.39 l
119.989 311.125 l
121.621 299.551 l
123.254 297.545 l
124.886 281.862 l
126.518 277.478 l
128.15 268.142 l
131.414 268.142 l
133.047 259.181 l
136.311 259.181 l
137.943 250.31 l
141.207 250.31 l
142.839 248.733 l
144.472 248.733 l
146.104 245.631 l
157.529 245.631 l
159.161 244.427 l
160.793 240.591 l
164.057 240.591 l
165.69 236.706 l
167.322 234.861 l
168.954 233.381 l
170.586 232.134 l
172.218 232 l
173.85 231.226 l
177.115 231.226 l
178.747 230.549 l
180.379 230.549 l
182.011 228.306 l
193.436 228.235 l
195.068 227.826 l
196.7 227.125 l
198.333 227.125 l
201.597 226.889 l
206.493 226.889 l
213.022 225.505 l
214.654 225.505 l
216.286 224.98 l
240.768 224.892 l
242.401 224.671 l
252.194 224.615 l
255.458 224.429 l
257.09 224.408 l
258.722 224.243 l
268.515 224.137 l
270.147 223.972 l
294.629 223.895 l
299.526 223.847 l
355.019 223.738 l
386.03 223.707 l
756.528 223.606 l
756.528 223.606 l
stroke
grestore
0.500 setlinewidth
0 setlinecap
0.000 setgray
gsave
/o {
gsave
newpath
translate
0 0 m
0 4 l
gsave
0.000 setgray
fill
grestore
stroke
grestore
} bind def
105.3 59.76 o
grestore
gsave
/o {
gsave
newpath
translate
0 0 m
0 -4 l
gsave
0.000 setgray
fill
grestore
stroke
grestore
} bind def
105.3 537.84 o
grestore
/BitstreamVeraSans-Roman findfont
12.000 scalefont
setfont
gsave
102.276562 46.681875 translate
0.000000 rotate
0.000000 0.171875 m /zero glyphshow
grestore
gsave
/o {
gsave
newpath
translate
0 0 m
0 4 l
gsave
0.000 setgray
fill
grestore
stroke
grestore
} bind def
186.907 59.76 o
grestore
gsave
/o {
gsave
newpath
translate
0 0 m
0 -4 l
gsave
0.000 setgray
fill
grestore
stroke
grestore
} bind def
186.907 537.84 o
grestore
gsave
180.126250 46.681875 translate
0.000000 rotate
0.000000 0.171875 m /five glyphshow
7.634766 0.171875 m /zero glyphshow
grestore
gsave
/o {
gsave
newpath
translate
0 0 m
0 4 l
gsave
0.000 setgray
fill
grestore
stroke
grestore
} bind def
268.515 59.76 o
grestore
gsave
/o {
gsave
newpath
translate
0 0 m
0 -4 l
gsave
0.000 setgray
fill
grestore
stroke
grestore
} bind def
268.515 537.84 o
grestore
gsave
258.108750 46.681875 translate
0.000000 rotate
0.000000 0.171875 m /one glyphshow
7.634766 0.171875 m /zero glyphshow
15.269531 0.171875 m /zero glyphshow
grestore
gsave
/o {
gsave
newpath
translate
0 0 m
0 4 l
gsave
0.000 setgray
fill
grestore
stroke
grestore
} bind def
350.123 59.76 o
grestore
gsave
/o {
gsave
newpath
translate
0 0 m
0 -4 l
gsave
0.000 setgray
fill
grestore
stroke
grestore
} bind def
350.123 537.84 o
grestore
gsave
339.716250 46.681875 translate
0.000000 rotate
0.000000 0.171875 m /one glyphshow
7.634766 0.171875 m /five glyphshow
15.269531 0.171875 m /zero glyphshow
grestore
gsave
/o {
gsave
newpath
translate
0 0 m
0 4 l
gsave
0.000 setgray
fill
grestore
stroke
grestore
} bind def
431.73 59.76 o
grestore
gsave
/o {
gsave
newpath
translate
0 0 m
0 -4 l
gsave
0.000 setgray
fill
grestore
stroke
grestore
} bind def
431.73 537.84 o
grestore
gsave
421.105000 46.681875 translate
0.000000 rotate
0.000000 0.171875 m /two glyphshow
7.634766 0.171875 m /zero glyphshow
15.269531 0.171875 m /zero glyphshow
grestore
gsave
/o {
gsave
newpath
translate
0 0 m
0 4 l
gsave
0.000 setgray
fill
grestore
stroke
grestore
} bind def
513.337 59.76 o
grestore
gsave
/o {
gsave
newpath
translate
0 0 m
0 -4 l
gsave
0.000 setgray
fill
grestore
stroke
grestore
} bind def
513.337 537.84 o
grestore
gsave
502.712500 46.681875 translate
0.000000 rotate
0.000000 0.171875 m /two glyphshow
7.634766 0.171875 m /five glyphshow
15.269531 0.171875 m /zero glyphshow
grestore
gsave
/o {
gsave
newpath
translate
0 0 m
0 4 l
gsave
0.000 setgray
fill
grestore
stroke
grestore
} bind def
594.945 59.76 o
grestore
gsave
/o {
gsave
newpath
translate
0 0 m
0 -4 l
gsave
0.000 setgray
fill
grestore
stroke
grestore
} bind def
594.945 537.84 o
grestore
gsave
584.343438 46.681875 translate
0.000000 rotate
0.000000 0.171875 m /three glyphshow
7.634766 0.171875 m /zero glyphshow
15.269531 0.171875 m /zero glyphshow
grestore
gsave
/o {
gsave
newpath
translate
0 0 m
0 4 l
gsave
0.000 setgray
fill
grestore
stroke
grestore
} bind def
676.553 59.76 o
grestore
gsave
/o {
gsave
newpath
translate
0 0 m
0 -4 l
gsave
0.000 setgray
fill
grestore
stroke
grestore
} bind def
676.553 537.84 o
grestore
gsave
665.950938 46.681875 translate
0.000000 rotate
0.000000 0.171875 m /three glyphshow
7.634766 0.171875 m /five glyphshow
15.269531 0.171875 m /zero glyphshow
grestore
gsave
/o {
gsave
newpath
translate
0 0 m
0 4 l
gsave
0.000 setgray
fill
grestore
stroke
grestore
} bind def
758.16 59.76 o
grestore
gsave
/o {
gsave
newpath
translate
0 0 m
0 -4 l
gsave
0.000 setgray
fill
grestore
stroke
grestore
} bind def
758.16 537.84 o
grestore
gsave
747.394375 46.681875 translate
0.000000 rotate
0.000000 0.171875 m /four glyphshow
7.634766 0.171875 m /zero glyphshow
15.269531 0.171875 m /zero glyphshow
grestore
gsave
399.089375 32.385000 translate
0.000000 rotate
0.000000 0.171875 m /G glyphshow
9.298828 0.171875 m /e glyphshow
16.681641 0.171875 m /n glyphshow
24.287109 0.171875 m /e glyphshow
31.669922 0.171875 m /r glyphshow
36.603516 0.171875 m /a glyphshow
43.957031 0.171875 m /t glyphshow
48.662109 0.171875 m /i glyphshow
51.996094 0.171875 m /o glyphshow
59.337891 0.171875 m /n glyphshow
grestore
gsave
/o {
gsave
newpath
translate
0 0 m
4 0 l
gsave
0.000 setgray
fill
grestore
stroke
grestore
} bind def
105.3 59.76 o
grestore
gsave
/o {
gsave
newpath
translate
0 0 m
-4 0 l
gsave
0.000 setgray
fill
grestore
stroke
grestore
} bind def
758.16 59.76 o
grestore
gsave
83.831250 55.220937 translate
0.000000 rotate
0.000000 0.171875 m /zero glyphshow
7.634766 0.171875 m /period glyphshow
11.449219 0.171875 m /eight glyphshow
grestore
gsave
/o {
gsave
newpath
translate
0 0 m
4 0 l
gsave
0.000 setgray
fill
grestore
stroke
grestore
} bind def
105.3 139.44 o
grestore
gsave
/o {
gsave
newpath
translate
0 0 m
-4 0 l
gsave
0.000 setgray
fill
grestore
stroke
grestore
} bind def
758.16 139.44 o
grestore
gsave
83.846875 134.900937 translate
0.000000 rotate
0.000000 0.171875 m /zero glyphshow
7.634766 0.171875 m /period glyphshow
11.449219 0.171875 m /nine glyphshow
grestore
gsave
/o {
gsave
newpath
translate
0 0 m
4 0 l
gsave
0.000 setgray
fill
grestore
stroke
grestore
} bind def
105.3 219.12 o
grestore
gsave
/o {
gsave
newpath
translate
0 0 m
-4 0 l
gsave
0.000 setgray
fill
grestore
stroke
grestore
} bind def
758.16 219.12 o
grestore
gsave
84.315625 214.580937 translate
0.000000 rotate
0.000000 0.171875 m /one glyphshow
7.634766 0.171875 m /period glyphshow
11.449219 0.171875 m /zero glyphshow
grestore
gsave
/o {
gsave
newpath
translate
0 0 m
4 0 l
gsave
0.000 setgray
fill
grestore
stroke
grestore
} bind def
105.3 298.8 o
grestore
gsave
/o {
gsave
newpath
translate
0 0 m
-4 0 l
gsave
0.000 setgray
fill
grestore
stroke
grestore
} bind def
758.16 298.8 o
grestore
gsave
84.628125 294.425000 translate
0.000000 rotate
0.000000 0.000000 m /one glyphshow
7.634766 0.000000 m /period glyphshow
11.449219 0.000000 m /one glyphshow
grestore
gsave
/o {
gsave
newpath
translate
0 0 m
4 0 l
gsave
0.000 setgray
fill
grestore
stroke
grestore
} bind def
105.3 378.48 o
grestore
gsave
/o {
gsave
newpath
translate
0 0 m
-4 0 l
gsave
0.000 setgray
fill
grestore
stroke
grestore
} bind def
758.16 378.48 o
grestore
gsave
84.721875 374.026875 translate
0.000000 rotate
0.000000 0.000000 m /one glyphshow
7.634766 0.000000 m /period glyphshow
11.449219 0.000000 m /two glyphshow
grestore
gsave
/o {
gsave
newpath
translate
0 0 m
4 0 l
gsave
0.000 setgray
fill
grestore
stroke
grestore
} bind def
105.3 458.16 o
grestore
gsave
/o {
gsave
newpath
translate
0 0 m
-4 0 l
gsave
0.000 setgray
fill
grestore
stroke
grestore
} bind def
758.16 458.16 o
grestore
gsave
84.487500 453.620937 translate
0.000000 rotate
0.000000 0.171875 m /one glyphshow
7.634766 0.171875 m /period glyphshow
11.449219 0.171875 m /three glyphshow
grestore
gsave
/o {
gsave
newpath
translate
0 0 m
4 0 l
gsave
0.000 setgray
fill
grestore
stroke
grestore
} bind def
105.3 537.84 o
grestore
gsave
/o {
gsave
newpath
translate
0 0 m
-4 0 l
gsave
0.000 setgray
fill
grestore
stroke
grestore
} bind def
758.16 537.84 o
grestore
gsave
84.190625 533.465000 translate
0.000000 rotate
0.000000 0.000000 m /one glyphshow
7.634766 0.000000 m /period glyphshow
11.449219 0.000000 m /four glyphshow
grestore
gsave
78.831250 257.229688 translate
90.000000 rotate
0.000000 2.500000 m /E glyphshow
7.582031 2.500000 m /n glyphshow
15.187500 2.500000 m /t glyphshow
19.892578 2.500000 m /a glyphshow
27.246094 2.500000 m /n glyphshow
34.851562 2.500000 m /g glyphshow
42.468750 2.500000 m /l glyphshow
45.802734 2.500000 m /e glyphshow
53.185547 2.500000 m /m glyphshow
64.875000 2.500000 m /e glyphshow
72.257812 2.500000 m /n glyphshow
79.863281 2.500000 m /t glyphshow
grestore
1.000 setlinewidth
2 setlinecap
gsave
105.3 537.84 m
758.16 537.84 l
stroke
grestore
gsave
758.16 59.76 m
758.16 537.84 l
stroke
grestore
gsave
105.3 59.76 m
758.16 59.76 l
stroke
grestore
gsave
105.3 59.76 m
105.3 537.84 l
stroke
grestore
/BitstreamVeraSans-Roman findfont
14.400 scalefont
setfont
gsave
273.480000 540.996250 translate
0.000000 rotate
0.000000 1.843750 m /E glyphshow
9.082642 1.843750 m /v glyphshow
17.589722 1.843750 m /o glyphshow
26.384583 1.843750 m /l glyphshow
30.378418 1.843750 m /u glyphshow
39.489136 1.843750 m /t glyphshow
45.125427 1.843750 m /i glyphshow
49.119263 1.843750 m /o glyphshow
57.914124 1.843750 m /n glyphshow
67.024841 1.843750 m /space glyphshow
71.594238 1.843750 m /o glyphshow
80.389099 1.843750 m /f glyphshow
85.449829 1.843750 m /space glyphshow
90.019226 1.843750 m /three glyphshow
99.165039 1.843750 m /d glyphshow
108.289795 1.843750 m /one glyphshow
117.435608 1.843750 m /space glyphshow
122.005005 1.843750 m /parenleft glyphshow
127.613220 1.843750 m /m glyphshow
141.616211 1.843750 m /e glyphshow
150.460205 1.843750 m /a glyphshow
159.269104 1.843750 m /s glyphshow
166.758423 1.843750 m /u glyphshow
175.869141 1.843750 m /r glyphshow
181.404175 1.843750 m /e glyphshow
190.248169 1.843750 m /colon glyphshow
195.091309 1.843750 m /space glyphshow
199.660706 1.843750 m /H glyphshow
210.470032 1.843750 m /i glyphshow
214.463867 1.843750 m /l glyphshow
218.457703 1.843750 m /b glyphshow
227.582458 1.843750 m /e glyphshow
236.426453 1.843750 m /r glyphshow
242.336487 1.843750 m /t glyphshow
247.972778 1.843750 m /hyphen glyphshow
253.159851 1.843750 m /S glyphshow
262.284607 1.843750 m /c glyphshow
270.188049 1.843750 m /h glyphshow
279.298767 1.843750 m /m glyphshow
293.301758 1.843750 m /i glyphshow
297.295593 1.843750 m /d glyphshow
306.420349 1.843750 m /t glyphshow
312.056641 1.843750 m /parenright glyphshow
grestore
gsave
601.183 298.104 m
750.96 298.104 l
750.96 530.64 l
601.183 530.64 l
601.183 298.104 l
cl
gsave
1.000 setgray
fill
grestore
stroke
grestore
0.000 0.000 1.000 setrgbcolor
gsave
611.263 519.279 m
631.423 519.279 l
stroke
grestore
0.000 setgray
gsave
647.262500 511.333125 translate
0.000000 rotate
0.000000 2.906250 m /p glyphshow
9.124756 2.906250 m /space glyphshow
13.694153 2.906250 m /equal glyphshow
25.738831 2.906250 m /space glyphshow
30.308228 2.906250 m /zero glyphshow
39.454041 2.906250 m /period glyphshow
44.023438 2.906250 m /zero glyphshow
53.169250 2.906250 m /zero glyphshow
62.315063 2.906250 m /zero glyphshow
71.460876 2.906250 m /zero glyphshow
80.606689 2.906250 m /zero glyphshow
89.752502 2.906250 m /zero glyphshow
grestore
0.000 0.500 0.000 setrgbcolor
gsave
611.263 498.533 m
631.423 498.533 l
stroke
grestore
0.000 setgray
gsave
647.262500 490.586250 translate
0.000000 rotate
0.000000 2.906250 m /p glyphshow
9.124756 2.906250 m /space glyphshow
13.694153 2.906250 m /equal glyphshow
25.738831 2.906250 m /space glyphshow
30.308228 2.906250 m /zero glyphshow
39.454041 2.906250 m /period glyphshow
44.023438 2.906250 m /one glyphshow
53.169250 2.906250 m /zero glyphshow
62.315063 2.906250 m /zero glyphshow
71.460876 2.906250 m /zero glyphshow
80.606689 2.906250 m /zero glyphshow
89.752502 2.906250 m /zero glyphshow
grestore
1.000 0.000 0.000 setrgbcolor
gsave
611.263 477.786 m
631.423 477.786 l
stroke
grestore
0.000 setgray
gsave
647.262500 469.839375 translate
0.000000 rotate
0.000000 2.906250 m /p glyphshow
9.124756 2.906250 m /space glyphshow
13.694153 2.906250 m /equal glyphshow
25.738831 2.906250 m /space glyphshow
30.308228 2.906250 m /zero glyphshow
39.454041 2.906250 m /period glyphshow
44.023438 2.906250 m /two glyphshow
53.169250 2.906250 m /zero glyphshow
62.315063 2.906250 m /zero glyphshow
71.460876 2.906250 m /zero glyphshow
80.606689 2.906250 m /zero glyphshow
89.752502 2.906250 m /zero glyphshow
grestore
0.000 0.750 0.750 setrgbcolor
gsave
611.263 457.039 m
631.423 457.039 l
stroke
grestore
0.000 setgray
gsave
647.262500 449.092500 translate
0.000000 rotate
0.000000 2.906250 m /p glyphshow
9.124756 2.906250 m /space glyphshow
13.694153 2.906250 m /equal glyphshow
25.738831 2.906250 m /space glyphshow
30.308228 2.906250 m /zero glyphshow
39.454041 2.906250 m /period glyphshow
44.023438 2.906250 m /three glyphshow
53.169250 2.906250 m /zero glyphshow
62.315063 2.906250 m /zero glyphshow
71.460876 2.906250 m /zero glyphshow
80.606689 2.906250 m /zero glyphshow
89.752502 2.906250 m /zero glyphshow
grestore
0.750 0.000 0.750 setrgbcolor
gsave
611.263 436.292 m
631.423 436.292 l
stroke
grestore
0.000 setgray
gsave
647.262500 428.345625 translate
0.000000 rotate
0.000000 2.906250 m /p glyphshow
9.124756 2.906250 m /space glyphshow
13.694153 2.906250 m /equal glyphshow
25.738831 2.906250 m /space glyphshow
30.308228 2.906250 m /zero glyphshow
39.454041 2.906250 m /period glyphshow
44.023438 2.906250 m /four glyphshow
53.169250 2.906250 m /zero glyphshow
62.315063 2.906250 m /zero glyphshow
71.460876 2.906250 m /zero glyphshow
80.606689 2.906250 m /zero glyphshow
89.752502 2.906250 m /zero glyphshow
grestore
0.750 0.750 0.000 setrgbcolor
gsave
611.263 415.545 m
631.423 415.545 l
stroke
grestore
0.000 setgray
gsave
647.262500 407.598750 translate
0.000000 rotate
0.000000 2.906250 m /p glyphshow
9.124756 2.906250 m /space glyphshow
13.694153 2.906250 m /equal glyphshow
25.738831 2.906250 m /space glyphshow
30.308228 2.906250 m /zero glyphshow
39.454041 2.906250 m /period glyphshow
44.023438 2.906250 m /five glyphshow
53.169250 2.906250 m /zero glyphshow
62.315063 2.906250 m /zero glyphshow
71.460876 2.906250 m /zero glyphshow
80.606689 2.906250 m /zero glyphshow
89.752502 2.906250 m /zero glyphshow
grestore
gsave
611.263 394.798 m
631.423 394.798 l
stroke
grestore
gsave
647.262500 386.851875 translate
0.000000 rotate
0.000000 2.906250 m /p glyphshow
9.124756 2.906250 m /space glyphshow
13.694153 2.906250 m /equal glyphshow
25.738831 2.906250 m /space glyphshow
30.308228 2.906250 m /zero glyphshow
39.454041 2.906250 m /period glyphshow
44.023438 2.906250 m /six glyphshow
53.169250 2.906250 m /zero glyphshow
62.315063 2.906250 m /zero glyphshow
71.460876 2.906250 m /zero glyphshow
80.606689 2.906250 m /zero glyphshow
89.752502 2.906250 m /zero glyphshow
grestore
0.000 0.000 1.000 setrgbcolor
gsave
611.263 374.051 m
631.423 374.051 l
stroke
grestore
0.000 setgray
gsave
647.262500 366.105000 translate
0.000000 rotate
0.000000 2.906250 m /p glyphshow
9.124756 2.906250 m /space glyphshow
13.694153 2.906250 m /equal glyphshow
25.738831 2.906250 m /space glyphshow
30.308228 2.906250 m /zero glyphshow
39.454041 2.906250 m /period glyphshow
44.023438 2.906250 m /seven glyphshow
53.169250 2.906250 m /zero glyphshow
62.315063 2.906250 m /zero glyphshow
71.460876 2.906250 m /zero glyphshow
80.606689 2.906250 m /zero glyphshow
89.752502 2.906250 m /zero glyphshow
grestore
0.000 0.500 0.000 setrgbcolor
gsave
611.263 353.304 m
631.423 353.304 l
stroke
grestore
0.000 setgray
gsave
647.262500 345.358125 translate
0.000000 rotate
0.000000 2.906250 m /p glyphshow
9.124756 2.906250 m /space glyphshow
13.694153 2.906250 m /equal glyphshow
25.738831 2.906250 m /space glyphshow
30.308228 2.906250 m /zero glyphshow
39.454041 2.906250 m /period glyphshow
44.023438 2.906250 m /eight glyphshow
53.169250 2.906250 m /zero glyphshow
62.315063 2.906250 m /zero glyphshow
71.460876 2.906250 m /zero glyphshow
80.606689 2.906250 m /zero glyphshow
89.752502 2.906250 m /zero glyphshow
grestore
1.000 0.000 0.000 setrgbcolor
gsave
611.263 332.558 m
631.423 332.558 l
stroke
grestore
0.000 setgray
gsave
647.262500 324.611250 translate
0.000000 rotate
0.000000 2.906250 m /p glyphshow
9.124756 2.906250 m /space glyphshow
13.694153 2.906250 m /equal glyphshow
25.738831 2.906250 m /space glyphshow
30.308228 2.906250 m /zero glyphshow
39.454041 2.906250 m /period glyphshow
44.023438 2.906250 m /nine glyphshow
53.169250 2.906250 m /zero glyphshow
62.315063 2.906250 m /zero glyphshow
71.460876 2.906250 m /zero glyphshow
80.606689 2.906250 m /zero glyphshow
89.752502 2.906250 m /zero glyphshow
grestore
0.000 0.750 0.750 setrgbcolor
gsave
611.263 311.811 m
631.423 311.811 l
stroke
grestore
0.000 setgray
gsave
647.262500 303.864375 translate
0.000000 rotate
0.000000 2.906250 m /p glyphshow
9.124756 2.906250 m /space glyphshow
13.694153 2.906250 m /equal glyphshow
25.738831 2.906250 m /space glyphshow
30.308228 2.906250 m /one glyphshow
39.454041 2.906250 m /period glyphshow
44.023438 2.906250 m /zero glyphshow
53.169250 2.906250 m /zero glyphshow
62.315063 2.906250 m /zero glyphshow
71.460876 2.906250 m /zero glyphshow
80.606689 2.906250 m /zero glyphshow
89.752502 2.906250 m /zero glyphshow
grestore

end
showpage
