%!PS-Adobe-3.0 EPSF-3.0
%%Title: 3d1.entropy.example.evolution.eps
%%Creator: matplotlib version 1.1.0, http://matplotlib.sourceforge.net/
%%CreationDate: Wed Dec  5 14:54:38 2012
%%Orientation: portrait
%%BoundingBox: -115 97 727 694
%%EndComments
%%BeginProlog
/mpldict 8 dict def
mpldict begin
/m { moveto } bind def
/l { lineto } bind def
/r { rlineto } bind def
/c { curveto } bind def
/cl { closepath } bind def
/box {
m
1 index 0 r
0 exch r
neg 0 r
cl
} bind def
/clipbox {
box
clip
newpath
} bind def
%!PS-Adobe-3.0 Resource-Font
%%Title: Bitstream Vera Sans
%%Copyright: Copyright (c) 2003 by Bitstream, Inc. All Rights Reserved.
%%Creator: Converted from TrueType to type 3 by PPR
25 dict begin
/_d{bind def}bind def
/_m{moveto}_d
/_l{lineto}_d
/_cl{closepath eofill}_d
/_c{curveto}_d
/_sc{7 -1 roll{setcachedevice}{pop pop pop pop pop pop}ifelse}_d
/_e{exec}_d
/FontName /BitstreamVeraSans-Roman def
/PaintType 0 def
/FontMatrix[.001 0 0 .001 0 0]def
/FontBBox[-183 -236 1287 928]def
/FontType 3 def
/Encoding [ /space /parenleft /parenright /period /zero /one /two /three /four /five /six /seven /eight /nine /colon /equal /E /G /a /d /e /f /g /i /l /m /n /o /p /r /s /t /u /v /y ] def
/FontInfo 10 dict dup begin
/FamilyName (Bitstream Vera Sans) def
/FullName (Bitstream Vera Sans) def
/Notice (Copyright (c) 2003 by Bitstream, Inc. All Rights Reserved. Bitstream Vera is a trademark of Bitstream, Inc.) def
/Weight (Roman) def
/Version (Release 1.10) def
/ItalicAngle 0.0 def
/isFixedPitch false def
/UnderlinePosition -213 def
/UnderlineThickness 143 def
end readonly def
/CharStrings 35 dict dup begin
/space{318 0 0 0 0 0 _sc
}_d
/parenleft{390 0 86 -131 310 759 _sc
310 759 _m
266 683 234 609 213 536 _c
191 463 181 389 181 314 _c
181 238 191 164 213 91 _c
234 17 266 -56 310 -131 _c
232 -131 _l
183 -54 146 20 122 94 _c
98 168 86 241 86 314 _c
86 386 98 459 122 533 _c
146 607 182 682 232 759 _c
310 759 _l
_cl}_d
/parenright{390 0 80 -131 304 759 _sc
80 759 _m
158 759 _l
206 682 243 607 267 533 _c
291 459 304 386 304 314 _c
304 241 291 168 267 94 _c
243 20 206 -54 158 -131 _c
80 -131 _l
123 -56 155 17 177 91 _c
198 164 209 238 209 314 _c
209 389 198 463 177 536 _c
155 609 123 683 80 759 _c
_cl}_d
/period{318 0 107 0 210 124 _sc
107 124 _m
210 124 _l
210 0 _l
107 0 _l
107 124 _l
_cl}_d
/zero{636 0 66 -13 570 742 _sc
318 664 _m
267 664 229 639 203 589 _c
177 539 165 464 165 364 _c
165 264 177 189 203 139 _c
229 89 267 64 318 64 _c
369 64 407 89 433 139 _c
458 189 471 264 471 364 _c
471 464 458 539 433 589 _c
407 639 369 664 318 664 _c
318 742 _m
399 742 461 709 505 645 _c
548 580 570 486 570 364 _c
570 241 548 147 505 83 _c
461 19 399 -13 318 -13 _c
236 -13 173 19 130 83 _c
87 147 66 241 66 364 _c
66 486 87 580 130 645 _c
173 709 236 742 318 742 _c
_cl}_d
/one{636 0 110 0 544 729 _sc
124 83 _m
285 83 _l
285 639 _l
110 604 _l
110 694 _l
284 729 _l
383 729 _l
383 83 _l
544 83 _l
544 0 _l
124 0 _l
124 83 _l
_cl}_d
/two{{636 0 73 0 536 742 _sc
192 83 _m
536 83 _l
536 0 _l
73 0 _l
73 83 _l
110 121 161 173 226 239 _c
290 304 331 346 348 365 _c
380 400 402 430 414 455 _c
426 479 433 504 433 528 _c
433 566 419 598 392 622 _c
365 646 330 659 286 659 _c
255 659 222 653 188 643 _c
154 632 117 616 78 594 _c
78 694 _l
118 710 155 722 189 730 _c
223 738 255 742 284 742 _c
359 742 419 723 464 685 _c
509 647 532 597 532 534 _c
532 504 526 475 515 449 _c
504 422 484 390 454 354 _c
446 344 420 317 376 272 _c
332 227 271 164 192 83 _c
_cl}_e}_d
/three{{636 0 76 -13 556 742 _sc
406 393 _m
453 383 490 362 516 330 _c
542 298 556 258 556 212 _c
556 140 531 84 482 45 _c
432 6 362 -13 271 -13 _c
240 -13 208 -10 176 -4 _c
144 1 110 10 76 22 _c
76 117 _l
103 101 133 89 166 81 _c
198 73 232 69 268 69 _c
330 69 377 81 409 105 _c
441 129 458 165 458 212 _c
458 254 443 288 413 312 _c
383 336 341 349 287 349 _c
202 349 _l
202 430 _l
291 430 _l
339 430 376 439 402 459 _c
428 478 441 506 441 543 _c
441 580 427 609 401 629 _c
374 649 336 659 287 659 _c
260 659 231 656 200 650 _c
169 644 135 635 98 623 _c
98 711 _l
135 721 170 729 203 734 _c
235 739 266 742 296 742 _c
}_e{370 742 429 725 473 691 _c
517 657 539 611 539 553 _c
539 513 527 479 504 451 _c
481 423 448 403 406 393 _c
_cl}_e}_d
/four{636 0 49 0 580 729 _sc
378 643 _m
129 254 _l
378 254 _l
378 643 _l
352 729 _m
476 729 _l
476 254 _l
580 254 _l
580 172 _l
476 172 _l
476 0 _l
378 0 _l
378 172 _l
49 172 _l
49 267 _l
352 729 _l
_cl}_d
/five{{636 0 77 -13 549 729 _sc
108 729 _m
495 729 _l
495 646 _l
198 646 _l
198 467 _l
212 472 227 476 241 478 _c
255 480 270 482 284 482 _c
365 482 429 459 477 415 _c
525 370 549 310 549 234 _c
549 155 524 94 475 51 _c
426 8 357 -13 269 -13 _c
238 -13 207 -10 175 -6 _c
143 -1 111 6 77 17 _c
77 116 _l
106 100 136 88 168 80 _c
199 72 232 69 267 69 _c
323 69 368 83 401 113 _c
433 143 450 183 450 234 _c
450 284 433 324 401 354 _c
368 384 323 399 267 399 _c
241 399 214 396 188 390 _c
162 384 135 375 108 363 _c
108 729 _l
_cl}_e}_d
/six{{636 0 70 -13 573 742 _sc
330 404 _m
286 404 251 388 225 358 _c
199 328 186 286 186 234 _c
186 181 199 139 225 109 _c
251 79 286 64 330 64 _c
374 64 409 79 435 109 _c
461 139 474 181 474 234 _c
474 286 461 328 435 358 _c
409 388 374 404 330 404 _c
526 713 _m
526 623 _l
501 635 476 644 451 650 _c
425 656 400 659 376 659 _c
310 659 260 637 226 593 _c
192 549 172 482 168 394 _c
187 422 211 444 240 459 _c
269 474 301 482 336 482 _c
409 482 467 459 509 415 _c
551 371 573 310 573 234 _c
573 159 550 99 506 54 _c
462 9 403 -13 330 -13 _c
246 -13 181 19 137 83 _c
92 147 70 241 70 364 _c
70 479 97 571 152 639 _c
206 707 280 742 372 742 _c
}_e{396 742 421 739 447 735 _c
472 730 498 723 526 713 _c
_cl}_e}_d
/seven{636 0 82 0 551 729 _sc
82 729 _m
551 729 _l
551 687 _l
286 0 _l
183 0 _l
432 646 _l
82 646 _l
82 729 _l
_cl}_d
/eight{{636 0 68 -13 568 742 _sc
318 346 _m
271 346 234 333 207 308 _c
180 283 167 249 167 205 _c
167 161 180 126 207 101 _c
234 76 271 64 318 64 _c
364 64 401 76 428 102 _c
455 127 469 161 469 205 _c
469 249 455 283 429 308 _c
402 333 365 346 318 346 _c
219 388 _m
177 398 144 418 120 447 _c
96 476 85 511 85 553 _c
85 611 105 657 147 691 _c
188 725 245 742 318 742 _c
390 742 447 725 489 691 _c
530 657 551 611 551 553 _c
551 511 539 476 515 447 _c
491 418 459 398 417 388 _c
464 377 501 355 528 323 _c
554 291 568 251 568 205 _c
568 134 546 80 503 43 _c
459 5 398 -13 318 -13 _c
237 -13 175 5 132 43 _c
89 80 68 134 68 205 _c
68 251 81 291 108 323 _c
134 355 171 377 219 388 _c
}_e{183 544 _m
183 506 194 476 218 455 _c
242 434 275 424 318 424 _c
360 424 393 434 417 455 _c
441 476 453 506 453 544 _c
453 582 441 611 417 632 _c
393 653 360 664 318 664 _c
275 664 242 653 218 632 _c
194 611 183 582 183 544 _c
_cl}_e}_d
/nine{{636 0 63 -13 566 742 _sc
110 15 _m
110 105 _l
134 93 159 84 185 78 _c
210 72 235 69 260 69 _c
324 69 374 90 408 134 _c
442 178 462 244 468 334 _c
448 306 424 284 396 269 _c
367 254 335 247 300 247 _c
226 247 168 269 126 313 _c
84 357 63 417 63 494 _c
63 568 85 628 129 674 _c
173 719 232 742 306 742 _c
390 742 455 709 499 645 _c
543 580 566 486 566 364 _c
566 248 538 157 484 89 _c
429 21 356 -13 264 -13 _c
239 -13 214 -10 189 -6 _c
163 -2 137 5 110 15 _c
306 324 _m
350 324 385 339 411 369 _c
437 399 450 441 450 494 _c
450 546 437 588 411 618 _c
385 648 350 664 306 664 _c
262 664 227 648 201 618 _c
175 588 162 546 162 494 _c
}_e{162 441 175 399 201 369 _c
227 339 262 324 306 324 _c
_cl}_e}_d
/colon{337 0 117 0 220 517 _sc
117 124 _m
220 124 _l
220 0 _l
117 0 _l
117 124 _l
117 517 _m
220 517 _l
220 393 _l
117 393 _l
117 517 _l
_cl}_d
/equal{838 0 106 172 732 454 _sc
106 454 _m
732 454 _l
732 372 _l
106 372 _l
106 454 _l
106 255 _m
732 255 _l
732 172 _l
106 172 _l
106 255 _l
_cl}_d
/E{632 0 98 0 568 729 _sc
98 729 _m
559 729 _l
559 646 _l
197 646 _l
197 430 _l
544 430 _l
544 347 _l
197 347 _l
197 83 _l
568 83 _l
568 0 _l
98 0 _l
98 729 _l
_cl}_d
/G{{775 0 56 -13 693 742 _sc
595 104 _m
595 300 _l
434 300 _l
434 381 _l
693 381 _l
693 68 _l
655 40 613 20 567 7 _c
521 -6 472 -13 420 -13 _c
306 -13 216 20 152 86 _c
88 152 56 245 56 364 _c
56 482 88 575 152 642 _c
216 708 306 742 420 742 _c
467 742 512 736 555 724 _c
598 712 638 695 674 673 _c
674 568 _l
637 598 598 621 557 637 _c
516 653 473 661 428 661 _c
338 661 271 636 227 586 _c
182 536 160 462 160 364 _c
160 265 182 191 227 141 _c
271 91 338 67 428 67 _c
462 67 493 70 521 76 _c
549 82 573 91 595 104 _c
_cl}_e}_d
/a{{613 0 60 -13 522 560 _sc
343 275 _m
270 275 220 266 192 250 _c
164 233 150 205 150 165 _c
150 133 160 107 181 89 _c
202 70 231 61 267 61 _c
317 61 357 78 387 114 _c
417 149 432 196 432 255 _c
432 275 _l
343 275 _l
522 312 _m
522 0 _l
432 0 _l
432 83 _l
411 49 385 25 355 10 _c
325 -5 287 -13 243 -13 _c
187 -13 142 2 109 33 _c
76 64 60 106 60 159 _c
60 220 80 266 122 298 _c
163 329 224 345 306 345 _c
432 345 _l
432 354 _l
432 395 418 427 391 450 _c
364 472 326 484 277 484 _c
245 484 215 480 185 472 _c
155 464 127 453 100 439 _c
100 522 _l
}_e{132 534 164 544 195 550 _c
226 556 256 560 286 560 _c
365 560 424 539 463 498 _c
502 457 522 395 522 312 _c
_cl}_e}_d
/d{{635 0 55 -13 544 760 _sc
454 464 _m
454 760 _l
544 760 _l
544 0 _l
454 0 _l
454 82 _l
435 49 411 25 382 10 _c
353 -5 319 -13 279 -13 _c
213 -13 159 13 117 65 _c
75 117 55 187 55 273 _c
55 359 75 428 117 481 _c
159 533 213 560 279 560 _c
319 560 353 552 382 536 _c
411 520 435 496 454 464 _c
148 273 _m
148 207 161 155 188 117 _c
215 79 253 61 301 61 _c
348 61 385 79 413 117 _c
440 155 454 207 454 273 _c
454 339 440 390 413 428 _c
385 466 348 485 301 485 _c
253 485 215 466 188 428 _c
161 390 148 339 148 273 _c
_cl}_e}_d
/e{{615 0 55 -13 562 560 _sc
562 296 _m
562 252 _l
149 252 _l
153 190 171 142 205 110 _c
238 78 284 62 344 62 _c
378 62 412 66 444 74 _c
476 82 509 95 541 113 _c
541 28 _l
509 14 476 3 442 -3 _c
408 -9 373 -13 339 -13 _c
251 -13 182 12 131 62 _c
80 112 55 181 55 268 _c
55 357 79 428 127 481 _c
175 533 241 560 323 560 _c
397 560 455 536 498 489 _c
540 441 562 377 562 296 _c
472 322 _m
471 371 457 410 431 440 _c
404 469 368 484 324 484 _c
274 484 234 469 204 441 _c
174 413 156 373 152 322 _c
472 322 _l
_cl}_e}_d
/f{352 0 23 0 371 760 _sc
371 760 _m
371 685 _l
285 685 _l
253 685 230 678 218 665 _c
205 652 199 629 199 595 _c
199 547 _l
347 547 _l
347 477 _l
199 477 _l
199 0 _l
109 0 _l
109 477 _l
23 477 _l
23 547 _l
109 547 _l
109 585 _l
109 645 123 690 151 718 _c
179 746 224 760 286 760 _c
371 760 _l
_cl}_d
/g{{635 0 55 -207 544 560 _sc
454 280 _m
454 344 440 395 414 431 _c
387 467 349 485 301 485 _c
253 485 215 467 188 431 _c
161 395 148 344 148 280 _c
148 215 161 165 188 129 _c
215 93 253 75 301 75 _c
349 75 387 93 414 129 _c
440 165 454 215 454 280 _c
544 68 _m
544 -24 523 -93 482 -139 _c
440 -184 377 -207 292 -207 _c
260 -207 231 -204 203 -200 _c
175 -195 147 -188 121 -178 _c
121 -91 _l
147 -105 173 -115 199 -122 _c
225 -129 251 -133 278 -133 _c
336 -133 380 -117 410 -87 _c
439 -56 454 -10 454 52 _c
454 96 _l
435 64 411 40 382 24 _c
353 8 319 0 279 0 _c
211 0 157 25 116 76 _c
75 127 55 195 55 280 _c
55 364 75 432 116 483 _c
157 534 211 560 279 560 _c
}_e{319 560 353 552 382 536 _c
411 520 435 496 454 464 _c
454 547 _l
544 547 _l
544 68 _l
_cl}_e}_d
/i{278 0 94 0 184 760 _sc
94 547 _m
184 547 _l
184 0 _l
94 0 _l
94 547 _l
94 760 _m
184 760 _l
184 646 _l
94 646 _l
94 760 _l
_cl}_d
/l{278 0 94 0 184 760 _sc
94 760 _m
184 760 _l
184 0 _l
94 0 _l
94 760 _l
_cl}_d
/m{{974 0 91 0 889 560 _sc
520 442 _m
542 482 569 511 600 531 _c
631 550 668 560 711 560 _c
767 560 811 540 842 500 _c
873 460 889 403 889 330 _c
889 0 _l
799 0 _l
799 327 _l
799 379 789 418 771 444 _c
752 469 724 482 686 482 _c
639 482 602 466 575 435 _c
548 404 535 362 535 309 _c
535 0 _l
445 0 _l
445 327 _l
445 379 435 418 417 444 _c
398 469 369 482 331 482 _c
285 482 248 466 221 435 _c
194 404 181 362 181 309 _c
181 0 _l
91 0 _l
91 547 _l
181 547 _l
181 462 _l
201 495 226 520 255 536 _c
283 552 317 560 357 560 _c
397 560 430 550 458 530 _c
486 510 506 480 520 442 _c
}_e{_cl}_e}_d
/n{634 0 91 0 549 560 _sc
549 330 _m
549 0 _l
459 0 _l
459 327 _l
459 379 448 417 428 443 _c
408 469 378 482 338 482 _c
289 482 251 466 223 435 _c
195 404 181 362 181 309 _c
181 0 _l
91 0 _l
91 547 _l
181 547 _l
181 462 _l
202 494 227 519 257 535 _c
286 551 320 560 358 560 _c
420 560 468 540 500 501 _c
532 462 549 405 549 330 _c
_cl}_d
/o{612 0 55 -13 557 560 _sc
306 484 _m
258 484 220 465 192 427 _c
164 389 150 338 150 273 _c
150 207 163 156 191 118 _c
219 80 257 62 306 62 _c
354 62 392 80 420 118 _c
448 156 462 207 462 273 _c
462 337 448 389 420 427 _c
392 465 354 484 306 484 _c
306 560 _m
384 560 445 534 490 484 _c
534 433 557 363 557 273 _c
557 183 534 113 490 63 _c
445 12 384 -13 306 -13 _c
227 -13 165 12 121 63 _c
77 113 55 183 55 273 _c
55 363 77 433 121 484 _c
165 534 227 560 306 560 _c
_cl}_d
/p{{635 0 91 -207 580 560 _sc
181 82 _m
181 -207 _l
91 -207 _l
91 547 _l
181 547 _l
181 464 _l
199 496 223 520 252 536 _c
281 552 316 560 356 560 _c
422 560 476 533 518 481 _c
559 428 580 359 580 273 _c
580 187 559 117 518 65 _c
476 13 422 -13 356 -13 _c
316 -13 281 -5 252 10 _c
223 25 199 49 181 82 _c
487 273 _m
487 339 473 390 446 428 _c
418 466 381 485 334 485 _c
286 485 249 466 222 428 _c
194 390 181 339 181 273 _c
181 207 194 155 222 117 _c
249 79 286 61 334 61 _c
381 61 418 79 446 117 _c
473 155 487 207 487 273 _c
_cl}_e}_d
/r{411 0 91 0 411 560 _sc
411 463 _m
401 469 390 473 378 476 _c
366 478 353 480 339 480 _c
288 480 249 463 222 430 _c
194 397 181 350 181 288 _c
181 0 _l
91 0 _l
91 547 _l
181 547 _l
181 462 _l
199 495 224 520 254 536 _c
284 552 321 560 365 560 _c
371 560 378 559 386 559 _c
393 558 401 557 411 555 _c
411 463 _l
_cl}_d
/s{{521 0 54 -13 472 560 _sc
443 531 _m
443 446 _l
417 458 391 468 364 475 _c
336 481 308 485 279 485 _c
234 485 200 478 178 464 _c
156 450 145 430 145 403 _c
145 382 153 366 169 354 _c
185 342 217 330 265 320 _c
296 313 _l
360 299 405 279 432 255 _c
458 230 472 195 472 151 _c
472 100 452 60 412 31 _c
372 1 316 -13 246 -13 _c
216 -13 186 -10 154 -5 _c
122 0 89 8 54 20 _c
54 113 _l
87 95 120 82 152 74 _c
184 65 216 61 248 61 _c
290 61 323 68 346 82 _c
368 96 380 117 380 144 _c
380 168 371 187 355 200 _c
339 213 303 226 247 238 _c
216 245 _l
160 257 119 275 95 299 _c
70 323 58 356 58 399 _c
58 450 76 490 112 518 _c
148 546 200 560 268 560 _c
}_e{301 560 332 557 362 552 _c
391 547 418 540 443 531 _c
_cl}_e}_d
/t{392 0 27 0 368 702 _sc
183 702 _m
183 547 _l
368 547 _l
368 477 _l
183 477 _l
183 180 _l
183 135 189 106 201 94 _c
213 81 238 75 276 75 _c
368 75 _l
368 0 _l
276 0 _l
206 0 158 13 132 39 _c
106 65 93 112 93 180 _c
93 477 _l
27 477 _l
27 547 _l
93 547 _l
93 702 _l
183 702 _l
_cl}_d
/u{634 0 85 -13 543 547 _sc
85 216 _m
85 547 _l
175 547 _l
175 219 _l
175 167 185 129 205 103 _c
225 77 255 64 296 64 _c
344 64 383 79 411 110 _c
439 141 453 183 453 237 _c
453 547 _l
543 547 _l
543 0 _l
453 0 _l
453 84 _l
431 50 405 26 377 10 _c
348 -5 315 -13 277 -13 _c
214 -13 166 6 134 45 _c
101 83 85 140 85 216 _c
_cl}_d
/v{592 0 30 0 562 547 _sc
30 547 _m
125 547 _l
296 88 _l
467 547 _l
562 547 _l
357 0 _l
235 0 _l
30 547 _l
_cl}_d
/y{592 0 30 -207 562 547 _sc
322 -50 _m
296 -114 271 -157 247 -177 _c
223 -197 191 -207 151 -207 _c
79 -207 _l
79 -132 _l
132 -132 _l
156 -132 175 -126 189 -114 _c
203 -102 218 -75 235 -31 _c
251 9 _l
30 547 _l
125 547 _l
296 119 _l
467 547 _l
562 547 _l
322 -50 _l
_cl}_d
end readonly def

/BuildGlyph
 {exch begin
 CharStrings exch
 2 copy known not{pop /.notdef}if
 true 3 1 roll get exec
 end}_d

/BuildChar {
 1 index /Encoding get exch get
 1 index /BuildGlyph get exec
}_d

FontName currentdict end definefont pop
end
%%EndProlog
mpldict begin
-115.2 97.2 translate
842.4 597.6 0 0 clipbox
gsave
0 0 m
842.4 0 l
842.4 597.6 l
0 597.6 l
cl
1.000 setgray
fill
grestore
gsave
105.3 59.76 m
758.16 59.76 l
758.16 537.84 l
105.3 537.84 l
cl
1.000 setgray
fill
grestore
1.000 setlinewidth
1 setlinejoin
2 setlinecap
[] 0 setdash
0.000 0.000 1.000 setrgbcolor
gsave
652.9 478.1 105.3 59.76 clipbox
105.3 388.062 m
107.476 318.902 l
109.652 264.43 l
111.829 249.674 l
114.005 226.664 l
116.181 215.694 l
118.357 215.694 l
120.533 181.84 l
122.71 177.957 l
124.886 177.221 l
129.238 177.221 l
131.414 168.354 l
133.591 168.354 l
135.767 164.34 l
137.943 161.691 l
140.119 161.691 l
142.295 158.841 l
144.472 158.049 l
146.648 150.173 l
151 150.173 l
153.176 141.797 l
155.353 139.996 l
161.881 139.996 l
164.057 139.633 l
166.234 137.342 l
168.41 137.342 l
170.586 135.41 l
179.291 135.41 l
181.467 133.456 l
185.819 133.456 l
187.996 132.828 l
196.7 132.828 l
198.877 131.178 l
201.053 130.623 l
214.11 130.623 l
216.286 130.268 l
227.167 130.268 l
229.343 130.139 l
231.52 130.139 l
233.696 129.618 l
235.872 129.618 l
238.048 129.156 l
242.401 129.156 l
244.577 128.842 l
255.458 128.833 l
257.634 128.556 l
270.691 128.544 l
272.867 128.277 l
322.92 128.184 l
327.272 128.126 l
755.984 128.057 l
755.984 128.057 l
stroke
grestore
0.000 0.500 0.000 setrgbcolor
gsave
652.9 478.1 105.3 59.76 clipbox
105.3 393.627 m
107.476 307.939 l
109.652 287.37 l
111.829 287.37 l
114.005 272.869 l
116.181 255.47 l
118.357 229.798 l
120.533 226.894 l
122.71 224.703 l
124.886 224.703 l
127.062 221.155 l
129.238 210.675 l
131.414 207.99 l
133.591 194.235 l
135.767 194.235 l
137.943 191.971 l
140.119 179.616 l
148.824 179.616 l
151 174.23 l
153.176 174.23 l
155.353 172.352 l
157.529 171.755 l
159.705 171.755 l
161.881 170.427 l
164.057 170.427 l
166.234 169.709 l
168.41 167.372 l
170.586 166.902 l
172.762 166.902 l
174.938 161.017 l
177.115 160.093 l
179.291 157.026 l
181.467 157.026 l
183.643 156.274 l
185.819 155.748 l
187.996 153.594 l
196.7 153.594 l
198.877 152.751 l
201.053 152.353 l
203.229 152.113 l
209.758 152.113 l
211.934 150.731 l
214.11 150.731 l
218.462 148.821 l
224.991 148.803 l
227.167 147.644 l
235.872 146.697 l
242.401 146.696 l
244.577 145.895 l
246.753 144.828 l
255.458 144.828 l
257.634 144.331 l
259.81 143.335 l
261.986 142.796 l
264.163 142.407 l
272.867 142.334 l
275.044 141.901 l
281.572 141.901 l
283.748 141.562 l
288.101 141.562 l
294.629 140.936 l
296.806 140.936 l
298.982 139.861 l
303.334 139.861 l
305.51 139.444 l
307.687 139.444 l
309.863 139.138 l
312.039 139.046 l
314.215 138.426 l
320.744 138.371 l
322.92 138.3 l
325.096 137.952 l
329.449 137.692 l
331.625 137.39 l
342.506 137.383 l
344.682 137.169 l
346.858 137.169 l
351.211 136.915 l
355.563 136.729 l
359.915 136.549 l
362.092 136.463 l
364.268 136.172 l
366.444 136.121 l
368.62 135.903 l
372.973 135.873 l
375.149 135.443 l
379.501 135.415 l
381.677 135.224 l
383.854 135.224 l
386.03 135.012 l
392.558 134.908 l
394.735 134.638 l
396.911 134.638 l
399.087 134.374 l
401.263 134.374 l
403.439 134.215 l
405.616 134.214 l
407.792 134.012 l
416.497 133.842 l
418.673 133.709 l
423.025 133.277 l
431.73 133.198 l
442.611 132.735 l
444.787 132.696 l
446.963 132.446 l
449.14 132.446 l
451.316 132.296 l
453.492 132.272 l
455.668 132.048 l
464.373 131.794 l
468.725 131.611 l
477.43 131.472 l
483.959 131.301 l
510.073 130.567 l
512.249 130.37 l
520.954 130.231 l
525.307 130.088 l
538.364 129.841 l
555.773 129.484 l
560.126 129.413 l
566.654 129.227 l
581.888 129.087 l
586.24 128.985 l
592.769 128.851 l
608.002 128.767 l
631.94 128.541 l
740.75 128.113 l
755.984 128.093 l
755.984 128.093 l
stroke
grestore
1.000 0.000 0.000 setrgbcolor
gsave
652.9 478.1 105.3 59.76 clipbox
105.3 396.559 m
107.476 388.049 l
109.652 329.046 l
111.829 315.336 l
114.005 284.554 l
116.181 244.387 l
118.357 244.387 l
120.533 229.889 l
122.71 227.534 l
124.886 211.011 l
127.062 206.967 l
129.238 194.046 l
133.591 194.046 l
135.767 192.185 l
137.943 188.481 l
140.119 186.316 l
142.295 179.934 l
144.472 171.301 l
151 171.301 l
153.176 164.505 l
164.057 164.505 l
166.234 164.192 l
168.41 162.968 l
174.938 162.968 l
177.115 158.871 l
179.291 158.871 l
181.467 156.987 l
185.819 156.987 l
187.996 156.602 l
190.172 153.381 l
196.7 153.381 l
198.877 150.719 l
203.229 150.719 l
205.405 149.943 l
207.581 148.601 l
209.758 148.601 l
211.934 147.472 l
214.11 147.472 l
218.462 147.13 l
220.639 145.233 l
227.167 145.233 l
229.343 143.024 l
233.696 143.024 l
235.872 140.66 l
240.224 140.66 l
242.401 137.962 l
246.753 137.962 l
248.929 136.885 l
251.105 136.885 l
253.282 135.503 l
255.458 135.503 l
257.634 134.384 l
259.81 133.68 l
261.986 133.53 l
264.163 132.564 l
268.515 132.564 l
272.867 132.296 l
275.044 132.296 l
277.22 131.909 l
279.396 131.653 l
281.572 131.051 l
283.748 131.051 l
285.925 130.577 l
288.101 130.27 l
290.277 130.27 l
294.629 129.937 l
296.806 129.937 l
298.982 129.67 l
301.158 129.619 l
303.334 129.274 l
309.863 129.274 l
312.039 129.128 l
322.92 129.116 l
325.096 128.687 l
340.33 128.583 l
349.034 128.446 l
353.387 128.36 l
364.268 128.298 l
366.444 128.112 l
412.144 128.003 l
442.611 127.944 l
503.545 127.905 l
605.826 127.88 l
755.984 127.866 l
755.984 127.866 l
stroke
grestore
0.000 0.750 0.750 setrgbcolor
gsave
652.9 478.1 105.3 59.76 clipbox
105.3 426.711 m
107.476 422.876 l
109.652 411.937 l
111.829 253.521 l
114.005 253.521 l
116.181 242.156 l
118.357 235.732 l
120.533 226.619 l
122.71 215.775 l
127.062 215.775 l
129.238 201.419 l
131.414 194.454 l
133.591 189.481 l
135.767 182.441 l
137.943 182.441 l
140.119 172.273 l
142.295 172.273 l
146.648 169.325 l
148.824 164.325 l
153.176 164.325 l
155.353 158.198 l
161.881 158.144 l
164.057 157.145 l
174.938 157.145 l
177.115 155.869 l
179.291 154.369 l
181.467 154.369 l
183.643 152.689 l
194.524 152.689 l
196.7 150.429 l
198.877 147.491 l
201.053 147.224 l
205.405 147.224 l
207.581 145.317 l
214.11 145.317 l
216.286 144.096 l
218.462 143.382 l
220.639 142.792 l
222.815 138.396 l
227.167 138.396 l
229.343 137.468 l
233.696 137.44 l
235.872 135.891 l
240.224 135.845 l
244.577 135.236 l
246.753 134.687 l
257.634 134.618 l
259.81 134.48 l
266.339 132.705 l
272.867 132.598 l
275.044 131.806 l
285.925 131.806 l
288.101 131.334 l
290.277 131.334 l
292.453 131.144 l
294.629 130.816 l
296.806 130.816 l
298.982 130.273 l
301.158 130.036 l
307.687 130.036 l
309.863 129.868 l
316.391 129.664 l
318.568 129.536 l
331.625 129.532 l
333.801 129.187 l
340.33 128.899 l
351.211 128.846 l
353.387 128.669 l
370.796 128.544 l
377.325 128.464 l
401.263 128.395 l
407.792 128.35 l
446.963 128.243 l
466.549 128.222 l
755.984 128.127 l
755.984 128.127 l
stroke
grestore
0.750 0.000 0.750 setrgbcolor
gsave
652.9 478.1 105.3 59.76 clipbox
105.3 410.037 m
107.476 265.716 l
109.652 265.716 l
111.829 260.466 l
114.005 259.735 l
116.181 259.735 l
118.357 243.423 l
120.533 234.792 l
122.71 222.616 l
124.886 208.336 l
127.062 208.336 l
131.414 192.404 l
133.591 192.404 l
135.767 179.13 l
140.119 179.13 l
142.295 178.69 l
144.472 171.143 l
148.824 171.143 l
151 170.433 l
155.353 170.433 l
157.529 165.152 l
161.881 165.152 l
164.057 162.894 l
166.234 159.336 l
177.115 159.336 l
179.291 155.773 l
183.643 155.773 l
185.819 154.585 l
190.172 154.585 l
194.524 148.733 l
201.053 148.733 l
203.229 147.322 l
205.405 145.105 l
209.758 145.105 l
211.934 143.996 l
214.11 143.609 l
216.286 142.516 l
218.462 142.516 l
220.639 140.359 l
222.815 140.359 l
224.991 139.195 l
227.167 139.195 l
229.343 138.752 l
231.52 137.763 l
235.872 136.349 l
240.224 136.349 l
242.401 135.947 l
244.577 135.947 l
253.282 135.301 l
259.81 135.301 l
261.986 134.966 l
266.339 134.89 l
272.867 134.89 l
275.044 134.525 l
277.22 134.525 l
279.396 133.846 l
281.572 133.846 l
283.748 132.995 l
285.925 132.793 l
294.629 132.785 l
296.806 132.439 l
303.334 132.324 l
305.51 131.968 l
307.687 131.728 l
314.215 131.647 l
316.391 131.513 l
325.096 131.42 l
329.449 131.112 l
333.801 131.005 l
344.682 130.73 l
349.034 130.636 l
351.211 130.515 l
355.563 130.476 l
359.915 130.394 l
372.973 130.311 l
377.325 130.218 l
386.03 130.07 l
401.263 129.974 l
429.554 129.688 l
453.492 129.577 l
488.311 129.461 l
627.588 129.246 l
714.636 129.181 l
755.984 129.158 l
755.984 129.158 l
stroke
grestore
0.750 0.750 0.000 setrgbcolor
gsave
652.9 478.1 105.3 59.76 clipbox
105.3 447.009 m
107.476 369.433 l
109.652 280.387 l
111.829 280.387 l
114.005 267.592 l
116.181 263.363 l
118.357 256.671 l
120.533 230.308 l
122.71 230.308 l
124.886 219.772 l
127.062 212.449 l
129.238 210.234 l
131.414 202.53 l
133.591 197.916 l
135.767 183.161 l
137.943 181.308 l
140.119 174.077 l
144.472 174.077 l
146.648 173.6 l
151 173.6 l
153.176 170.8 l
155.353 167.582 l
161.881 167.582 l
164.057 164.861 l
166.234 164.861 l
168.41 161.953 l
170.586 158.053 l
181.467 158.053 l
183.643 155.728 l
185.819 155.497 l
190.172 155.497 l
192.348 153.126 l
194.524 153.126 l
196.7 153.015 l
198.877 151.784 l
201.053 148.314 l
203.229 148.314 l
205.405 145.237 l
207.581 145.237 l
209.758 141.954 l
214.11 141.954 l
216.286 141.046 l
218.462 139.986 l
220.639 138.456 l
229.343 138.456 l
231.52 137.942 l
238.048 137.915 l
240.224 137.398 l
242.401 137.357 l
244.577 136.661 l
251.105 136.661 l
253.282 136.088 l
257.634 136.088 l
261.986 135.446 l
264.163 135.446 l
266.339 135.064 l
268.515 134.367 l
270.691 133.992 l
281.572 133.992 l
283.748 133.495 l
292.453 133.458 l
294.629 133.133 l
296.806 133.133 l
303.334 132.811 l
307.687 132.783 l
309.863 132.571 l
331.625 132.473 l
333.801 132.289 l
344.682 132.23 l
346.858 132.108 l
359.915 132.004 l
379.501 131.784 l
386.03 131.699 l
390.382 131.638 l
414.32 131.56 l
425.201 131.489 l
460.021 131.38 l
490.487 131.331 l
579.712 131.234 l
755.984 131.139 l
755.984 131.139 l
stroke
grestore
0.000 setgray
gsave
652.9 478.1 105.3 59.76 clipbox
105.3 442.806 m
107.476 427.387 l
109.652 386.439 l
111.829 297.381 l
114.005 297.381 l
116.181 297.081 l
118.357 269.948 l
120.533 269.033 l
122.71 241.97 l
124.886 240.443 l
127.062 240.174 l
129.238 215.093 l
131.414 197.201 l
137.943 197.201 l
140.119 193.612 l
144.472 180.891 l
148.824 180.891 l
151 175.934 l
153.176 168.37 l
164.057 168.37 l
166.234 163.484 l
168.41 163.484 l
170.586 162.783 l
172.762 160.177 l
174.938 157.392 l
183.643 157.392 l
185.819 152.098 l
198.877 152.098 l
201.053 150.391 l
203.229 150.155 l
205.405 147.568 l
211.934 147.568 l
214.11 147.166 l
216.286 144.99 l
218.462 143.166 l
220.639 143.166 l
222.815 139.397 l
231.52 139.397 l
233.696 137.593 l
235.872 137.593 l
238.048 137.371 l
240.224 137.371 l
248.929 136.79 l
251.105 136.164 l
257.634 135.603 l
266.339 135.58 l
270.691 135.471 l
277.22 135.442 l
279.396 135.159 l
281.572 135.065 l
283.748 134.73 l
288.101 134.73 l
290.277 134.569 l
292.453 134.25 l
294.629 134.138 l
305.51 134.067 l
307.687 133.791 l
312.039 133.782 l
314.215 133.633 l
325.096 133.568 l
329.449 133.317 l
331.625 133.285 l
333.801 133.122 l
338.153 133.025 l
346.858 132.898 l
351.211 132.898 l
353.387 132.754 l
375.149 132.581 l
379.501 132.514 l
405.616 132.354 l
420.849 132.279 l
455.668 132.175 l
490.487 132.096 l
755.984 131.925 l
755.984 131.925 l
stroke
grestore
0.000 0.000 1.000 setrgbcolor
gsave
652.9 478.1 105.3 59.76 clipbox
105.3 506.433 m
107.476 334.45 l
111.829 334.45 l
114.005 316.852 l
116.181 295.836 l
118.357 288.316 l
120.533 279.685 l
122.71 269.602 l
124.886 215.44 l
127.062 211.93 l
131.414 211.93 l
133.591 198.846 l
135.767 198.846 l
137.943 189.544 l
140.119 189.544 l
142.295 186.678 l
144.472 184.105 l
146.648 176.499 l
151 176.499 l
153.176 173.961 l
155.353 173.961 l
157.529 172.915 l
159.705 160.124 l
161.881 160.124 l
164.057 158.764 l
172.762 158.764 l
174.938 155.048 l
177.115 155.048 l
179.291 154.379 l
181.467 154.379 l
183.643 152.349 l
185.819 151.013 l
187.996 150.396 l
190.172 145.587 l
192.348 145.368 l
196.7 145.368 l
198.877 145.123 l
201.053 142.625 l
211.934 142.614 l
214.11 141.748 l
220.639 141.521 l
224.991 141.497 l
227.167 140.735 l
242.401 140.638 l
244.577 140.197 l
246.753 140.197 l
248.929 139.762 l
251.105 139.762 l
253.282 139.098 l
257.634 139.073 l
259.81 138.614 l
264.163 138.614 l
266.339 138.084 l
275.044 138.084 l
277.22 137.914 l
303.334 137.837 l
305.51 137.62 l
307.687 137.62 l
309.863 137.437 l
318.568 137.362 l
322.92 137.302 l
338.153 137.239 l
344.682 137.074 l
353.387 137.006 l
362.092 136.803 l
377.325 136.706 l
388.206 136.603 l
412.144 136.459 l
438.259 136.32 l
470.902 136.211 l
486.135 136.132 l
542.716 135.988 l
571.007 135.928 l
755.984 135.699 l
755.984 135.699 l
stroke
grestore
0.000 0.500 0.000 setrgbcolor
gsave
652.9 478.1 105.3 59.76 clipbox
105.3 360.221 m
107.476 336.578 l
109.652 336.578 l
111.829 298.214 l
114.005 274.475 l
116.181 273.758 l
118.357 256.443 l
120.533 226.12 l
122.71 223.741 l
124.886 206.58 l
127.062 205.004 l
129.238 204.503 l
131.414 178.478 l
133.591 178.478 l
135.767 176.248 l
137.943 168.738 l
148.824 168.738 l
151 161.791 l
153.176 161.791 l
155.353 153.706 l
157.529 153.706 l
159.705 150.347 l
164.057 150.347 l
166.234 150.171 l
168.41 145.783 l
170.586 145.381 l
179.291 145.32 l
181.467 144.676 l
183.643 143.147 l
185.819 143.147 l
187.996 140.402 l
190.172 140.402 l
192.348 138.662 l
194.524 138.662 l
196.7 138.495 l
201.053 138.495 l
203.229 137.841 l
211.934 137.82 l
214.11 137.021 l
216.286 137.021 l
218.462 136.531 l
220.639 134.985 l
222.815 134.985 l
224.991 134.856 l
231.52 134.856 l
233.696 134.619 l
235.872 134.605 l
240.224 133.857 l
259.81 133.756 l
261.986 133.157 l
266.339 133.073 l
268.515 132.659 l
305.51 132.59 l
309.863 132.515 l
318.568 132.408 l
344.682 132.117 l
438.259 131.976 l
460.021 131.954 l
755.984 131.831 l
755.984 131.831 l
stroke
grestore
1.000 0.000 0.000 setrgbcolor
gsave
652.9 478.1 105.3 59.76 clipbox
105.3 393.258 m
107.476 358.811 l
109.652 277.078 l
111.829 277.078 l
114.005 230.128 l
116.181 216.915 l
118.357 215.372 l
120.533 215.372 l
122.71 206.925 l
124.886 195.904 l
127.062 168.803 l
129.238 168.196 l
131.414 168.196 l
133.591 163.81 l
135.767 155.149 l
142.295 155.149 l
144.472 153.206 l
148.824 153.206 l
151 149.663 l
153.176 149.663 l
155.353 147.225 l
157.529 146.269 l
159.705 139.355 l
161.881 139.355 l
164.057 136.69 l
166.234 136.526 l
192.348 136.526 l
194.524 135.034 l
196.7 134.116 l
207.581 134.116 l
209.758 133.906 l
211.934 133.906 l
214.11 132.246 l
218.462 132.246 l
220.639 131.813 l
224.991 131.731 l
227.167 131.505 l
233.696 131.477 l
238.048 131.025 l
244.577 130.548 l
246.753 130.434 l
251.105 130.427 l
253.282 129.534 l
281.572 129.473 l
285.925 129.384 l
292.453 129.33 l
305.51 129.271 l
309.863 129.172 l
755.984 129.064 l
755.984 129.064 l
stroke
grestore
0.000 0.750 0.750 setrgbcolor
gsave
652.9 478.1 105.3 59.76 clipbox
105.3 418.733 m
107.476 361.848 l
109.652 301.057 l
111.829 259.852 l
114.005 259.852 l
116.181 188.664 l
118.357 173.746 l
120.533 166.1 l
122.71 163.844 l
124.886 153.416 l
127.062 150.32 l
129.238 145.975 l
131.414 145.975 l
133.591 143.035 l
135.767 139.076 l
137.943 136.792 l
157.529 136.792 l
159.705 136.144 l
170.586 136.144 l
174.938 132.766 l
192.348 132.758 l
194.524 131.725 l
196.7 130.939 l
198.877 130.939 l
201.053 130.414 l
211.934 130.414 l
214.11 130.154 l
216.286 130.05 l
218.462 129.552 l
233.696 129.474 l
240.224 129.432 l
242.401 129.057 l
248.929 129.018 l
261.986 129.018 l
266.339 128.704 l
268.515 128.704 l
270.691 128.308 l
294.629 128.298 l
314.215 128.211 l
320.744 128.106 l
755.984 128.057 l
755.984 128.057 l
stroke
grestore
0.500 setlinewidth
0 setlinecap
0.000 setgray
gsave
/o {
gsave
newpath
translate
0 0 m
0 4 l
gsave
0.000 setgray
fill
grestore
stroke
grestore
} bind def
105.3 59.76 o
grestore
gsave
/o {
gsave
newpath
translate
0 0 m
0 -4 l
gsave
0.000 setgray
fill
grestore
stroke
grestore
} bind def
105.3 537.84 o
grestore
/BitstreamVeraSans-Roman findfont
12.000 scalefont
setfont
gsave
102.276562 46.681875 translate
0.000000 rotate
0.000000 0.171875 m /zero glyphshow
grestore
gsave
/o {
gsave
newpath
translate
0 0 m
0 4 l
gsave
0.000 setgray
fill
grestore
stroke
grestore
} bind def
214.11 59.76 o
grestore
gsave
/o {
gsave
newpath
translate
0 0 m
0 -4 l
gsave
0.000 setgray
fill
grestore
stroke
grestore
} bind def
214.11 537.84 o
grestore
gsave
207.328750 46.681875 translate
0.000000 rotate
0.000000 0.171875 m /five glyphshow
7.634766 0.171875 m /zero glyphshow
grestore
gsave
/o {
gsave
newpath
translate
0 0 m
0 4 l
gsave
0.000 setgray
fill
grestore
stroke
grestore
} bind def
322.92 59.76 o
grestore
gsave
/o {
gsave
newpath
translate
0 0 m
0 -4 l
gsave
0.000 setgray
fill
grestore
stroke
grestore
} bind def
322.92 537.84 o
grestore
gsave
312.513750 46.681875 translate
0.000000 rotate
0.000000 0.171875 m /one glyphshow
7.634766 0.171875 m /zero glyphshow
15.269531 0.171875 m /zero glyphshow
grestore
gsave
/o {
gsave
newpath
translate
0 0 m
0 4 l
gsave
0.000 setgray
fill
grestore
stroke
grestore
} bind def
431.73 59.76 o
grestore
gsave
/o {
gsave
newpath
translate
0 0 m
0 -4 l
gsave
0.000 setgray
fill
grestore
stroke
grestore
} bind def
431.73 537.84 o
grestore
gsave
421.323750 46.681875 translate
0.000000 rotate
0.000000 0.171875 m /one glyphshow
7.634766 0.171875 m /five glyphshow
15.269531 0.171875 m /zero glyphshow
grestore
gsave
/o {
gsave
newpath
translate
0 0 m
0 4 l
gsave
0.000 setgray
fill
grestore
stroke
grestore
} bind def
540.54 59.76 o
grestore
gsave
/o {
gsave
newpath
translate
0 0 m
0 -4 l
gsave
0.000 setgray
fill
grestore
stroke
grestore
} bind def
540.54 537.84 o
grestore
gsave
529.915000 46.681875 translate
0.000000 rotate
0.000000 0.171875 m /two glyphshow
7.634766 0.171875 m /zero glyphshow
15.269531 0.171875 m /zero glyphshow
grestore
gsave
/o {
gsave
newpath
translate
0 0 m
0 4 l
gsave
0.000 setgray
fill
grestore
stroke
grestore
} bind def
649.35 59.76 o
grestore
gsave
/o {
gsave
newpath
translate
0 0 m
0 -4 l
gsave
0.000 setgray
fill
grestore
stroke
grestore
} bind def
649.35 537.84 o
grestore
gsave
638.725000 46.681875 translate
0.000000 rotate
0.000000 0.171875 m /two glyphshow
7.634766 0.171875 m /five glyphshow
15.269531 0.171875 m /zero glyphshow
grestore
gsave
/o {
gsave
newpath
translate
0 0 m
0 4 l
gsave
0.000 setgray
fill
grestore
stroke
grestore
} bind def
758.16 59.76 o
grestore
gsave
/o {
gsave
newpath
translate
0 0 m
0 -4 l
gsave
0.000 setgray
fill
grestore
stroke
grestore
} bind def
758.16 537.84 o
grestore
gsave
747.558438 46.681875 translate
0.000000 rotate
0.000000 0.171875 m /three glyphshow
7.634766 0.171875 m /zero glyphshow
15.269531 0.171875 m /zero glyphshow
grestore
gsave
399.089375 32.385000 translate
0.000000 rotate
0.000000 0.171875 m /G glyphshow
9.298828 0.171875 m /e glyphshow
16.681641 0.171875 m /n glyphshow
24.287109 0.171875 m /e glyphshow
31.669922 0.171875 m /r glyphshow
36.603516 0.171875 m /a glyphshow
43.957031 0.171875 m /t glyphshow
48.662109 0.171875 m /i glyphshow
51.996094 0.171875 m /o glyphshow
59.337891 0.171875 m /n glyphshow
grestore
gsave
/o {
gsave
newpath
translate
0 0 m
4 0 l
gsave
0.000 setgray
fill
grestore
stroke
grestore
} bind def
105.3 59.76 o
grestore
gsave
/o {
gsave
newpath
translate
0 0 m
-4 0 l
gsave
0.000 setgray
fill
grestore
stroke
grestore
} bind def
758.16 59.76 o
grestore
gsave
84.050000 55.220937 translate
0.000000 rotate
0.000000 0.171875 m /zero glyphshow
7.634766 0.171875 m /period glyphshow
11.449219 0.171875 m /five glyphshow
grestore
gsave
/o {
gsave
newpath
translate
0 0 m
4 0 l
gsave
0.000 setgray
fill
grestore
stroke
grestore
} bind def
105.3 128.057 o
grestore
gsave
/o {
gsave
newpath
translate
0 0 m
-4 0 l
gsave
0.000 setgray
fill
grestore
stroke
grestore
} bind def
758.16 128.057 o
grestore
gsave
84.315625 123.518080 translate
0.000000 rotate
0.000000 0.171875 m /one glyphshow
7.634766 0.171875 m /period glyphshow
11.449219 0.171875 m /zero glyphshow
grestore
gsave
/o {
gsave
newpath
translate
0 0 m
4 0 l
gsave
0.000 setgray
fill
grestore
stroke
grestore
} bind def
105.3 196.354 o
grestore
gsave
/o {
gsave
newpath
translate
0 0 m
-4 0 l
gsave
0.000 setgray
fill
grestore
stroke
grestore
} bind def
758.16 196.354 o
grestore
gsave
84.565625 191.893348 translate
0.000000 rotate
0.000000 0.171875 m /one glyphshow
7.634766 0.171875 m /period glyphshow
11.449219 0.171875 m /five glyphshow
grestore
gsave
/o {
gsave
newpath
translate
0 0 m
4 0 l
gsave
0.000 setgray
fill
grestore
stroke
grestore
} bind def
105.3 264.651 o
grestore
gsave
/o {
gsave
newpath
translate
0 0 m
-4 0 l
gsave
0.000 setgray
fill
grestore
stroke
grestore
} bind def
758.16 264.651 o
grestore
gsave
83.878125 260.112366 translate
0.000000 rotate
0.000000 0.171875 m /two glyphshow
7.634766 0.171875 m /period glyphshow
11.449219 0.171875 m /zero glyphshow
grestore
gsave
/o {
gsave
newpath
translate
0 0 m
4 0 l
gsave
0.000 setgray
fill
grestore
stroke
grestore
} bind def
105.3 332.949 o
grestore
gsave
/o {
gsave
newpath
translate
0 0 m
-4 0 l
gsave
0.000 setgray
fill
grestore
stroke
grestore
} bind def
758.16 332.949 o
grestore
gsave
84.128125 328.409509 translate
0.000000 rotate
0.000000 0.171875 m /two glyphshow
7.634766 0.171875 m /period glyphshow
11.449219 0.171875 m /five glyphshow
grestore
gsave
/o {
gsave
newpath
translate
0 0 m
4 0 l
gsave
0.000 setgray
fill
grestore
stroke
grestore
} bind def
105.3 401.246 o
grestore
gsave
/o {
gsave
newpath
translate
0 0 m
-4 0 l
gsave
0.000 setgray
fill
grestore
stroke
grestore
} bind def
758.16 401.246 o
grestore
gsave
83.925000 396.706652 translate
0.000000 rotate
0.000000 0.171875 m /three glyphshow
7.634766 0.171875 m /period glyphshow
11.449219 0.171875 m /zero glyphshow
grestore
gsave
/o {
gsave
newpath
translate
0 0 m
4 0 l
gsave
0.000 setgray
fill
grestore
stroke
grestore
} bind def
105.3 469.543 o
grestore
gsave
/o {
gsave
newpath
translate
0 0 m
-4 0 l
gsave
0.000 setgray
fill
grestore
stroke
grestore
} bind def
758.16 469.543 o
grestore
gsave
84.175000 465.003795 translate
0.000000 rotate
0.000000 0.171875 m /three glyphshow
7.634766 0.171875 m /period glyphshow
11.449219 0.171875 m /five glyphshow
grestore
gsave
/o {
gsave
newpath
translate
0 0 m
4 0 l
gsave
0.000 setgray
fill
grestore
stroke
grestore
} bind def
105.3 537.84 o
grestore
gsave
/o {
gsave
newpath
translate
0 0 m
-4 0 l
gsave
0.000 setgray
fill
grestore
stroke
grestore
} bind def
758.16 537.84 o
grestore
gsave
83.596875 533.300938 translate
0.000000 rotate
0.000000 0.171875 m /four glyphshow
7.634766 0.171875 m /period glyphshow
11.449219 0.171875 m /zero glyphshow
grestore
gsave
78.596875 257.229688 translate
90.000000 rotate
0.000000 2.500000 m /E glyphshow
7.582031 2.500000 m /n glyphshow
15.187500 2.500000 m /t glyphshow
19.892578 2.500000 m /a glyphshow
27.246094 2.500000 m /n glyphshow
34.851562 2.500000 m /g glyphshow
42.468750 2.500000 m /l glyphshow
45.802734 2.500000 m /e glyphshow
53.185547 2.500000 m /m glyphshow
64.875000 2.500000 m /e glyphshow
72.257812 2.500000 m /n glyphshow
79.863281 2.500000 m /t glyphshow
grestore
1.000 setlinewidth
2 setlinecap
gsave
105.3 537.84 m
758.16 537.84 l
stroke
grestore
gsave
758.16 59.76 m
758.16 537.84 l
stroke
grestore
gsave
105.3 59.76 m
758.16 59.76 l
stroke
grestore
gsave
105.3 59.76 m
105.3 537.84 l
stroke
grestore
/BitstreamVeraSans-Roman findfont
14.400 scalefont
setfont
gsave
301.909688 539.933750 translate
0.000000 rotate
0.000000 2.906250 m /E glyphshow
9.082642 2.906250 m /v glyphshow
17.589722 2.906250 m /o glyphshow
26.384583 2.906250 m /l glyphshow
30.378418 2.906250 m /u glyphshow
39.489136 2.906250 m /t glyphshow
45.125427 2.906250 m /i glyphshow
49.119263 2.906250 m /o glyphshow
57.914124 2.906250 m /n glyphshow
67.024841 2.906250 m /space glyphshow
71.594238 2.906250 m /o glyphshow
80.389099 2.906250 m /f glyphshow
85.449829 2.906250 m /space glyphshow
90.019226 2.906250 m /three glyphshow
99.165039 2.906250 m /d glyphshow
108.289795 2.906250 m /one glyphshow
117.435608 2.906250 m /space glyphshow
122.005005 2.906250 m /parenleft glyphshow
127.613220 2.906250 m /m glyphshow
141.616211 2.906250 m /e glyphshow
150.460205 2.906250 m /a glyphshow
159.269104 2.906250 m /s glyphshow
166.758423 2.906250 m /u glyphshow
175.869141 2.906250 m /r glyphshow
181.404175 2.906250 m /e glyphshow
190.248169 2.906250 m /colon glyphshow
195.091309 2.906250 m /space glyphshow
199.660706 2.906250 m /e glyphshow
208.504700 2.906250 m /n glyphshow
217.615417 2.906250 m /t glyphshow
223.251709 2.906250 m /r glyphshow
228.786743 2.906250 m /o glyphshow
237.581604 2.906250 m /p glyphshow
246.706360 2.906250 m /y glyphshow
255.213440 2.906250 m /parenright glyphshow
grestore
gsave
601.183 298.104 m
750.96 298.104 l
750.96 530.64 l
601.183 530.64 l
601.183 298.104 l
cl
gsave
1.000 setgray
fill
grestore
stroke
grestore
0.000 0.000 1.000 setrgbcolor
gsave
611.263 519.279 m
631.423 519.279 l
stroke
grestore
0.000 setgray
gsave
647.262500 511.333125 translate
0.000000 rotate
0.000000 2.906250 m /p glyphshow
9.124756 2.906250 m /space glyphshow
13.694153 2.906250 m /equal glyphshow
25.738831 2.906250 m /space glyphshow
30.308228 2.906250 m /zero glyphshow
39.454041 2.906250 m /period glyphshow
44.023438 2.906250 m /zero glyphshow
53.169250 2.906250 m /zero glyphshow
62.315063 2.906250 m /zero glyphshow
71.460876 2.906250 m /zero glyphshow
80.606689 2.906250 m /zero glyphshow
89.752502 2.906250 m /zero glyphshow
grestore
0.000 0.500 0.000 setrgbcolor
gsave
611.263 498.533 m
631.423 498.533 l
stroke
grestore
0.000 setgray
gsave
647.262500 490.586250 translate
0.000000 rotate
0.000000 2.906250 m /p glyphshow
9.124756 2.906250 m /space glyphshow
13.694153 2.906250 m /equal glyphshow
25.738831 2.906250 m /space glyphshow
30.308228 2.906250 m /zero glyphshow
39.454041 2.906250 m /period glyphshow
44.023438 2.906250 m /one glyphshow
53.169250 2.906250 m /zero glyphshow
62.315063 2.906250 m /zero glyphshow
71.460876 2.906250 m /zero glyphshow
80.606689 2.906250 m /zero glyphshow
89.752502 2.906250 m /zero glyphshow
grestore
1.000 0.000 0.000 setrgbcolor
gsave
611.263 477.786 m
631.423 477.786 l
stroke
grestore
0.000 setgray
gsave
647.262500 469.839375 translate
0.000000 rotate
0.000000 2.906250 m /p glyphshow
9.124756 2.906250 m /space glyphshow
13.694153 2.906250 m /equal glyphshow
25.738831 2.906250 m /space glyphshow
30.308228 2.906250 m /zero glyphshow
39.454041 2.906250 m /period glyphshow
44.023438 2.906250 m /two glyphshow
53.169250 2.906250 m /zero glyphshow
62.315063 2.906250 m /zero glyphshow
71.460876 2.906250 m /zero glyphshow
80.606689 2.906250 m /zero glyphshow
89.752502 2.906250 m /zero glyphshow
grestore
0.000 0.750 0.750 setrgbcolor
gsave
611.263 457.039 m
631.423 457.039 l
stroke
grestore
0.000 setgray
gsave
647.262500 449.092500 translate
0.000000 rotate
0.000000 2.906250 m /p glyphshow
9.124756 2.906250 m /space glyphshow
13.694153 2.906250 m /equal glyphshow
25.738831 2.906250 m /space glyphshow
30.308228 2.906250 m /zero glyphshow
39.454041 2.906250 m /period glyphshow
44.023438 2.906250 m /three glyphshow
53.169250 2.906250 m /zero glyphshow
62.315063 2.906250 m /zero glyphshow
71.460876 2.906250 m /zero glyphshow
80.606689 2.906250 m /zero glyphshow
89.752502 2.906250 m /zero glyphshow
grestore
0.750 0.000 0.750 setrgbcolor
gsave
611.263 436.292 m
631.423 436.292 l
stroke
grestore
0.000 setgray
gsave
647.262500 428.345625 translate
0.000000 rotate
0.000000 2.906250 m /p glyphshow
9.124756 2.906250 m /space glyphshow
13.694153 2.906250 m /equal glyphshow
25.738831 2.906250 m /space glyphshow
30.308228 2.906250 m /zero glyphshow
39.454041 2.906250 m /period glyphshow
44.023438 2.906250 m /four glyphshow
53.169250 2.906250 m /zero glyphshow
62.315063 2.906250 m /zero glyphshow
71.460876 2.906250 m /zero glyphshow
80.606689 2.906250 m /zero glyphshow
89.752502 2.906250 m /zero glyphshow
grestore
0.750 0.750 0.000 setrgbcolor
gsave
611.263 415.545 m
631.423 415.545 l
stroke
grestore
0.000 setgray
gsave
647.262500 407.598750 translate
0.000000 rotate
0.000000 2.906250 m /p glyphshow
9.124756 2.906250 m /space glyphshow
13.694153 2.906250 m /equal glyphshow
25.738831 2.906250 m /space glyphshow
30.308228 2.906250 m /zero glyphshow
39.454041 2.906250 m /period glyphshow
44.023438 2.906250 m /five glyphshow
53.169250 2.906250 m /zero glyphshow
62.315063 2.906250 m /zero glyphshow
71.460876 2.906250 m /zero glyphshow
80.606689 2.906250 m /zero glyphshow
89.752502 2.906250 m /zero glyphshow
grestore
gsave
611.263 394.798 m
631.423 394.798 l
stroke
grestore
gsave
647.262500 386.851875 translate
0.000000 rotate
0.000000 2.906250 m /p glyphshow
9.124756 2.906250 m /space glyphshow
13.694153 2.906250 m /equal glyphshow
25.738831 2.906250 m /space glyphshow
30.308228 2.906250 m /zero glyphshow
39.454041 2.906250 m /period glyphshow
44.023438 2.906250 m /six glyphshow
53.169250 2.906250 m /zero glyphshow
62.315063 2.906250 m /zero glyphshow
71.460876 2.906250 m /zero glyphshow
80.606689 2.906250 m /zero glyphshow
89.752502 2.906250 m /zero glyphshow
grestore
0.000 0.000 1.000 setrgbcolor
gsave
611.263 374.051 m
631.423 374.051 l
stroke
grestore
0.000 setgray
gsave
647.262500 366.105000 translate
0.000000 rotate
0.000000 2.906250 m /p glyphshow
9.124756 2.906250 m /space glyphshow
13.694153 2.906250 m /equal glyphshow
25.738831 2.906250 m /space glyphshow
30.308228 2.906250 m /zero glyphshow
39.454041 2.906250 m /period glyphshow
44.023438 2.906250 m /seven glyphshow
53.169250 2.906250 m /zero glyphshow
62.315063 2.906250 m /zero glyphshow
71.460876 2.906250 m /zero glyphshow
80.606689 2.906250 m /zero glyphshow
89.752502 2.906250 m /zero glyphshow
grestore
0.000 0.500 0.000 setrgbcolor
gsave
611.263 353.304 m
631.423 353.304 l
stroke
grestore
0.000 setgray
gsave
647.262500 345.358125 translate
0.000000 rotate
0.000000 2.906250 m /p glyphshow
9.124756 2.906250 m /space glyphshow
13.694153 2.906250 m /equal glyphshow
25.738831 2.906250 m /space glyphshow
30.308228 2.906250 m /zero glyphshow
39.454041 2.906250 m /period glyphshow
44.023438 2.906250 m /eight glyphshow
53.169250 2.906250 m /zero glyphshow
62.315063 2.906250 m /zero glyphshow
71.460876 2.906250 m /zero glyphshow
80.606689 2.906250 m /zero glyphshow
89.752502 2.906250 m /zero glyphshow
grestore
1.000 0.000 0.000 setrgbcolor
gsave
611.263 332.558 m
631.423 332.558 l
stroke
grestore
0.000 setgray
gsave
647.262500 324.611250 translate
0.000000 rotate
0.000000 2.906250 m /p glyphshow
9.124756 2.906250 m /space glyphshow
13.694153 2.906250 m /equal glyphshow
25.738831 2.906250 m /space glyphshow
30.308228 2.906250 m /zero glyphshow
39.454041 2.906250 m /period glyphshow
44.023438 2.906250 m /nine glyphshow
53.169250 2.906250 m /zero glyphshow
62.315063 2.906250 m /zero glyphshow
71.460876 2.906250 m /zero glyphshow
80.606689 2.906250 m /zero glyphshow
89.752502 2.906250 m /zero glyphshow
grestore
0.000 0.750 0.750 setrgbcolor
gsave
611.263 311.811 m
631.423 311.811 l
stroke
grestore
0.000 setgray
gsave
647.262500 303.864375 translate
0.000000 rotate
0.000000 2.906250 m /p glyphshow
9.124756 2.906250 m /space glyphshow
13.694153 2.906250 m /equal glyphshow
25.738831 2.906250 m /space glyphshow
30.308228 2.906250 m /one glyphshow
39.454041 2.906250 m /period glyphshow
44.023438 2.906250 m /zero glyphshow
53.169250 2.906250 m /zero glyphshow
62.315063 2.906250 m /zero glyphshow
71.460876 2.906250 m /zero glyphshow
80.606689 2.906250 m /zero glyphshow
89.752502 2.906250 m /zero glyphshow
grestore

end
showpage
