%!PS-Adobe-3.0 EPSF-3.0
%%Title: 3d2.entropy.example.evolution.eps
%%Creator: matplotlib version 1.1.0, http://matplotlib.sourceforge.net/
%%CreationDate: Wed Dec  5 14:54:48 2012
%%Orientation: portrait
%%BoundingBox: -115 97 727 694
%%EndComments
%%BeginProlog
/mpldict 8 dict def
mpldict begin
/m { moveto } bind def
/l { lineto } bind def
/r { rlineto } bind def
/c { curveto } bind def
/cl { closepath } bind def
/box {
m
1 index 0 r
0 exch r
neg 0 r
cl
} bind def
/clipbox {
box
clip
newpath
} bind def
%!PS-Adobe-3.0 Resource-Font
%%Title: Bitstream Vera Sans
%%Copyright: Copyright (c) 2003 by Bitstream, Inc. All Rights Reserved.
%%Creator: Converted from TrueType to type 3 by PPR
25 dict begin
/_d{bind def}bind def
/_m{moveto}_d
/_l{lineto}_d
/_cl{closepath eofill}_d
/_c{curveto}_d
/_sc{7 -1 roll{setcachedevice}{pop pop pop pop pop pop}ifelse}_d
/_e{exec}_d
/FontName /BitstreamVeraSans-Roman def
/PaintType 0 def
/FontMatrix[.001 0 0 .001 0 0]def
/FontBBox[-183 -236 1287 928]def
/FontType 3 def
/Encoding [ /space /parenleft /parenright /period /zero /one /two /three /four /five /six /seven /eight /nine /colon /equal /E /G /a /d /e /f /g /i /l /m /n /o /p /r /s /t /u /v /y ] def
/FontInfo 10 dict dup begin
/FamilyName (Bitstream Vera Sans) def
/FullName (Bitstream Vera Sans) def
/Notice (Copyright (c) 2003 by Bitstream, Inc. All Rights Reserved. Bitstream Vera is a trademark of Bitstream, Inc.) def
/Weight (Roman) def
/Version (Release 1.10) def
/ItalicAngle 0.0 def
/isFixedPitch false def
/UnderlinePosition -213 def
/UnderlineThickness 143 def
end readonly def
/CharStrings 35 dict dup begin
/space{318 0 0 0 0 0 _sc
}_d
/parenleft{390 0 86 -131 310 759 _sc
310 759 _m
266 683 234 609 213 536 _c
191 463 181 389 181 314 _c
181 238 191 164 213 91 _c
234 17 266 -56 310 -131 _c
232 -131 _l
183 -54 146 20 122 94 _c
98 168 86 241 86 314 _c
86 386 98 459 122 533 _c
146 607 182 682 232 759 _c
310 759 _l
_cl}_d
/parenright{390 0 80 -131 304 759 _sc
80 759 _m
158 759 _l
206 682 243 607 267 533 _c
291 459 304 386 304 314 _c
304 241 291 168 267 94 _c
243 20 206 -54 158 -131 _c
80 -131 _l
123 -56 155 17 177 91 _c
198 164 209 238 209 314 _c
209 389 198 463 177 536 _c
155 609 123 683 80 759 _c
_cl}_d
/period{318 0 107 0 210 124 _sc
107 124 _m
210 124 _l
210 0 _l
107 0 _l
107 124 _l
_cl}_d
/zero{636 0 66 -13 570 742 _sc
318 664 _m
267 664 229 639 203 589 _c
177 539 165 464 165 364 _c
165 264 177 189 203 139 _c
229 89 267 64 318 64 _c
369 64 407 89 433 139 _c
458 189 471 264 471 364 _c
471 464 458 539 433 589 _c
407 639 369 664 318 664 _c
318 742 _m
399 742 461 709 505 645 _c
548 580 570 486 570 364 _c
570 241 548 147 505 83 _c
461 19 399 -13 318 -13 _c
236 -13 173 19 130 83 _c
87 147 66 241 66 364 _c
66 486 87 580 130 645 _c
173 709 236 742 318 742 _c
_cl}_d
/one{636 0 110 0 544 729 _sc
124 83 _m
285 83 _l
285 639 _l
110 604 _l
110 694 _l
284 729 _l
383 729 _l
383 83 _l
544 83 _l
544 0 _l
124 0 _l
124 83 _l
_cl}_d
/two{{636 0 73 0 536 742 _sc
192 83 _m
536 83 _l
536 0 _l
73 0 _l
73 83 _l
110 121 161 173 226 239 _c
290 304 331 346 348 365 _c
380 400 402 430 414 455 _c
426 479 433 504 433 528 _c
433 566 419 598 392 622 _c
365 646 330 659 286 659 _c
255 659 222 653 188 643 _c
154 632 117 616 78 594 _c
78 694 _l
118 710 155 722 189 730 _c
223 738 255 742 284 742 _c
359 742 419 723 464 685 _c
509 647 532 597 532 534 _c
532 504 526 475 515 449 _c
504 422 484 390 454 354 _c
446 344 420 317 376 272 _c
332 227 271 164 192 83 _c
_cl}_e}_d
/three{{636 0 76 -13 556 742 _sc
406 393 _m
453 383 490 362 516 330 _c
542 298 556 258 556 212 _c
556 140 531 84 482 45 _c
432 6 362 -13 271 -13 _c
240 -13 208 -10 176 -4 _c
144 1 110 10 76 22 _c
76 117 _l
103 101 133 89 166 81 _c
198 73 232 69 268 69 _c
330 69 377 81 409 105 _c
441 129 458 165 458 212 _c
458 254 443 288 413 312 _c
383 336 341 349 287 349 _c
202 349 _l
202 430 _l
291 430 _l
339 430 376 439 402 459 _c
428 478 441 506 441 543 _c
441 580 427 609 401 629 _c
374 649 336 659 287 659 _c
260 659 231 656 200 650 _c
169 644 135 635 98 623 _c
98 711 _l
135 721 170 729 203 734 _c
235 739 266 742 296 742 _c
}_e{370 742 429 725 473 691 _c
517 657 539 611 539 553 _c
539 513 527 479 504 451 _c
481 423 448 403 406 393 _c
_cl}_e}_d
/four{636 0 49 0 580 729 _sc
378 643 _m
129 254 _l
378 254 _l
378 643 _l
352 729 _m
476 729 _l
476 254 _l
580 254 _l
580 172 _l
476 172 _l
476 0 _l
378 0 _l
378 172 _l
49 172 _l
49 267 _l
352 729 _l
_cl}_d
/five{{636 0 77 -13 549 729 _sc
108 729 _m
495 729 _l
495 646 _l
198 646 _l
198 467 _l
212 472 227 476 241 478 _c
255 480 270 482 284 482 _c
365 482 429 459 477 415 _c
525 370 549 310 549 234 _c
549 155 524 94 475 51 _c
426 8 357 -13 269 -13 _c
238 -13 207 -10 175 -6 _c
143 -1 111 6 77 17 _c
77 116 _l
106 100 136 88 168 80 _c
199 72 232 69 267 69 _c
323 69 368 83 401 113 _c
433 143 450 183 450 234 _c
450 284 433 324 401 354 _c
368 384 323 399 267 399 _c
241 399 214 396 188 390 _c
162 384 135 375 108 363 _c
108 729 _l
_cl}_e}_d
/six{{636 0 70 -13 573 742 _sc
330 404 _m
286 404 251 388 225 358 _c
199 328 186 286 186 234 _c
186 181 199 139 225 109 _c
251 79 286 64 330 64 _c
374 64 409 79 435 109 _c
461 139 474 181 474 234 _c
474 286 461 328 435 358 _c
409 388 374 404 330 404 _c
526 713 _m
526 623 _l
501 635 476 644 451 650 _c
425 656 400 659 376 659 _c
310 659 260 637 226 593 _c
192 549 172 482 168 394 _c
187 422 211 444 240 459 _c
269 474 301 482 336 482 _c
409 482 467 459 509 415 _c
551 371 573 310 573 234 _c
573 159 550 99 506 54 _c
462 9 403 -13 330 -13 _c
246 -13 181 19 137 83 _c
92 147 70 241 70 364 _c
70 479 97 571 152 639 _c
206 707 280 742 372 742 _c
}_e{396 742 421 739 447 735 _c
472 730 498 723 526 713 _c
_cl}_e}_d
/seven{636 0 82 0 551 729 _sc
82 729 _m
551 729 _l
551 687 _l
286 0 _l
183 0 _l
432 646 _l
82 646 _l
82 729 _l
_cl}_d
/eight{{636 0 68 -13 568 742 _sc
318 346 _m
271 346 234 333 207 308 _c
180 283 167 249 167 205 _c
167 161 180 126 207 101 _c
234 76 271 64 318 64 _c
364 64 401 76 428 102 _c
455 127 469 161 469 205 _c
469 249 455 283 429 308 _c
402 333 365 346 318 346 _c
219 388 _m
177 398 144 418 120 447 _c
96 476 85 511 85 553 _c
85 611 105 657 147 691 _c
188 725 245 742 318 742 _c
390 742 447 725 489 691 _c
530 657 551 611 551 553 _c
551 511 539 476 515 447 _c
491 418 459 398 417 388 _c
464 377 501 355 528 323 _c
554 291 568 251 568 205 _c
568 134 546 80 503 43 _c
459 5 398 -13 318 -13 _c
237 -13 175 5 132 43 _c
89 80 68 134 68 205 _c
68 251 81 291 108 323 _c
134 355 171 377 219 388 _c
}_e{183 544 _m
183 506 194 476 218 455 _c
242 434 275 424 318 424 _c
360 424 393 434 417 455 _c
441 476 453 506 453 544 _c
453 582 441 611 417 632 _c
393 653 360 664 318 664 _c
275 664 242 653 218 632 _c
194 611 183 582 183 544 _c
_cl}_e}_d
/nine{{636 0 63 -13 566 742 _sc
110 15 _m
110 105 _l
134 93 159 84 185 78 _c
210 72 235 69 260 69 _c
324 69 374 90 408 134 _c
442 178 462 244 468 334 _c
448 306 424 284 396 269 _c
367 254 335 247 300 247 _c
226 247 168 269 126 313 _c
84 357 63 417 63 494 _c
63 568 85 628 129 674 _c
173 719 232 742 306 742 _c
390 742 455 709 499 645 _c
543 580 566 486 566 364 _c
566 248 538 157 484 89 _c
429 21 356 -13 264 -13 _c
239 -13 214 -10 189 -6 _c
163 -2 137 5 110 15 _c
306 324 _m
350 324 385 339 411 369 _c
437 399 450 441 450 494 _c
450 546 437 588 411 618 _c
385 648 350 664 306 664 _c
262 664 227 648 201 618 _c
175 588 162 546 162 494 _c
}_e{162 441 175 399 201 369 _c
227 339 262 324 306 324 _c
_cl}_e}_d
/colon{337 0 117 0 220 517 _sc
117 124 _m
220 124 _l
220 0 _l
117 0 _l
117 124 _l
117 517 _m
220 517 _l
220 393 _l
117 393 _l
117 517 _l
_cl}_d
/equal{838 0 106 172 732 454 _sc
106 454 _m
732 454 _l
732 372 _l
106 372 _l
106 454 _l
106 255 _m
732 255 _l
732 172 _l
106 172 _l
106 255 _l
_cl}_d
/E{632 0 98 0 568 729 _sc
98 729 _m
559 729 _l
559 646 _l
197 646 _l
197 430 _l
544 430 _l
544 347 _l
197 347 _l
197 83 _l
568 83 _l
568 0 _l
98 0 _l
98 729 _l
_cl}_d
/G{{775 0 56 -13 693 742 _sc
595 104 _m
595 300 _l
434 300 _l
434 381 _l
693 381 _l
693 68 _l
655 40 613 20 567 7 _c
521 -6 472 -13 420 -13 _c
306 -13 216 20 152 86 _c
88 152 56 245 56 364 _c
56 482 88 575 152 642 _c
216 708 306 742 420 742 _c
467 742 512 736 555 724 _c
598 712 638 695 674 673 _c
674 568 _l
637 598 598 621 557 637 _c
516 653 473 661 428 661 _c
338 661 271 636 227 586 _c
182 536 160 462 160 364 _c
160 265 182 191 227 141 _c
271 91 338 67 428 67 _c
462 67 493 70 521 76 _c
549 82 573 91 595 104 _c
_cl}_e}_d
/a{{613 0 60 -13 522 560 _sc
343 275 _m
270 275 220 266 192 250 _c
164 233 150 205 150 165 _c
150 133 160 107 181 89 _c
202 70 231 61 267 61 _c
317 61 357 78 387 114 _c
417 149 432 196 432 255 _c
432 275 _l
343 275 _l
522 312 _m
522 0 _l
432 0 _l
432 83 _l
411 49 385 25 355 10 _c
325 -5 287 -13 243 -13 _c
187 -13 142 2 109 33 _c
76 64 60 106 60 159 _c
60 220 80 266 122 298 _c
163 329 224 345 306 345 _c
432 345 _l
432 354 _l
432 395 418 427 391 450 _c
364 472 326 484 277 484 _c
245 484 215 480 185 472 _c
155 464 127 453 100 439 _c
100 522 _l
}_e{132 534 164 544 195 550 _c
226 556 256 560 286 560 _c
365 560 424 539 463 498 _c
502 457 522 395 522 312 _c
_cl}_e}_d
/d{{635 0 55 -13 544 760 _sc
454 464 _m
454 760 _l
544 760 _l
544 0 _l
454 0 _l
454 82 _l
435 49 411 25 382 10 _c
353 -5 319 -13 279 -13 _c
213 -13 159 13 117 65 _c
75 117 55 187 55 273 _c
55 359 75 428 117 481 _c
159 533 213 560 279 560 _c
319 560 353 552 382 536 _c
411 520 435 496 454 464 _c
148 273 _m
148 207 161 155 188 117 _c
215 79 253 61 301 61 _c
348 61 385 79 413 117 _c
440 155 454 207 454 273 _c
454 339 440 390 413 428 _c
385 466 348 485 301 485 _c
253 485 215 466 188 428 _c
161 390 148 339 148 273 _c
_cl}_e}_d
/e{{615 0 55 -13 562 560 _sc
562 296 _m
562 252 _l
149 252 _l
153 190 171 142 205 110 _c
238 78 284 62 344 62 _c
378 62 412 66 444 74 _c
476 82 509 95 541 113 _c
541 28 _l
509 14 476 3 442 -3 _c
408 -9 373 -13 339 -13 _c
251 -13 182 12 131 62 _c
80 112 55 181 55 268 _c
55 357 79 428 127 481 _c
175 533 241 560 323 560 _c
397 560 455 536 498 489 _c
540 441 562 377 562 296 _c
472 322 _m
471 371 457 410 431 440 _c
404 469 368 484 324 484 _c
274 484 234 469 204 441 _c
174 413 156 373 152 322 _c
472 322 _l
_cl}_e}_d
/f{352 0 23 0 371 760 _sc
371 760 _m
371 685 _l
285 685 _l
253 685 230 678 218 665 _c
205 652 199 629 199 595 _c
199 547 _l
347 547 _l
347 477 _l
199 477 _l
199 0 _l
109 0 _l
109 477 _l
23 477 _l
23 547 _l
109 547 _l
109 585 _l
109 645 123 690 151 718 _c
179 746 224 760 286 760 _c
371 760 _l
_cl}_d
/g{{635 0 55 -207 544 560 _sc
454 280 _m
454 344 440 395 414 431 _c
387 467 349 485 301 485 _c
253 485 215 467 188 431 _c
161 395 148 344 148 280 _c
148 215 161 165 188 129 _c
215 93 253 75 301 75 _c
349 75 387 93 414 129 _c
440 165 454 215 454 280 _c
544 68 _m
544 -24 523 -93 482 -139 _c
440 -184 377 -207 292 -207 _c
260 -207 231 -204 203 -200 _c
175 -195 147 -188 121 -178 _c
121 -91 _l
147 -105 173 -115 199 -122 _c
225 -129 251 -133 278 -133 _c
336 -133 380 -117 410 -87 _c
439 -56 454 -10 454 52 _c
454 96 _l
435 64 411 40 382 24 _c
353 8 319 0 279 0 _c
211 0 157 25 116 76 _c
75 127 55 195 55 280 _c
55 364 75 432 116 483 _c
157 534 211 560 279 560 _c
}_e{319 560 353 552 382 536 _c
411 520 435 496 454 464 _c
454 547 _l
544 547 _l
544 68 _l
_cl}_e}_d
/i{278 0 94 0 184 760 _sc
94 547 _m
184 547 _l
184 0 _l
94 0 _l
94 547 _l
94 760 _m
184 760 _l
184 646 _l
94 646 _l
94 760 _l
_cl}_d
/l{278 0 94 0 184 760 _sc
94 760 _m
184 760 _l
184 0 _l
94 0 _l
94 760 _l
_cl}_d
/m{{974 0 91 0 889 560 _sc
520 442 _m
542 482 569 511 600 531 _c
631 550 668 560 711 560 _c
767 560 811 540 842 500 _c
873 460 889 403 889 330 _c
889 0 _l
799 0 _l
799 327 _l
799 379 789 418 771 444 _c
752 469 724 482 686 482 _c
639 482 602 466 575 435 _c
548 404 535 362 535 309 _c
535 0 _l
445 0 _l
445 327 _l
445 379 435 418 417 444 _c
398 469 369 482 331 482 _c
285 482 248 466 221 435 _c
194 404 181 362 181 309 _c
181 0 _l
91 0 _l
91 547 _l
181 547 _l
181 462 _l
201 495 226 520 255 536 _c
283 552 317 560 357 560 _c
397 560 430 550 458 530 _c
486 510 506 480 520 442 _c
}_e{_cl}_e}_d
/n{634 0 91 0 549 560 _sc
549 330 _m
549 0 _l
459 0 _l
459 327 _l
459 379 448 417 428 443 _c
408 469 378 482 338 482 _c
289 482 251 466 223 435 _c
195 404 181 362 181 309 _c
181 0 _l
91 0 _l
91 547 _l
181 547 _l
181 462 _l
202 494 227 519 257 535 _c
286 551 320 560 358 560 _c
420 560 468 540 500 501 _c
532 462 549 405 549 330 _c
_cl}_d
/o{612 0 55 -13 557 560 _sc
306 484 _m
258 484 220 465 192 427 _c
164 389 150 338 150 273 _c
150 207 163 156 191 118 _c
219 80 257 62 306 62 _c
354 62 392 80 420 118 _c
448 156 462 207 462 273 _c
462 337 448 389 420 427 _c
392 465 354 484 306 484 _c
306 560 _m
384 560 445 534 490 484 _c
534 433 557 363 557 273 _c
557 183 534 113 490 63 _c
445 12 384 -13 306 -13 _c
227 -13 165 12 121 63 _c
77 113 55 183 55 273 _c
55 363 77 433 121 484 _c
165 534 227 560 306 560 _c
_cl}_d
/p{{635 0 91 -207 580 560 _sc
181 82 _m
181 -207 _l
91 -207 _l
91 547 _l
181 547 _l
181 464 _l
199 496 223 520 252 536 _c
281 552 316 560 356 560 _c
422 560 476 533 518 481 _c
559 428 580 359 580 273 _c
580 187 559 117 518 65 _c
476 13 422 -13 356 -13 _c
316 -13 281 -5 252 10 _c
223 25 199 49 181 82 _c
487 273 _m
487 339 473 390 446 428 _c
418 466 381 485 334 485 _c
286 485 249 466 222 428 _c
194 390 181 339 181 273 _c
181 207 194 155 222 117 _c
249 79 286 61 334 61 _c
381 61 418 79 446 117 _c
473 155 487 207 487 273 _c
_cl}_e}_d
/r{411 0 91 0 411 560 _sc
411 463 _m
401 469 390 473 378 476 _c
366 478 353 480 339 480 _c
288 480 249 463 222 430 _c
194 397 181 350 181 288 _c
181 0 _l
91 0 _l
91 547 _l
181 547 _l
181 462 _l
199 495 224 520 254 536 _c
284 552 321 560 365 560 _c
371 560 378 559 386 559 _c
393 558 401 557 411 555 _c
411 463 _l
_cl}_d
/s{{521 0 54 -13 472 560 _sc
443 531 _m
443 446 _l
417 458 391 468 364 475 _c
336 481 308 485 279 485 _c
234 485 200 478 178 464 _c
156 450 145 430 145 403 _c
145 382 153 366 169 354 _c
185 342 217 330 265 320 _c
296 313 _l
360 299 405 279 432 255 _c
458 230 472 195 472 151 _c
472 100 452 60 412 31 _c
372 1 316 -13 246 -13 _c
216 -13 186 -10 154 -5 _c
122 0 89 8 54 20 _c
54 113 _l
87 95 120 82 152 74 _c
184 65 216 61 248 61 _c
290 61 323 68 346 82 _c
368 96 380 117 380 144 _c
380 168 371 187 355 200 _c
339 213 303 226 247 238 _c
216 245 _l
160 257 119 275 95 299 _c
70 323 58 356 58 399 _c
58 450 76 490 112 518 _c
148 546 200 560 268 560 _c
}_e{301 560 332 557 362 552 _c
391 547 418 540 443 531 _c
_cl}_e}_d
/t{392 0 27 0 368 702 _sc
183 702 _m
183 547 _l
368 547 _l
368 477 _l
183 477 _l
183 180 _l
183 135 189 106 201 94 _c
213 81 238 75 276 75 _c
368 75 _l
368 0 _l
276 0 _l
206 0 158 13 132 39 _c
106 65 93 112 93 180 _c
93 477 _l
27 477 _l
27 547 _l
93 547 _l
93 702 _l
183 702 _l
_cl}_d
/u{634 0 85 -13 543 547 _sc
85 216 _m
85 547 _l
175 547 _l
175 219 _l
175 167 185 129 205 103 _c
225 77 255 64 296 64 _c
344 64 383 79 411 110 _c
439 141 453 183 453 237 _c
453 547 _l
543 547 _l
543 0 _l
453 0 _l
453 84 _l
431 50 405 26 377 10 _c
348 -5 315 -13 277 -13 _c
214 -13 166 6 134 45 _c
101 83 85 140 85 216 _c
_cl}_d
/v{592 0 30 0 562 547 _sc
30 547 _m
125 547 _l
296 88 _l
467 547 _l
562 547 _l
357 0 _l
235 0 _l
30 547 _l
_cl}_d
/y{592 0 30 -207 562 547 _sc
322 -50 _m
296 -114 271 -157 247 -177 _c
223 -197 191 -207 151 -207 _c
79 -207 _l
79 -132 _l
132 -132 _l
156 -132 175 -126 189 -114 _c
203 -102 218 -75 235 -31 _c
251 9 _l
30 547 _l
125 547 _l
296 119 _l
467 547 _l
562 547 _l
322 -50 _l
_cl}_d
end readonly def

/BuildGlyph
 {exch begin
 CharStrings exch
 2 copy known not{pop /.notdef}if
 true 3 1 roll get exec
 end}_d

/BuildChar {
 1 index /Encoding get exch get
 1 index /BuildGlyph get exec
}_d

FontName currentdict end definefont pop
end
%%EndProlog
mpldict begin
-115.2 97.2 translate
842.4 597.6 0 0 clipbox
gsave
0 0 m
842.4 0 l
842.4 597.6 l
0 597.6 l
cl
1.000 setgray
fill
grestore
gsave
105.3 59.76 m
758.16 59.76 l
758.16 537.84 l
105.3 537.84 l
cl
1.000 setgray
fill
grestore
1.000 setlinewidth
1 setlinejoin
2 setlinecap
[] 0 setdash
0.000 0.000 1.000 setrgbcolor
gsave
652.9 478.1 105.3 59.76 clipbox
105.3 116.605 m
107.911 69.4426 l
110.523 67.3813 l
118.357 67.3813 l
120.969 63.4436 l
128.803 63.4079 l
131.414 63.1569 l
136.637 63.1569 l
139.249 60.9122 l
147.083 60.8846 l
149.694 60.5816 l
170.586 60.5816 l
173.197 60.2254 l
188.866 60.2168 l
191.478 60.0861 l
201.923 60.0191 l
204.535 59.8806 l
311.604 59.7706 l
348.164 59.7625 l
755.549 59.76 l
755.549 59.76 l
stroke
grestore
0.000 0.500 0.000 setrgbcolor
gsave
652.9 478.1 105.3 59.76 clipbox
105.3 215.112 m
107.911 167.67 l
110.523 167.67 l
113.134 150.855 l
115.746 138.571 l
118.357 127.943 l
120.969 127.068 l
123.58 127.068 l
126.192 124.28 l
128.803 115.456 l
131.414 114.887 l
134.026 106.235 l
136.637 101.791 l
149.694 101.791 l
152.306 101.286 l
154.917 101.286 l
157.529 100.277 l
162.752 100.277 l
165.363 99.3217 l
167.975 98.1645 l
175.809 98.1645 l
178.42 97.6668 l
181.032 97.5106 l
183.643 97.1194 l
204.535 97.1194 l
207.146 96.1893 l
220.203 96.1133 l
222.815 95.3197 l
225.426 95.3197 l
228.038 94.9548 l
259.375 94.8664 l
261.986 94.512 l
272.432 94.4588 l
275.044 94.2587 l
311.604 94.1862 l
316.827 94.1179 l
476.124 94.0076 l
718.988 93.9963 l
755.549 93.9957 l
755.549 93.9957 l
stroke
grestore
1.000 0.000 0.000 setrgbcolor
gsave
652.9 478.1 105.3 59.76 clipbox
105.3 389.709 m
107.911 256.72 l
110.523 217.328 l
113.134 217.328 l
115.746 202.011 l
118.357 177.409 l
120.969 137.945 l
123.58 137.092 l
128.803 137.092 l
131.414 134.407 l
136.637 134.375 l
139.249 128.889 l
141.86 128.453 l
147.083 128.388 l
152.306 128.325 l
154.917 127.662 l
157.529 125.841 l
160.14 125.129 l
162.752 123.337 l
173.197 123.337 l
175.809 122.057 l
178.42 121.729 l
183.643 121.638 l
191.478 121.638 l
196.7 119.399 l
199.312 119.399 l
201.923 118.96 l
204.535 118.014 l
233.261 118.014 l
235.872 117.535 l
241.095 117.435 l
243.706 117.231 l
248.929 117.23 l
251.541 117.111 l
256.764 117.111 l
259.375 116.89 l
261.986 116.89 l
264.598 116.751 l
267.209 116.751 l
269.821 116.638 l
280.266 116.607 l
282.878 116.491 l
298.547 116.399 l
303.769 116.292 l
306.381 116.292 l
308.992 116.1 l
316.827 116.063 l
353.387 115.987 l
358.61 115.92 l
755.549 115.817 l
755.549 115.817 l
stroke
grestore
0.000 0.750 0.750 setrgbcolor
gsave
652.9 478.1 105.3 59.76 clipbox
105.3 347.004 m
107.911 334.641 l
110.523 259.77 l
113.134 259.77 l
115.746 238.002 l
118.357 220.345 l
120.969 217.315 l
123.58 161.2 l
128.803 161.2 l
131.414 159.386 l
134.026 152.619 l
136.637 151.033 l
141.86 151.033 l
144.472 147.566 l
149.694 147.566 l
152.306 145.707 l
154.917 145.066 l
157.529 145.066 l
160.14 139.61 l
162.752 138.744 l
167.975 138.744 l
170.586 138.448 l
173.197 137.998 l
194.089 137.998 l
196.7 136.322 l
217.592 136.322 l
220.203 135.401 l
222.815 135.401 l
225.426 135.133 l
228.038 134.176 l
243.706 134.099 l
246.318 133.832 l
256.764 133.832 l
259.375 133.466 l
277.655 133.454 l
285.489 133.095 l
301.158 132.993 l
306.381 132.882 l
366.444 132.776 l
379.501 132.713 l
755.549 132.648 l
755.549 132.648 l
stroke
grestore
0.750 0.000 0.750 setrgbcolor
gsave
652.9 478.1 105.3 59.76 clipbox
105.3 361.187 m
107.911 329.962 l
110.523 276.656 l
113.134 266.676 l
115.746 247.464 l
118.357 240.262 l
120.969 215.966 l
123.58 200.71 l
126.192 192.906 l
128.803 183.08 l
131.414 173.797 l
134.026 173.797 l
136.637 161.476 l
147.083 161.476 l
149.694 161.165 l
154.917 161.165 l
157.529 160.582 l
160.14 160.582 l
162.752 159.912 l
165.363 158.147 l
167.975 158.147 l
173.197 155.311 l
175.809 151.111 l
178.42 151.111 l
181.032 150.868 l
183.643 149.967 l
220.203 149.931 l
222.815 149.593 l
230.649 149.525 l
233.261 148.411 l
243.706 148.411 l
246.318 148.242 l
248.929 148.242 l
251.541 148.087 l
254.152 148.052 l
256.764 147.554 l
259.375 147.554 l
261.986 147.228 l
264.598 147.118 l
267.209 146.886 l
282.878 146.772 l
288.101 146.691 l
314.215 146.677 l
316.827 146.5 l
329.884 146.481 l
332.495 146.353 l
345.552 146.319 l
350.775 146.23 l
395.17 146.148 l
403.004 146.109 l
755.549 146.045 l
755.549 146.045 l
stroke
grestore
0.750 0.750 0.000 setrgbcolor
gsave
652.9 478.1 105.3 59.76 clipbox
105.3 356.793 m
107.911 356.793 l
110.523 286.816 l
113.134 261.601 l
115.746 259.106 l
118.357 238.054 l
120.969 234.46 l
123.58 227.694 l
126.192 194.817 l
128.803 182.756 l
131.414 177.102 l
134.026 176.332 l
136.637 176.141 l
139.249 175.811 l
147.083 175.801 l
149.694 173.181 l
152.306 173.181 l
154.917 172.985 l
157.529 172.985 l
160.14 166.818 l
162.752 166.818 l
165.363 165.592 l
170.586 165.592 l
173.197 164.354 l
183.643 164.354 l
186.255 162.6 l
191.478 162.6 l
194.089 162.478 l
196.7 160.513 l
204.535 160.513 l
207.146 159.835 l
209.758 158.409 l
241.095 158.409 l
243.706 158.157 l
264.598 158.048 l
267.209 157.624 l
280.266 157.624 l
282.878 157.37 l
285.489 157.37 l
288.101 157.091 l
314.215 157.023 l
319.438 156.954 l
353.387 156.907 l
403.004 156.808 l
429.119 156.757 l
755.549 156.724 l
755.549 156.724 l
stroke
grestore
0.000 setgray
gsave
652.9 478.1 105.3 59.76 clipbox
105.3 421.687 m
107.911 392.974 l
110.523 370.589 l
113.134 293.179 l
115.746 287.182 l
118.357 251.913 l
120.969 220.428 l
123.58 198.168 l
131.414 198.168 l
134.026 194.672 l
136.637 191.705 l
139.249 185.255 l
144.472 185.255 l
147.083 183.434 l
149.694 180.006 l
152.306 179.558 l
157.529 179.558 l
160.14 177.56 l
162.752 177.56 l
165.363 176.697 l
170.586 176.697 l
173.197 175.187 l
175.809 172.711 l
186.255 172.711 l
188.866 169.534 l
191.478 168.988 l
220.203 168.965 l
222.815 168.696 l
230.649 168.696 l
233.261 167.961 l
235.872 166.7 l
246.318 166.602 l
248.929 166.5 l
251.541 165.714 l
256.764 165.653 l
295.935 165.59 l
301.158 165.516 l
324.661 165.433 l
332.495 165.387 l
342.941 165.335 l
348.164 165.272 l
403.004 165.174 l
423.896 165.126 l
687.651 165.092 l
755.549 165.092 l
755.549 165.092 l
stroke
grestore
0.000 0.000 1.000 setrgbcolor
gsave
652.9 478.1 105.3 59.76 clipbox
105.3 396.596 m
107.911 316.927 l
110.523 315.271 l
113.134 280.463 l
115.746 280.463 l
118.357 273.074 l
120.969 263.205 l
123.58 251.475 l
126.192 211.045 l
128.803 211.045 l
131.414 210.865 l
134.026 210.302 l
136.637 202.64 l
139.249 202.64 l
141.86 190.936 l
144.472 190.936 l
147.083 187.467 l
154.917 187.467 l
157.529 185.72 l
160.14 185.72 l
162.752 184.617 l
165.363 184.617 l
167.975 184.349 l
173.197 184.349 l
175.809 184.09 l
178.42 181.325 l
183.643 181.262 l
186.255 180.944 l
188.866 178.456 l
194.089 178.456 l
196.7 175.455 l
222.815 175.403 l
225.426 175.191 l
228.038 175.191 l
230.649 173.876 l
233.261 173.789 l
238.483 173.187 l
246.318 173.187 l
248.929 172.855 l
264.598 172.752 l
267.209 172.577 l
280.266 172.399 l
290.712 172.399 l
293.324 172.067 l
308.992 172.067 l
314.215 171.895 l
322.05 171.794 l
327.272 171.7 l
345.552 171.676 l
350.775 171.512 l
557.079 171.401 l
755.549 171.4 l
755.549 171.4 l
stroke
grestore
0.000 0.500 0.000 setrgbcolor
gsave
652.9 478.1 105.3 59.76 clipbox
105.3 480.569 m
107.911 412.11 l
110.523 348.416 l
113.134 348.346 l
115.746 275.518 l
118.357 275.518 l
120.969 237.298 l
123.58 237.298 l
126.192 231.778 l
128.803 227.843 l
131.414 213.715 l
134.026 206.432 l
136.637 197 l
141.86 197 l
144.472 196.846 l
157.529 196.846 l
160.14 194.417 l
162.752 194.417 l
165.363 193.581 l
167.975 193.368 l
170.586 190.262 l
173.197 188.084 l
175.809 187.278 l
178.42 187.235 l
181.032 186.709 l
183.643 186.709 l
186.255 185.287 l
188.866 183.451 l
191.478 182.041 l
209.758 182.012 l
212.369 180.751 l
214.98 180.161 l
217.592 179.182 l
259.375 179.097 l
261.986 179.039 l
264.598 178.614 l
275.044 178.614 l
277.655 178.428 l
280.266 177.669 l
285.489 177.669 l
288.101 177.382 l
293.324 177.272 l
301.158 177.194 l
314.215 176.977 l
332.495 176.918 l
335.107 176.771 l
340.33 176.725 l
342.941 176.547 l
363.833 176.44 l
366.444 176.276 l
384.724 176.194 l
389.947 176.091 l
408.227 176.073 l
413.45 175.967 l
483.959 175.868 l
504.85 175.841 l
755.549 175.808 l
755.549 175.808 l
stroke
grestore
1.000 0.000 0.000 setrgbcolor
gsave
652.9 478.1 105.3 59.76 clipbox
105.3 468.157 m
107.911 373.833 l
110.523 283.349 l
113.134 283.349 l
115.746 251.871 l
118.357 251.871 l
120.969 222.665 l
123.58 221.071 l
126.192 210.228 l
131.414 210.228 l
134.026 200.329 l
141.86 200.329 l
144.472 195.999 l
147.083 193.949 l
154.917 193.949 l
157.529 193.496 l
160.14 188.743 l
162.752 188.743 l
165.363 187.441 l
167.975 187.441 l
170.586 185.763 l
173.197 184.746 l
194.089 184.667 l
196.7 184.302 l
207.146 184.302 l
209.758 184.058 l
214.98 184.018 l
217.592 183.13 l
220.203 183.13 l
222.815 182.212 l
225.426 181.99 l
228.038 181.99 l
230.649 181.836 l
233.261 181.57 l
235.872 181.57 l
238.483 180.455 l
248.929 180.455 l
251.541 180.174 l
272.432 180.169 l
282.878 179.647 l
285.489 179.624 l
288.101 179.339 l
295.935 179.272 l
298.547 179.1 l
308.992 179.071 l
316.827 179.071 l
319.438 178.929 l
329.884 178.842 l
332.495 178.633 l
400.393 178.526 l
455.233 178.453 l
653.702 178.419 l
755.549 178.418 l
755.549 178.418 l
stroke
grestore
0.000 0.750 0.750 setrgbcolor
gsave
652.9 478.1 105.3 59.76 clipbox
105.3 440.215 m
107.911 412.173 l
110.523 365.607 l
113.134 354.693 l
115.746 354.693 l
118.357 336.836 l
120.969 294.151 l
123.58 273.261 l
126.192 228.262 l
128.803 212.907 l
131.414 200.566 l
134.026 200.566 l
136.637 197.312 l
141.86 197.312 l
144.472 196.608 l
157.529 196.608 l
160.14 191.076 l
162.752 189.166 l
165.363 189.166 l
167.975 188.575 l
183.643 188.575 l
186.255 185.313 l
191.478 185.313 l
194.089 185.19 l
201.923 185.19 l
204.535 184.392 l
207.146 184.246 l
212.369 183.259 l
220.203 183.208 l
222.815 183.208 l
225.426 183.061 l
228.038 183.061 l
230.649 182.421 l
233.261 182.421 l
235.872 181.115 l
246.318 181.115 l
248.929 180.297 l
251.541 180.053 l
277.655 180.038 l
282.878 179.902 l
290.712 179.799 l
295.935 179.773 l
298.547 179.641 l
327.272 179.575 l
335.107 179.472 l
340.33 179.472 l
342.941 179.351 l
387.336 179.339 l
755.549 179.28 l
755.549 179.28 l
stroke
grestore
0.500 setlinewidth
0 setlinecap
0.000 setgray
gsave
/o {
gsave
newpath
translate
0 0 m
0 4 l
gsave
0.000 setgray
fill
grestore
stroke
grestore
} bind def
105.3 59.76 o
grestore
gsave
/o {
gsave
newpath
translate
0 0 m
0 -4 l
gsave
0.000 setgray
fill
grestore
stroke
grestore
} bind def
105.3 537.84 o
grestore
/BitstreamVeraSans-Roman findfont
12.000 scalefont
setfont
gsave
102.276562 46.681875 translate
0.000000 rotate
0.000000 0.171875 m /zero glyphshow
grestore
gsave
/o {
gsave
newpath
translate
0 0 m
0 4 l
gsave
0.000 setgray
fill
grestore
stroke
grestore
} bind def
235.872 59.76 o
grestore
gsave
/o {
gsave
newpath
translate
0 0 m
0 -4 l
gsave
0.000 setgray
fill
grestore
stroke
grestore
} bind def
235.872 537.84 o
grestore
gsave
229.090750 46.681875 translate
0.000000 rotate
0.000000 0.171875 m /five glyphshow
7.634766 0.171875 m /zero glyphshow
grestore
gsave
/o {
gsave
newpath
translate
0 0 m
0 4 l
gsave
0.000 setgray
fill
grestore
stroke
grestore
} bind def
366.444 59.76 o
grestore
gsave
/o {
gsave
newpath
translate
0 0 m
0 -4 l
gsave
0.000 setgray
fill
grestore
stroke
grestore
} bind def
366.444 537.84 o
grestore
gsave
356.037750 46.681875 translate
0.000000 rotate
0.000000 0.171875 m /one glyphshow
7.634766 0.171875 m /zero glyphshow
15.269531 0.171875 m /zero glyphshow
grestore
gsave
/o {
gsave
newpath
translate
0 0 m
0 4 l
gsave
0.000 setgray
fill
grestore
stroke
grestore
} bind def
497.016 59.76 o
grestore
gsave
/o {
gsave
newpath
translate
0 0 m
0 -4 l
gsave
0.000 setgray
fill
grestore
stroke
grestore
} bind def
497.016 537.84 o
grestore
gsave
486.609750 46.681875 translate
0.000000 rotate
0.000000 0.171875 m /one glyphshow
7.634766 0.171875 m /five glyphshow
15.269531 0.171875 m /zero glyphshow
grestore
gsave
/o {
gsave
newpath
translate
0 0 m
0 4 l
gsave
0.000 setgray
fill
grestore
stroke
grestore
} bind def
627.588 59.76 o
grestore
gsave
/o {
gsave
newpath
translate
0 0 m
0 -4 l
gsave
0.000 setgray
fill
grestore
stroke
grestore
} bind def
627.588 537.84 o
grestore
gsave
616.963000 46.681875 translate
0.000000 rotate
0.000000 0.171875 m /two glyphshow
7.634766 0.171875 m /zero glyphshow
15.269531 0.171875 m /zero glyphshow
grestore
gsave
/o {
gsave
newpath
translate
0 0 m
0 4 l
gsave
0.000 setgray
fill
grestore
stroke
grestore
} bind def
758.16 59.76 o
grestore
gsave
/o {
gsave
newpath
translate
0 0 m
0 -4 l
gsave
0.000 setgray
fill
grestore
stroke
grestore
} bind def
758.16 537.84 o
grestore
gsave
747.535000 46.681875 translate
0.000000 rotate
0.000000 0.171875 m /two glyphshow
7.634766 0.171875 m /five glyphshow
15.269531 0.171875 m /zero glyphshow
grestore
gsave
399.089375 32.385000 translate
0.000000 rotate
0.000000 0.171875 m /G glyphshow
9.298828 0.171875 m /e glyphshow
16.681641 0.171875 m /n glyphshow
24.287109 0.171875 m /e glyphshow
31.669922 0.171875 m /r glyphshow
36.603516 0.171875 m /a glyphshow
43.957031 0.171875 m /t glyphshow
48.662109 0.171875 m /i glyphshow
51.996094 0.171875 m /o glyphshow
59.337891 0.171875 m /n glyphshow
grestore
gsave
/o {
gsave
newpath
translate
0 0 m
4 0 l
gsave
0.000 setgray
fill
grestore
stroke
grestore
} bind def
105.3 59.76 o
grestore
gsave
/o {
gsave
newpath
translate
0 0 m
-4 0 l
gsave
0.000 setgray
fill
grestore
stroke
grestore
} bind def
758.16 59.76 o
grestore
gsave
83.800000 55.220937 translate
0.000000 rotate
0.000000 0.171875 m /zero glyphshow
7.634766 0.171875 m /period glyphshow
11.449219 0.171875 m /zero glyphshow
grestore
gsave
/o {
gsave
newpath
translate
0 0 m
4 0 l
gsave
0.000 setgray
fill
grestore
stroke
grestore
} bind def
105.3 119.52 o
grestore
gsave
/o {
gsave
newpath
translate
0 0 m
-4 0 l
gsave
0.000 setgray
fill
grestore
stroke
grestore
} bind def
758.16 119.52 o
grestore
gsave
84.050000 114.980937 translate
0.000000 rotate
0.000000 0.171875 m /zero glyphshow
7.634766 0.171875 m /period glyphshow
11.449219 0.171875 m /five glyphshow
grestore
gsave
/o {
gsave
newpath
translate
0 0 m
4 0 l
gsave
0.000 setgray
fill
grestore
stroke
grestore
} bind def
105.3 179.28 o
grestore
gsave
/o {
gsave
newpath
translate
0 0 m
-4 0 l
gsave
0.000 setgray
fill
grestore
stroke
grestore
} bind def
758.16 179.28 o
grestore
gsave
84.315625 174.740938 translate
0.000000 rotate
0.000000 0.171875 m /one glyphshow
7.634766 0.171875 m /period glyphshow
11.449219 0.171875 m /zero glyphshow
grestore
gsave
/o {
gsave
newpath
translate
0 0 m
4 0 l
gsave
0.000 setgray
fill
grestore
stroke
grestore
} bind def
105.3 239.04 o
grestore
gsave
/o {
gsave
newpath
translate
0 0 m
-4 0 l
gsave
0.000 setgray
fill
grestore
stroke
grestore
} bind def
758.16 239.04 o
grestore
gsave
84.565625 234.579063 translate
0.000000 rotate
0.000000 0.171875 m /one glyphshow
7.634766 0.171875 m /period glyphshow
11.449219 0.171875 m /five glyphshow
grestore
gsave
/o {
gsave
newpath
translate
0 0 m
4 0 l
gsave
0.000 setgray
fill
grestore
stroke
grestore
} bind def
105.3 298.8 o
grestore
gsave
/o {
gsave
newpath
translate
0 0 m
-4 0 l
gsave
0.000 setgray
fill
grestore
stroke
grestore
} bind def
758.16 298.8 o
grestore
gsave
83.878125 294.260938 translate
0.000000 rotate
0.000000 0.171875 m /two glyphshow
7.634766 0.171875 m /period glyphshow
11.449219 0.171875 m /zero glyphshow
grestore
gsave
/o {
gsave
newpath
translate
0 0 m
4 0 l
gsave
0.000 setgray
fill
grestore
stroke
grestore
} bind def
105.3 358.56 o
grestore
gsave
/o {
gsave
newpath
translate
0 0 m
-4 0 l
gsave
0.000 setgray
fill
grestore
stroke
grestore
} bind def
758.16 358.56 o
grestore
gsave
84.128125 354.020938 translate
0.000000 rotate
0.000000 0.171875 m /two glyphshow
7.634766 0.171875 m /period glyphshow
11.449219 0.171875 m /five glyphshow
grestore
gsave
/o {
gsave
newpath
translate
0 0 m
4 0 l
gsave
0.000 setgray
fill
grestore
stroke
grestore
} bind def
105.3 418.32 o
grestore
gsave
/o {
gsave
newpath
translate
0 0 m
-4 0 l
gsave
0.000 setgray
fill
grestore
stroke
grestore
} bind def
758.16 418.32 o
grestore
gsave
83.925000 413.780938 translate
0.000000 rotate
0.000000 0.171875 m /three glyphshow
7.634766 0.171875 m /period glyphshow
11.449219 0.171875 m /zero glyphshow
grestore
gsave
/o {
gsave
newpath
translate
0 0 m
4 0 l
gsave
0.000 setgray
fill
grestore
stroke
grestore
} bind def
105.3 478.08 o
grestore
gsave
/o {
gsave
newpath
translate
0 0 m
-4 0 l
gsave
0.000 setgray
fill
grestore
stroke
grestore
} bind def
758.16 478.08 o
grestore
gsave
84.175000 473.540938 translate
0.000000 rotate
0.000000 0.171875 m /three glyphshow
7.634766 0.171875 m /period glyphshow
11.449219 0.171875 m /five glyphshow
grestore
gsave
/o {
gsave
newpath
translate
0 0 m
4 0 l
gsave
0.000 setgray
fill
grestore
stroke
grestore
} bind def
105.3 537.84 o
grestore
gsave
/o {
gsave
newpath
translate
0 0 m
-4 0 l
gsave
0.000 setgray
fill
grestore
stroke
grestore
} bind def
758.16 537.84 o
grestore
gsave
83.596875 533.300938 translate
0.000000 rotate
0.000000 0.171875 m /four glyphshow
7.634766 0.171875 m /period glyphshow
11.449219 0.171875 m /zero glyphshow
grestore
gsave
78.596875 257.229688 translate
90.000000 rotate
0.000000 2.500000 m /E glyphshow
7.582031 2.500000 m /n glyphshow
15.187500 2.500000 m /t glyphshow
19.892578 2.500000 m /a glyphshow
27.246094 2.500000 m /n glyphshow
34.851562 2.500000 m /g glyphshow
42.468750 2.500000 m /l glyphshow
45.802734 2.500000 m /e glyphshow
53.185547 2.500000 m /m glyphshow
64.875000 2.500000 m /e glyphshow
72.257812 2.500000 m /n glyphshow
79.863281 2.500000 m /t glyphshow
grestore
1.000 setlinewidth
2 setlinecap
gsave
105.3 537.84 m
758.16 537.84 l
stroke
grestore
gsave
758.16 59.76 m
758.16 537.84 l
stroke
grestore
gsave
105.3 59.76 m
758.16 59.76 l
stroke
grestore
gsave
105.3 59.76 m
105.3 537.84 l
stroke
grestore
/BitstreamVeraSans-Roman findfont
14.400 scalefont
setfont
gsave
301.909688 539.933750 translate
0.000000 rotate
0.000000 2.906250 m /E glyphshow
9.082642 2.906250 m /v glyphshow
17.589722 2.906250 m /o glyphshow
26.384583 2.906250 m /l glyphshow
30.378418 2.906250 m /u glyphshow
39.489136 2.906250 m /t glyphshow
45.125427 2.906250 m /i glyphshow
49.119263 2.906250 m /o glyphshow
57.914124 2.906250 m /n glyphshow
67.024841 2.906250 m /space glyphshow
71.594238 2.906250 m /o glyphshow
80.389099 2.906250 m /f glyphshow
85.449829 2.906250 m /space glyphshow
90.019226 2.906250 m /three glyphshow
99.165039 2.906250 m /d glyphshow
108.289795 2.906250 m /two glyphshow
117.435608 2.906250 m /space glyphshow
122.005005 2.906250 m /parenleft glyphshow
127.613220 2.906250 m /m glyphshow
141.616211 2.906250 m /e glyphshow
150.460205 2.906250 m /a glyphshow
159.269104 2.906250 m /s glyphshow
166.758423 2.906250 m /u glyphshow
175.869141 2.906250 m /r glyphshow
181.404175 2.906250 m /e glyphshow
190.248169 2.906250 m /colon glyphshow
195.091309 2.906250 m /space glyphshow
199.660706 2.906250 m /e glyphshow
208.504700 2.906250 m /n glyphshow
217.615417 2.906250 m /t glyphshow
223.251709 2.906250 m /r glyphshow
228.786743 2.906250 m /o glyphshow
237.581604 2.906250 m /p glyphshow
246.706360 2.906250 m /y glyphshow
255.213440 2.906250 m /parenright glyphshow
grestore
gsave
601.183 298.104 m
750.96 298.104 l
750.96 530.64 l
601.183 530.64 l
601.183 298.104 l
cl
gsave
1.000 setgray
fill
grestore
stroke
grestore
0.000 0.000 1.000 setrgbcolor
gsave
611.263 519.279 m
631.423 519.279 l
stroke
grestore
0.000 setgray
gsave
647.262500 511.333125 translate
0.000000 rotate
0.000000 2.906250 m /p glyphshow
9.124756 2.906250 m /space glyphshow
13.694153 2.906250 m /equal glyphshow
25.738831 2.906250 m /space glyphshow
30.308228 2.906250 m /zero glyphshow
39.454041 2.906250 m /period glyphshow
44.023438 2.906250 m /zero glyphshow
53.169250 2.906250 m /zero glyphshow
62.315063 2.906250 m /zero glyphshow
71.460876 2.906250 m /zero glyphshow
80.606689 2.906250 m /zero glyphshow
89.752502 2.906250 m /zero glyphshow
grestore
0.000 0.500 0.000 setrgbcolor
gsave
611.263 498.533 m
631.423 498.533 l
stroke
grestore
0.000 setgray
gsave
647.262500 490.586250 translate
0.000000 rotate
0.000000 2.906250 m /p glyphshow
9.124756 2.906250 m /space glyphshow
13.694153 2.906250 m /equal glyphshow
25.738831 2.906250 m /space glyphshow
30.308228 2.906250 m /zero glyphshow
39.454041 2.906250 m /period glyphshow
44.023438 2.906250 m /one glyphshow
53.169250 2.906250 m /zero glyphshow
62.315063 2.906250 m /zero glyphshow
71.460876 2.906250 m /zero glyphshow
80.606689 2.906250 m /zero glyphshow
89.752502 2.906250 m /zero glyphshow
grestore
1.000 0.000 0.000 setrgbcolor
gsave
611.263 477.786 m
631.423 477.786 l
stroke
grestore
0.000 setgray
gsave
647.262500 469.839375 translate
0.000000 rotate
0.000000 2.906250 m /p glyphshow
9.124756 2.906250 m /space glyphshow
13.694153 2.906250 m /equal glyphshow
25.738831 2.906250 m /space glyphshow
30.308228 2.906250 m /zero glyphshow
39.454041 2.906250 m /period glyphshow
44.023438 2.906250 m /two glyphshow
53.169250 2.906250 m /zero glyphshow
62.315063 2.906250 m /zero glyphshow
71.460876 2.906250 m /zero glyphshow
80.606689 2.906250 m /zero glyphshow
89.752502 2.906250 m /zero glyphshow
grestore
0.000 0.750 0.750 setrgbcolor
gsave
611.263 457.039 m
631.423 457.039 l
stroke
grestore
0.000 setgray
gsave
647.262500 449.092500 translate
0.000000 rotate
0.000000 2.906250 m /p glyphshow
9.124756 2.906250 m /space glyphshow
13.694153 2.906250 m /equal glyphshow
25.738831 2.906250 m /space glyphshow
30.308228 2.906250 m /zero glyphshow
39.454041 2.906250 m /period glyphshow
44.023438 2.906250 m /three glyphshow
53.169250 2.906250 m /zero glyphshow
62.315063 2.906250 m /zero glyphshow
71.460876 2.906250 m /zero glyphshow
80.606689 2.906250 m /zero glyphshow
89.752502 2.906250 m /zero glyphshow
grestore
0.750 0.000 0.750 setrgbcolor
gsave
611.263 436.292 m
631.423 436.292 l
stroke
grestore
0.000 setgray
gsave
647.262500 428.345625 translate
0.000000 rotate
0.000000 2.906250 m /p glyphshow
9.124756 2.906250 m /space glyphshow
13.694153 2.906250 m /equal glyphshow
25.738831 2.906250 m /space glyphshow
30.308228 2.906250 m /zero glyphshow
39.454041 2.906250 m /period glyphshow
44.023438 2.906250 m /four glyphshow
53.169250 2.906250 m /zero glyphshow
62.315063 2.906250 m /zero glyphshow
71.460876 2.906250 m /zero glyphshow
80.606689 2.906250 m /zero glyphshow
89.752502 2.906250 m /zero glyphshow
grestore
0.750 0.750 0.000 setrgbcolor
gsave
611.263 415.545 m
631.423 415.545 l
stroke
grestore
0.000 setgray
gsave
647.262500 407.598750 translate
0.000000 rotate
0.000000 2.906250 m /p glyphshow
9.124756 2.906250 m /space glyphshow
13.694153 2.906250 m /equal glyphshow
25.738831 2.906250 m /space glyphshow
30.308228 2.906250 m /zero glyphshow
39.454041 2.906250 m /period glyphshow
44.023438 2.906250 m /five glyphshow
53.169250 2.906250 m /zero glyphshow
62.315063 2.906250 m /zero glyphshow
71.460876 2.906250 m /zero glyphshow
80.606689 2.906250 m /zero glyphshow
89.752502 2.906250 m /zero glyphshow
grestore
gsave
611.263 394.798 m
631.423 394.798 l
stroke
grestore
gsave
647.262500 386.851875 translate
0.000000 rotate
0.000000 2.906250 m /p glyphshow
9.124756 2.906250 m /space glyphshow
13.694153 2.906250 m /equal glyphshow
25.738831 2.906250 m /space glyphshow
30.308228 2.906250 m /zero glyphshow
39.454041 2.906250 m /period glyphshow
44.023438 2.906250 m /six glyphshow
53.169250 2.906250 m /zero glyphshow
62.315063 2.906250 m /zero glyphshow
71.460876 2.906250 m /zero glyphshow
80.606689 2.906250 m /zero glyphshow
89.752502 2.906250 m /zero glyphshow
grestore
0.000 0.000 1.000 setrgbcolor
gsave
611.263 374.051 m
631.423 374.051 l
stroke
grestore
0.000 setgray
gsave
647.262500 366.105000 translate
0.000000 rotate
0.000000 2.906250 m /p glyphshow
9.124756 2.906250 m /space glyphshow
13.694153 2.906250 m /equal glyphshow
25.738831 2.906250 m /space glyphshow
30.308228 2.906250 m /zero glyphshow
39.454041 2.906250 m /period glyphshow
44.023438 2.906250 m /seven glyphshow
53.169250 2.906250 m /zero glyphshow
62.315063 2.906250 m /zero glyphshow
71.460876 2.906250 m /zero glyphshow
80.606689 2.906250 m /zero glyphshow
89.752502 2.906250 m /zero glyphshow
grestore
0.000 0.500 0.000 setrgbcolor
gsave
611.263 353.304 m
631.423 353.304 l
stroke
grestore
0.000 setgray
gsave
647.262500 345.358125 translate
0.000000 rotate
0.000000 2.906250 m /p glyphshow
9.124756 2.906250 m /space glyphshow
13.694153 2.906250 m /equal glyphshow
25.738831 2.906250 m /space glyphshow
30.308228 2.906250 m /zero glyphshow
39.454041 2.906250 m /period glyphshow
44.023438 2.906250 m /eight glyphshow
53.169250 2.906250 m /zero glyphshow
62.315063 2.906250 m /zero glyphshow
71.460876 2.906250 m /zero glyphshow
80.606689 2.906250 m /zero glyphshow
89.752502 2.906250 m /zero glyphshow
grestore
1.000 0.000 0.000 setrgbcolor
gsave
611.263 332.558 m
631.423 332.558 l
stroke
grestore
0.000 setgray
gsave
647.262500 324.611250 translate
0.000000 rotate
0.000000 2.906250 m /p glyphshow
9.124756 2.906250 m /space glyphshow
13.694153 2.906250 m /equal glyphshow
25.738831 2.906250 m /space glyphshow
30.308228 2.906250 m /zero glyphshow
39.454041 2.906250 m /period glyphshow
44.023438 2.906250 m /nine glyphshow
53.169250 2.906250 m /zero glyphshow
62.315063 2.906250 m /zero glyphshow
71.460876 2.906250 m /zero glyphshow
80.606689 2.906250 m /zero glyphshow
89.752502 2.906250 m /zero glyphshow
grestore
0.000 0.750 0.750 setrgbcolor
gsave
611.263 311.811 m
631.423 311.811 l
stroke
grestore
0.000 setgray
gsave
647.262500 303.864375 translate
0.000000 rotate
0.000000 2.906250 m /p glyphshow
9.124756 2.906250 m /space glyphshow
13.694153 2.906250 m /equal glyphshow
25.738831 2.906250 m /space glyphshow
30.308228 2.906250 m /one glyphshow
39.454041 2.906250 m /period glyphshow
44.023438 2.906250 m /zero glyphshow
53.169250 2.906250 m /zero glyphshow
62.315063 2.906250 m /zero glyphshow
71.460876 2.906250 m /zero glyphshow
80.606689 2.906250 m /zero glyphshow
89.752502 2.906250 m /zero glyphshow
grestore

end
showpage
