%!PS-Adobe-3.0 EPSF-3.0
%%Title: 3d5.Hilbert-Schmidt.example.evolution.eps
%%Creator: matplotlib version 1.1.0, http://matplotlib.sourceforge.net/
%%CreationDate: Wed Dec  5 14:55:17 2012
%%Orientation: portrait
%%BoundingBox: -115 97 727 694
%%EndComments
%%BeginProlog
/mpldict 8 dict def
mpldict begin
/m { moveto } bind def
/l { lineto } bind def
/r { rlineto } bind def
/c { curveto } bind def
/cl { closepath } bind def
/box {
m
1 index 0 r
0 exch r
neg 0 r
cl
} bind def
/clipbox {
box
clip
newpath
} bind def
%!PS-Adobe-3.0 Resource-Font
%%Title: Bitstream Vera Sans
%%Copyright: Copyright (c) 2003 by Bitstream, Inc. All Rights Reserved.
%%Creator: Converted from TrueType to type 3 by PPR
25 dict begin
/_d{bind def}bind def
/_m{moveto}_d
/_l{lineto}_d
/_cl{closepath eofill}_d
/_c{curveto}_d
/_sc{7 -1 roll{setcachedevice}{pop pop pop pop pop pop}ifelse}_d
/_e{exec}_d
/FontName /BitstreamVeraSans-Roman def
/PaintType 0 def
/FontMatrix[.001 0 0 .001 0 0]def
/FontBBox[-183 -236 1287 928]def
/FontType 3 def
/Encoding [ /space /parenleft /parenright /hyphen /period /zero /one /two /three /four /five /six /seven /eight /nine /colon /equal /E /G /H /S /a /b /c /d /e /f /g /h /i /l /m /n /o /p /r /s /t /u /v ] def
/FontInfo 10 dict dup begin
/FamilyName (Bitstream Vera Sans) def
/FullName (Bitstream Vera Sans) def
/Notice (Copyright (c) 2003 by Bitstream, Inc. All Rights Reserved. Bitstream Vera is a trademark of Bitstream, Inc.) def
/Weight (Roman) def
/Version (Release 1.10) def
/ItalicAngle 0.0 def
/isFixedPitch false def
/UnderlinePosition -213 def
/UnderlineThickness 143 def
end readonly def
/CharStrings 40 dict dup begin
/space{318 0 0 0 0 0 _sc
}_d
/parenleft{390 0 86 -131 310 759 _sc
310 759 _m
266 683 234 609 213 536 _c
191 463 181 389 181 314 _c
181 238 191 164 213 91 _c
234 17 266 -56 310 -131 _c
232 -131 _l
183 -54 146 20 122 94 _c
98 168 86 241 86 314 _c
86 386 98 459 122 533 _c
146 607 182 682 232 759 _c
310 759 _l
_cl}_d
/parenright{390 0 80 -131 304 759 _sc
80 759 _m
158 759 _l
206 682 243 607 267 533 _c
291 459 304 386 304 314 _c
304 241 291 168 267 94 _c
243 20 206 -54 158 -131 _c
80 -131 _l
123 -56 155 17 177 91 _c
198 164 209 238 209 314 _c
209 389 198 463 177 536 _c
155 609 123 683 80 759 _c
_cl}_d
/hyphen{361 0 49 234 312 314 _sc
49 314 _m
312 314 _l
312 234 _l
49 234 _l
49 314 _l
_cl}_d
/period{318 0 107 0 210 124 _sc
107 124 _m
210 124 _l
210 0 _l
107 0 _l
107 124 _l
_cl}_d
/zero{636 0 66 -13 570 742 _sc
318 664 _m
267 664 229 639 203 589 _c
177 539 165 464 165 364 _c
165 264 177 189 203 139 _c
229 89 267 64 318 64 _c
369 64 407 89 433 139 _c
458 189 471 264 471 364 _c
471 464 458 539 433 589 _c
407 639 369 664 318 664 _c
318 742 _m
399 742 461 709 505 645 _c
548 580 570 486 570 364 _c
570 241 548 147 505 83 _c
461 19 399 -13 318 -13 _c
236 -13 173 19 130 83 _c
87 147 66 241 66 364 _c
66 486 87 580 130 645 _c
173 709 236 742 318 742 _c
_cl}_d
/one{636 0 110 0 544 729 _sc
124 83 _m
285 83 _l
285 639 _l
110 604 _l
110 694 _l
284 729 _l
383 729 _l
383 83 _l
544 83 _l
544 0 _l
124 0 _l
124 83 _l
_cl}_d
/two{{636 0 73 0 536 742 _sc
192 83 _m
536 83 _l
536 0 _l
73 0 _l
73 83 _l
110 121 161 173 226 239 _c
290 304 331 346 348 365 _c
380 400 402 430 414 455 _c
426 479 433 504 433 528 _c
433 566 419 598 392 622 _c
365 646 330 659 286 659 _c
255 659 222 653 188 643 _c
154 632 117 616 78 594 _c
78 694 _l
118 710 155 722 189 730 _c
223 738 255 742 284 742 _c
359 742 419 723 464 685 _c
509 647 532 597 532 534 _c
532 504 526 475 515 449 _c
504 422 484 390 454 354 _c
446 344 420 317 376 272 _c
332 227 271 164 192 83 _c
_cl}_e}_d
/three{{636 0 76 -13 556 742 _sc
406 393 _m
453 383 490 362 516 330 _c
542 298 556 258 556 212 _c
556 140 531 84 482 45 _c
432 6 362 -13 271 -13 _c
240 -13 208 -10 176 -4 _c
144 1 110 10 76 22 _c
76 117 _l
103 101 133 89 166 81 _c
198 73 232 69 268 69 _c
330 69 377 81 409 105 _c
441 129 458 165 458 212 _c
458 254 443 288 413 312 _c
383 336 341 349 287 349 _c
202 349 _l
202 430 _l
291 430 _l
339 430 376 439 402 459 _c
428 478 441 506 441 543 _c
441 580 427 609 401 629 _c
374 649 336 659 287 659 _c
260 659 231 656 200 650 _c
169 644 135 635 98 623 _c
98 711 _l
135 721 170 729 203 734 _c
235 739 266 742 296 742 _c
}_e{370 742 429 725 473 691 _c
517 657 539 611 539 553 _c
539 513 527 479 504 451 _c
481 423 448 403 406 393 _c
_cl}_e}_d
/four{636 0 49 0 580 729 _sc
378 643 _m
129 254 _l
378 254 _l
378 643 _l
352 729 _m
476 729 _l
476 254 _l
580 254 _l
580 172 _l
476 172 _l
476 0 _l
378 0 _l
378 172 _l
49 172 _l
49 267 _l
352 729 _l
_cl}_d
/five{{636 0 77 -13 549 729 _sc
108 729 _m
495 729 _l
495 646 _l
198 646 _l
198 467 _l
212 472 227 476 241 478 _c
255 480 270 482 284 482 _c
365 482 429 459 477 415 _c
525 370 549 310 549 234 _c
549 155 524 94 475 51 _c
426 8 357 -13 269 -13 _c
238 -13 207 -10 175 -6 _c
143 -1 111 6 77 17 _c
77 116 _l
106 100 136 88 168 80 _c
199 72 232 69 267 69 _c
323 69 368 83 401 113 _c
433 143 450 183 450 234 _c
450 284 433 324 401 354 _c
368 384 323 399 267 399 _c
241 399 214 396 188 390 _c
162 384 135 375 108 363 _c
108 729 _l
_cl}_e}_d
/six{{636 0 70 -13 573 742 _sc
330 404 _m
286 404 251 388 225 358 _c
199 328 186 286 186 234 _c
186 181 199 139 225 109 _c
251 79 286 64 330 64 _c
374 64 409 79 435 109 _c
461 139 474 181 474 234 _c
474 286 461 328 435 358 _c
409 388 374 404 330 404 _c
526 713 _m
526 623 _l
501 635 476 644 451 650 _c
425 656 400 659 376 659 _c
310 659 260 637 226 593 _c
192 549 172 482 168 394 _c
187 422 211 444 240 459 _c
269 474 301 482 336 482 _c
409 482 467 459 509 415 _c
551 371 573 310 573 234 _c
573 159 550 99 506 54 _c
462 9 403 -13 330 -13 _c
246 -13 181 19 137 83 _c
92 147 70 241 70 364 _c
70 479 97 571 152 639 _c
206 707 280 742 372 742 _c
}_e{396 742 421 739 447 735 _c
472 730 498 723 526 713 _c
_cl}_e}_d
/seven{636 0 82 0 551 729 _sc
82 729 _m
551 729 _l
551 687 _l
286 0 _l
183 0 _l
432 646 _l
82 646 _l
82 729 _l
_cl}_d
/eight{{636 0 68 -13 568 742 _sc
318 346 _m
271 346 234 333 207 308 _c
180 283 167 249 167 205 _c
167 161 180 126 207 101 _c
234 76 271 64 318 64 _c
364 64 401 76 428 102 _c
455 127 469 161 469 205 _c
469 249 455 283 429 308 _c
402 333 365 346 318 346 _c
219 388 _m
177 398 144 418 120 447 _c
96 476 85 511 85 553 _c
85 611 105 657 147 691 _c
188 725 245 742 318 742 _c
390 742 447 725 489 691 _c
530 657 551 611 551 553 _c
551 511 539 476 515 447 _c
491 418 459 398 417 388 _c
464 377 501 355 528 323 _c
554 291 568 251 568 205 _c
568 134 546 80 503 43 _c
459 5 398 -13 318 -13 _c
237 -13 175 5 132 43 _c
89 80 68 134 68 205 _c
68 251 81 291 108 323 _c
134 355 171 377 219 388 _c
}_e{183 544 _m
183 506 194 476 218 455 _c
242 434 275 424 318 424 _c
360 424 393 434 417 455 _c
441 476 453 506 453 544 _c
453 582 441 611 417 632 _c
393 653 360 664 318 664 _c
275 664 242 653 218 632 _c
194 611 183 582 183 544 _c
_cl}_e}_d
/nine{{636 0 63 -13 566 742 _sc
110 15 _m
110 105 _l
134 93 159 84 185 78 _c
210 72 235 69 260 69 _c
324 69 374 90 408 134 _c
442 178 462 244 468 334 _c
448 306 424 284 396 269 _c
367 254 335 247 300 247 _c
226 247 168 269 126 313 _c
84 357 63 417 63 494 _c
63 568 85 628 129 674 _c
173 719 232 742 306 742 _c
390 742 455 709 499 645 _c
543 580 566 486 566 364 _c
566 248 538 157 484 89 _c
429 21 356 -13 264 -13 _c
239 -13 214 -10 189 -6 _c
163 -2 137 5 110 15 _c
306 324 _m
350 324 385 339 411 369 _c
437 399 450 441 450 494 _c
450 546 437 588 411 618 _c
385 648 350 664 306 664 _c
262 664 227 648 201 618 _c
175 588 162 546 162 494 _c
}_e{162 441 175 399 201 369 _c
227 339 262 324 306 324 _c
_cl}_e}_d
/colon{337 0 117 0 220 517 _sc
117 124 _m
220 124 _l
220 0 _l
117 0 _l
117 124 _l
117 517 _m
220 517 _l
220 393 _l
117 393 _l
117 517 _l
_cl}_d
/equal{838 0 106 172 732 454 _sc
106 454 _m
732 454 _l
732 372 _l
106 372 _l
106 454 _l
106 255 _m
732 255 _l
732 172 _l
106 172 _l
106 255 _l
_cl}_d
/E{632 0 98 0 568 729 _sc
98 729 _m
559 729 _l
559 646 _l
197 646 _l
197 430 _l
544 430 _l
544 347 _l
197 347 _l
197 83 _l
568 83 _l
568 0 _l
98 0 _l
98 729 _l
_cl}_d
/G{{775 0 56 -13 693 742 _sc
595 104 _m
595 300 _l
434 300 _l
434 381 _l
693 381 _l
693 68 _l
655 40 613 20 567 7 _c
521 -6 472 -13 420 -13 _c
306 -13 216 20 152 86 _c
88 152 56 245 56 364 _c
56 482 88 575 152 642 _c
216 708 306 742 420 742 _c
467 742 512 736 555 724 _c
598 712 638 695 674 673 _c
674 568 _l
637 598 598 621 557 637 _c
516 653 473 661 428 661 _c
338 661 271 636 227 586 _c
182 536 160 462 160 364 _c
160 265 182 191 227 141 _c
271 91 338 67 428 67 _c
462 67 493 70 521 76 _c
549 82 573 91 595 104 _c
_cl}_e}_d
/H{752 0 98 0 654 729 _sc
98 729 _m
197 729 _l
197 430 _l
555 430 _l
555 729 _l
654 729 _l
654 0 _l
555 0 _l
555 347 _l
197 347 _l
197 0 _l
98 0 _l
98 729 _l
_cl}_d
/S{{635 0 66 -13 579 742 _sc
535 705 _m
535 609 _l
497 627 462 640 429 649 _c
395 657 363 662 333 662 _c
279 662 237 651 208 631 _c
179 610 165 580 165 542 _c
165 510 174 485 194 469 _c
213 452 250 439 304 429 _c
364 417 _l
437 403 491 378 526 343 _c
561 307 579 260 579 201 _c
579 130 555 77 508 41 _c
460 5 391 -13 300 -13 _c
265 -13 228 -9 189 -2 _c
150 5 110 16 69 32 _c
69 134 _l
109 111 148 94 186 83 _c
224 71 262 66 300 66 _c
356 66 399 77 430 99 _c
460 121 476 152 476 194 _c
476 230 465 258 443 278 _c
421 298 385 313 335 323 _c
275 335 _l
201 349 148 372 115 404 _c
82 435 66 478 66 534 _c
66 598 88 649 134 686 _c
179 723 242 742 322 742 _c
}_e{356 742 390 739 426 733 _c
461 727 497 717 535 705 _c
_cl}_e}_d
/a{{613 0 60 -13 522 560 _sc
343 275 _m
270 275 220 266 192 250 _c
164 233 150 205 150 165 _c
150 133 160 107 181 89 _c
202 70 231 61 267 61 _c
317 61 357 78 387 114 _c
417 149 432 196 432 255 _c
432 275 _l
343 275 _l
522 312 _m
522 0 _l
432 0 _l
432 83 _l
411 49 385 25 355 10 _c
325 -5 287 -13 243 -13 _c
187 -13 142 2 109 33 _c
76 64 60 106 60 159 _c
60 220 80 266 122 298 _c
163 329 224 345 306 345 _c
432 345 _l
432 354 _l
432 395 418 427 391 450 _c
364 472 326 484 277 484 _c
245 484 215 480 185 472 _c
155 464 127 453 100 439 _c
100 522 _l
}_e{132 534 164 544 195 550 _c
226 556 256 560 286 560 _c
365 560 424 539 463 498 _c
502 457 522 395 522 312 _c
_cl}_e}_d
/b{{635 0 91 -13 580 760 _sc
487 273 _m
487 339 473 390 446 428 _c
418 466 381 485 334 485 _c
286 485 249 466 222 428 _c
194 390 181 339 181 273 _c
181 207 194 155 222 117 _c
249 79 286 61 334 61 _c
381 61 418 79 446 117 _c
473 155 487 207 487 273 _c
181 464 _m
199 496 223 520 252 536 _c
281 552 316 560 356 560 _c
422 560 476 533 518 481 _c
559 428 580 359 580 273 _c
580 187 559 117 518 65 _c
476 13 422 -13 356 -13 _c
316 -13 281 -5 252 10 _c
223 25 199 49 181 82 _c
181 0 _l
91 0 _l
91 760 _l
181 760 _l
181 464 _l
_cl}_e}_d
/c{{550 0 55 -13 488 560 _sc
488 526 _m
488 442 _l
462 456 437 466 411 473 _c
385 480 360 484 334 484 _c
276 484 230 465 198 428 _c
166 391 150 339 150 273 _c
150 206 166 154 198 117 _c
230 80 276 62 334 62 _c
360 62 385 65 411 72 _c
437 79 462 90 488 104 _c
488 21 _l
462 9 436 0 410 -5 _c
383 -10 354 -13 324 -13 _c
242 -13 176 12 128 64 _c
79 115 55 185 55 273 _c
55 362 79 432 128 483 _c
177 534 244 560 330 560 _c
358 560 385 557 411 551 _c
437 545 463 537 488 526 _c
_cl}_e}_d
/d{{635 0 55 -13 544 760 _sc
454 464 _m
454 760 _l
544 760 _l
544 0 _l
454 0 _l
454 82 _l
435 49 411 25 382 10 _c
353 -5 319 -13 279 -13 _c
213 -13 159 13 117 65 _c
75 117 55 187 55 273 _c
55 359 75 428 117 481 _c
159 533 213 560 279 560 _c
319 560 353 552 382 536 _c
411 520 435 496 454 464 _c
148 273 _m
148 207 161 155 188 117 _c
215 79 253 61 301 61 _c
348 61 385 79 413 117 _c
440 155 454 207 454 273 _c
454 339 440 390 413 428 _c
385 466 348 485 301 485 _c
253 485 215 466 188 428 _c
161 390 148 339 148 273 _c
_cl}_e}_d
/e{{615 0 55 -13 562 560 _sc
562 296 _m
562 252 _l
149 252 _l
153 190 171 142 205 110 _c
238 78 284 62 344 62 _c
378 62 412 66 444 74 _c
476 82 509 95 541 113 _c
541 28 _l
509 14 476 3 442 -3 _c
408 -9 373 -13 339 -13 _c
251 -13 182 12 131 62 _c
80 112 55 181 55 268 _c
55 357 79 428 127 481 _c
175 533 241 560 323 560 _c
397 560 455 536 498 489 _c
540 441 562 377 562 296 _c
472 322 _m
471 371 457 410 431 440 _c
404 469 368 484 324 484 _c
274 484 234 469 204 441 _c
174 413 156 373 152 322 _c
472 322 _l
_cl}_e}_d
/f{352 0 23 0 371 760 _sc
371 760 _m
371 685 _l
285 685 _l
253 685 230 678 218 665 _c
205 652 199 629 199 595 _c
199 547 _l
347 547 _l
347 477 _l
199 477 _l
199 0 _l
109 0 _l
109 477 _l
23 477 _l
23 547 _l
109 547 _l
109 585 _l
109 645 123 690 151 718 _c
179 746 224 760 286 760 _c
371 760 _l
_cl}_d
/g{{635 0 55 -207 544 560 _sc
454 280 _m
454 344 440 395 414 431 _c
387 467 349 485 301 485 _c
253 485 215 467 188 431 _c
161 395 148 344 148 280 _c
148 215 161 165 188 129 _c
215 93 253 75 301 75 _c
349 75 387 93 414 129 _c
440 165 454 215 454 280 _c
544 68 _m
544 -24 523 -93 482 -139 _c
440 -184 377 -207 292 -207 _c
260 -207 231 -204 203 -200 _c
175 -195 147 -188 121 -178 _c
121 -91 _l
147 -105 173 -115 199 -122 _c
225 -129 251 -133 278 -133 _c
336 -133 380 -117 410 -87 _c
439 -56 454 -10 454 52 _c
454 96 _l
435 64 411 40 382 24 _c
353 8 319 0 279 0 _c
211 0 157 25 116 76 _c
75 127 55 195 55 280 _c
55 364 75 432 116 483 _c
157 534 211 560 279 560 _c
}_e{319 560 353 552 382 536 _c
411 520 435 496 454 464 _c
454 547 _l
544 547 _l
544 68 _l
_cl}_e}_d
/h{634 0 91 0 549 760 _sc
549 330 _m
549 0 _l
459 0 _l
459 327 _l
459 379 448 417 428 443 _c
408 469 378 482 338 482 _c
289 482 251 466 223 435 _c
195 404 181 362 181 309 _c
181 0 _l
91 0 _l
91 760 _l
181 760 _l
181 462 _l
202 494 227 519 257 535 _c
286 551 320 560 358 560 _c
420 560 468 540 500 501 _c
532 462 549 405 549 330 _c
_cl}_d
/i{278 0 94 0 184 760 _sc
94 547 _m
184 547 _l
184 0 _l
94 0 _l
94 547 _l
94 760 _m
184 760 _l
184 646 _l
94 646 _l
94 760 _l
_cl}_d
/l{278 0 94 0 184 760 _sc
94 760 _m
184 760 _l
184 0 _l
94 0 _l
94 760 _l
_cl}_d
/m{{974 0 91 0 889 560 _sc
520 442 _m
542 482 569 511 600 531 _c
631 550 668 560 711 560 _c
767 560 811 540 842 500 _c
873 460 889 403 889 330 _c
889 0 _l
799 0 _l
799 327 _l
799 379 789 418 771 444 _c
752 469 724 482 686 482 _c
639 482 602 466 575 435 _c
548 404 535 362 535 309 _c
535 0 _l
445 0 _l
445 327 _l
445 379 435 418 417 444 _c
398 469 369 482 331 482 _c
285 482 248 466 221 435 _c
194 404 181 362 181 309 _c
181 0 _l
91 0 _l
91 547 _l
181 547 _l
181 462 _l
201 495 226 520 255 536 _c
283 552 317 560 357 560 _c
397 560 430 550 458 530 _c
486 510 506 480 520 442 _c
}_e{_cl}_e}_d
/n{634 0 91 0 549 560 _sc
549 330 _m
549 0 _l
459 0 _l
459 327 _l
459 379 448 417 428 443 _c
408 469 378 482 338 482 _c
289 482 251 466 223 435 _c
195 404 181 362 181 309 _c
181 0 _l
91 0 _l
91 547 _l
181 547 _l
181 462 _l
202 494 227 519 257 535 _c
286 551 320 560 358 560 _c
420 560 468 540 500 501 _c
532 462 549 405 549 330 _c
_cl}_d
/o{612 0 55 -13 557 560 _sc
306 484 _m
258 484 220 465 192 427 _c
164 389 150 338 150 273 _c
150 207 163 156 191 118 _c
219 80 257 62 306 62 _c
354 62 392 80 420 118 _c
448 156 462 207 462 273 _c
462 337 448 389 420 427 _c
392 465 354 484 306 484 _c
306 560 _m
384 560 445 534 490 484 _c
534 433 557 363 557 273 _c
557 183 534 113 490 63 _c
445 12 384 -13 306 -13 _c
227 -13 165 12 121 63 _c
77 113 55 183 55 273 _c
55 363 77 433 121 484 _c
165 534 227 560 306 560 _c
_cl}_d
/p{{635 0 91 -207 580 560 _sc
181 82 _m
181 -207 _l
91 -207 _l
91 547 _l
181 547 _l
181 464 _l
199 496 223 520 252 536 _c
281 552 316 560 356 560 _c
422 560 476 533 518 481 _c
559 428 580 359 580 273 _c
580 187 559 117 518 65 _c
476 13 422 -13 356 -13 _c
316 -13 281 -5 252 10 _c
223 25 199 49 181 82 _c
487 273 _m
487 339 473 390 446 428 _c
418 466 381 485 334 485 _c
286 485 249 466 222 428 _c
194 390 181 339 181 273 _c
181 207 194 155 222 117 _c
249 79 286 61 334 61 _c
381 61 418 79 446 117 _c
473 155 487 207 487 273 _c
_cl}_e}_d
/r{411 0 91 0 411 560 _sc
411 463 _m
401 469 390 473 378 476 _c
366 478 353 480 339 480 _c
288 480 249 463 222 430 _c
194 397 181 350 181 288 _c
181 0 _l
91 0 _l
91 547 _l
181 547 _l
181 462 _l
199 495 224 520 254 536 _c
284 552 321 560 365 560 _c
371 560 378 559 386 559 _c
393 558 401 557 411 555 _c
411 463 _l
_cl}_d
/s{{521 0 54 -13 472 560 _sc
443 531 _m
443 446 _l
417 458 391 468 364 475 _c
336 481 308 485 279 485 _c
234 485 200 478 178 464 _c
156 450 145 430 145 403 _c
145 382 153 366 169 354 _c
185 342 217 330 265 320 _c
296 313 _l
360 299 405 279 432 255 _c
458 230 472 195 472 151 _c
472 100 452 60 412 31 _c
372 1 316 -13 246 -13 _c
216 -13 186 -10 154 -5 _c
122 0 89 8 54 20 _c
54 113 _l
87 95 120 82 152 74 _c
184 65 216 61 248 61 _c
290 61 323 68 346 82 _c
368 96 380 117 380 144 _c
380 168 371 187 355 200 _c
339 213 303 226 247 238 _c
216 245 _l
160 257 119 275 95 299 _c
70 323 58 356 58 399 _c
58 450 76 490 112 518 _c
148 546 200 560 268 560 _c
}_e{301 560 332 557 362 552 _c
391 547 418 540 443 531 _c
_cl}_e}_d
/t{392 0 27 0 368 702 _sc
183 702 _m
183 547 _l
368 547 _l
368 477 _l
183 477 _l
183 180 _l
183 135 189 106 201 94 _c
213 81 238 75 276 75 _c
368 75 _l
368 0 _l
276 0 _l
206 0 158 13 132 39 _c
106 65 93 112 93 180 _c
93 477 _l
27 477 _l
27 547 _l
93 547 _l
93 702 _l
183 702 _l
_cl}_d
/u{634 0 85 -13 543 547 _sc
85 216 _m
85 547 _l
175 547 _l
175 219 _l
175 167 185 129 205 103 _c
225 77 255 64 296 64 _c
344 64 383 79 411 110 _c
439 141 453 183 453 237 _c
453 547 _l
543 547 _l
543 0 _l
453 0 _l
453 84 _l
431 50 405 26 377 10 _c
348 -5 315 -13 277 -13 _c
214 -13 166 6 134 45 _c
101 83 85 140 85 216 _c
_cl}_d
/v{592 0 30 0 562 547 _sc
30 547 _m
125 547 _l
296 88 _l
467 547 _l
562 547 _l
357 0 _l
235 0 _l
30 547 _l
_cl}_d
end readonly def

/BuildGlyph
 {exch begin
 CharStrings exch
 2 copy known not{pop /.notdef}if
 true 3 1 roll get exec
 end}_d

/BuildChar {
 1 index /Encoding get exch get
 1 index /BuildGlyph get exec
}_d

FontName currentdict end definefont pop
end
%%EndProlog
mpldict begin
-115.2 97.2 translate
842.4 597.6 0 0 clipbox
gsave
0 0 m
842.4 0 l
842.4 597.6 l
0 597.6 l
cl
1.000 setgray
fill
grestore
gsave
105.3 59.76 m
758.16 59.76 l
758.16 537.84 l
105.3 537.84 l
cl
1.000 setgray
fill
grestore
1.000 setlinewidth
1 setlinejoin
2 setlinecap
[] 0 setdash
0.000 0.000 1.000 setrgbcolor
gsave
652.9 478.1 105.3 59.76 clipbox
105.3 427.095 m
107.476 407.689 l
109.652 399.542 l
111.829 399.542 l
114.005 381.65 l
116.181 375.25 l
118.357 363.4 l
120.533 363.4 l
122.71 342.747 l
124.886 325.992 l
127.062 313.003 l
129.238 313.003 l
131.414 302.602 l
133.591 287.485 l
135.767 270.48 l
137.943 270.48 l
140.119 269.208 l
142.295 269.208 l
144.472 266.187 l
146.648 266.187 l
148.824 251.639 l
151 251.639 l
153.176 250.857 l
155.353 246.943 l
161.881 246.943 l
164.057 246.367 l
166.234 243.243 l
174.938 243.243 l
177.115 241.805 l
179.291 241.411 l
192.348 241.411 l
194.524 241.134 l
196.7 240.064 l
201.053 240.064 l
203.229 238.422 l
205.405 238.422 l
207.581 238.126 l
209.758 238.126 l
211.934 237.254 l
214.11 236.144 l
216.286 235.396 l
218.462 234.347 l
220.639 234.253 l
222.815 232.68 l
231.52 232.68 l
233.696 232.124 l
235.872 231.933 l
238.048 230.521 l
240.224 229.647 l
242.401 229.056 l
244.577 229.056 l
246.753 228.89 l
253.282 228.839 l
255.458 228.662 l
257.634 227.572 l
261.986 227.572 l
264.163 226.852 l
266.339 226.852 l
268.515 226.502 l
272.867 226.044 l
277.22 225.955 l
279.396 225.955 l
281.572 225.302 l
283.748 224.899 l
285.925 224.899 l
290.277 224.498 l
298.982 224.498 l
301.158 224.243 l
305.51 224.243 l
307.687 224.009 l
309.863 223.997 l
312.039 223.826 l
314.215 222.81 l
318.568 222.743 l
320.744 222.574 l
329.449 222.491 l
359.915 221.25 l
362.092 221.25 l
364.268 220.977 l
370.796 220.802 l
372.973 220.684 l
383.854 220.647 l
388.206 220.57 l
396.911 220.541 l
399.087 220.388 l
409.968 220.359 l
414.32 220.261 l
423.025 220.161 l
473.078 219.85 l
523.13 219.675 l
592.769 219.564 l
651.526 219.499 l
755.984 219.426 l
755.984 219.426 l
stroke
grestore
0.000 0.500 0.000 setrgbcolor
gsave
652.9 478.1 105.3 59.76 clipbox
105.3 475.669 m
107.476 461.357 l
109.652 415.079 l
111.829 343.515 l
116.181 343.515 l
118.357 326.417 l
120.533 326.417 l
122.71 313.805 l
124.886 289.08 l
127.062 275.871 l
129.238 273.07 l
131.414 266.169 l
133.591 259.911 l
135.767 259.911 l
137.943 255.374 l
140.119 255.374 l
142.295 254.237 l
144.472 254.237 l
146.648 251.03 l
153.176 250.99 l
159.705 247.833 l
161.881 245.292 l
168.41 245.292 l
170.586 221.553 l
177.115 221.523 l
179.291 217.872 l
181.467 213.877 l
190.172 213.877 l
192.348 210.89 l
194.524 210.89 l
196.7 205.973 l
198.877 205.973 l
201.053 200.475 l
211.934 200.475 l
214.11 199.676 l
216.286 199.676 l
218.462 198.371 l
220.639 198.371 l
224.991 194.396 l
231.52 194.396 l
233.696 194.147 l
235.872 192.682 l
238.048 192.682 l
240.224 192.477 l
242.401 190.83 l
244.577 190.83 l
246.753 190.185 l
248.929 190.185 l
251.105 188.944 l
253.282 187.309 l
261.986 187.309 l
266.339 186.446 l
272.867 186.359 l
275.044 186.203 l
277.22 185.827 l
279.396 185.787 l
281.572 185.564 l
285.925 185.458 l
290.277 184.546 l
307.687 184.511 l
309.863 184.313 l
314.215 184.25 l
316.391 184.25 l
318.568 184.092 l
320.744 184.092 l
327.272 183.709 l
331.625 183.662 l
333.801 183.225 l
335.977 183.225 l
338.153 183.07 l
349.034 183.07 l
351.211 182.954 l
359.915 182.882 l
372.973 182.632 l
403.439 182.527 l
466.549 182.337 l
755.984 182.275 l
755.984 182.275 l
stroke
grestore
1.000 0.000 0.000 setrgbcolor
gsave
652.9 478.1 105.3 59.76 clipbox
105.3 470.863 m
107.476 427.919 l
109.652 427.919 l
111.829 410.836 l
114.005 343.536 l
116.181 343.536 l
118.357 339.471 l
122.71 339.471 l
124.886 326.558 l
127.062 295.126 l
129.238 283.139 l
131.414 268.357 l
133.591 268.357 l
135.767 260.521 l
137.943 260.521 l
140.119 246.162 l
142.295 244.006 l
146.648 238.058 l
148.824 238.058 l
151 219.274 l
153.176 219.274 l
155.353 210.339 l
157.529 205.476 l
164.057 205.475 l
166.234 200.719 l
168.41 195.051 l
170.586 195.051 l
172.762 192.873 l
174.938 188.838 l
177.115 186.838 l
185.819 186.838 l
187.996 185.912 l
190.172 185.558 l
203.229 185.531 l
205.405 180.993 l
207.581 180.993 l
209.758 178.707 l
211.934 177.101 l
229.343 177.101 l
231.52 176.657 l
233.696 176.548 l
235.872 175.529 l
238.048 174.361 l
246.753 174.345 l
248.929 173.811 l
251.105 173.542 l
253.282 172.555 l
259.81 172.555 l
264.163 170.627 l
277.22 170.627 l
279.396 170.443 l
292.453 170.4 l
294.629 164.749 l
296.806 164.749 l
298.982 162.542 l
301.158 159.847 l
305.51 159.847 l
307.687 158.584 l
309.863 158.563 l
312.039 156.912 l
314.215 156.46 l
318.568 155.127 l
322.92 155.127 l
325.096 154.77 l
329.449 154.77 l
331.625 153.875 l
333.801 153.875 l
335.977 153.097 l
340.33 153.097 l
342.506 152.527 l
344.682 151.27 l
351.211 151.27 l
353.387 150.961 l
355.563 150.904 l
357.739 150.386 l
359.915 150.386 l
362.092 150.107 l
364.268 149.11 l
366.444 149.11 l
368.62 148.679 l
370.796 148.679 l
372.973 148.537 l
377.325 148.513 l
379.501 148.208 l
383.854 148.127 l
386.03 147.803 l
388.206 147.599 l
392.558 147.566 l
396.911 147.461 l
401.263 147.27 l
403.439 147.026 l
405.616 147.026 l
407.792 146.783 l
414.32 146.443 l
420.849 146.443 l
423.025 146.208 l
449.14 145.172 l
455.668 145.073 l
464.373 144.834 l
538.364 143.413 l
557.95 143.204 l
608.002 142.744 l
627.588 142.653 l
642.821 142.557 l
755.984 142.25 l
755.984 142.25 l
stroke
grestore
0.000 0.750 0.750 setrgbcolor
gsave
652.9 478.1 105.3 59.76 clipbox
105.3 456.75 m
107.476 415.095 l
109.652 377.316 l
111.829 371.471 l
114.005 335.372 l
116.181 322.537 l
118.357 322.537 l
120.533 313.906 l
122.71 295.829 l
124.886 291.21 l
127.062 267.934 l
129.238 267.934 l
131.414 263.627 l
133.591 250.31 l
135.767 238.08 l
137.943 237.861 l
140.119 229.454 l
142.295 220.568 l
144.472 220.568 l
146.648 208.282 l
148.824 208.282 l
151 202.69 l
153.176 192.102 l
155.353 192.102 l
157.529 191.566 l
159.705 191.418 l
161.881 189.347 l
164.057 189.347 l
166.234 186.975 l
168.41 178.203 l
174.938 178.203 l
177.115 176.476 l
179.291 169.949 l
185.819 169.949 l
187.996 169.377 l
190.172 166.112 l
192.348 165.867 l
194.524 165.867 l
196.7 163.346 l
201.053 163.346 l
203.229 160.854 l
205.405 158.889 l
211.934 158.867 l
214.11 157.802 l
216.286 155.182 l
227.167 155.182 l
229.343 154.627 l
235.872 154.627 l
238.048 154.249 l
240.224 152.221 l
248.929 152.221 l
251.105 151.772 l
259.81 151.709 l
261.986 148.7 l
268.515 148.7 l
270.691 145.254 l
272.867 145.254 l
275.044 143.618 l
277.22 143.618 l
279.396 142.665 l
281.572 140.344 l
283.748 138.573 l
285.925 138.157 l
288.101 138.157 l
290.277 136.128 l
294.629 134.475 l
296.806 134.475 l
298.982 134.074 l
301.158 134.074 l
305.51 132.599 l
307.687 132.148 l
309.863 131.156 l
312.039 131.156 l
314.215 130.326 l
316.391 130.326 l
320.744 129.741 l
322.92 129.354 l
325.096 129.354 l
327.272 128.596 l
329.449 128.226 l
331.625 128.18 l
333.801 127.273 l
338.153 127.273 l
340.33 126.927 l
342.506 124.283 l
344.682 124.283 l
346.858 121.136 l
349.034 120.599 l
351.211 119.678 l
353.387 117.942 l
362.092 117.942 l
366.444 117.079 l
368.62 117.079 l
370.796 116.269 l
381.677 116.211 l
383.854 115.789 l
386.03 115.483 l
390.382 115.483 l
392.558 115.079 l
396.911 115.079 l
401.263 114.92 l
414.32 114.809 l
416.497 114.632 l
423.025 114.584 l
438.259 114.49 l
442.611 114.381 l
466.549 114.279 l
590.593 114.169 l
755.984 114.156 l
755.984 114.156 l
stroke
grestore
0.750 0.000 0.750 setrgbcolor
gsave
652.9 478.1 105.3 59.76 clipbox
105.3 487.568 m
109.652 408.656 l
111.829 359.453 l
114.005 359.311 l
116.181 295.759 l
118.357 295.759 l
120.533 285.909 l
122.71 260.959 l
124.886 260.959 l
127.062 259.749 l
129.238 257.608 l
131.414 250.52 l
133.591 250.52 l
135.767 230.333 l
140.119 230.333 l
142.295 225.746 l
144.472 221.534 l
146.648 196.334 l
148.824 196.334 l
151 193.677 l
153.176 192.499 l
155.353 186.764 l
157.529 186.764 l
159.705 181.982 l
161.881 181.982 l
164.057 176.435 l
166.234 169.701 l
168.41 169.701 l
170.586 163.991 l
172.762 163.991 l
174.938 159.532 l
177.115 159.532 l
179.291 157.361 l
181.467 153.688 l
183.643 149.088 l
194.524 149.088 l
196.7 146.342 l
198.877 146.07 l
201.053 146.07 l
203.229 145.381 l
207.581 145.381 l
209.758 144.846 l
211.934 144.846 l
214.11 144.108 l
216.286 144.108 l
218.462 143.441 l
220.639 142.089 l
229.343 142.089 l
231.52 141.882 l
238.048 141.882 l
240.224 140.721 l
242.401 140.721 l
244.577 140.23 l
251.105 140.23 l
255.458 139.822 l
257.634 131.94 l
264.163 131.94 l
266.339 131.646 l
268.515 131.639 l
270.691 130.369 l
275.044 129.262 l
277.22 127.818 l
279.396 127.686 l
281.572 126.97 l
283.748 123.499 l
290.277 123.43 l
292.453 122.971 l
294.629 122.971 l
296.806 120.623 l
298.982 120.623 l
301.158 119.186 l
303.334 118.993 l
305.51 117.607 l
309.863 115.571 l
312.039 115.571 l
314.215 115.429 l
316.391 114.695 l
320.744 114.695 l
322.92 111.626 l
325.096 111.626 l
327.272 109.121 l
329.449 109.121 l
331.625 107.607 l
333.801 104.868 l
335.977 104.868 l
338.153 103.543 l
340.33 103.515 l
344.682 101.185 l
346.858 101.185 l
349.034 100.427 l
355.563 100.427 l
357.739 99.9307 l
359.915 99.6462 l
362.092 99.6462 l
364.268 99.4016 l
375.149 99.1944 l
379.501 98.6175 l
392.558 98.6175 l
399.087 98.2725 l
418.673 98.1929 l
420.849 97.9482 l
425.201 97.9108 l
438.259 97.5466 l
468.725 97.4415 l
499.192 97.302 l
699.403 97.1921 l
755.984 97.1921 l
755.984 97.1921 l
stroke
grestore
0.750 0.750 0.000 setrgbcolor
gsave
652.9 478.1 105.3 59.76 clipbox
105.3 469.543 m
107.476 454.763 l
109.652 433.145 l
111.829 409.808 l
114.005 352.288 l
116.181 351.405 l
118.357 290.862 l
120.533 275.955 l
122.71 275.955 l
124.886 266.824 l
127.062 266.824 l
129.238 265.82 l
131.414 261.836 l
133.591 240.901 l
135.767 240.272 l
137.943 217.323 l
140.119 217.323 l
142.295 190.349 l
151 190.349 l
153.176 182.351 l
155.353 181.631 l
159.705 181.631 l
161.881 175.078 l
164.057 172.013 l
166.234 172.013 l
168.41 170.919 l
170.586 157.898 l
172.762 156.804 l
174.938 153.962 l
177.115 148.719 l
183.643 148.719 l
185.819 147.48 l
187.996 146.935 l
190.172 144.057 l
192.348 144.057 l
194.524 141.211 l
201.053 141.211 l
203.229 140.958 l
205.405 139.797 l
211.934 139.797 l
214.11 138.529 l
227.167 138.529 l
229.343 137.709 l
231.52 137.709 l
233.696 137.318 l
235.872 137.105 l
240.224 137.105 l
242.401 135.58 l
244.577 129.455 l
251.105 129.455 l
253.282 129.337 l
255.458 128.083 l
257.634 126.647 l
259.81 126.531 l
261.986 124.964 l
264.163 124.964 l
266.339 122.543 l
272.867 122.457 l
275.044 121.918 l
277.22 118.299 l
285.925 118.299 l
288.101 118.046 l
290.277 117.621 l
292.453 115.946 l
294.629 114.73 l
296.806 113.201 l
298.982 108.199 l
301.158 105.842 l
303.334 105.092 l
305.51 104.787 l
307.687 104.269 l
309.863 100.37 l
312.039 100.37 l
314.215 99.5052 l
316.391 99.5052 l
318.568 99.0486 l
320.744 98.0574 l
325.096 98.0574 l
327.272 96.0024 l
329.449 95.3969 l
342.506 95.3969 l
344.682 94.7116 l
346.858 94.7116 l
349.034 94.4686 l
351.211 93.981 l
364.268 93.9148 l
368.62 93.0878 l
375.149 93.0878 l
377.325 92.9706 l
379.501 92.9706 l
381.677 92.8097 l
386.03 92.7388 l
390.382 92.5563 l
394.735 92.4678 l
405.616 92.3587 l
414.32 92.1005 l
431.73 92.0017 l
438.259 91.9475 l
464.373 91.6942 l
501.368 91.5898 l
542.716 91.5157 l
755.984 91.475 l
755.984 91.475 l
stroke
grestore
0.000 setgray
gsave
652.9 478.1 105.3 59.76 clipbox
105.3 411.626 m
111.829 411.626 l
114.005 340.491 l
116.181 314.871 l
118.357 314.871 l
120.533 298.605 l
122.71 296.928 l
124.886 296.928 l
127.062 284.489 l
129.238 282.506 l
131.414 266.405 l
133.591 263.503 l
135.767 253.653 l
137.943 248.69 l
140.119 223.098 l
142.295 223.098 l
144.472 199.638 l
153.176 199.638 l
155.353 185.576 l
157.529 184.135 l
159.705 183.489 l
164.057 183.489 l
166.234 171.008 l
170.586 171.008 l
172.762 168.036 l
174.938 156.277 l
177.115 155.125 l
179.291 155.125 l
181.467 149.831 l
187.996 149.831 l
190.172 148.905 l
192.348 146.786 l
201.053 146.786 l
203.229 144.994 l
214.11 144.94 l
216.286 144.457 l
218.462 143.07 l
220.639 143.07 l
222.815 142.054 l
224.991 140.826 l
229.343 140.826 l
231.52 140.264 l
235.872 140.264 l
238.048 136.003 l
240.224 132.121 l
248.929 132.121 l
251.105 130.766 l
257.634 130.74 l
259.81 130.308 l
261.986 127.754 l
264.163 127.754 l
266.339 123.438 l
268.515 122.166 l
270.691 121.404 l
272.867 121.404 l
275.044 117.956 l
277.22 117.852 l
279.396 116.239 l
281.572 114.124 l
283.748 114.124 l
285.925 110.268 l
288.101 109.676 l
290.277 107.331 l
296.806 107.331 l
298.982 106.454 l
301.158 104.939 l
303.334 103.601 l
305.51 102.7 l
307.687 102.518 l
309.863 101.966 l
316.391 101.931 l
318.568 101.265 l
320.744 101.265 l
322.92 99.9251 l
327.272 99.9251 l
329.449 99.6175 l
349.034 99.5378 l
351.211 99.0956 l
353.387 98.8606 l
357.739 98.7833 l
359.915 98.596 l
362.092 98.596 l
364.268 98.4383 l
381.677 98.4383 l
383.854 98.1618 l
390.382 98.0845 l
405.616 97.765 l
409.968 97.6797 l
418.673 97.5116 l
449.14 97.4223 l
462.197 97.3291 l
520.954 97.2247 l
534.011 97.2056 l
755.984 97.1921 l
755.984 97.1921 l
stroke
grestore
0.000 0.000 1.000 setrgbcolor
gsave
652.9 478.1 105.3 59.76 clipbox
105.3 469.76 m
107.476 380.365 l
111.829 380.365 l
114.005 366.97 l
116.181 343.262 l
118.357 326.426 l
120.533 325.351 l
122.71 314.472 l
124.886 287.49 l
127.062 287.49 l
129.238 274.897 l
131.414 259.59 l
133.591 259.59 l
135.767 259.436 l
140.119 259.436 l
142.295 243.681 l
144.472 243.681 l
146.648 224.64 l
148.824 224.64 l
151 221.314 l
155.353 221.314 l
157.529 205.627 l
159.705 205.627 l
161.881 202.539 l
164.057 202.539 l
166.234 193.944 l
168.41 193.944 l
170.586 182.686 l
174.938 182.686 l
177.115 174.126 l
179.291 172.634 l
181.467 172.634 l
183.643 167.141 l
185.819 166.355 l
190.172 166.355 l
192.348 165.883 l
194.524 160.506 l
211.934 160.506 l
214.11 158.314 l
216.286 154.498 l
222.815 154.498 l
224.991 150.895 l
227.167 149.896 l
229.343 149.404 l
231.52 149.111 l
235.872 145.641 l
240.224 145.641 l
242.401 145.008 l
244.577 140.394 l
246.753 138.766 l
248.929 136.909 l
251.105 136.909 l
253.282 136.486 l
255.458 135.866 l
257.634 134.54 l
259.81 132.643 l
261.986 131.615 l
264.163 131.183 l
268.515 128.692 l
270.691 128.125 l
272.867 128.125 l
275.044 126.066 l
277.22 125.409 l
279.396 124.98 l
281.572 123.054 l
283.748 121.647 l
288.101 120.973 l
290.277 120.973 l
292.453 119.97 l
294.629 119.198 l
301.158 119.198 l
303.334 117.921 l
312.039 117.921 l
314.215 117.612 l
316.391 117.451 l
322.92 117.347 l
325.096 116.636 l
331.625 116.636 l
333.801 116.52 l
335.977 116.52 l
338.153 115.743 l
349.034 115.743 l
351.211 115.496 l
357.739 115.441 l
362.092 115.337 l
368.62 115.259 l
377.325 115.222 l
383.854 115.13 l
401.263 114.739 l
407.792 114.648 l
412.144 114.583 l
431.73 114.388 l
436.082 114.316 l
486.135 114.206 l
536.188 114.167 l
755.984 114.156 l
755.984 114.156 l
stroke
grestore
0.000 0.500 0.000 setrgbcolor
gsave
652.9 478.1 105.3 59.76 clipbox
105.3 499.284 m
107.476 417.506 l
109.652 355.622 l
116.181 355.622 l
118.357 344.338 l
120.533 323.747 l
124.886 323.747 l
127.062 293.204 l
131.414 293.204 l
133.591 275.264 l
135.767 275.264 l
137.943 267.312 l
140.119 265.374 l
142.295 264.04 l
146.648 264.04 l
148.824 260.669 l
151 260.301 l
153.176 255.184 l
155.353 254.708 l
159.705 245.021 l
161.881 245.021 l
164.057 235.85 l
166.234 235.85 l
168.41 219.28 l
170.586 213.872 l
172.762 204.551 l
174.938 198.902 l
177.115 191.43 l
183.643 191.43 l
185.819 189.301 l
187.996 187.474 l
190.172 187.305 l
196.7 187.282 l
198.877 181.511 l
209.758 181.466 l
211.934 178.686 l
214.11 178.686 l
216.286 175.549 l
218.462 175.34 l
220.639 173.253 l
222.815 169.874 l
227.167 169.874 l
229.343 166.752 l
231.52 165.495 l
235.872 165.495 l
238.048 160.104 l
240.224 159.514 l
244.577 159.514 l
246.753 157.221 l
248.929 155.676 l
253.282 155.616 l
255.458 155.115 l
257.634 155.115 l
259.81 151.884 l
270.691 151.884 l
272.867 151.598 l
277.22 150.345 l
279.396 150.186 l
281.572 148.484 l
290.277 148.484 l
292.453 148.092 l
294.629 147.444 l
296.806 147.444 l
298.982 147.179 l
303.334 147.096 l
305.51 146.853 l
307.687 146.853 l
314.215 145.94 l
316.391 145.918 l
318.568 145.715 l
320.744 145.107 l
327.272 145.107 l
331.625 144.495 l
335.977 144.495 l
344.682 143.367 l
349.034 143.31 l
351.211 143.191 l
362.092 143.176 l
368.62 142.842 l
375.149 142.842 l
377.325 142.618 l
392.558 142.618 l
396.911 142.395 l
418.673 142.325 l
425.201 142.258 l
523.13 142.148 l
697.226 142.132 l
755.984 142.132 l
755.984 142.132 l
stroke
grestore
1.000 0.000 0.000 setrgbcolor
gsave
652.9 478.1 105.3 59.76 clipbox
105.3 422.285 m
107.476 393.449 l
109.652 350.686 l
111.829 311.691 l
114.005 304.767 l
116.181 290.105 l
118.357 290.105 l
120.533 284.921 l
129.238 284.921 l
131.414 284.205 l
133.591 280.834 l
135.767 271.003 l
137.943 271.003 l
140.119 262.977 l
151 262.977 l
153.176 260.701 l
155.353 249.708 l
157.529 247.161 l
166.234 247.161 l
168.41 244.478 l
174.938 244.478 l
177.115 237.66 l
179.291 218.071 l
181.467 218.071 l
183.643 217.044 l
185.819 217.044 l
187.996 214.923 l
192.348 214.923 l
194.524 212.101 l
201.053 212.101 l
203.229 211.417 l
205.405 209.48 l
207.581 202.982 l
216.286 202.982 l
220.639 199.759 l
222.815 199.759 l
224.991 199.412 l
227.167 199.412 l
229.343 197.771 l
231.52 197.771 l
233.696 196.454 l
246.753 196.454 l
248.929 194.993 l
251.105 194.993 l
253.282 193.026 l
259.81 193.026 l
261.986 190.49 l
264.163 189.929 l
270.691 189.72 l
272.867 188.944 l
275.044 187.773 l
279.396 187.773 l
281.572 187.105 l
283.748 187.105 l
285.925 186.164 l
288.101 186.164 l
290.277 185.957 l
292.453 185.402 l
294.629 184.478 l
301.158 184.295 l
303.334 184.055 l
314.215 184.007 l
316.391 183.627 l
322.92 183.568 l
325.096 183.395 l
327.272 182.863 l
338.153 182.78 l
340.33 182.337 l
355.563 182.144 l
357.739 181.947 l
362.092 181.772 l
364.268 181.615 l
372.973 181.513 l
375.149 181.49 l
377.325 181.336 l
381.677 181.336 l
383.854 181.065 l
390.382 181.035 l
396.911 180.795 l
403.439 180.688 l
407.792 180.395 l
409.968 180.253 l
420.849 180.17 l
486.135 179.243 l
586.24 178.546 l
618.883 178.45 l
631.94 178.384 l
688.522 178.235 l
745.103 178.11 l
755.984 178.077 l
755.984 178.077 l
stroke
grestore
0.000 0.750 0.750 setrgbcolor
gsave
652.9 478.1 105.3 59.76 clipbox
105.3 450.089 m
107.476 418.883 l
109.652 406.49 l
111.829 318.282 l
114.005 274.717 l
116.181 274.717 l
118.357 273.72 l
120.533 273.72 l
122.71 255.301 l
124.886 253.513 l
129.238 253.513 l
131.414 253.006 l
133.591 250.389 l
137.943 250.389 l
140.119 248.877 l
142.295 245.264 l
151 245.264 l
153.176 243.932 l
177.115 243.932 l
179.291 243.021 l
185.819 243.021 l
190.172 242.861 l
203.229 242.861 l
205.405 242.536 l
207.581 242.536 l
209.758 241.978 l
294.629 241.91 l
301.158 241.855 l
338.153 241.746 l
416.497 241.213 l
425.201 241.144 l
433.906 241.064 l
457.844 240.726 l
466.549 240.626 l
481.783 240.421 l
560.126 239.054 l
566.654 238.971 l
575.359 238.799 l
599.297 238.301 l
616.707 238.06 l
625.412 237.82 l
634.117 237.718 l
640.645 237.499 l
651.526 237.337 l
734.222 235.423 l
742.927 235.265 l
749.455 235.121 l
755.984 234.965 l
755.984 234.965 l
stroke
grestore
0.500 setlinewidth
0 setlinecap
0.000 setgray
gsave
/o {
gsave
newpath
translate
0 0 m
0 4 l
gsave
0.000 setgray
fill
grestore
stroke
grestore
} bind def
105.3 59.76 o
grestore
gsave
/o {
gsave
newpath
translate
0 0 m
0 -4 l
gsave
0.000 setgray
fill
grestore
stroke
grestore
} bind def
105.3 537.84 o
grestore
/BitstreamVeraSans-Roman findfont
12.000 scalefont
setfont
gsave
102.276562 46.681875 translate
0.000000 rotate
0.000000 0.171875 m /zero glyphshow
grestore
gsave
/o {
gsave
newpath
translate
0 0 m
0 4 l
gsave
0.000 setgray
fill
grestore
stroke
grestore
} bind def
214.11 59.76 o
grestore
gsave
/o {
gsave
newpath
translate
0 0 m
0 -4 l
gsave
0.000 setgray
fill
grestore
stroke
grestore
} bind def
214.11 537.84 o
grestore
gsave
207.328750 46.681875 translate
0.000000 rotate
0.000000 0.171875 m /five glyphshow
7.634766 0.171875 m /zero glyphshow
grestore
gsave
/o {
gsave
newpath
translate
0 0 m
0 4 l
gsave
0.000 setgray
fill
grestore
stroke
grestore
} bind def
322.92 59.76 o
grestore
gsave
/o {
gsave
newpath
translate
0 0 m
0 -4 l
gsave
0.000 setgray
fill
grestore
stroke
grestore
} bind def
322.92 537.84 o
grestore
gsave
312.513750 46.681875 translate
0.000000 rotate
0.000000 0.171875 m /one glyphshow
7.634766 0.171875 m /zero glyphshow
15.269531 0.171875 m /zero glyphshow
grestore
gsave
/o {
gsave
newpath
translate
0 0 m
0 4 l
gsave
0.000 setgray
fill
grestore
stroke
grestore
} bind def
431.73 59.76 o
grestore
gsave
/o {
gsave
newpath
translate
0 0 m
0 -4 l
gsave
0.000 setgray
fill
grestore
stroke
grestore
} bind def
431.73 537.84 o
grestore
gsave
421.323750 46.681875 translate
0.000000 rotate
0.000000 0.171875 m /one glyphshow
7.634766 0.171875 m /five glyphshow
15.269531 0.171875 m /zero glyphshow
grestore
gsave
/o {
gsave
newpath
translate
0 0 m
0 4 l
gsave
0.000 setgray
fill
grestore
stroke
grestore
} bind def
540.54 59.76 o
grestore
gsave
/o {
gsave
newpath
translate
0 0 m
0 -4 l
gsave
0.000 setgray
fill
grestore
stroke
grestore
} bind def
540.54 537.84 o
grestore
gsave
529.915000 46.681875 translate
0.000000 rotate
0.000000 0.171875 m /two glyphshow
7.634766 0.171875 m /zero glyphshow
15.269531 0.171875 m /zero glyphshow
grestore
gsave
/o {
gsave
newpath
translate
0 0 m
0 4 l
gsave
0.000 setgray
fill
grestore
stroke
grestore
} bind def
649.35 59.76 o
grestore
gsave
/o {
gsave
newpath
translate
0 0 m
0 -4 l
gsave
0.000 setgray
fill
grestore
stroke
grestore
} bind def
649.35 537.84 o
grestore
gsave
638.725000 46.681875 translate
0.000000 rotate
0.000000 0.171875 m /two glyphshow
7.634766 0.171875 m /five glyphshow
15.269531 0.171875 m /zero glyphshow
grestore
gsave
/o {
gsave
newpath
translate
0 0 m
0 4 l
gsave
0.000 setgray
fill
grestore
stroke
grestore
} bind def
758.16 59.76 o
grestore
gsave
/o {
gsave
newpath
translate
0 0 m
0 -4 l
gsave
0.000 setgray
fill
grestore
stroke
grestore
} bind def
758.16 537.84 o
grestore
gsave
747.558438 46.681875 translate
0.000000 rotate
0.000000 0.171875 m /three glyphshow
7.634766 0.171875 m /zero glyphshow
15.269531 0.171875 m /zero glyphshow
grestore
gsave
399.089375 32.385000 translate
0.000000 rotate
0.000000 0.171875 m /G glyphshow
9.298828 0.171875 m /e glyphshow
16.681641 0.171875 m /n glyphshow
24.287109 0.171875 m /e glyphshow
31.669922 0.171875 m /r glyphshow
36.603516 0.171875 m /a glyphshow
43.957031 0.171875 m /t glyphshow
48.662109 0.171875 m /i glyphshow
51.996094 0.171875 m /o glyphshow
59.337891 0.171875 m /n glyphshow
grestore
gsave
/o {
gsave
newpath
translate
0 0 m
4 0 l
gsave
0.000 setgray
fill
grestore
stroke
grestore
} bind def
105.3 59.76 o
grestore
gsave
/o {
gsave
newpath
translate
0 0 m
-4 0 l
gsave
0.000 setgray
fill
grestore
stroke
grestore
} bind def
758.16 59.76 o
grestore
gsave
83.831250 55.220937 translate
0.000000 rotate
0.000000 0.171875 m /zero glyphshow
7.634766 0.171875 m /period glyphshow
11.449219 0.171875 m /eight glyphshow
grestore
gsave
/o {
gsave
newpath
translate
0 0 m
4 0 l
gsave
0.000 setgray
fill
grestore
stroke
grestore
} bind def
105.3 139.44 o
grestore
gsave
/o {
gsave
newpath
translate
0 0 m
-4 0 l
gsave
0.000 setgray
fill
grestore
stroke
grestore
} bind def
758.16 139.44 o
grestore
gsave
83.846875 134.900937 translate
0.000000 rotate
0.000000 0.171875 m /zero glyphshow
7.634766 0.171875 m /period glyphshow
11.449219 0.171875 m /nine glyphshow
grestore
gsave
/o {
gsave
newpath
translate
0 0 m
4 0 l
gsave
0.000 setgray
fill
grestore
stroke
grestore
} bind def
105.3 219.12 o
grestore
gsave
/o {
gsave
newpath
translate
0 0 m
-4 0 l
gsave
0.000 setgray
fill
grestore
stroke
grestore
} bind def
758.16 219.12 o
grestore
gsave
84.315625 214.580937 translate
0.000000 rotate
0.000000 0.171875 m /one glyphshow
7.634766 0.171875 m /period glyphshow
11.449219 0.171875 m /zero glyphshow
grestore
gsave
/o {
gsave
newpath
translate
0 0 m
4 0 l
gsave
0.000 setgray
fill
grestore
stroke
grestore
} bind def
105.3 298.8 o
grestore
gsave
/o {
gsave
newpath
translate
0 0 m
-4 0 l
gsave
0.000 setgray
fill
grestore
stroke
grestore
} bind def
758.16 298.8 o
grestore
gsave
84.628125 294.425000 translate
0.000000 rotate
0.000000 0.000000 m /one glyphshow
7.634766 0.000000 m /period glyphshow
11.449219 0.000000 m /one glyphshow
grestore
gsave
/o {
gsave
newpath
translate
0 0 m
4 0 l
gsave
0.000 setgray
fill
grestore
stroke
grestore
} bind def
105.3 378.48 o
grestore
gsave
/o {
gsave
newpath
translate
0 0 m
-4 0 l
gsave
0.000 setgray
fill
grestore
stroke
grestore
} bind def
758.16 378.48 o
grestore
gsave
84.721875 374.026875 translate
0.000000 rotate
0.000000 0.000000 m /one glyphshow
7.634766 0.000000 m /period glyphshow
11.449219 0.000000 m /two glyphshow
grestore
gsave
/o {
gsave
newpath
translate
0 0 m
4 0 l
gsave
0.000 setgray
fill
grestore
stroke
grestore
} bind def
105.3 458.16 o
grestore
gsave
/o {
gsave
newpath
translate
0 0 m
-4 0 l
gsave
0.000 setgray
fill
grestore
stroke
grestore
} bind def
758.16 458.16 o
grestore
gsave
84.487500 453.620937 translate
0.000000 rotate
0.000000 0.171875 m /one glyphshow
7.634766 0.171875 m /period glyphshow
11.449219 0.171875 m /three glyphshow
grestore
gsave
/o {
gsave
newpath
translate
0 0 m
4 0 l
gsave
0.000 setgray
fill
grestore
stroke
grestore
} bind def
105.3 537.84 o
grestore
gsave
/o {
gsave
newpath
translate
0 0 m
-4 0 l
gsave
0.000 setgray
fill
grestore
stroke
grestore
} bind def
758.16 537.84 o
grestore
gsave
84.190625 533.465000 translate
0.000000 rotate
0.000000 0.000000 m /one glyphshow
7.634766 0.000000 m /period glyphshow
11.449219 0.000000 m /four glyphshow
grestore
gsave
78.831250 257.229688 translate
90.000000 rotate
0.000000 2.500000 m /E glyphshow
7.582031 2.500000 m /n glyphshow
15.187500 2.500000 m /t glyphshow
19.892578 2.500000 m /a glyphshow
27.246094 2.500000 m /n glyphshow
34.851562 2.500000 m /g glyphshow
42.468750 2.500000 m /l glyphshow
45.802734 2.500000 m /e glyphshow
53.185547 2.500000 m /m glyphshow
64.875000 2.500000 m /e glyphshow
72.257812 2.500000 m /n glyphshow
79.863281 2.500000 m /t glyphshow
grestore
1.000 setlinewidth
2 setlinecap
gsave
105.3 537.84 m
758.16 537.84 l
stroke
grestore
gsave
758.16 59.76 m
758.16 537.84 l
stroke
grestore
gsave
105.3 59.76 m
758.16 59.76 l
stroke
grestore
gsave
105.3 59.76 m
105.3 537.84 l
stroke
grestore
/BitstreamVeraSans-Roman findfont
14.400 scalefont
setfont
gsave
273.480000 540.996250 translate
0.000000 rotate
0.000000 1.843750 m /E glyphshow
9.082642 1.843750 m /v glyphshow
17.589722 1.843750 m /o glyphshow
26.384583 1.843750 m /l glyphshow
30.378418 1.843750 m /u glyphshow
39.489136 1.843750 m /t glyphshow
45.125427 1.843750 m /i glyphshow
49.119263 1.843750 m /o glyphshow
57.914124 1.843750 m /n glyphshow
67.024841 1.843750 m /space glyphshow
71.594238 1.843750 m /o glyphshow
80.389099 1.843750 m /f glyphshow
85.449829 1.843750 m /space glyphshow
90.019226 1.843750 m /three glyphshow
99.165039 1.843750 m /d glyphshow
108.289795 1.843750 m /five glyphshow
117.435608 1.843750 m /space glyphshow
122.005005 1.843750 m /parenleft glyphshow
127.613220 1.843750 m /m glyphshow
141.616211 1.843750 m /e glyphshow
150.460205 1.843750 m /a glyphshow
159.269104 1.843750 m /s glyphshow
166.758423 1.843750 m /u glyphshow
175.869141 1.843750 m /r glyphshow
181.404175 1.843750 m /e glyphshow
190.248169 1.843750 m /colon glyphshow
195.091309 1.843750 m /space glyphshow
199.660706 1.843750 m /H glyphshow
210.470032 1.843750 m /i glyphshow
214.463867 1.843750 m /l glyphshow
218.457703 1.843750 m /b glyphshow
227.582458 1.843750 m /e glyphshow
236.426453 1.843750 m /r glyphshow
242.336487 1.843750 m /t glyphshow
247.972778 1.843750 m /hyphen glyphshow
253.159851 1.843750 m /S glyphshow
262.284607 1.843750 m /c glyphshow
270.188049 1.843750 m /h glyphshow
279.298767 1.843750 m /m glyphshow
293.301758 1.843750 m /i glyphshow
297.295593 1.843750 m /d glyphshow
306.420349 1.843750 m /t glyphshow
312.056641 1.843750 m /parenright glyphshow
grestore
gsave
601.183 298.104 m
750.96 298.104 l
750.96 530.64 l
601.183 530.64 l
601.183 298.104 l
cl
gsave
1.000 setgray
fill
grestore
stroke
grestore
0.000 0.000 1.000 setrgbcolor
gsave
611.263 519.279 m
631.423 519.279 l
stroke
grestore
0.000 setgray
gsave
647.262500 511.333125 translate
0.000000 rotate
0.000000 2.906250 m /p glyphshow
9.124756 2.906250 m /space glyphshow
13.694153 2.906250 m /equal glyphshow
25.738831 2.906250 m /space glyphshow
30.308228 2.906250 m /zero glyphshow
39.454041 2.906250 m /period glyphshow
44.023438 2.906250 m /zero glyphshow
53.169250 2.906250 m /zero glyphshow
62.315063 2.906250 m /zero glyphshow
71.460876 2.906250 m /zero glyphshow
80.606689 2.906250 m /zero glyphshow
89.752502 2.906250 m /zero glyphshow
grestore
0.000 0.500 0.000 setrgbcolor
gsave
611.263 498.533 m
631.423 498.533 l
stroke
grestore
0.000 setgray
gsave
647.262500 490.586250 translate
0.000000 rotate
0.000000 2.906250 m /p glyphshow
9.124756 2.906250 m /space glyphshow
13.694153 2.906250 m /equal glyphshow
25.738831 2.906250 m /space glyphshow
30.308228 2.906250 m /zero glyphshow
39.454041 2.906250 m /period glyphshow
44.023438 2.906250 m /one glyphshow
53.169250 2.906250 m /zero glyphshow
62.315063 2.906250 m /zero glyphshow
71.460876 2.906250 m /zero glyphshow
80.606689 2.906250 m /zero glyphshow
89.752502 2.906250 m /zero glyphshow
grestore
1.000 0.000 0.000 setrgbcolor
gsave
611.263 477.786 m
631.423 477.786 l
stroke
grestore
0.000 setgray
gsave
647.262500 469.839375 translate
0.000000 rotate
0.000000 2.906250 m /p glyphshow
9.124756 2.906250 m /space glyphshow
13.694153 2.906250 m /equal glyphshow
25.738831 2.906250 m /space glyphshow
30.308228 2.906250 m /zero glyphshow
39.454041 2.906250 m /period glyphshow
44.023438 2.906250 m /two glyphshow
53.169250 2.906250 m /zero glyphshow
62.315063 2.906250 m /zero glyphshow
71.460876 2.906250 m /zero glyphshow
80.606689 2.906250 m /zero glyphshow
89.752502 2.906250 m /zero glyphshow
grestore
0.000 0.750 0.750 setrgbcolor
gsave
611.263 457.039 m
631.423 457.039 l
stroke
grestore
0.000 setgray
gsave
647.262500 449.092500 translate
0.000000 rotate
0.000000 2.906250 m /p glyphshow
9.124756 2.906250 m /space glyphshow
13.694153 2.906250 m /equal glyphshow
25.738831 2.906250 m /space glyphshow
30.308228 2.906250 m /zero glyphshow
39.454041 2.906250 m /period glyphshow
44.023438 2.906250 m /three glyphshow
53.169250 2.906250 m /zero glyphshow
62.315063 2.906250 m /zero glyphshow
71.460876 2.906250 m /zero glyphshow
80.606689 2.906250 m /zero glyphshow
89.752502 2.906250 m /zero glyphshow
grestore
0.750 0.000 0.750 setrgbcolor
gsave
611.263 436.292 m
631.423 436.292 l
stroke
grestore
0.000 setgray
gsave
647.262500 428.345625 translate
0.000000 rotate
0.000000 2.906250 m /p glyphshow
9.124756 2.906250 m /space glyphshow
13.694153 2.906250 m /equal glyphshow
25.738831 2.906250 m /space glyphshow
30.308228 2.906250 m /zero glyphshow
39.454041 2.906250 m /period glyphshow
44.023438 2.906250 m /four glyphshow
53.169250 2.906250 m /zero glyphshow
62.315063 2.906250 m /zero glyphshow
71.460876 2.906250 m /zero glyphshow
80.606689 2.906250 m /zero glyphshow
89.752502 2.906250 m /zero glyphshow
grestore
0.750 0.750 0.000 setrgbcolor
gsave
611.263 415.545 m
631.423 415.545 l
stroke
grestore
0.000 setgray
gsave
647.262500 407.598750 translate
0.000000 rotate
0.000000 2.906250 m /p glyphshow
9.124756 2.906250 m /space glyphshow
13.694153 2.906250 m /equal glyphshow
25.738831 2.906250 m /space glyphshow
30.308228 2.906250 m /zero glyphshow
39.454041 2.906250 m /period glyphshow
44.023438 2.906250 m /five glyphshow
53.169250 2.906250 m /zero glyphshow
62.315063 2.906250 m /zero glyphshow
71.460876 2.906250 m /zero glyphshow
80.606689 2.906250 m /zero glyphshow
89.752502 2.906250 m /zero glyphshow
grestore
gsave
611.263 394.798 m
631.423 394.798 l
stroke
grestore
gsave
647.262500 386.851875 translate
0.000000 rotate
0.000000 2.906250 m /p glyphshow
9.124756 2.906250 m /space glyphshow
13.694153 2.906250 m /equal glyphshow
25.738831 2.906250 m /space glyphshow
30.308228 2.906250 m /zero glyphshow
39.454041 2.906250 m /period glyphshow
44.023438 2.906250 m /six glyphshow
53.169250 2.906250 m /zero glyphshow
62.315063 2.906250 m /zero glyphshow
71.460876 2.906250 m /zero glyphshow
80.606689 2.906250 m /zero glyphshow
89.752502 2.906250 m /zero glyphshow
grestore
0.000 0.000 1.000 setrgbcolor
gsave
611.263 374.051 m
631.423 374.051 l
stroke
grestore
0.000 setgray
gsave
647.262500 366.105000 translate
0.000000 rotate
0.000000 2.906250 m /p glyphshow
9.124756 2.906250 m /space glyphshow
13.694153 2.906250 m /equal glyphshow
25.738831 2.906250 m /space glyphshow
30.308228 2.906250 m /zero glyphshow
39.454041 2.906250 m /period glyphshow
44.023438 2.906250 m /seven glyphshow
53.169250 2.906250 m /zero glyphshow
62.315063 2.906250 m /zero glyphshow
71.460876 2.906250 m /zero glyphshow
80.606689 2.906250 m /zero glyphshow
89.752502 2.906250 m /zero glyphshow
grestore
0.000 0.500 0.000 setrgbcolor
gsave
611.263 353.304 m
631.423 353.304 l
stroke
grestore
0.000 setgray
gsave
647.262500 345.358125 translate
0.000000 rotate
0.000000 2.906250 m /p glyphshow
9.124756 2.906250 m /space glyphshow
13.694153 2.906250 m /equal glyphshow
25.738831 2.906250 m /space glyphshow
30.308228 2.906250 m /zero glyphshow
39.454041 2.906250 m /period glyphshow
44.023438 2.906250 m /eight glyphshow
53.169250 2.906250 m /zero glyphshow
62.315063 2.906250 m /zero glyphshow
71.460876 2.906250 m /zero glyphshow
80.606689 2.906250 m /zero glyphshow
89.752502 2.906250 m /zero glyphshow
grestore
1.000 0.000 0.000 setrgbcolor
gsave
611.263 332.558 m
631.423 332.558 l
stroke
grestore
0.000 setgray
gsave
647.262500 324.611250 translate
0.000000 rotate
0.000000 2.906250 m /p glyphshow
9.124756 2.906250 m /space glyphshow
13.694153 2.906250 m /equal glyphshow
25.738831 2.906250 m /space glyphshow
30.308228 2.906250 m /zero glyphshow
39.454041 2.906250 m /period glyphshow
44.023438 2.906250 m /nine glyphshow
53.169250 2.906250 m /zero glyphshow
62.315063 2.906250 m /zero glyphshow
71.460876 2.906250 m /zero glyphshow
80.606689 2.906250 m /zero glyphshow
89.752502 2.906250 m /zero glyphshow
grestore
0.000 0.750 0.750 setrgbcolor
gsave
611.263 311.811 m
631.423 311.811 l
stroke
grestore
0.000 setgray
gsave
647.262500 303.864375 translate
0.000000 rotate
0.000000 2.906250 m /p glyphshow
9.124756 2.906250 m /space glyphshow
13.694153 2.906250 m /equal glyphshow
25.738831 2.906250 m /space glyphshow
30.308228 2.906250 m /one glyphshow
39.454041 2.906250 m /period glyphshow
44.023438 2.906250 m /zero glyphshow
53.169250 2.906250 m /zero glyphshow
62.315063 2.906250 m /zero glyphshow
71.460876 2.906250 m /zero glyphshow
80.606689 2.906250 m /zero glyphshow
89.752502 2.906250 m /zero glyphshow
grestore

end
showpage
