%!PS-Adobe-3.0 EPSF-3.0
%%Title: 3d6.entropy.example.evolution.eps
%%Creator: matplotlib version 1.1.0, http://matplotlib.sourceforge.net/
%%CreationDate: Wed Dec  5 14:55:34 2012
%%Orientation: portrait
%%BoundingBox: -115 97 727 694
%%EndComments
%%BeginProlog
/mpldict 8 dict def
mpldict begin
/m { moveto } bind def
/l { lineto } bind def
/r { rlineto } bind def
/c { curveto } bind def
/cl { closepath } bind def
/box {
m
1 index 0 r
0 exch r
neg 0 r
cl
} bind def
/clipbox {
box
clip
newpath
} bind def
%!PS-Adobe-3.0 Resource-Font
%%Title: Bitstream Vera Sans
%%Copyright: Copyright (c) 2003 by Bitstream, Inc. All Rights Reserved.
%%Creator: Converted from TrueType to type 3 by PPR
25 dict begin
/_d{bind def}bind def
/_m{moveto}_d
/_l{lineto}_d
/_cl{closepath eofill}_d
/_c{curveto}_d
/_sc{7 -1 roll{setcachedevice}{pop pop pop pop pop pop}ifelse}_d
/_e{exec}_d
/FontName /BitstreamVeraSans-Roman def
/PaintType 0 def
/FontMatrix[.001 0 0 .001 0 0]def
/FontBBox[-183 -236 1287 928]def
/FontType 3 def
/Encoding [ /space /parenleft /parenright /period /zero /one /two /three /four /five /six /seven /eight /nine /colon /equal /E /G /a /d /e /f /g /i /l /m /n /o /p /r /s /t /u /v /y ] def
/FontInfo 10 dict dup begin
/FamilyName (Bitstream Vera Sans) def
/FullName (Bitstream Vera Sans) def
/Notice (Copyright (c) 2003 by Bitstream, Inc. All Rights Reserved. Bitstream Vera is a trademark of Bitstream, Inc.) def
/Weight (Roman) def
/Version (Release 1.10) def
/ItalicAngle 0.0 def
/isFixedPitch false def
/UnderlinePosition -213 def
/UnderlineThickness 143 def
end readonly def
/CharStrings 35 dict dup begin
/space{318 0 0 0 0 0 _sc
}_d
/parenleft{390 0 86 -131 310 759 _sc
310 759 _m
266 683 234 609 213 536 _c
191 463 181 389 181 314 _c
181 238 191 164 213 91 _c
234 17 266 -56 310 -131 _c
232 -131 _l
183 -54 146 20 122 94 _c
98 168 86 241 86 314 _c
86 386 98 459 122 533 _c
146 607 182 682 232 759 _c
310 759 _l
_cl}_d
/parenright{390 0 80 -131 304 759 _sc
80 759 _m
158 759 _l
206 682 243 607 267 533 _c
291 459 304 386 304 314 _c
304 241 291 168 267 94 _c
243 20 206 -54 158 -131 _c
80 -131 _l
123 -56 155 17 177 91 _c
198 164 209 238 209 314 _c
209 389 198 463 177 536 _c
155 609 123 683 80 759 _c
_cl}_d
/period{318 0 107 0 210 124 _sc
107 124 _m
210 124 _l
210 0 _l
107 0 _l
107 124 _l
_cl}_d
/zero{636 0 66 -13 570 742 _sc
318 664 _m
267 664 229 639 203 589 _c
177 539 165 464 165 364 _c
165 264 177 189 203 139 _c
229 89 267 64 318 64 _c
369 64 407 89 433 139 _c
458 189 471 264 471 364 _c
471 464 458 539 433 589 _c
407 639 369 664 318 664 _c
318 742 _m
399 742 461 709 505 645 _c
548 580 570 486 570 364 _c
570 241 548 147 505 83 _c
461 19 399 -13 318 -13 _c
236 -13 173 19 130 83 _c
87 147 66 241 66 364 _c
66 486 87 580 130 645 _c
173 709 236 742 318 742 _c
_cl}_d
/one{636 0 110 0 544 729 _sc
124 83 _m
285 83 _l
285 639 _l
110 604 _l
110 694 _l
284 729 _l
383 729 _l
383 83 _l
544 83 _l
544 0 _l
124 0 _l
124 83 _l
_cl}_d
/two{{636 0 73 0 536 742 _sc
192 83 _m
536 83 _l
536 0 _l
73 0 _l
73 83 _l
110 121 161 173 226 239 _c
290 304 331 346 348 365 _c
380 400 402 430 414 455 _c
426 479 433 504 433 528 _c
433 566 419 598 392 622 _c
365 646 330 659 286 659 _c
255 659 222 653 188 643 _c
154 632 117 616 78 594 _c
78 694 _l
118 710 155 722 189 730 _c
223 738 255 742 284 742 _c
359 742 419 723 464 685 _c
509 647 532 597 532 534 _c
532 504 526 475 515 449 _c
504 422 484 390 454 354 _c
446 344 420 317 376 272 _c
332 227 271 164 192 83 _c
_cl}_e}_d
/three{{636 0 76 -13 556 742 _sc
406 393 _m
453 383 490 362 516 330 _c
542 298 556 258 556 212 _c
556 140 531 84 482 45 _c
432 6 362 -13 271 -13 _c
240 -13 208 -10 176 -4 _c
144 1 110 10 76 22 _c
76 117 _l
103 101 133 89 166 81 _c
198 73 232 69 268 69 _c
330 69 377 81 409 105 _c
441 129 458 165 458 212 _c
458 254 443 288 413 312 _c
383 336 341 349 287 349 _c
202 349 _l
202 430 _l
291 430 _l
339 430 376 439 402 459 _c
428 478 441 506 441 543 _c
441 580 427 609 401 629 _c
374 649 336 659 287 659 _c
260 659 231 656 200 650 _c
169 644 135 635 98 623 _c
98 711 _l
135 721 170 729 203 734 _c
235 739 266 742 296 742 _c
}_e{370 742 429 725 473 691 _c
517 657 539 611 539 553 _c
539 513 527 479 504 451 _c
481 423 448 403 406 393 _c
_cl}_e}_d
/four{636 0 49 0 580 729 _sc
378 643 _m
129 254 _l
378 254 _l
378 643 _l
352 729 _m
476 729 _l
476 254 _l
580 254 _l
580 172 _l
476 172 _l
476 0 _l
378 0 _l
378 172 _l
49 172 _l
49 267 _l
352 729 _l
_cl}_d
/five{{636 0 77 -13 549 729 _sc
108 729 _m
495 729 _l
495 646 _l
198 646 _l
198 467 _l
212 472 227 476 241 478 _c
255 480 270 482 284 482 _c
365 482 429 459 477 415 _c
525 370 549 310 549 234 _c
549 155 524 94 475 51 _c
426 8 357 -13 269 -13 _c
238 -13 207 -10 175 -6 _c
143 -1 111 6 77 17 _c
77 116 _l
106 100 136 88 168 80 _c
199 72 232 69 267 69 _c
323 69 368 83 401 113 _c
433 143 450 183 450 234 _c
450 284 433 324 401 354 _c
368 384 323 399 267 399 _c
241 399 214 396 188 390 _c
162 384 135 375 108 363 _c
108 729 _l
_cl}_e}_d
/six{{636 0 70 -13 573 742 _sc
330 404 _m
286 404 251 388 225 358 _c
199 328 186 286 186 234 _c
186 181 199 139 225 109 _c
251 79 286 64 330 64 _c
374 64 409 79 435 109 _c
461 139 474 181 474 234 _c
474 286 461 328 435 358 _c
409 388 374 404 330 404 _c
526 713 _m
526 623 _l
501 635 476 644 451 650 _c
425 656 400 659 376 659 _c
310 659 260 637 226 593 _c
192 549 172 482 168 394 _c
187 422 211 444 240 459 _c
269 474 301 482 336 482 _c
409 482 467 459 509 415 _c
551 371 573 310 573 234 _c
573 159 550 99 506 54 _c
462 9 403 -13 330 -13 _c
246 -13 181 19 137 83 _c
92 147 70 241 70 364 _c
70 479 97 571 152 639 _c
206 707 280 742 372 742 _c
}_e{396 742 421 739 447 735 _c
472 730 498 723 526 713 _c
_cl}_e}_d
/seven{636 0 82 0 551 729 _sc
82 729 _m
551 729 _l
551 687 _l
286 0 _l
183 0 _l
432 646 _l
82 646 _l
82 729 _l
_cl}_d
/eight{{636 0 68 -13 568 742 _sc
318 346 _m
271 346 234 333 207 308 _c
180 283 167 249 167 205 _c
167 161 180 126 207 101 _c
234 76 271 64 318 64 _c
364 64 401 76 428 102 _c
455 127 469 161 469 205 _c
469 249 455 283 429 308 _c
402 333 365 346 318 346 _c
219 388 _m
177 398 144 418 120 447 _c
96 476 85 511 85 553 _c
85 611 105 657 147 691 _c
188 725 245 742 318 742 _c
390 742 447 725 489 691 _c
530 657 551 611 551 553 _c
551 511 539 476 515 447 _c
491 418 459 398 417 388 _c
464 377 501 355 528 323 _c
554 291 568 251 568 205 _c
568 134 546 80 503 43 _c
459 5 398 -13 318 -13 _c
237 -13 175 5 132 43 _c
89 80 68 134 68 205 _c
68 251 81 291 108 323 _c
134 355 171 377 219 388 _c
}_e{183 544 _m
183 506 194 476 218 455 _c
242 434 275 424 318 424 _c
360 424 393 434 417 455 _c
441 476 453 506 453 544 _c
453 582 441 611 417 632 _c
393 653 360 664 318 664 _c
275 664 242 653 218 632 _c
194 611 183 582 183 544 _c
_cl}_e}_d
/nine{{636 0 63 -13 566 742 _sc
110 15 _m
110 105 _l
134 93 159 84 185 78 _c
210 72 235 69 260 69 _c
324 69 374 90 408 134 _c
442 178 462 244 468 334 _c
448 306 424 284 396 269 _c
367 254 335 247 300 247 _c
226 247 168 269 126 313 _c
84 357 63 417 63 494 _c
63 568 85 628 129 674 _c
173 719 232 742 306 742 _c
390 742 455 709 499 645 _c
543 580 566 486 566 364 _c
566 248 538 157 484 89 _c
429 21 356 -13 264 -13 _c
239 -13 214 -10 189 -6 _c
163 -2 137 5 110 15 _c
306 324 _m
350 324 385 339 411 369 _c
437 399 450 441 450 494 _c
450 546 437 588 411 618 _c
385 648 350 664 306 664 _c
262 664 227 648 201 618 _c
175 588 162 546 162 494 _c
}_e{162 441 175 399 201 369 _c
227 339 262 324 306 324 _c
_cl}_e}_d
/colon{337 0 117 0 220 517 _sc
117 124 _m
220 124 _l
220 0 _l
117 0 _l
117 124 _l
117 517 _m
220 517 _l
220 393 _l
117 393 _l
117 517 _l
_cl}_d
/equal{838 0 106 172 732 454 _sc
106 454 _m
732 454 _l
732 372 _l
106 372 _l
106 454 _l
106 255 _m
732 255 _l
732 172 _l
106 172 _l
106 255 _l
_cl}_d
/E{632 0 98 0 568 729 _sc
98 729 _m
559 729 _l
559 646 _l
197 646 _l
197 430 _l
544 430 _l
544 347 _l
197 347 _l
197 83 _l
568 83 _l
568 0 _l
98 0 _l
98 729 _l
_cl}_d
/G{{775 0 56 -13 693 742 _sc
595 104 _m
595 300 _l
434 300 _l
434 381 _l
693 381 _l
693 68 _l
655 40 613 20 567 7 _c
521 -6 472 -13 420 -13 _c
306 -13 216 20 152 86 _c
88 152 56 245 56 364 _c
56 482 88 575 152 642 _c
216 708 306 742 420 742 _c
467 742 512 736 555 724 _c
598 712 638 695 674 673 _c
674 568 _l
637 598 598 621 557 637 _c
516 653 473 661 428 661 _c
338 661 271 636 227 586 _c
182 536 160 462 160 364 _c
160 265 182 191 227 141 _c
271 91 338 67 428 67 _c
462 67 493 70 521 76 _c
549 82 573 91 595 104 _c
_cl}_e}_d
/a{{613 0 60 -13 522 560 _sc
343 275 _m
270 275 220 266 192 250 _c
164 233 150 205 150 165 _c
150 133 160 107 181 89 _c
202 70 231 61 267 61 _c
317 61 357 78 387 114 _c
417 149 432 196 432 255 _c
432 275 _l
343 275 _l
522 312 _m
522 0 _l
432 0 _l
432 83 _l
411 49 385 25 355 10 _c
325 -5 287 -13 243 -13 _c
187 -13 142 2 109 33 _c
76 64 60 106 60 159 _c
60 220 80 266 122 298 _c
163 329 224 345 306 345 _c
432 345 _l
432 354 _l
432 395 418 427 391 450 _c
364 472 326 484 277 484 _c
245 484 215 480 185 472 _c
155 464 127 453 100 439 _c
100 522 _l
}_e{132 534 164 544 195 550 _c
226 556 256 560 286 560 _c
365 560 424 539 463 498 _c
502 457 522 395 522 312 _c
_cl}_e}_d
/d{{635 0 55 -13 544 760 _sc
454 464 _m
454 760 _l
544 760 _l
544 0 _l
454 0 _l
454 82 _l
435 49 411 25 382 10 _c
353 -5 319 -13 279 -13 _c
213 -13 159 13 117 65 _c
75 117 55 187 55 273 _c
55 359 75 428 117 481 _c
159 533 213 560 279 560 _c
319 560 353 552 382 536 _c
411 520 435 496 454 464 _c
148 273 _m
148 207 161 155 188 117 _c
215 79 253 61 301 61 _c
348 61 385 79 413 117 _c
440 155 454 207 454 273 _c
454 339 440 390 413 428 _c
385 466 348 485 301 485 _c
253 485 215 466 188 428 _c
161 390 148 339 148 273 _c
_cl}_e}_d
/e{{615 0 55 -13 562 560 _sc
562 296 _m
562 252 _l
149 252 _l
153 190 171 142 205 110 _c
238 78 284 62 344 62 _c
378 62 412 66 444 74 _c
476 82 509 95 541 113 _c
541 28 _l
509 14 476 3 442 -3 _c
408 -9 373 -13 339 -13 _c
251 -13 182 12 131 62 _c
80 112 55 181 55 268 _c
55 357 79 428 127 481 _c
175 533 241 560 323 560 _c
397 560 455 536 498 489 _c
540 441 562 377 562 296 _c
472 322 _m
471 371 457 410 431 440 _c
404 469 368 484 324 484 _c
274 484 234 469 204 441 _c
174 413 156 373 152 322 _c
472 322 _l
_cl}_e}_d
/f{352 0 23 0 371 760 _sc
371 760 _m
371 685 _l
285 685 _l
253 685 230 678 218 665 _c
205 652 199 629 199 595 _c
199 547 _l
347 547 _l
347 477 _l
199 477 _l
199 0 _l
109 0 _l
109 477 _l
23 477 _l
23 547 _l
109 547 _l
109 585 _l
109 645 123 690 151 718 _c
179 746 224 760 286 760 _c
371 760 _l
_cl}_d
/g{{635 0 55 -207 544 560 _sc
454 280 _m
454 344 440 395 414 431 _c
387 467 349 485 301 485 _c
253 485 215 467 188 431 _c
161 395 148 344 148 280 _c
148 215 161 165 188 129 _c
215 93 253 75 301 75 _c
349 75 387 93 414 129 _c
440 165 454 215 454 280 _c
544 68 _m
544 -24 523 -93 482 -139 _c
440 -184 377 -207 292 -207 _c
260 -207 231 -204 203 -200 _c
175 -195 147 -188 121 -178 _c
121 -91 _l
147 -105 173 -115 199 -122 _c
225 -129 251 -133 278 -133 _c
336 -133 380 -117 410 -87 _c
439 -56 454 -10 454 52 _c
454 96 _l
435 64 411 40 382 24 _c
353 8 319 0 279 0 _c
211 0 157 25 116 76 _c
75 127 55 195 55 280 _c
55 364 75 432 116 483 _c
157 534 211 560 279 560 _c
}_e{319 560 353 552 382 536 _c
411 520 435 496 454 464 _c
454 547 _l
544 547 _l
544 68 _l
_cl}_e}_d
/i{278 0 94 0 184 760 _sc
94 547 _m
184 547 _l
184 0 _l
94 0 _l
94 547 _l
94 760 _m
184 760 _l
184 646 _l
94 646 _l
94 760 _l
_cl}_d
/l{278 0 94 0 184 760 _sc
94 760 _m
184 760 _l
184 0 _l
94 0 _l
94 760 _l
_cl}_d
/m{{974 0 91 0 889 560 _sc
520 442 _m
542 482 569 511 600 531 _c
631 550 668 560 711 560 _c
767 560 811 540 842 500 _c
873 460 889 403 889 330 _c
889 0 _l
799 0 _l
799 327 _l
799 379 789 418 771 444 _c
752 469 724 482 686 482 _c
639 482 602 466 575 435 _c
548 404 535 362 535 309 _c
535 0 _l
445 0 _l
445 327 _l
445 379 435 418 417 444 _c
398 469 369 482 331 482 _c
285 482 248 466 221 435 _c
194 404 181 362 181 309 _c
181 0 _l
91 0 _l
91 547 _l
181 547 _l
181 462 _l
201 495 226 520 255 536 _c
283 552 317 560 357 560 _c
397 560 430 550 458 530 _c
486 510 506 480 520 442 _c
}_e{_cl}_e}_d
/n{634 0 91 0 549 560 _sc
549 330 _m
549 0 _l
459 0 _l
459 327 _l
459 379 448 417 428 443 _c
408 469 378 482 338 482 _c
289 482 251 466 223 435 _c
195 404 181 362 181 309 _c
181 0 _l
91 0 _l
91 547 _l
181 547 _l
181 462 _l
202 494 227 519 257 535 _c
286 551 320 560 358 560 _c
420 560 468 540 500 501 _c
532 462 549 405 549 330 _c
_cl}_d
/o{612 0 55 -13 557 560 _sc
306 484 _m
258 484 220 465 192 427 _c
164 389 150 338 150 273 _c
150 207 163 156 191 118 _c
219 80 257 62 306 62 _c
354 62 392 80 420 118 _c
448 156 462 207 462 273 _c
462 337 448 389 420 427 _c
392 465 354 484 306 484 _c
306 560 _m
384 560 445 534 490 484 _c
534 433 557 363 557 273 _c
557 183 534 113 490 63 _c
445 12 384 -13 306 -13 _c
227 -13 165 12 121 63 _c
77 113 55 183 55 273 _c
55 363 77 433 121 484 _c
165 534 227 560 306 560 _c
_cl}_d
/p{{635 0 91 -207 580 560 _sc
181 82 _m
181 -207 _l
91 -207 _l
91 547 _l
181 547 _l
181 464 _l
199 496 223 520 252 536 _c
281 552 316 560 356 560 _c
422 560 476 533 518 481 _c
559 428 580 359 580 273 _c
580 187 559 117 518 65 _c
476 13 422 -13 356 -13 _c
316 -13 281 -5 252 10 _c
223 25 199 49 181 82 _c
487 273 _m
487 339 473 390 446 428 _c
418 466 381 485 334 485 _c
286 485 249 466 222 428 _c
194 390 181 339 181 273 _c
181 207 194 155 222 117 _c
249 79 286 61 334 61 _c
381 61 418 79 446 117 _c
473 155 487 207 487 273 _c
_cl}_e}_d
/r{411 0 91 0 411 560 _sc
411 463 _m
401 469 390 473 378 476 _c
366 478 353 480 339 480 _c
288 480 249 463 222 430 _c
194 397 181 350 181 288 _c
181 0 _l
91 0 _l
91 547 _l
181 547 _l
181 462 _l
199 495 224 520 254 536 _c
284 552 321 560 365 560 _c
371 560 378 559 386 559 _c
393 558 401 557 411 555 _c
411 463 _l
_cl}_d
/s{{521 0 54 -13 472 560 _sc
443 531 _m
443 446 _l
417 458 391 468 364 475 _c
336 481 308 485 279 485 _c
234 485 200 478 178 464 _c
156 450 145 430 145 403 _c
145 382 153 366 169 354 _c
185 342 217 330 265 320 _c
296 313 _l
360 299 405 279 432 255 _c
458 230 472 195 472 151 _c
472 100 452 60 412 31 _c
372 1 316 -13 246 -13 _c
216 -13 186 -10 154 -5 _c
122 0 89 8 54 20 _c
54 113 _l
87 95 120 82 152 74 _c
184 65 216 61 248 61 _c
290 61 323 68 346 82 _c
368 96 380 117 380 144 _c
380 168 371 187 355 200 _c
339 213 303 226 247 238 _c
216 245 _l
160 257 119 275 95 299 _c
70 323 58 356 58 399 _c
58 450 76 490 112 518 _c
148 546 200 560 268 560 _c
}_e{301 560 332 557 362 552 _c
391 547 418 540 443 531 _c
_cl}_e}_d
/t{392 0 27 0 368 702 _sc
183 702 _m
183 547 _l
368 547 _l
368 477 _l
183 477 _l
183 180 _l
183 135 189 106 201 94 _c
213 81 238 75 276 75 _c
368 75 _l
368 0 _l
276 0 _l
206 0 158 13 132 39 _c
106 65 93 112 93 180 _c
93 477 _l
27 477 _l
27 547 _l
93 547 _l
93 702 _l
183 702 _l
_cl}_d
/u{634 0 85 -13 543 547 _sc
85 216 _m
85 547 _l
175 547 _l
175 219 _l
175 167 185 129 205 103 _c
225 77 255 64 296 64 _c
344 64 383 79 411 110 _c
439 141 453 183 453 237 _c
453 547 _l
543 547 _l
543 0 _l
453 0 _l
453 84 _l
431 50 405 26 377 10 _c
348 -5 315 -13 277 -13 _c
214 -13 166 6 134 45 _c
101 83 85 140 85 216 _c
_cl}_d
/v{592 0 30 0 562 547 _sc
30 547 _m
125 547 _l
296 88 _l
467 547 _l
562 547 _l
357 0 _l
235 0 _l
30 547 _l
_cl}_d
/y{592 0 30 -207 562 547 _sc
322 -50 _m
296 -114 271 -157 247 -177 _c
223 -197 191 -207 151 -207 _c
79 -207 _l
79 -132 _l
132 -132 _l
156 -132 175 -126 189 -114 _c
203 -102 218 -75 235 -31 _c
251 9 _l
30 547 _l
125 547 _l
296 119 _l
467 547 _l
562 547 _l
322 -50 _l
_cl}_d
end readonly def

/BuildGlyph
 {exch begin
 CharStrings exch
 2 copy known not{pop /.notdef}if
 true 3 1 roll get exec
 end}_d

/BuildChar {
 1 index /Encoding get exch get
 1 index /BuildGlyph get exec
}_d

FontName currentdict end definefont pop
end
%%EndProlog
mpldict begin
-115.2 97.2 translate
842.4 597.6 0 0 clipbox
gsave
0 0 m
842.4 0 l
842.4 597.6 l
0 597.6 l
cl
1.000 setgray
fill
grestore
gsave
105.3 59.76 m
758.16 59.76 l
758.16 537.84 l
105.3 537.84 l
cl
1.000 setgray
fill
grestore
1.000 setlinewidth
1 setlinejoin
2 setlinecap
[] 0 setdash
0.000 0.000 1.000 setrgbcolor
gsave
652.9 478.1 105.3 59.76 clipbox
105.3 415.264 m
108.564 352.147 l
111.829 352.147 l
115.093 292.307 l
118.357 292.307 l
121.621 271.29 l
124.886 233.96 l
128.15 233.96 l
131.414 227.975 l
134.679 227.975 l
137.943 214.169 l
141.207 212.703 l
144.472 209.639 l
147.736 196.587 l
151 193.331 l
164.057 193.296 l
167.322 190.724 l
170.586 190.724 l
173.85 188.13 l
183.643 188.13 l
186.907 186.689 l
190.172 183.596 l
199.965 183.596 l
203.229 181.659 l
229.343 181.572 l
242.401 181.535 l
245.665 181.535 l
248.929 180.891 l
271.779 180.819 l
275.044 180.6 l
278.308 180.195 l
314.215 180.087 l
317.479 179.759 l
346.858 179.654 l
350.123 179.542 l
382.765 179.479 l
395.823 179.385 l
754.896 179.28 l
754.896 179.28 l
stroke
grestore
0.000 0.500 0.000 setrgbcolor
gsave
652.9 478.1 105.3 59.76 clipbox
105.3 352.989 m
108.564 337.061 l
111.829 325.427 l
115.093 325.427 l
118.357 316.13 l
121.621 288.264 l
124.886 286.799 l
128.15 267.658 l
131.414 267.658 l
134.679 258.092 l
137.943 232.411 l
160.793 232.411 l
164.057 230.052 l
177.115 230.052 l
180.379 228.427 l
183.643 227.61 l
186.907 226.247 l
190.172 225.718 l
193.436 223.803 l
229.343 223.797 l
232.608 223.56 l
239.136 223.56 l
242.401 223.445 l
245.665 222.975 l
258.722 222.975 l
261.986 222.792 l
265.251 222.792 l
268.515 221.6 l
271.779 221.6 l
275.044 220.545 l
278.308 217.859 l
294.629 217.853 l
301.158 217.575 l
304.422 217.437 l
314.215 217.433 l
317.479 216.835 l
330.537 216.835 l
333.801 216.456 l
353.387 216.359 l
356.651 216.157 l
363.18 216.101 l
366.444 215.796 l
369.708 215.796 l
372.973 215.592 l
382.765 215.559 l
386.03 215.448 l
389.294 215.21 l
395.823 215.089 l
399.087 215.087 l
402.351 214.796 l
415.409 214.743 l
418.673 214.535 l
421.937 214.504 l
425.201 214.274 l
428.466 214.274 l
431.73 214.061 l
441.523 214.052 l
444.787 213.883 l
451.316 213.829 l
457.844 213.753 l
467.637 213.67 l
470.902 213.466 l
503.545 212.9 l
513.337 212.802 l
516.602 212.788 l
519.866 212.596 l
529.659 212.579 l
532.923 212.463 l
539.452 212.421 l
552.509 212.135 l
604.738 211.429 l
608.002 211.286 l
614.531 211.184 l
621.059 211.06 l
627.588 210.822 l
650.438 210.577 l
653.702 210.312 l
709.196 209.365 l
718.988 209.178 l
725.517 209.101 l
732.046 208.968 l
741.838 208.788 l
748.367 208.692 l
754.896 208.595 l
754.896 208.595 l
stroke
grestore
1.000 0.000 0.000 setrgbcolor
gsave
652.9 478.1 105.3 59.76 clipbox
105.3 483.785 m
108.564 348.943 l
111.829 348.943 l
115.093 304.867 l
118.357 304.546 l
121.621 288.203 l
124.886 288.203 l
128.15 283.955 l
131.414 262.361 l
134.679 262.361 l
141.207 255.042 l
147.736 254.981 l
151 253.492 l
154.264 253.492 l
157.529 252.307 l
160.793 248.296 l
183.643 248.296 l
186.907 247.213 l
190.172 247.213 l
193.436 240.585 l
209.758 240.585 l
213.022 240.361 l
216.286 239.165 l
222.815 239.165 l
226.079 238.529 l
248.929 238.215 l
252.194 237.318 l
255.458 237.318 l
261.986 236.299 l
265.251 235.979 l
271.779 235.979 l
275.044 234.778 l
278.308 234.778 l
281.572 234.174 l
288.101 234.174 l
291.365 234.015 l
304.422 233.97 l
307.687 233.848 l
310.951 233.361 l
314.215 233.326 l
317.479 232.83 l
330.537 232.803 l
333.801 232.347 l
337.065 232.347 l
340.33 231.955 l
343.594 231.391 l
346.858 231.391 l
350.123 230.688 l
353.387 230.688 l
356.651 230.532 l
359.915 230.532 l
363.18 230.023 l
366.444 229.863 l
369.708 229.576 l
376.237 229.552 l
379.501 228.993 l
382.765 228.641 l
386.03 228.414 l
389.294 228.414 l
392.558 227.724 l
395.823 227.21 l
399.087 226.996 l
402.351 226.975 l
412.144 226.529 l
415.409 226.208 l
418.673 225.715 l
421.937 225.492 l
425.201 224.778 l
428.466 224.778 l
434.994 224.574 l
438.259 224.574 l
448.051 223.278 l
451.316 223.187 l
454.58 222.328 l
461.109 222.271 l
464.373 222.031 l
467.637 220.802 l
470.902 220.802 l
474.166 220.551 l
483.959 220.327 l
487.223 220.131 l
490.487 219.74 l
493.752 219.661 l
497.016 218.825 l
503.545 218.21 l
506.809 218.008 l
510.073 217.442 l
513.337 216.602 l
516.602 216.385 l
519.866 215.634 l
523.13 215.266 l
529.659 214.903 l
532.923 214.831 l
536.188 214.2 l
539.452 214.2 l
545.981 213.516 l
549.245 213.44 l
552.509 211.864 l
559.038 211.809 l
562.302 210.826 l
568.831 210.76 l
575.359 210.025 l
578.624 209.497 l
581.888 209.497 l
585.152 209.109 l
588.416 208.525 l
594.945 207.743 l
601.474 207.743 l
604.738 207.189 l
608.002 207.006 l
611.266 206.683 l
614.531 206.683 l
617.795 206.274 l
621.059 206.04 l
624.324 205.621 l
627.588 205.621 l
630.852 205.215 l
637.381 205.065 l
640.645 204.861 l
647.174 204.031 l
650.438 204.031 l
653.702 203.091 l
656.967 203.091 l
660.231 202.875 l
663.495 202.865 l
666.76 202.643 l
670.024 202.627 l
676.553 202.213 l
683.081 202.173 l
686.345 201.873 l
689.61 201.873 l
692.874 201.643 l
696.138 201.568 l
699.403 201.276 l
702.667 201.276 l
709.196 200.331 l
712.46 200.174 l
715.724 200.174 l
718.988 200.01 l
728.781 199.959 l
732.046 199.798 l
738.574 199.798 l
751.631 199.265 l
754.896 199.133 l
754.896 199.133 l
stroke
grestore
0.000 0.750 0.750 setrgbcolor
gsave
652.9 478.1 105.3 59.76 clipbox
105.3 457.678 m
111.829 346.519 l
115.093 346.519 l
118.357 322.737 l
121.621 322.737 l
124.886 304.888 l
128.15 304.888 l
131.414 301.198 l
134.679 293.368 l
137.943 281.79 l
141.207 274.452 l
144.472 271.691 l
147.736 271.29 l
151 258.842 l
157.529 258.842 l
160.793 257.747 l
167.322 257.747 l
170.586 256.26 l
173.85 254.937 l
177.115 254.937 l
180.379 252.796 l
190.172 252.796 l
193.436 252.142 l
196.7 251.721 l
199.965 250.59 l
203.229 250.25 l
206.493 249.686 l
209.758 247.999 l
213.022 247.832 l
222.815 247.832 l
226.079 246.79 l
235.872 246.79 l
239.136 244.59 l
248.929 244.59 l
252.194 243.601 l
255.458 243.601 l
258.722 243.062 l
261.986 241.635 l
265.251 241.635 l
271.779 241.184 l
278.308 241.184 l
281.572 239.788 l
288.101 239.764 l
291.365 239.55 l
297.894 238.429 l
301.158 238.429 l
304.422 237.859 l
310.951 237.859 l
314.215 237.706 l
317.479 237.194 l
320.744 237.194 l
324.008 236.281 l
333.801 236.281 l
337.065 235.801 l
356.651 235.735 l
359.915 235.222 l
363.18 234.881 l
372.973 234.881 l
379.501 234.653 l
386.03 234.653 l
389.294 234.354 l
392.558 233.633 l
405.616 233.571 l
415.409 233.245 l
418.673 232.926 l
421.937 232.926 l
438.259 232.266 l
441.523 232.058 l
444.787 232.058 l
448.051 231.86 l
454.58 231.765 l
474.166 231.024 l
480.695 230.958 l
483.959 230.829 l
487.223 230.134 l
503.545 230.063 l
519.866 229.677 l
559.038 228.916 l
562.302 228.75 l
572.095 228.612 l
575.359 225.827 l
578.624 225.827 l
581.888 221.691 l
591.681 218.308 l
594.945 216.191 l
598.209 214.878 l
601.474 213.249 l
604.738 213.249 l
611.266 212.155 l
614.531 212.085 l
617.795 211.637 l
621.059 211.057 l
624.324 210.602 l
627.588 210.531 l
630.852 210.294 l
634.117 209.672 l
637.381 209.485 l
643.909 208.623 l
647.174 208.471 l
653.702 207.616 l
656.967 207.528 l
660.231 206.822 l
663.495 206.585 l
666.76 206.525 l
673.288 206.058 l
686.345 205.187 l
689.61 204.963 l
692.874 204.963 l
696.138 204.594 l
699.403 204.466 l
702.667 204.192 l
712.46 203.896 l
718.988 203.548 l
722.253 203.074 l
725.517 203.074 l
728.781 202.796 l
732.046 202.776 l
741.838 202.286 l
745.103 202.286 l
748.367 202.065 l
751.631 202.065 l
754.896 201.742 l
754.896 201.742 l
stroke
grestore
0.750 0.000 0.750 setrgbcolor
gsave
652.9 478.1 105.3 59.76 clipbox
105.3 426.921 m
108.564 426.921 l
115.093 332.346 l
118.357 330.091 l
124.886 330.091 l
128.15 323.251 l
131.414 305.578 l
137.943 305.578 l
141.207 290.663 l
144.472 288.372 l
147.736 282.869 l
151 270.607 l
154.264 267.037 l
157.529 264.749 l
160.793 263.736 l
164.057 257.252 l
170.586 257.252 l
173.85 257.069 l
177.115 255.197 l
190.172 255.197 l
193.436 252.212 l
196.7 252.212 l
199.965 251.818 l
206.493 251.425 l
209.758 248.921 l
216.286 248.921 l
219.55 246.361 l
222.815 246.361 l
226.079 245.725 l
229.343 242.531 l
245.665 242.531 l
248.929 241.452 l
252.194 240.916 l
255.458 240.592 l
258.722 239.942 l
275.044 239.942 l
278.308 239.645 l
281.572 239.469 l
284.837 239.108 l
288.101 237.736 l
291.365 237.614 l
310.951 237.586 l
314.215 235.939 l
317.479 235.785 l
327.272 235.785 l
330.537 235.108 l
333.801 234.79 l
337.065 234.79 l
340.33 234.113 l
346.858 234.113 l
350.123 233.872 l
353.387 233.872 l
359.915 233.159 l
369.708 233.031 l
372.973 232.378 l
379.501 232.378 l
382.765 231.526 l
392.558 231.521 l
395.823 231.181 l
399.087 231.15 l
402.351 230.833 l
408.88 230.747 l
412.144 230.268 l
415.409 230.268 l
421.937 229.788 l
428.466 229.786 l
431.73 229.463 l
434.994 229.463 l
438.259 229.103 l
444.787 229.027 l
448.051 228.754 l
457.844 228.654 l
461.109 228.632 l
467.637 228.095 l
474.166 227.994 l
480.695 227.818 l
483.959 227.171 l
490.487 227.171 l
493.752 226.99 l
500.28 226.879 l
503.545 226.868 l
506.809 226.471 l
513.337 226.389 l
519.866 226.333 l
526.395 225.916 l
532.923 225.916 l
536.188 225.668 l
552.509 225.432 l
562.302 225.068 l
568.831 224.959 l
575.359 224.773 l
594.945 224.21 l
601.474 223.917 l
611.266 223.541 l
614.531 223.245 l
621.059 223.21 l
624.324 223.04 l
627.588 223.028 l
634.117 222.731 l
637.381 222.687 l
640.645 218.964 l
643.909 218.964 l
647.174 215.508 l
653.702 215.508 l
656.967 214.609 l
660.231 213.867 l
663.495 213.393 l
666.76 212.216 l
670.024 212.02 l
673.288 211.552 l
676.553 211.22 l
679.817 211.22 l
683.081 211.019 l
686.345 210.399 l
689.61 209.549 l
692.874 209.549 l
696.138 209.194 l
699.403 208.951 l
702.667 208.951 l
712.46 208.364 l
715.724 208.198 l
718.988 207.821 l
735.31 206.888 l
738.574 206.574 l
741.838 206.574 l
745.103 206.2 l
748.367 206.196 l
751.631 205.718 l
754.896 205.582 l
754.896 205.582 l
stroke
grestore
0.750 0.750 0.000 setrgbcolor
gsave
652.9 478.1 105.3 59.76 clipbox
105.3 427.319 m
108.564 425.864 l
111.829 348.493 l
115.093 333.65 l
118.357 315.413 l
124.886 315.413 l
128.15 314.273 l
131.414 302.821 l
134.679 294.228 l
137.943 282.47 l
141.207 262.972 l
151 262.972 l
154.264 262.809 l
157.529 255.122 l
160.793 253.748 l
170.586 253.748 l
173.85 251.293 l
180.379 251.293 l
183.643 250.629 l
193.436 250.629 l
196.7 246.193 l
216.286 246.193 l
219.55 243.23 l
222.815 241.785 l
226.079 241.785 l
232.608 239.073 l
235.872 238.171 l
245.665 238.171 l
248.929 237.87 l
252.194 234.872 l
255.458 234.872 l
258.722 233.369 l
261.986 233.369 l
268.515 232.855 l
271.779 232.855 l
275.044 232.136 l
281.572 232.136 l
284.837 231.468 l
288.101 231.139 l
294.629 231.139 l
297.894 230.282 l
307.687 230.179 l
310.951 229.653 l
314.215 228.697 l
330.537 228.636 l
333.801 228.311 l
337.065 228.311 l
340.33 227.834 l
350.123 227.834 l
353.387 227.188 l
359.915 227.188 l
363.18 226.946 l
372.973 226.633 l
376.237 226.633 l
379.501 226.141 l
386.03 225.892 l
389.294 225.489 l
392.558 225.335 l
395.823 225.335 l
399.087 225.222 l
402.351 225.222 l
405.616 224.964 l
408.88 224.964 l
412.144 224.516 l
418.673 224.388 l
421.937 224.142 l
425.201 224.028 l
428.466 223.688 l
441.523 223.634 l
444.787 223.544 l
448.051 223.024 l
457.844 222.963 l
467.637 222.301 l
474.166 222.131 l
477.43 221.832 l
487.223 221.745 l
490.487 221.452 l
500.28 221.042 l
503.545 220.89 l
506.809 220.878 l
510.073 220.657 l
516.602 220.554 l
519.866 220.2 l
536.188 219.608 l
542.716 219.362 l
552.509 219.055 l
555.773 218.955 l
559.038 218.674 l
562.302 218.674 l
565.566 218.519 l
568.831 218.519 l
572.095 218.337 l
575.359 218.033 l
581.888 217.743 l
588.416 217.655 l
591.681 217.378 l
604.738 216.629 l
608.002 216.379 l
627.588 215.966 l
634.117 215.463 l
640.645 215.27 l
647.174 214.757 l
653.702 214.641 l
660.231 214.296 l
663.495 214.288 l
670.024 213.875 l
673.288 213.863 l
676.553 213.537 l
683.081 213.301 l
689.61 213.023 l
692.874 212.929 l
696.138 212.544 l
699.403 212.453 l
705.931 212.047 l
709.196 212.047 l
722.253 211.053 l
725.517 211.053 l
732.046 210.48 l
735.31 210.22 l
741.838 210.049 l
748.367 209.374 l
751.631 209.146 l
754.896 209.146 l
754.896 209.146 l
stroke
grestore
0.000 setgray
gsave
652.9 478.1 105.3 59.76 clipbox
105.3 328.427 m
108.564 328.427 l
111.829 328.427 l
115.093 322.552 l
118.357 293.008 l
121.621 293.008 l
124.886 280.787 l
128.15 267.062 l
131.414 267.062 l
134.679 258.725 l
137.943 252.206 l
141.207 252.206 l
144.472 243.872 l
147.736 243.872 l
151 242.219 l
164.057 242.219 l
167.322 239.133 l
173.85 239.133 l
177.115 238.626 l
180.379 236.693 l
190.172 236.693 l
193.436 236.515 l
196.7 234.674 l
199.965 234.674 l
203.229 232.623 l
209.758 232.623 l
213.022 230.764 l
219.55 230.764 l
222.815 228.656 l
235.872 228.656 l
239.136 228.316 l
242.401 226.816 l
245.665 226.816 l
248.929 226.524 l
258.722 226.524 l
261.986 221.728 l
284.837 221.728 l
288.101 219.439 l
304.422 219.367 l
307.687 218.684 l
310.951 218.684 l
320.744 217.23 l
330.537 217.186 l
333.801 216.925 l
340.33 216.877 l
343.594 216.064 l
346.858 216.064 l
350.123 215.909 l
359.915 215.825 l
363.18 215.366 l
372.973 215.275 l
379.501 215.052 l
389.294 215.046 l
395.823 214.882 l
399.087 214.882 l
402.351 214.44 l
408.88 214.411 l
412.144 214.073 l
421.937 213.917 l
425.201 213.753 l
441.523 213.608 l
454.58 213.502 l
464.373 213.154 l
477.43 213.021 l
487.223 212.832 l
490.487 212.588 l
503.545 212.424 l
510.073 212.377 l
519.866 211.816 l
529.659 211.816 l
532.923 211.674 l
545.981 211.612 l
552.509 211.489 l
575.359 211.201 l
581.888 210.927 l
594.945 210.867 l
604.738 210.636 l
611.266 210.533 l
617.795 210.434 l
666.76 209.919 l
696.138 209.614 l
702.667 209.446 l
712.46 209.343 l
741.838 209.041 l
754.896 208.779 l
754.896 208.779 l
stroke
grestore
0.000 0.000 1.000 setrgbcolor
gsave
652.9 478.1 105.3 59.76 clipbox
105.3 419.006 m
108.564 310.235 l
111.829 310.235 l
115.093 306.698 l
118.357 280.786 l
121.621 270.761 l
124.886 265.814 l
128.15 248.46 l
134.679 235.311 l
137.943 235.311 l
141.207 230.449 l
144.472 226.806 l
147.736 225.619 l
151 219.493 l
160.793 219.493 l
164.057 217.577 l
170.586 217.577 l
173.85 216.171 l
183.643 216.171 l
186.907 210.586 l
203.229 210.586 l
206.493 209.885 l
209.758 207.435 l
219.55 207.435 l
222.815 205.37 l
226.079 205.37 l
229.343 204.691 l
239.136 204.646 l
242.401 204.116 l
258.722 204.116 l
261.986 203.998 l
265.251 203.519 l
268.515 203.519 l
271.779 201.805 l
275.044 201.433 l
291.365 201.433 l
294.629 201.184 l
297.894 200.377 l
310.951 200.377 l
314.215 199.875 l
320.744 199.867 l
327.272 199.49 l
340.33 199.385 l
350.123 198.902 l
353.387 198.701 l
359.915 198.701 l
363.18 198.382 l
372.973 198.382 l
389.294 197.829 l
402.351 197.829 l
408.88 197.585 l
412.144 197.585 l
415.409 197.289 l
428.466 197.289 l
434.994 196.961 l
438.259 196.926 l
444.787 196.6 l
461.109 196.402 l
464.373 196.253 l
467.637 196.253 l
474.166 196.085 l
483.959 195.983 l
490.487 195.959 l
493.752 195.742 l
497.016 195.742 l
500.28 195.616 l
510.073 195.531 l
519.866 195.316 l
536.188 194.874 l
545.981 194.816 l
581.888 193.852 l
588.416 193.753 l
601.474 193.438 l
611.266 193.273 l
614.531 193.118 l
637.381 192.817 l
643.909 192.675 l
647.174 192.666 l
656.967 192.27 l
663.495 192.126 l
670.024 192.024 l
683.081 191.793 l
686.345 191.657 l
689.61 191.65 l
696.138 191.453 l
709.196 191.152 l
715.724 191.093 l
722.253 190.886 l
728.781 190.779 l
741.838 190.568 l
745.103 190.431 l
751.631 190.331 l
754.896 190.251 l
754.896 190.251 l
stroke
grestore
0.000 0.500 0.000 setrgbcolor
gsave
652.9 478.1 105.3 59.76 clipbox
105.3 374.541 m
108.564 349.027 l
111.829 274.393 l
115.093 274.393 l
118.357 240.682 l
121.621 240.682 l
124.886 233.524 l
128.15 233.524 l
131.414 227.374 l
134.679 219.369 l
137.943 206.344 l
141.207 201.876 l
147.736 201.876 l
151 201.408 l
154.264 194.667 l
167.322 194.667 l
170.586 189.998 l
186.907 189.998 l
190.172 183.119 l
196.7 183.119 l
199.965 182.134 l
206.493 182.134 l
209.758 181.99 l
213.022 180.688 l
216.286 180.688 l
219.55 179.389 l
222.815 179.389 l
226.079 178.16 l
229.343 177.273 l
232.608 174.602 l
252.194 174.602 l
255.458 172.129 l
265.251 172.129 l
268.515 171.822 l
275.044 171.717 l
278.308 171.433 l
281.572 170.628 l
307.687 170.628 l
310.951 170.147 l
314.215 170.024 l
317.479 170.024 l
320.744 169.872 l
337.065 169.706 l
340.33 169.328 l
356.651 169.29 l
359.915 169.143 l
363.18 168.857 l
369.708 168.774 l
376.237 168.439 l
389.294 168.438 l
392.558 168.311 l
395.823 168.311 l
399.087 168.159 l
405.616 168.159 l
408.88 168.004 l
418.673 168.004 l
425.201 167.822 l
431.73 167.822 l
434.994 167.687 l
464.373 167.587 l
480.695 167.385 l
490.487 167.357 l
497.016 167.259 l
513.337 167.154 l
549.245 166.988 l
555.773 166.887 l
565.566 166.834 l
578.624 166.736 l
621.059 166.456 l
647.174 166.321 l
663.495 166.214 l
709.196 165.919 l
754.896 165.624 l
754.896 165.624 l
stroke
grestore
1.000 0.000 0.000 setrgbcolor
gsave
652.9 478.1 105.3 59.76 clipbox
105.3 355.128 m
108.564 267.568 l
111.829 231.098 l
115.093 214.252 l
118.357 204.811 l
121.621 192.538 l
124.886 176.388 l
128.15 168.736 l
131.414 168.736 l
134.679 155.222 l
137.943 151.872 l
141.207 145.592 l
160.793 145.592 l
164.057 141.701 l
167.322 138.413 l
193.436 138.412 l
196.7 137.072 l
203.229 136.704 l
206.493 136.035 l
209.758 135.728 l
216.286 135.653 l
219.55 134.331 l
222.815 132.211 l
245.665 132.211 l
248.929 131.638 l
252.194 130.714 l
255.458 130.714 l
258.722 130.535 l
261.986 130.535 l
265.251 129.924 l
268.515 129.924 l
271.779 129.78 l
275.044 128.612 l
281.572 128.574 l
284.837 128.036 l
297.894 128.01 l
301.158 127.559 l
304.422 127.339 l
317.479 127.252 l
320.744 127.018 l
324.008 127.018 l
327.272 126.85 l
330.537 126.85 l
333.801 126.729 l
337.065 126.417 l
340.33 126.417 l
346.858 126.054 l
359.915 126.003 l
363.18 125.726 l
366.444 125.726 l
369.708 125.45 l
389.294 125.396 l
421.937 124.846 l
444.787 124.649 l
451.316 124.487 l
461.109 124.349 l
467.637 124.266 l
510.073 124.178 l
555.773 123.922 l
608.002 123.825 l
627.588 123.777 l
754.896 123.624 l
754.896 123.624 l
stroke
grestore
0.000 0.750 0.750 setrgbcolor
gsave
652.9 478.1 105.3 59.76 clipbox
105.3 200.377 m
108.564 153.062 l
111.829 119.389 l
115.093 76.5313 l
118.357 76.3556 l
121.621 64.0052 l
128.15 64.0052 l
131.414 63.7903 l
134.679 63.7903 l
137.943 62.4519 l
141.207 60.1928 l
213.022 60.0887 l
222.815 59.85 l
754.896 59.76 l
754.896 59.76 l
stroke
grestore
0.500 setlinewidth
0 setlinecap
0.000 setgray
gsave
/o {
gsave
newpath
translate
0 0 m
0 4 l
gsave
0.000 setgray
fill
grestore
stroke
grestore
} bind def
105.3 59.76 o
grestore
gsave
/o {
gsave
newpath
translate
0 0 m
0 -4 l
gsave
0.000 setgray
fill
grestore
stroke
grestore
} bind def
105.3 537.84 o
grestore
/BitstreamVeraSans-Roman findfont
12.000 scalefont
setfont
gsave
102.276562 46.681875 translate
0.000000 rotate
0.000000 0.171875 m /zero glyphshow
grestore
gsave
/o {
gsave
newpath
translate
0 0 m
0 4 l
gsave
0.000 setgray
fill
grestore
stroke
grestore
} bind def
268.515 59.76 o
grestore
gsave
/o {
gsave
newpath
translate
0 0 m
0 -4 l
gsave
0.000 setgray
fill
grestore
stroke
grestore
} bind def
268.515 537.84 o
grestore
gsave
261.733750 46.681875 translate
0.000000 rotate
0.000000 0.171875 m /five glyphshow
7.634766 0.171875 m /zero glyphshow
grestore
gsave
/o {
gsave
newpath
translate
0 0 m
0 4 l
gsave
0.000 setgray
fill
grestore
stroke
grestore
} bind def
431.73 59.76 o
grestore
gsave
/o {
gsave
newpath
translate
0 0 m
0 -4 l
gsave
0.000 setgray
fill
grestore
stroke
grestore
} bind def
431.73 537.84 o
grestore
gsave
421.323750 46.681875 translate
0.000000 rotate
0.000000 0.171875 m /one glyphshow
7.634766 0.171875 m /zero glyphshow
15.269531 0.171875 m /zero glyphshow
grestore
gsave
/o {
gsave
newpath
translate
0 0 m
0 4 l
gsave
0.000 setgray
fill
grestore
stroke
grestore
} bind def
594.945 59.76 o
grestore
gsave
/o {
gsave
newpath
translate
0 0 m
0 -4 l
gsave
0.000 setgray
fill
grestore
stroke
grestore
} bind def
594.945 537.84 o
grestore
gsave
584.538750 46.681875 translate
0.000000 rotate
0.000000 0.171875 m /one glyphshow
7.634766 0.171875 m /five glyphshow
15.269531 0.171875 m /zero glyphshow
grestore
gsave
/o {
gsave
newpath
translate
0 0 m
0 4 l
gsave
0.000 setgray
fill
grestore
stroke
grestore
} bind def
758.16 59.76 o
grestore
gsave
/o {
gsave
newpath
translate
0 0 m
0 -4 l
gsave
0.000 setgray
fill
grestore
stroke
grestore
} bind def
758.16 537.84 o
grestore
gsave
747.535000 46.681875 translate
0.000000 rotate
0.000000 0.171875 m /two glyphshow
7.634766 0.171875 m /zero glyphshow
15.269531 0.171875 m /zero glyphshow
grestore
gsave
399.089375 32.385000 translate
0.000000 rotate
0.000000 0.171875 m /G glyphshow
9.298828 0.171875 m /e glyphshow
16.681641 0.171875 m /n glyphshow
24.287109 0.171875 m /e glyphshow
31.669922 0.171875 m /r glyphshow
36.603516 0.171875 m /a glyphshow
43.957031 0.171875 m /t glyphshow
48.662109 0.171875 m /i glyphshow
51.996094 0.171875 m /o glyphshow
59.337891 0.171875 m /n glyphshow
grestore
gsave
/o {
gsave
newpath
translate
0 0 m
4 0 l
gsave
0.000 setgray
fill
grestore
stroke
grestore
} bind def
105.3 59.76 o
grestore
gsave
/o {
gsave
newpath
translate
0 0 m
-4 0 l
gsave
0.000 setgray
fill
grestore
stroke
grestore
} bind def
758.16 59.76 o
grestore
gsave
83.800000 55.220937 translate
0.000000 rotate
0.000000 0.171875 m /zero glyphshow
7.634766 0.171875 m /period glyphshow
11.449219 0.171875 m /zero glyphshow
grestore
gsave
/o {
gsave
newpath
translate
0 0 m
4 0 l
gsave
0.000 setgray
fill
grestore
stroke
grestore
} bind def
105.3 119.52 o
grestore
gsave
/o {
gsave
newpath
translate
0 0 m
-4 0 l
gsave
0.000 setgray
fill
grestore
stroke
grestore
} bind def
758.16 119.52 o
grestore
gsave
84.050000 114.980937 translate
0.000000 rotate
0.000000 0.171875 m /zero glyphshow
7.634766 0.171875 m /period glyphshow
11.449219 0.171875 m /five glyphshow
grestore
gsave
/o {
gsave
newpath
translate
0 0 m
4 0 l
gsave
0.000 setgray
fill
grestore
stroke
grestore
} bind def
105.3 179.28 o
grestore
gsave
/o {
gsave
newpath
translate
0 0 m
-4 0 l
gsave
0.000 setgray
fill
grestore
stroke
grestore
} bind def
758.16 179.28 o
grestore
gsave
84.315625 174.740938 translate
0.000000 rotate
0.000000 0.171875 m /one glyphshow
7.634766 0.171875 m /period glyphshow
11.449219 0.171875 m /zero glyphshow
grestore
gsave
/o {
gsave
newpath
translate
0 0 m
4 0 l
gsave
0.000 setgray
fill
grestore
stroke
grestore
} bind def
105.3 239.04 o
grestore
gsave
/o {
gsave
newpath
translate
0 0 m
-4 0 l
gsave
0.000 setgray
fill
grestore
stroke
grestore
} bind def
758.16 239.04 o
grestore
gsave
84.565625 234.579063 translate
0.000000 rotate
0.000000 0.171875 m /one glyphshow
7.634766 0.171875 m /period glyphshow
11.449219 0.171875 m /five glyphshow
grestore
gsave
/o {
gsave
newpath
translate
0 0 m
4 0 l
gsave
0.000 setgray
fill
grestore
stroke
grestore
} bind def
105.3 298.8 o
grestore
gsave
/o {
gsave
newpath
translate
0 0 m
-4 0 l
gsave
0.000 setgray
fill
grestore
stroke
grestore
} bind def
758.16 298.8 o
grestore
gsave
83.878125 294.260938 translate
0.000000 rotate
0.000000 0.171875 m /two glyphshow
7.634766 0.171875 m /period glyphshow
11.449219 0.171875 m /zero glyphshow
grestore
gsave
/o {
gsave
newpath
translate
0 0 m
4 0 l
gsave
0.000 setgray
fill
grestore
stroke
grestore
} bind def
105.3 358.56 o
grestore
gsave
/o {
gsave
newpath
translate
0 0 m
-4 0 l
gsave
0.000 setgray
fill
grestore
stroke
grestore
} bind def
758.16 358.56 o
grestore
gsave
84.128125 354.020938 translate
0.000000 rotate
0.000000 0.171875 m /two glyphshow
7.634766 0.171875 m /period glyphshow
11.449219 0.171875 m /five glyphshow
grestore
gsave
/o {
gsave
newpath
translate
0 0 m
4 0 l
gsave
0.000 setgray
fill
grestore
stroke
grestore
} bind def
105.3 418.32 o
grestore
gsave
/o {
gsave
newpath
translate
0 0 m
-4 0 l
gsave
0.000 setgray
fill
grestore
stroke
grestore
} bind def
758.16 418.32 o
grestore
gsave
83.925000 413.780938 translate
0.000000 rotate
0.000000 0.171875 m /three glyphshow
7.634766 0.171875 m /period glyphshow
11.449219 0.171875 m /zero glyphshow
grestore
gsave
/o {
gsave
newpath
translate
0 0 m
4 0 l
gsave
0.000 setgray
fill
grestore
stroke
grestore
} bind def
105.3 478.08 o
grestore
gsave
/o {
gsave
newpath
translate
0 0 m
-4 0 l
gsave
0.000 setgray
fill
grestore
stroke
grestore
} bind def
758.16 478.08 o
grestore
gsave
84.175000 473.540938 translate
0.000000 rotate
0.000000 0.171875 m /three glyphshow
7.634766 0.171875 m /period glyphshow
11.449219 0.171875 m /five glyphshow
grestore
gsave
/o {
gsave
newpath
translate
0 0 m
4 0 l
gsave
0.000 setgray
fill
grestore
stroke
grestore
} bind def
105.3 537.84 o
grestore
gsave
/o {
gsave
newpath
translate
0 0 m
-4 0 l
gsave
0.000 setgray
fill
grestore
stroke
grestore
} bind def
758.16 537.84 o
grestore
gsave
83.596875 533.300938 translate
0.000000 rotate
0.000000 0.171875 m /four glyphshow
7.634766 0.171875 m /period glyphshow
11.449219 0.171875 m /zero glyphshow
grestore
gsave
78.596875 257.229688 translate
90.000000 rotate
0.000000 2.500000 m /E glyphshow
7.582031 2.500000 m /n glyphshow
15.187500 2.500000 m /t glyphshow
19.892578 2.500000 m /a glyphshow
27.246094 2.500000 m /n glyphshow
34.851562 2.500000 m /g glyphshow
42.468750 2.500000 m /l glyphshow
45.802734 2.500000 m /e glyphshow
53.185547 2.500000 m /m glyphshow
64.875000 2.500000 m /e glyphshow
72.257812 2.500000 m /n glyphshow
79.863281 2.500000 m /t glyphshow
grestore
1.000 setlinewidth
2 setlinecap
gsave
105.3 537.84 m
758.16 537.84 l
stroke
grestore
gsave
758.16 59.76 m
758.16 537.84 l
stroke
grestore
gsave
105.3 59.76 m
758.16 59.76 l
stroke
grestore
gsave
105.3 59.76 m
105.3 537.84 l
stroke
grestore
/BitstreamVeraSans-Roman findfont
14.400 scalefont
setfont
gsave
301.909688 539.933750 translate
0.000000 rotate
0.000000 2.906250 m /E glyphshow
9.082642 2.906250 m /v glyphshow
17.589722 2.906250 m /o glyphshow
26.384583 2.906250 m /l glyphshow
30.378418 2.906250 m /u glyphshow
39.489136 2.906250 m /t glyphshow
45.125427 2.906250 m /i glyphshow
49.119263 2.906250 m /o glyphshow
57.914124 2.906250 m /n glyphshow
67.024841 2.906250 m /space glyphshow
71.594238 2.906250 m /o glyphshow
80.389099 2.906250 m /f glyphshow
85.449829 2.906250 m /space glyphshow
90.019226 2.906250 m /three glyphshow
99.165039 2.906250 m /d glyphshow
108.289795 2.906250 m /six glyphshow
117.435608 2.906250 m /space glyphshow
122.005005 2.906250 m /parenleft glyphshow
127.613220 2.906250 m /m glyphshow
141.616211 2.906250 m /e glyphshow
150.460205 2.906250 m /a glyphshow
159.269104 2.906250 m /s glyphshow
166.758423 2.906250 m /u glyphshow
175.869141 2.906250 m /r glyphshow
181.404175 2.906250 m /e glyphshow
190.248169 2.906250 m /colon glyphshow
195.091309 2.906250 m /space glyphshow
199.660706 2.906250 m /e glyphshow
208.504700 2.906250 m /n glyphshow
217.615417 2.906250 m /t glyphshow
223.251709 2.906250 m /r glyphshow
228.786743 2.906250 m /o glyphshow
237.581604 2.906250 m /p glyphshow
246.706360 2.906250 m /y glyphshow
255.213440 2.906250 m /parenright glyphshow
grestore
gsave
601.183 298.104 m
750.96 298.104 l
750.96 530.64 l
601.183 530.64 l
601.183 298.104 l
cl
gsave
1.000 setgray
fill
grestore
stroke
grestore
0.000 0.000 1.000 setrgbcolor
gsave
611.263 519.279 m
631.423 519.279 l
stroke
grestore
0.000 setgray
gsave
647.262500 511.333125 translate
0.000000 rotate
0.000000 2.906250 m /p glyphshow
9.124756 2.906250 m /space glyphshow
13.694153 2.906250 m /equal glyphshow
25.738831 2.906250 m /space glyphshow
30.308228 2.906250 m /zero glyphshow
39.454041 2.906250 m /period glyphshow
44.023438 2.906250 m /zero glyphshow
53.169250 2.906250 m /zero glyphshow
62.315063 2.906250 m /zero glyphshow
71.460876 2.906250 m /zero glyphshow
80.606689 2.906250 m /zero glyphshow
89.752502 2.906250 m /zero glyphshow
grestore
0.000 0.500 0.000 setrgbcolor
gsave
611.263 498.533 m
631.423 498.533 l
stroke
grestore
0.000 setgray
gsave
647.262500 490.586250 translate
0.000000 rotate
0.000000 2.906250 m /p glyphshow
9.124756 2.906250 m /space glyphshow
13.694153 2.906250 m /equal glyphshow
25.738831 2.906250 m /space glyphshow
30.308228 2.906250 m /zero glyphshow
39.454041 2.906250 m /period glyphshow
44.023438 2.906250 m /one glyphshow
53.169250 2.906250 m /zero glyphshow
62.315063 2.906250 m /zero glyphshow
71.460876 2.906250 m /zero glyphshow
80.606689 2.906250 m /zero glyphshow
89.752502 2.906250 m /zero glyphshow
grestore
1.000 0.000 0.000 setrgbcolor
gsave
611.263 477.786 m
631.423 477.786 l
stroke
grestore
0.000 setgray
gsave
647.262500 469.839375 translate
0.000000 rotate
0.000000 2.906250 m /p glyphshow
9.124756 2.906250 m /space glyphshow
13.694153 2.906250 m /equal glyphshow
25.738831 2.906250 m /space glyphshow
30.308228 2.906250 m /zero glyphshow
39.454041 2.906250 m /period glyphshow
44.023438 2.906250 m /two glyphshow
53.169250 2.906250 m /zero glyphshow
62.315063 2.906250 m /zero glyphshow
71.460876 2.906250 m /zero glyphshow
80.606689 2.906250 m /zero glyphshow
89.752502 2.906250 m /zero glyphshow
grestore
0.000 0.750 0.750 setrgbcolor
gsave
611.263 457.039 m
631.423 457.039 l
stroke
grestore
0.000 setgray
gsave
647.262500 449.092500 translate
0.000000 rotate
0.000000 2.906250 m /p glyphshow
9.124756 2.906250 m /space glyphshow
13.694153 2.906250 m /equal glyphshow
25.738831 2.906250 m /space glyphshow
30.308228 2.906250 m /zero glyphshow
39.454041 2.906250 m /period glyphshow
44.023438 2.906250 m /three glyphshow
53.169250 2.906250 m /zero glyphshow
62.315063 2.906250 m /zero glyphshow
71.460876 2.906250 m /zero glyphshow
80.606689 2.906250 m /zero glyphshow
89.752502 2.906250 m /zero glyphshow
grestore
0.750 0.000 0.750 setrgbcolor
gsave
611.263 436.292 m
631.423 436.292 l
stroke
grestore
0.000 setgray
gsave
647.262500 428.345625 translate
0.000000 rotate
0.000000 2.906250 m /p glyphshow
9.124756 2.906250 m /space glyphshow
13.694153 2.906250 m /equal glyphshow
25.738831 2.906250 m /space glyphshow
30.308228 2.906250 m /zero glyphshow
39.454041 2.906250 m /period glyphshow
44.023438 2.906250 m /four glyphshow
53.169250 2.906250 m /zero glyphshow
62.315063 2.906250 m /zero glyphshow
71.460876 2.906250 m /zero glyphshow
80.606689 2.906250 m /zero glyphshow
89.752502 2.906250 m /zero glyphshow
grestore
0.750 0.750 0.000 setrgbcolor
gsave
611.263 415.545 m
631.423 415.545 l
stroke
grestore
0.000 setgray
gsave
647.262500 407.598750 translate
0.000000 rotate
0.000000 2.906250 m /p glyphshow
9.124756 2.906250 m /space glyphshow
13.694153 2.906250 m /equal glyphshow
25.738831 2.906250 m /space glyphshow
30.308228 2.906250 m /zero glyphshow
39.454041 2.906250 m /period glyphshow
44.023438 2.906250 m /five glyphshow
53.169250 2.906250 m /zero glyphshow
62.315063 2.906250 m /zero glyphshow
71.460876 2.906250 m /zero glyphshow
80.606689 2.906250 m /zero glyphshow
89.752502 2.906250 m /zero glyphshow
grestore
gsave
611.263 394.798 m
631.423 394.798 l
stroke
grestore
gsave
647.262500 386.851875 translate
0.000000 rotate
0.000000 2.906250 m /p glyphshow
9.124756 2.906250 m /space glyphshow
13.694153 2.906250 m /equal glyphshow
25.738831 2.906250 m /space glyphshow
30.308228 2.906250 m /zero glyphshow
39.454041 2.906250 m /period glyphshow
44.023438 2.906250 m /six glyphshow
53.169250 2.906250 m /zero glyphshow
62.315063 2.906250 m /zero glyphshow
71.460876 2.906250 m /zero glyphshow
80.606689 2.906250 m /zero glyphshow
89.752502 2.906250 m /zero glyphshow
grestore
0.000 0.000 1.000 setrgbcolor
gsave
611.263 374.051 m
631.423 374.051 l
stroke
grestore
0.000 setgray
gsave
647.262500 366.105000 translate
0.000000 rotate
0.000000 2.906250 m /p glyphshow
9.124756 2.906250 m /space glyphshow
13.694153 2.906250 m /equal glyphshow
25.738831 2.906250 m /space glyphshow
30.308228 2.906250 m /zero glyphshow
39.454041 2.906250 m /period glyphshow
44.023438 2.906250 m /seven glyphshow
53.169250 2.906250 m /zero glyphshow
62.315063 2.906250 m /zero glyphshow
71.460876 2.906250 m /zero glyphshow
80.606689 2.906250 m /zero glyphshow
89.752502 2.906250 m /zero glyphshow
grestore
0.000 0.500 0.000 setrgbcolor
gsave
611.263 353.304 m
631.423 353.304 l
stroke
grestore
0.000 setgray
gsave
647.262500 345.358125 translate
0.000000 rotate
0.000000 2.906250 m /p glyphshow
9.124756 2.906250 m /space glyphshow
13.694153 2.906250 m /equal glyphshow
25.738831 2.906250 m /space glyphshow
30.308228 2.906250 m /zero glyphshow
39.454041 2.906250 m /period glyphshow
44.023438 2.906250 m /eight glyphshow
53.169250 2.906250 m /zero glyphshow
62.315063 2.906250 m /zero glyphshow
71.460876 2.906250 m /zero glyphshow
80.606689 2.906250 m /zero glyphshow
89.752502 2.906250 m /zero glyphshow
grestore
1.000 0.000 0.000 setrgbcolor
gsave
611.263 332.558 m
631.423 332.558 l
stroke
grestore
0.000 setgray
gsave
647.262500 324.611250 translate
0.000000 rotate
0.000000 2.906250 m /p glyphshow
9.124756 2.906250 m /space glyphshow
13.694153 2.906250 m /equal glyphshow
25.738831 2.906250 m /space glyphshow
30.308228 2.906250 m /zero glyphshow
39.454041 2.906250 m /period glyphshow
44.023438 2.906250 m /nine glyphshow
53.169250 2.906250 m /zero glyphshow
62.315063 2.906250 m /zero glyphshow
71.460876 2.906250 m /zero glyphshow
80.606689 2.906250 m /zero glyphshow
89.752502 2.906250 m /zero glyphshow
grestore
0.000 0.750 0.750 setrgbcolor
gsave
611.263 311.811 m
631.423 311.811 l
stroke
grestore
0.000 setgray
gsave
647.262500 303.864375 translate
0.000000 rotate
0.000000 2.906250 m /p glyphshow
9.124756 2.906250 m /space glyphshow
13.694153 2.906250 m /equal glyphshow
25.738831 2.906250 m /space glyphshow
30.308228 2.906250 m /one glyphshow
39.454041 2.906250 m /period glyphshow
44.023438 2.906250 m /zero glyphshow
53.169250 2.906250 m /zero glyphshow
62.315063 2.906250 m /zero glyphshow
71.460876 2.906250 m /zero glyphshow
80.606689 2.906250 m /zero glyphshow
89.752502 2.906250 m /zero glyphshow
grestore

end
showpage
