%!PS-Adobe-3.0 EPSF-3.0
%%Title: 3d6.Hilbert-Schmidt.example.evolution.eps
%%Creator: matplotlib version 1.1.0, http://matplotlib.sourceforge.net/
%%CreationDate: Wed Dec  5 14:55:34 2012
%%Orientation: portrait
%%BoundingBox: -115 97 727 694
%%EndComments
%%BeginProlog
/mpldict 8 dict def
mpldict begin
/m { moveto } bind def
/l { lineto } bind def
/r { rlineto } bind def
/c { curveto } bind def
/cl { closepath } bind def
/box {
m
1 index 0 r
0 exch r
neg 0 r
cl
} bind def
/clipbox {
box
clip
newpath
} bind def
%!PS-Adobe-3.0 Resource-Font
%%Title: Bitstream Vera Sans
%%Copyright: Copyright (c) 2003 by Bitstream, Inc. All Rights Reserved.
%%Creator: Converted from TrueType to type 3 by PPR
25 dict begin
/_d{bind def}bind def
/_m{moveto}_d
/_l{lineto}_d
/_cl{closepath eofill}_d
/_c{curveto}_d
/_sc{7 -1 roll{setcachedevice}{pop pop pop pop pop pop}ifelse}_d
/_e{exec}_d
/FontName /BitstreamVeraSans-Roman def
/PaintType 0 def
/FontMatrix[.001 0 0 .001 0 0]def
/FontBBox[-183 -236 1287 928]def
/FontType 3 def
/Encoding [ /space /parenleft /parenright /hyphen /period /zero /one /two /three /four /five /six /seven /eight /nine /colon /equal /E /G /H /S /a /b /c /d /e /f /g /h /i /l /m /n /o /p /r /s /t /u /v ] def
/FontInfo 10 dict dup begin
/FamilyName (Bitstream Vera Sans) def
/FullName (Bitstream Vera Sans) def
/Notice (Copyright (c) 2003 by Bitstream, Inc. All Rights Reserved. Bitstream Vera is a trademark of Bitstream, Inc.) def
/Weight (Roman) def
/Version (Release 1.10) def
/ItalicAngle 0.0 def
/isFixedPitch false def
/UnderlinePosition -213 def
/UnderlineThickness 143 def
end readonly def
/CharStrings 40 dict dup begin
/space{318 0 0 0 0 0 _sc
}_d
/parenleft{390 0 86 -131 310 759 _sc
310 759 _m
266 683 234 609 213 536 _c
191 463 181 389 181 314 _c
181 238 191 164 213 91 _c
234 17 266 -56 310 -131 _c
232 -131 _l
183 -54 146 20 122 94 _c
98 168 86 241 86 314 _c
86 386 98 459 122 533 _c
146 607 182 682 232 759 _c
310 759 _l
_cl}_d
/parenright{390 0 80 -131 304 759 _sc
80 759 _m
158 759 _l
206 682 243 607 267 533 _c
291 459 304 386 304 314 _c
304 241 291 168 267 94 _c
243 20 206 -54 158 -131 _c
80 -131 _l
123 -56 155 17 177 91 _c
198 164 209 238 209 314 _c
209 389 198 463 177 536 _c
155 609 123 683 80 759 _c
_cl}_d
/hyphen{361 0 49 234 312 314 _sc
49 314 _m
312 314 _l
312 234 _l
49 234 _l
49 314 _l
_cl}_d
/period{318 0 107 0 210 124 _sc
107 124 _m
210 124 _l
210 0 _l
107 0 _l
107 124 _l
_cl}_d
/zero{636 0 66 -13 570 742 _sc
318 664 _m
267 664 229 639 203 589 _c
177 539 165 464 165 364 _c
165 264 177 189 203 139 _c
229 89 267 64 318 64 _c
369 64 407 89 433 139 _c
458 189 471 264 471 364 _c
471 464 458 539 433 589 _c
407 639 369 664 318 664 _c
318 742 _m
399 742 461 709 505 645 _c
548 580 570 486 570 364 _c
570 241 548 147 505 83 _c
461 19 399 -13 318 -13 _c
236 -13 173 19 130 83 _c
87 147 66 241 66 364 _c
66 486 87 580 130 645 _c
173 709 236 742 318 742 _c
_cl}_d
/one{636 0 110 0 544 729 _sc
124 83 _m
285 83 _l
285 639 _l
110 604 _l
110 694 _l
284 729 _l
383 729 _l
383 83 _l
544 83 _l
544 0 _l
124 0 _l
124 83 _l
_cl}_d
/two{{636 0 73 0 536 742 _sc
192 83 _m
536 83 _l
536 0 _l
73 0 _l
73 83 _l
110 121 161 173 226 239 _c
290 304 331 346 348 365 _c
380 400 402 430 414 455 _c
426 479 433 504 433 528 _c
433 566 419 598 392 622 _c
365 646 330 659 286 659 _c
255 659 222 653 188 643 _c
154 632 117 616 78 594 _c
78 694 _l
118 710 155 722 189 730 _c
223 738 255 742 284 742 _c
359 742 419 723 464 685 _c
509 647 532 597 532 534 _c
532 504 526 475 515 449 _c
504 422 484 390 454 354 _c
446 344 420 317 376 272 _c
332 227 271 164 192 83 _c
_cl}_e}_d
/three{{636 0 76 -13 556 742 _sc
406 393 _m
453 383 490 362 516 330 _c
542 298 556 258 556 212 _c
556 140 531 84 482 45 _c
432 6 362 -13 271 -13 _c
240 -13 208 -10 176 -4 _c
144 1 110 10 76 22 _c
76 117 _l
103 101 133 89 166 81 _c
198 73 232 69 268 69 _c
330 69 377 81 409 105 _c
441 129 458 165 458 212 _c
458 254 443 288 413 312 _c
383 336 341 349 287 349 _c
202 349 _l
202 430 _l
291 430 _l
339 430 376 439 402 459 _c
428 478 441 506 441 543 _c
441 580 427 609 401 629 _c
374 649 336 659 287 659 _c
260 659 231 656 200 650 _c
169 644 135 635 98 623 _c
98 711 _l
135 721 170 729 203 734 _c
235 739 266 742 296 742 _c
}_e{370 742 429 725 473 691 _c
517 657 539 611 539 553 _c
539 513 527 479 504 451 _c
481 423 448 403 406 393 _c
_cl}_e}_d
/four{636 0 49 0 580 729 _sc
378 643 _m
129 254 _l
378 254 _l
378 643 _l
352 729 _m
476 729 _l
476 254 _l
580 254 _l
580 172 _l
476 172 _l
476 0 _l
378 0 _l
378 172 _l
49 172 _l
49 267 _l
352 729 _l
_cl}_d
/five{{636 0 77 -13 549 729 _sc
108 729 _m
495 729 _l
495 646 _l
198 646 _l
198 467 _l
212 472 227 476 241 478 _c
255 480 270 482 284 482 _c
365 482 429 459 477 415 _c
525 370 549 310 549 234 _c
549 155 524 94 475 51 _c
426 8 357 -13 269 -13 _c
238 -13 207 -10 175 -6 _c
143 -1 111 6 77 17 _c
77 116 _l
106 100 136 88 168 80 _c
199 72 232 69 267 69 _c
323 69 368 83 401 113 _c
433 143 450 183 450 234 _c
450 284 433 324 401 354 _c
368 384 323 399 267 399 _c
241 399 214 396 188 390 _c
162 384 135 375 108 363 _c
108 729 _l
_cl}_e}_d
/six{{636 0 70 -13 573 742 _sc
330 404 _m
286 404 251 388 225 358 _c
199 328 186 286 186 234 _c
186 181 199 139 225 109 _c
251 79 286 64 330 64 _c
374 64 409 79 435 109 _c
461 139 474 181 474 234 _c
474 286 461 328 435 358 _c
409 388 374 404 330 404 _c
526 713 _m
526 623 _l
501 635 476 644 451 650 _c
425 656 400 659 376 659 _c
310 659 260 637 226 593 _c
192 549 172 482 168 394 _c
187 422 211 444 240 459 _c
269 474 301 482 336 482 _c
409 482 467 459 509 415 _c
551 371 573 310 573 234 _c
573 159 550 99 506 54 _c
462 9 403 -13 330 -13 _c
246 -13 181 19 137 83 _c
92 147 70 241 70 364 _c
70 479 97 571 152 639 _c
206 707 280 742 372 742 _c
}_e{396 742 421 739 447 735 _c
472 730 498 723 526 713 _c
_cl}_e}_d
/seven{636 0 82 0 551 729 _sc
82 729 _m
551 729 _l
551 687 _l
286 0 _l
183 0 _l
432 646 _l
82 646 _l
82 729 _l
_cl}_d
/eight{{636 0 68 -13 568 742 _sc
318 346 _m
271 346 234 333 207 308 _c
180 283 167 249 167 205 _c
167 161 180 126 207 101 _c
234 76 271 64 318 64 _c
364 64 401 76 428 102 _c
455 127 469 161 469 205 _c
469 249 455 283 429 308 _c
402 333 365 346 318 346 _c
219 388 _m
177 398 144 418 120 447 _c
96 476 85 511 85 553 _c
85 611 105 657 147 691 _c
188 725 245 742 318 742 _c
390 742 447 725 489 691 _c
530 657 551 611 551 553 _c
551 511 539 476 515 447 _c
491 418 459 398 417 388 _c
464 377 501 355 528 323 _c
554 291 568 251 568 205 _c
568 134 546 80 503 43 _c
459 5 398 -13 318 -13 _c
237 -13 175 5 132 43 _c
89 80 68 134 68 205 _c
68 251 81 291 108 323 _c
134 355 171 377 219 388 _c
}_e{183 544 _m
183 506 194 476 218 455 _c
242 434 275 424 318 424 _c
360 424 393 434 417 455 _c
441 476 453 506 453 544 _c
453 582 441 611 417 632 _c
393 653 360 664 318 664 _c
275 664 242 653 218 632 _c
194 611 183 582 183 544 _c
_cl}_e}_d
/nine{{636 0 63 -13 566 742 _sc
110 15 _m
110 105 _l
134 93 159 84 185 78 _c
210 72 235 69 260 69 _c
324 69 374 90 408 134 _c
442 178 462 244 468 334 _c
448 306 424 284 396 269 _c
367 254 335 247 300 247 _c
226 247 168 269 126 313 _c
84 357 63 417 63 494 _c
63 568 85 628 129 674 _c
173 719 232 742 306 742 _c
390 742 455 709 499 645 _c
543 580 566 486 566 364 _c
566 248 538 157 484 89 _c
429 21 356 -13 264 -13 _c
239 -13 214 -10 189 -6 _c
163 -2 137 5 110 15 _c
306 324 _m
350 324 385 339 411 369 _c
437 399 450 441 450 494 _c
450 546 437 588 411 618 _c
385 648 350 664 306 664 _c
262 664 227 648 201 618 _c
175 588 162 546 162 494 _c
}_e{162 441 175 399 201 369 _c
227 339 262 324 306 324 _c
_cl}_e}_d
/colon{337 0 117 0 220 517 _sc
117 124 _m
220 124 _l
220 0 _l
117 0 _l
117 124 _l
117 517 _m
220 517 _l
220 393 _l
117 393 _l
117 517 _l
_cl}_d
/equal{838 0 106 172 732 454 _sc
106 454 _m
732 454 _l
732 372 _l
106 372 _l
106 454 _l
106 255 _m
732 255 _l
732 172 _l
106 172 _l
106 255 _l
_cl}_d
/E{632 0 98 0 568 729 _sc
98 729 _m
559 729 _l
559 646 _l
197 646 _l
197 430 _l
544 430 _l
544 347 _l
197 347 _l
197 83 _l
568 83 _l
568 0 _l
98 0 _l
98 729 _l
_cl}_d
/G{{775 0 56 -13 693 742 _sc
595 104 _m
595 300 _l
434 300 _l
434 381 _l
693 381 _l
693 68 _l
655 40 613 20 567 7 _c
521 -6 472 -13 420 -13 _c
306 -13 216 20 152 86 _c
88 152 56 245 56 364 _c
56 482 88 575 152 642 _c
216 708 306 742 420 742 _c
467 742 512 736 555 724 _c
598 712 638 695 674 673 _c
674 568 _l
637 598 598 621 557 637 _c
516 653 473 661 428 661 _c
338 661 271 636 227 586 _c
182 536 160 462 160 364 _c
160 265 182 191 227 141 _c
271 91 338 67 428 67 _c
462 67 493 70 521 76 _c
549 82 573 91 595 104 _c
_cl}_e}_d
/H{752 0 98 0 654 729 _sc
98 729 _m
197 729 _l
197 430 _l
555 430 _l
555 729 _l
654 729 _l
654 0 _l
555 0 _l
555 347 _l
197 347 _l
197 0 _l
98 0 _l
98 729 _l
_cl}_d
/S{{635 0 66 -13 579 742 _sc
535 705 _m
535 609 _l
497 627 462 640 429 649 _c
395 657 363 662 333 662 _c
279 662 237 651 208 631 _c
179 610 165 580 165 542 _c
165 510 174 485 194 469 _c
213 452 250 439 304 429 _c
364 417 _l
437 403 491 378 526 343 _c
561 307 579 260 579 201 _c
579 130 555 77 508 41 _c
460 5 391 -13 300 -13 _c
265 -13 228 -9 189 -2 _c
150 5 110 16 69 32 _c
69 134 _l
109 111 148 94 186 83 _c
224 71 262 66 300 66 _c
356 66 399 77 430 99 _c
460 121 476 152 476 194 _c
476 230 465 258 443 278 _c
421 298 385 313 335 323 _c
275 335 _l
201 349 148 372 115 404 _c
82 435 66 478 66 534 _c
66 598 88 649 134 686 _c
179 723 242 742 322 742 _c
}_e{356 742 390 739 426 733 _c
461 727 497 717 535 705 _c
_cl}_e}_d
/a{{613 0 60 -13 522 560 _sc
343 275 _m
270 275 220 266 192 250 _c
164 233 150 205 150 165 _c
150 133 160 107 181 89 _c
202 70 231 61 267 61 _c
317 61 357 78 387 114 _c
417 149 432 196 432 255 _c
432 275 _l
343 275 _l
522 312 _m
522 0 _l
432 0 _l
432 83 _l
411 49 385 25 355 10 _c
325 -5 287 -13 243 -13 _c
187 -13 142 2 109 33 _c
76 64 60 106 60 159 _c
60 220 80 266 122 298 _c
163 329 224 345 306 345 _c
432 345 _l
432 354 _l
432 395 418 427 391 450 _c
364 472 326 484 277 484 _c
245 484 215 480 185 472 _c
155 464 127 453 100 439 _c
100 522 _l
}_e{132 534 164 544 195 550 _c
226 556 256 560 286 560 _c
365 560 424 539 463 498 _c
502 457 522 395 522 312 _c
_cl}_e}_d
/b{{635 0 91 -13 580 760 _sc
487 273 _m
487 339 473 390 446 428 _c
418 466 381 485 334 485 _c
286 485 249 466 222 428 _c
194 390 181 339 181 273 _c
181 207 194 155 222 117 _c
249 79 286 61 334 61 _c
381 61 418 79 446 117 _c
473 155 487 207 487 273 _c
181 464 _m
199 496 223 520 252 536 _c
281 552 316 560 356 560 _c
422 560 476 533 518 481 _c
559 428 580 359 580 273 _c
580 187 559 117 518 65 _c
476 13 422 -13 356 -13 _c
316 -13 281 -5 252 10 _c
223 25 199 49 181 82 _c
181 0 _l
91 0 _l
91 760 _l
181 760 _l
181 464 _l
_cl}_e}_d
/c{{550 0 55 -13 488 560 _sc
488 526 _m
488 442 _l
462 456 437 466 411 473 _c
385 480 360 484 334 484 _c
276 484 230 465 198 428 _c
166 391 150 339 150 273 _c
150 206 166 154 198 117 _c
230 80 276 62 334 62 _c
360 62 385 65 411 72 _c
437 79 462 90 488 104 _c
488 21 _l
462 9 436 0 410 -5 _c
383 -10 354 -13 324 -13 _c
242 -13 176 12 128 64 _c
79 115 55 185 55 273 _c
55 362 79 432 128 483 _c
177 534 244 560 330 560 _c
358 560 385 557 411 551 _c
437 545 463 537 488 526 _c
_cl}_e}_d
/d{{635 0 55 -13 544 760 _sc
454 464 _m
454 760 _l
544 760 _l
544 0 _l
454 0 _l
454 82 _l
435 49 411 25 382 10 _c
353 -5 319 -13 279 -13 _c
213 -13 159 13 117 65 _c
75 117 55 187 55 273 _c
55 359 75 428 117 481 _c
159 533 213 560 279 560 _c
319 560 353 552 382 536 _c
411 520 435 496 454 464 _c
148 273 _m
148 207 161 155 188 117 _c
215 79 253 61 301 61 _c
348 61 385 79 413 117 _c
440 155 454 207 454 273 _c
454 339 440 390 413 428 _c
385 466 348 485 301 485 _c
253 485 215 466 188 428 _c
161 390 148 339 148 273 _c
_cl}_e}_d
/e{{615 0 55 -13 562 560 _sc
562 296 _m
562 252 _l
149 252 _l
153 190 171 142 205 110 _c
238 78 284 62 344 62 _c
378 62 412 66 444 74 _c
476 82 509 95 541 113 _c
541 28 _l
509 14 476 3 442 -3 _c
408 -9 373 -13 339 -13 _c
251 -13 182 12 131 62 _c
80 112 55 181 55 268 _c
55 357 79 428 127 481 _c
175 533 241 560 323 560 _c
397 560 455 536 498 489 _c
540 441 562 377 562 296 _c
472 322 _m
471 371 457 410 431 440 _c
404 469 368 484 324 484 _c
274 484 234 469 204 441 _c
174 413 156 373 152 322 _c
472 322 _l
_cl}_e}_d
/f{352 0 23 0 371 760 _sc
371 760 _m
371 685 _l
285 685 _l
253 685 230 678 218 665 _c
205 652 199 629 199 595 _c
199 547 _l
347 547 _l
347 477 _l
199 477 _l
199 0 _l
109 0 _l
109 477 _l
23 477 _l
23 547 _l
109 547 _l
109 585 _l
109 645 123 690 151 718 _c
179 746 224 760 286 760 _c
371 760 _l
_cl}_d
/g{{635 0 55 -207 544 560 _sc
454 280 _m
454 344 440 395 414 431 _c
387 467 349 485 301 485 _c
253 485 215 467 188 431 _c
161 395 148 344 148 280 _c
148 215 161 165 188 129 _c
215 93 253 75 301 75 _c
349 75 387 93 414 129 _c
440 165 454 215 454 280 _c
544 68 _m
544 -24 523 -93 482 -139 _c
440 -184 377 -207 292 -207 _c
260 -207 231 -204 203 -200 _c
175 -195 147 -188 121 -178 _c
121 -91 _l
147 -105 173 -115 199 -122 _c
225 -129 251 -133 278 -133 _c
336 -133 380 -117 410 -87 _c
439 -56 454 -10 454 52 _c
454 96 _l
435 64 411 40 382 24 _c
353 8 319 0 279 0 _c
211 0 157 25 116 76 _c
75 127 55 195 55 280 _c
55 364 75 432 116 483 _c
157 534 211 560 279 560 _c
}_e{319 560 353 552 382 536 _c
411 520 435 496 454 464 _c
454 547 _l
544 547 _l
544 68 _l
_cl}_e}_d
/h{634 0 91 0 549 760 _sc
549 330 _m
549 0 _l
459 0 _l
459 327 _l
459 379 448 417 428 443 _c
408 469 378 482 338 482 _c
289 482 251 466 223 435 _c
195 404 181 362 181 309 _c
181 0 _l
91 0 _l
91 760 _l
181 760 _l
181 462 _l
202 494 227 519 257 535 _c
286 551 320 560 358 560 _c
420 560 468 540 500 501 _c
532 462 549 405 549 330 _c
_cl}_d
/i{278 0 94 0 184 760 _sc
94 547 _m
184 547 _l
184 0 _l
94 0 _l
94 547 _l
94 760 _m
184 760 _l
184 646 _l
94 646 _l
94 760 _l
_cl}_d
/l{278 0 94 0 184 760 _sc
94 760 _m
184 760 _l
184 0 _l
94 0 _l
94 760 _l
_cl}_d
/m{{974 0 91 0 889 560 _sc
520 442 _m
542 482 569 511 600 531 _c
631 550 668 560 711 560 _c
767 560 811 540 842 500 _c
873 460 889 403 889 330 _c
889 0 _l
799 0 _l
799 327 _l
799 379 789 418 771 444 _c
752 469 724 482 686 482 _c
639 482 602 466 575 435 _c
548 404 535 362 535 309 _c
535 0 _l
445 0 _l
445 327 _l
445 379 435 418 417 444 _c
398 469 369 482 331 482 _c
285 482 248 466 221 435 _c
194 404 181 362 181 309 _c
181 0 _l
91 0 _l
91 547 _l
181 547 _l
181 462 _l
201 495 226 520 255 536 _c
283 552 317 560 357 560 _c
397 560 430 550 458 530 _c
486 510 506 480 520 442 _c
}_e{_cl}_e}_d
/n{634 0 91 0 549 560 _sc
549 330 _m
549 0 _l
459 0 _l
459 327 _l
459 379 448 417 428 443 _c
408 469 378 482 338 482 _c
289 482 251 466 223 435 _c
195 404 181 362 181 309 _c
181 0 _l
91 0 _l
91 547 _l
181 547 _l
181 462 _l
202 494 227 519 257 535 _c
286 551 320 560 358 560 _c
420 560 468 540 500 501 _c
532 462 549 405 549 330 _c
_cl}_d
/o{612 0 55 -13 557 560 _sc
306 484 _m
258 484 220 465 192 427 _c
164 389 150 338 150 273 _c
150 207 163 156 191 118 _c
219 80 257 62 306 62 _c
354 62 392 80 420 118 _c
448 156 462 207 462 273 _c
462 337 448 389 420 427 _c
392 465 354 484 306 484 _c
306 560 _m
384 560 445 534 490 484 _c
534 433 557 363 557 273 _c
557 183 534 113 490 63 _c
445 12 384 -13 306 -13 _c
227 -13 165 12 121 63 _c
77 113 55 183 55 273 _c
55 363 77 433 121 484 _c
165 534 227 560 306 560 _c
_cl}_d
/p{{635 0 91 -207 580 560 _sc
181 82 _m
181 -207 _l
91 -207 _l
91 547 _l
181 547 _l
181 464 _l
199 496 223 520 252 536 _c
281 552 316 560 356 560 _c
422 560 476 533 518 481 _c
559 428 580 359 580 273 _c
580 187 559 117 518 65 _c
476 13 422 -13 356 -13 _c
316 -13 281 -5 252 10 _c
223 25 199 49 181 82 _c
487 273 _m
487 339 473 390 446 428 _c
418 466 381 485 334 485 _c
286 485 249 466 222 428 _c
194 390 181 339 181 273 _c
181 207 194 155 222 117 _c
249 79 286 61 334 61 _c
381 61 418 79 446 117 _c
473 155 487 207 487 273 _c
_cl}_e}_d
/r{411 0 91 0 411 560 _sc
411 463 _m
401 469 390 473 378 476 _c
366 478 353 480 339 480 _c
288 480 249 463 222 430 _c
194 397 181 350 181 288 _c
181 0 _l
91 0 _l
91 547 _l
181 547 _l
181 462 _l
199 495 224 520 254 536 _c
284 552 321 560 365 560 _c
371 560 378 559 386 559 _c
393 558 401 557 411 555 _c
411 463 _l
_cl}_d
/s{{521 0 54 -13 472 560 _sc
443 531 _m
443 446 _l
417 458 391 468 364 475 _c
336 481 308 485 279 485 _c
234 485 200 478 178 464 _c
156 450 145 430 145 403 _c
145 382 153 366 169 354 _c
185 342 217 330 265 320 _c
296 313 _l
360 299 405 279 432 255 _c
458 230 472 195 472 151 _c
472 100 452 60 412 31 _c
372 1 316 -13 246 -13 _c
216 -13 186 -10 154 -5 _c
122 0 89 8 54 20 _c
54 113 _l
87 95 120 82 152 74 _c
184 65 216 61 248 61 _c
290 61 323 68 346 82 _c
368 96 380 117 380 144 _c
380 168 371 187 355 200 _c
339 213 303 226 247 238 _c
216 245 _l
160 257 119 275 95 299 _c
70 323 58 356 58 399 _c
58 450 76 490 112 518 _c
148 546 200 560 268 560 _c
}_e{301 560 332 557 362 552 _c
391 547 418 540 443 531 _c
_cl}_e}_d
/t{392 0 27 0 368 702 _sc
183 702 _m
183 547 _l
368 547 _l
368 477 _l
183 477 _l
183 180 _l
183 135 189 106 201 94 _c
213 81 238 75 276 75 _c
368 75 _l
368 0 _l
276 0 _l
206 0 158 13 132 39 _c
106 65 93 112 93 180 _c
93 477 _l
27 477 _l
27 547 _l
93 547 _l
93 702 _l
183 702 _l
_cl}_d
/u{634 0 85 -13 543 547 _sc
85 216 _m
85 547 _l
175 547 _l
175 219 _l
175 167 185 129 205 103 _c
225 77 255 64 296 64 _c
344 64 383 79 411 110 _c
439 141 453 183 453 237 _c
453 547 _l
543 547 _l
543 0 _l
453 0 _l
453 84 _l
431 50 405 26 377 10 _c
348 -5 315 -13 277 -13 _c
214 -13 166 6 134 45 _c
101 83 85 140 85 216 _c
_cl}_d
/v{592 0 30 0 562 547 _sc
30 547 _m
125 547 _l
296 88 _l
467 547 _l
562 547 _l
357 0 _l
235 0 _l
30 547 _l
_cl}_d
end readonly def

/BuildGlyph
 {exch begin
 CharStrings exch
 2 copy known not{pop /.notdef}if
 true 3 1 roll get exec
 end}_d

/BuildChar {
 1 index /Encoding get exch get
 1 index /BuildGlyph get exec
}_d

FontName currentdict end definefont pop
end
%%EndProlog
mpldict begin
-115.2 97.2 translate
842.4 597.6 0 0 clipbox
gsave
0 0 m
842.4 0 l
842.4 597.6 l
0 597.6 l
cl
1.000 setgray
fill
grestore
gsave
105.3 59.76 m
758.16 59.76 l
758.16 537.84 l
105.3 537.84 l
cl
1.000 setgray
fill
grestore
1.000 setlinewidth
1 setlinejoin
2 setlinecap
[] 0 setdash
0.000 0.000 1.000 setrgbcolor
gsave
652.9 478.1 105.3 59.76 clipbox
105.3 438.369 m
107.911 422.934 l
110.523 415.477 l
113.134 414.153 l
115.746 399.219 l
123.58 399.219 l
126.192 394.133 l
128.803 392.067 l
131.414 384.259 l
134.026 369.762 l
141.86 369.762 l
144.472 364.834 l
147.083 364.834 l
149.694 351.503 l
152.306 351.503 l
154.917 348.164 l
157.529 343.464 l
162.752 343.464 l
165.363 342.241 l
167.975 333.743 l
175.809 333.743 l
178.42 333.348 l
186.255 333.348 l
188.866 330.312 l
194.089 330.312 l
196.7 329.901 l
199.312 329.901 l
201.923 329.074 l
212.369 329.074 l
214.98 328.76 l
222.815 328.76 l
225.426 328.482 l
228.038 328.482 l
230.649 328.055 l
233.261 327.908 l
235.872 327.496 l
256.764 327.488 l
261.986 327.181 l
275.044 326.994 l
277.655 326.793 l
285.489 326.793 l
288.101 326.473 l
306.381 326.443 l
311.604 326.351 l
332.495 326.242 l
350.775 326.12 l
384.724 326.051 l
392.558 325.985 l
755.549 325.915 l
755.549 325.915 l
stroke
grestore
0.000 0.500 0.000 setrgbcolor
gsave
652.9 478.1 105.3 59.76 clipbox
105.3 449.711 m
107.911 433.881 l
110.523 430.252 l
113.134 417.034 l
118.357 417.034 l
120.969 409.33 l
123.58 409.098 l
126.192 409.098 l
128.803 405.048 l
131.414 398.707 l
134.026 390.211 l
136.637 388.261 l
139.249 369.053 l
141.86 369.053 l
144.472 367.791 l
147.083 367.791 l
149.694 364.486 l
152.306 362.307 l
154.917 361.662 l
157.529 361.662 l
160.14 358.279 l
167.975 358.279 l
170.586 357.913 l
173.197 357.687 l
175.809 357.687 l
178.42 356.852 l
181.032 354.75 l
188.866 354.699 l
191.478 353.575 l
201.923 353.569 l
204.535 353.369 l
209.758 353.369 l
212.369 352.32 l
230.649 352.263 l
233.261 350.69 l
238.483 350.635 l
241.095 349.407 l
246.318 349.407 l
248.929 349.024 l
251.541 349.024 l
254.152 348.56 l
256.764 348.56 l
261.986 347.842 l
277.655 347.789 l
280.266 347.636 l
285.489 347.536 l
288.101 347.362 l
295.935 347.362 l
298.547 347.203 l
301.158 346.394 l
311.604 346.394 l
314.215 346.186 l
316.827 345.855 l
319.438 345.855 l
324.661 345.464 l
327.272 345.464 l
329.884 345.268 l
337.718 345.07 l
340.33 344.827 l
345.552 344.789 l
348.164 344.342 l
355.998 344.342 l
358.61 344.224 l
361.221 343.896 l
371.667 343.627 l
374.278 343.627 l
376.89 343.283 l
382.113 343.283 l
384.724 343.02 l
387.336 343.02 l
389.947 342.903 l
395.17 342.796 l
400.393 342.654 l
403.004 342.426 l
410.838 342.356 l
416.061 342.119 l
423.896 342.012 l
442.176 341.577 l
444.787 341.291 l
452.622 341.291 l
455.233 341.077 l
457.844 339.823 l
460.456 338.277 l
463.067 337.834 l
465.679 337.718 l
468.29 336.904 l
470.902 336.826 l
473.513 336.25 l
478.736 335.665 l
481.347 335.113 l
483.959 335.113 l
486.57 334.692 l
489.182 334.103 l
491.793 333.636 l
494.405 333.636 l
499.627 332.564 l
502.239 332.564 l
504.85 332.182 l
507.462 332.182 l
512.685 331.705 l
515.296 331.705 l
517.908 331.535 l
520.519 331.235 l
528.353 331.162 l
533.576 331.063 l
538.799 330.957 l
541.41 330.779 l
544.022 330.779 l
546.633 330.563 l
567.525 330.265 l
585.805 330.176 l
593.639 330.106 l
643.257 329.942 l
734.657 329.834 l
755.549 329.826 l
755.549 329.826 l
stroke
grestore
1.000 0.000 0.000 setrgbcolor
gsave
652.9 478.1 105.3 59.76 clipbox
105.3 467.454 m
107.911 437.678 l
110.523 433.812 l
113.134 433.812 l
115.746 427.554 l
120.969 427.554 l
123.58 423.131 l
126.192 415.089 l
128.803 413.098 l
131.414 412.275 l
134.026 400.192 l
136.637 400.192 l
139.249 397.864 l
141.86 385.285 l
147.083 385.285 l
152.306 382.342 l
154.917 379.592 l
157.529 377.492 l
160.14 377.166 l
162.752 372.673 l
188.866 372.673 l
191.478 371.93 l
196.7 371.695 l
199.312 370.66 l
204.535 370.66 l
207.146 370.483 l
209.758 369.273 l
212.369 368.323 l
214.98 368.133 l
217.592 367.698 l
233.261 367.698 l
235.872 366.584 l
238.483 366.543 l
241.095 366.183 l
254.152 366.183 l
256.764 365.865 l
261.986 365.865 l
264.598 365.612 l
267.209 365.548 l
269.821 364.847 l
272.432 364.434 l
280.266 364.414 l
282.878 364.075 l
295.935 364.075 l
298.547 363.739 l
316.827 363.084 l
319.438 362.985 l
322.05 362.707 l
324.661 362.57 l
327.272 362.57 l
329.884 362.423 l
335.107 361.917 l
337.718 361.748 l
340.33 361.748 l
342.941 361.575 l
345.552 359.855 l
350.775 359.855 l
353.387 359.236 l
355.998 358.285 l
358.61 357.843 l
361.221 357.724 l
363.833 356.74 l
366.444 356.74 l
371.667 354.902 l
374.278 354.182 l
376.89 354.182 l
379.501 353.696 l
382.113 352.667 l
384.724 352.648 l
387.336 351.635 l
389.947 351.635 l
392.558 351.141 l
395.17 351.141 l
397.781 350.853 l
400.393 350.853 l
403.004 350.574 l
405.616 350.103 l
408.227 350.103 l
410.838 349.964 l
413.45 349.245 l
416.061 349.092 l
418.673 348.783 l
423.896 348.483 l
426.507 348.263 l
429.119 347.887 l
431.73 347.887 l
434.341 347.536 l
436.953 347.536 l
439.564 347.356 l
442.176 346.497 l
444.787 345.972 l
447.399 345.972 l
452.622 345.753 l
455.233 345.753 l
457.844 345.573 l
463.067 345.573 l
465.679 345.365 l
470.902 345.34 l
473.513 345.137 l
478.736 345.098 l
481.347 344.901 l
483.959 344.901 l
486.57 344.658 l
489.182 344.657 l
491.793 344.453 l
515.296 344.262 l
523.13 344.21 l
538.799 344.112 l
551.856 343.954 l
593.639 343.85 l
638.034 343.784 l
755.549 343.699 l
755.549 343.699 l
stroke
grestore
0.000 0.750 0.750 setrgbcolor
gsave
652.9 478.1 105.3 59.76 clipbox
105.3 472.455 m
107.911 456.73 l
110.523 450.136 l
113.134 440.641 l
115.746 440.641 l
118.357 437.259 l
120.969 437.259 l
123.58 425.336 l
131.414 425.336 l
134.026 421.804 l
136.637 407.566 l
141.86 407.566 l
144.472 403.097 l
149.694 403.097 l
152.306 399.723 l
154.917 399.723 l
157.529 398.523 l
160.14 393.973 l
165.363 386.477 l
173.197 386.477 l
175.809 385.694 l
178.42 383.7 l
181.032 383.515 l
183.643 383.515 l
186.255 379.47 l
188.866 379.311 l
196.7 379.311 l
199.312 378.454 l
201.923 378.454 l
204.535 377.71 l
207.146 376.829 l
228.038 376.738 l
230.649 376.504 l
235.872 376.504 l
238.483 374.716 l
241.095 374.716 l
243.706 374.469 l
246.318 373.636 l
248.929 373.636 l
251.541 373.321 l
259.375 373.321 l
261.986 373.103 l
264.598 372.525 l
272.432 372.466 l
275.044 370.916 l
288.101 370.916 l
293.324 370.531 l
295.935 370.484 l
298.547 370.164 l
301.158 370.164 l
303.769 368.571 l
308.992 368.555 l
311.604 366.725 l
314.215 366.725 l
316.827 365.651 l
319.438 363.577 l
322.05 362.688 l
324.661 360.913 l
327.272 360.913 l
329.884 360.332 l
332.495 360.332 l
335.107 358.921 l
337.718 358.921 l
340.33 357.954 l
348.164 357.927 l
353.387 357.351 l
355.998 356.796 l
358.61 355.927 l
361.221 355.927 l
363.833 355.411 l
366.444 355.411 l
369.055 355.189 l
379.501 355.128 l
382.113 354.655 l
384.724 354.494 l
389.947 354.416 l
392.558 354.294 l
395.17 354.049 l
397.781 354.049 l
400.393 353.506 l
405.616 353.402 l
434.341 352.764 l
436.953 352.764 l
439.564 352.496 l
447.399 352.331 l
450.01 352.06 l
460.456 351.975 l
483.959 351.438 l
491.793 351.391 l
494.405 351.204 l
497.016 351.202 l
499.627 351.033 l
504.85 350.969 l
515.296 350.843 l
554.468 350.352 l
591.028 350.233 l
601.474 350.188 l
755.549 350.094 l
755.549 350.094 l
stroke
grestore
0.750 0.000 0.750 setrgbcolor
gsave
652.9 478.1 105.3 59.76 clipbox
105.3 479.039 m
107.911 458.495 l
110.523 451.146 l
113.134 445.487 l
115.746 436.063 l
118.357 433.523 l
120.969 433.523 l
123.58 420.79 l
126.192 420.79 l
128.803 417.41 l
131.414 408.946 l
134.026 407.387 l
136.637 407.387 l
139.249 402.824 l
141.86 397.132 l
144.472 397.132 l
147.083 396.817 l
149.694 395.171 l
152.306 395.171 l
154.917 394.221 l
157.529 393.867 l
160.14 393.136 l
162.752 391.752 l
165.363 391.752 l
167.975 390.414 l
170.586 390.23 l
175.809 390.23 l
178.42 387.231 l
181.032 385.726 l
183.643 382.679 l
186.255 382.679 l
188.866 381.031 l
196.7 381.031 l
199.312 379.561 l
201.923 377.729 l
204.535 377.379 l
207.146 376.155 l
212.369 376.155 l
214.98 376.04 l
217.592 375.806 l
220.203 375.806 l
222.815 374.871 l
228.038 374.871 l
230.649 374.303 l
235.872 374.303 l
238.483 373.479 l
243.706 372.85 l
246.318 372.291 l
251.541 372.192 l
259.375 371.707 l
261.986 370.918 l
267.209 370.918 l
269.821 370.184 l
272.432 370.088 l
275.044 368.012 l
277.655 367.836 l
280.266 367.514 l
282.878 365.144 l
285.489 364.089 l
288.101 363.811 l
290.712 363.722 l
293.324 362.993 l
295.935 360.83 l
298.547 359.654 l
306.381 359.619 l
308.992 359.22 l
311.604 359.22 l
314.215 357.003 l
319.438 356.55 l
322.05 356.55 l
324.661 355.379 l
327.272 355.379 l
329.884 355.241 l
332.495 354.743 l
337.718 354.664 l
340.33 354.222 l
345.552 354.19 l
348.164 353.84 l
353.387 353.763 l
355.998 352.907 l
358.61 352.907 l
361.221 352.149 l
371.667 352.128 l
374.278 351.981 l
379.501 351.981 l
382.113 351.83 l
384.724 351.83 l
387.336 351.637 l
389.947 351.259 l
410.838 351.202 l
416.061 350.99 l
426.507 350.927 l
431.73 350.797 l
434.341 350.607 l
455.233 350.5 l
460.456 350.374 l
473.513 350.297 l
478.736 350.229 l
497.016 350.159 l
554.468 350.047 l
575.359 350.024 l
755.549 349.967 l
755.549 349.967 l
stroke
grestore
0.750 0.750 0.000 setrgbcolor
gsave
652.9 478.1 105.3 59.76 clipbox
105.3 432.149 m
107.911 430.987 l
110.523 418.783 l
113.134 418.46 l
115.746 418.46 l
118.357 407.194 l
123.58 407.194 l
126.192 392.229 l
134.026 392.229 l
136.637 391.183 l
139.249 391.183 l
141.86 388.375 l
144.472 387.832 l
152.306 387.832 l
154.917 385.851 l
157.529 385.851 l
160.14 382.96 l
162.752 382.679 l
165.363 382.679 l
167.975 376.734 l
181.032 376.734 l
183.643 376.359 l
186.255 372.834 l
188.866 372.698 l
201.923 372.698 l
204.535 372.337 l
207.146 369.763 l
212.369 369.747 l
214.98 367.188 l
220.203 366.361 l
222.815 366.345 l
225.426 364.297 l
228.038 364.297 l
230.649 363.92 l
235.872 363.92 l
238.483 363.637 l
241.095 361.947 l
243.706 361.678 l
251.541 361.678 l
256.764 360.398 l
259.375 360.398 l
261.986 359.051 l
264.598 359.017 l
267.209 357.725 l
269.821 357.071 l
272.432 357.071 l
275.044 355.396 l
277.655 355.037 l
280.266 354.133 l
282.878 354.133 l
285.489 353.857 l
288.101 353.857 l
290.712 352.562 l
293.324 352.086 l
295.935 350.685 l
298.547 349.515 l
301.158 348.81 l
303.769 348.447 l
308.992 348.264 l
311.604 347.585 l
316.827 347.503 l
319.438 346.674 l
322.05 346.592 l
324.661 345.419 l
329.884 344.326 l
340.33 344.224 l
342.941 343.474 l
345.552 343.218 l
348.164 343.218 l
350.775 342.795 l
358.61 342.795 l
361.221 342.152 l
366.444 342.061 l
379.501 341.823 l
382.113 341.635 l
384.724 341.308 l
395.17 341.277 l
397.781 341.124 l
405.616 341.066 l
408.227 340.884 l
426.507 340.781 l
483.959 340.32 l
546.633 340.211 l
572.748 340.172 l
755.549 340.149 l
755.549 340.149 l
stroke
grestore
0.000 setgray
gsave
652.9 478.1 105.3 59.76 clipbox
105.3 448.314 m
107.911 402.239 l
110.523 402.239 l
113.134 393.696 l
115.746 393.552 l
118.357 392.492 l
120.969 373.039 l
134.026 373.039 l
136.637 372.145 l
139.249 365.574 l
149.694 365.574 l
154.917 362.906 l
157.529 362.206 l
160.14 361.817 l
162.752 360.883 l
165.363 359.244 l
167.975 358.402 l
173.197 358.402 l
175.809 357.993 l
181.032 357.993 l
183.643 357.412 l
186.255 355.181 l
188.866 355.181 l
191.478 351.988 l
207.146 351.893 l
209.758 350.432 l
212.369 349.194 l
214.98 349.194 l
217.592 348.008 l
220.203 347.733 l
222.815 347.02 l
225.426 347.013 l
228.038 345.567 l
230.649 344.301 l
233.261 343.222 l
235.872 342.899 l
238.483 341.287 l
241.095 340.292 l
243.706 340.292 l
246.318 339.581 l
248.929 339.581 l
251.541 338.391 l
254.152 337.336 l
261.986 337.315 l
264.598 336.258 l
267.209 334.562 l
269.821 334.562 l
272.432 333.395 l
275.044 332.735 l
277.655 332.735 l
280.266 332.441 l
282.878 332.441 l
285.489 331.698 l
288.101 331.698 l
293.324 330.687 l
295.935 330.042 l
298.547 328.814 l
303.769 328.814 l
306.381 328.115 l
308.992 328.115 l
311.604 327.992 l
314.215 327.992 l
319.438 327.507 l
324.661 327.507 l
329.884 326.723 l
332.495 326.723 l
335.107 326.601 l
337.718 326.192 l
345.552 326.165 l
350.775 325.783 l
358.61 325.679 l
363.833 325.558 l
369.055 325.485 l
371.667 325.485 l
374.278 325.306 l
382.113 325.269 l
384.724 325.072 l
389.947 325.019 l
400.393 324.644 l
436.953 324.331 l
442.176 324.168 l
463.067 324.059 l
489.182 323.969 l
530.965 323.837 l
755.549 323.774 l
755.549 323.774 l
stroke
grestore
0.000 0.000 1.000 setrgbcolor
gsave
652.9 478.1 105.3 59.76 clipbox
105.3 387.956 m
107.911 384.184 l
110.523 369.772 l
113.134 369.772 l
115.746 357.231 l
123.58 357.231 l
126.192 349.712 l
128.803 348.732 l
131.414 348.732 l
134.026 347.856 l
136.637 345.951 l
139.249 343.175 l
141.86 336.342 l
149.694 336.342 l
152.306 335.539 l
154.917 331.634 l
157.529 331.634 l
160.14 331.145 l
162.752 329.336 l
165.363 325.992 l
167.975 325.318 l
183.643 325.318 l
186.255 325.045 l
188.866 324.459 l
196.7 324.354 l
199.312 324.342 l
201.923 323.71 l
207.146 323.604 l
212.369 323.604 l
214.98 319.358 l
217.592 319.358 l
220.203 319.088 l
225.426 319.088 l
228.038 316.276 l
233.261 316.259 l
235.872 316.008 l
238.483 316.008 l
241.095 313.706 l
243.706 313.335 l
248.929 313.117 l
251.541 312.625 l
254.152 312.625 l
256.764 311.961 l
261.986 311.961 l
264.598 311.448 l
267.209 311.368 l
269.821 309.997 l
272.432 309.997 l
275.044 309.105 l
277.655 309.105 l
280.266 308.911 l
282.878 308.271 l
285.489 308.271 l
288.101 306.414 l
293.324 306.414 l
295.935 306.089 l
301.158 304.604 l
303.769 304.495 l
306.381 303.943 l
311.604 303.871 l
314.215 303.441 l
316.827 303.313 l
319.438 302.669 l
327.272 302.564 l
329.884 302.425 l
332.495 301.831 l
337.718 301.805 l
340.33 301.44 l
345.552 301.02 l
348.164 300.757 l
366.444 300.711 l
382.113 300.145 l
384.724 300.145 l
387.336 299.95 l
397.781 299.944 l
405.616 299.702 l
408.227 299.702 l
410.838 299.572 l
423.896 299.545 l
429.119 299.451 l
447.399 299.36 l
452.622 299.292 l
585.805 299.052 l
755.549 299.031 l
755.549 299.031 l
stroke
grestore
0.000 0.500 0.000 setrgbcolor
gsave
652.9 478.1 105.3 59.76 clipbox
105.3 342.639 m
107.911 341.572 l
110.523 331.176 l
113.134 329.826 l
115.746 329.125 l
118.357 321.096 l
120.969 321.096 l
123.58 316.417 l
126.192 316.417 l
128.803 311.076 l
131.414 308.136 l
136.637 308.136 l
139.249 303.711 l
141.86 301.426 l
144.472 301.426 l
147.083 300 l
149.694 300 l
152.306 297.498 l
154.917 295.606 l
157.529 292.376 l
160.14 292.376 l
162.752 290.641 l
165.363 289.781 l
167.975 289.78 l
170.586 287.954 l
173.197 287.954 l
175.809 287.448 l
178.42 286.551 l
186.255 286.551 l
188.866 285.201 l
194.089 284.822 l
196.7 283.424 l
199.312 282.516 l
214.98 282.516 l
217.592 281.986 l
233.261 281.923 l
235.872 281.583 l
243.706 281.393 l
251.541 281.11 l
267.209 281.11 l
269.821 280.968 l
275.044 280.961 l
277.655 279.492 l
280.266 279.476 l
282.878 278.654 l
285.489 277.623 l
288.101 275.28 l
290.712 275.149 l
293.324 272.926 l
295.935 272.926 l
298.547 272.214 l
301.158 272.214 l
303.769 271.528 l
306.381 271.528 l
308.992 271.076 l
311.604 270.407 l
319.438 269.943 l
322.05 269.152 l
324.661 268.48 l
327.272 268.437 l
332.495 267.886 l
337.718 267.753 l
340.33 267.383 l
342.941 267.176 l
350.775 267.176 l
353.387 266.66 l
358.61 266.613 l
363.833 265.782 l
371.667 265.696 l
374.278 265.374 l
376.89 265.374 l
382.113 265.177 l
389.947 265.074 l
392.558 264.922 l
397.781 264.922 l
400.393 264.788 l
403.004 264.788 l
405.616 264.663 l
408.227 264.663 l
410.838 264.458 l
515.296 263.731 l
755.549 263.564 l
755.549 263.564 l
stroke
grestore
1.000 0.000 0.000 setrgbcolor
gsave
652.9 478.1 105.3 59.76 clipbox
105.3 297.851 m
107.911 293.469 l
110.523 285.925 l
113.134 265.052 l
115.746 255.834 l
118.357 255.834 l
120.969 255.363 l
123.58 254.325 l
126.192 250.016 l
128.803 248.302 l
131.414 248.302 l
134.026 245.858 l
144.472 245.858 l
149.694 245.008 l
152.306 244.678 l
157.529 244.678 l
160.14 241.105 l
162.752 241.105 l
165.363 240.544 l
170.586 240.544 l
173.197 237.811 l
175.809 237.811 l
178.42 235.673 l
181.032 234.324 l
183.643 225.587 l
186.255 224.848 l
209.758 224.844 l
212.369 224.484 l
214.98 224.484 l
217.592 223.596 l
228.038 223.596 l
230.649 223.401 l
233.261 222.954 l
235.872 222.954 l
238.483 222.793 l
251.541 222.71 l
256.764 222.473 l
264.598 222.296 l
277.655 222.296 l
280.266 222.048 l
298.547 221.966 l
301.158 221.766 l
308.992 221.714 l
371.667 221.607 l
405.616 221.552 l
726.823 221.515 l
755.549 221.515 l
755.549 221.515 l
stroke
grestore
0.000 0.750 0.750 setrgbcolor
gsave
652.9 478.1 105.3 59.76 clipbox
105.3 245.351 m
107.911 156.372 l
110.523 122.845 l
113.134 122.845 l
115.746 111.238 l
118.357 100.376 l
120.969 100.376 l
123.58 90.7085 l
126.192 90.7085 l
128.803 80.8009 l
131.414 80.8009 l
134.026 71.3902 l
149.694 71.386 l
152.306 69.8887 l
154.917 69.8887 l
157.529 67.8339 l
173.197 67.8279 l
175.809 66.8517 l
194.089 66.8514 l
196.7 64.6788 l
220.203 64.6788 l
222.815 63.5691 l
225.426 63.5691 l
230.649 62.7262 l
235.872 62.7262 l
241.095 62.1432 l
259.375 62.1432 l
261.986 60.8324 l
269.821 60.7876 l
301.158 60.7332 l
303.769 60.5745 l
306.381 60.2366 l
319.438 60.2082 l
408.227 60.1078 l
413.45 60.005 l
483.959 59.8718 l
491.793 59.8296 l
755.549 59.7645 l
755.549 59.7645 l
stroke
grestore
0.500 setlinewidth
0 setlinecap
0.000 setgray
gsave
/o {
gsave
newpath
translate
0 0 m
0 4 l
gsave
0.000 setgray
fill
grestore
stroke
grestore
} bind def
105.3 59.76 o
grestore
gsave
/o {
gsave
newpath
translate
0 0 m
0 -4 l
gsave
0.000 setgray
fill
grestore
stroke
grestore
} bind def
105.3 537.84 o
grestore
/BitstreamVeraSans-Roman findfont
12.000 scalefont
setfont
gsave
102.276562 46.681875 translate
0.000000 rotate
0.000000 0.171875 m /zero glyphshow
grestore
gsave
/o {
gsave
newpath
translate
0 0 m
0 4 l
gsave
0.000 setgray
fill
grestore
stroke
grestore
} bind def
235.872 59.76 o
grestore
gsave
/o {
gsave
newpath
translate
0 0 m
0 -4 l
gsave
0.000 setgray
fill
grestore
stroke
grestore
} bind def
235.872 537.84 o
grestore
gsave
229.090750 46.681875 translate
0.000000 rotate
0.000000 0.171875 m /five glyphshow
7.634766 0.171875 m /zero glyphshow
grestore
gsave
/o {
gsave
newpath
translate
0 0 m
0 4 l
gsave
0.000 setgray
fill
grestore
stroke
grestore
} bind def
366.444 59.76 o
grestore
gsave
/o {
gsave
newpath
translate
0 0 m
0 -4 l
gsave
0.000 setgray
fill
grestore
stroke
grestore
} bind def
366.444 537.84 o
grestore
gsave
356.037750 46.681875 translate
0.000000 rotate
0.000000 0.171875 m /one glyphshow
7.634766 0.171875 m /zero glyphshow
15.269531 0.171875 m /zero glyphshow
grestore
gsave
/o {
gsave
newpath
translate
0 0 m
0 4 l
gsave
0.000 setgray
fill
grestore
stroke
grestore
} bind def
497.016 59.76 o
grestore
gsave
/o {
gsave
newpath
translate
0 0 m
0 -4 l
gsave
0.000 setgray
fill
grestore
stroke
grestore
} bind def
497.016 537.84 o
grestore
gsave
486.609750 46.681875 translate
0.000000 rotate
0.000000 0.171875 m /one glyphshow
7.634766 0.171875 m /five glyphshow
15.269531 0.171875 m /zero glyphshow
grestore
gsave
/o {
gsave
newpath
translate
0 0 m
0 4 l
gsave
0.000 setgray
fill
grestore
stroke
grestore
} bind def
627.588 59.76 o
grestore
gsave
/o {
gsave
newpath
translate
0 0 m
0 -4 l
gsave
0.000 setgray
fill
grestore
stroke
grestore
} bind def
627.588 537.84 o
grestore
gsave
616.963000 46.681875 translate
0.000000 rotate
0.000000 0.171875 m /two glyphshow
7.634766 0.171875 m /zero glyphshow
15.269531 0.171875 m /zero glyphshow
grestore
gsave
/o {
gsave
newpath
translate
0 0 m
0 4 l
gsave
0.000 setgray
fill
grestore
stroke
grestore
} bind def
758.16 59.76 o
grestore
gsave
/o {
gsave
newpath
translate
0 0 m
0 -4 l
gsave
0.000 setgray
fill
grestore
stroke
grestore
} bind def
758.16 537.84 o
grestore
gsave
747.535000 46.681875 translate
0.000000 rotate
0.000000 0.171875 m /two glyphshow
7.634766 0.171875 m /five glyphshow
15.269531 0.171875 m /zero glyphshow
grestore
gsave
399.089375 32.385000 translate
0.000000 rotate
0.000000 0.171875 m /G glyphshow
9.298828 0.171875 m /e glyphshow
16.681641 0.171875 m /n glyphshow
24.287109 0.171875 m /e glyphshow
31.669922 0.171875 m /r glyphshow
36.603516 0.171875 m /a glyphshow
43.957031 0.171875 m /t glyphshow
48.662109 0.171875 m /i glyphshow
51.996094 0.171875 m /o glyphshow
59.337891 0.171875 m /n glyphshow
grestore
gsave
/o {
gsave
newpath
translate
0 0 m
4 0 l
gsave
0.000 setgray
fill
grestore
stroke
grestore
} bind def
105.3 59.76 o
grestore
gsave
/o {
gsave
newpath
translate
0 0 m
-4 0 l
gsave
0.000 setgray
fill
grestore
stroke
grestore
} bind def
758.16 59.76 o
grestore
gsave
83.800000 55.220937 translate
0.000000 rotate
0.000000 0.171875 m /zero glyphshow
7.634766 0.171875 m /period glyphshow
11.449219 0.171875 m /zero glyphshow
grestore
gsave
/o {
gsave
newpath
translate
0 0 m
4 0 l
gsave
0.000 setgray
fill
grestore
stroke
grestore
} bind def
105.3 119.52 o
grestore
gsave
/o {
gsave
newpath
translate
0 0 m
-4 0 l
gsave
0.000 setgray
fill
grestore
stroke
grestore
} bind def
758.16 119.52 o
grestore
gsave
84.206250 114.980937 translate
0.000000 rotate
0.000000 0.171875 m /zero glyphshow
7.634766 0.171875 m /period glyphshow
11.449219 0.171875 m /two glyphshow
grestore
gsave
/o {
gsave
newpath
translate
0 0 m
4 0 l
gsave
0.000 setgray
fill
grestore
stroke
grestore
} bind def
105.3 179.28 o
grestore
gsave
/o {
gsave
newpath
translate
0 0 m
-4 0 l
gsave
0.000 setgray
fill
grestore
stroke
grestore
} bind def
758.16 179.28 o
grestore
gsave
83.675000 174.740938 translate
0.000000 rotate
0.000000 0.171875 m /zero glyphshow
7.634766 0.171875 m /period glyphshow
11.449219 0.171875 m /four glyphshow
grestore
gsave
/o {
gsave
newpath
translate
0 0 m
4 0 l
gsave
0.000 setgray
fill
grestore
stroke
grestore
} bind def
105.3 239.04 o
grestore
gsave
/o {
gsave
newpath
translate
0 0 m
-4 0 l
gsave
0.000 setgray
fill
grestore
stroke
grestore
} bind def
758.16 239.04 o
grestore
gsave
83.768750 234.500938 translate
0.000000 rotate
0.000000 0.171875 m /zero glyphshow
7.634766 0.171875 m /period glyphshow
11.449219 0.171875 m /six glyphshow
grestore
gsave
/o {
gsave
newpath
translate
0 0 m
4 0 l
gsave
0.000 setgray
fill
grestore
stroke
grestore
} bind def
105.3 298.8 o
grestore
gsave
/o {
gsave
newpath
translate
0 0 m
-4 0 l
gsave
0.000 setgray
fill
grestore
stroke
grestore
} bind def
758.16 298.8 o
grestore
gsave
83.831250 294.260938 translate
0.000000 rotate
0.000000 0.171875 m /zero glyphshow
7.634766 0.171875 m /period glyphshow
11.449219 0.171875 m /eight glyphshow
grestore
gsave
/o {
gsave
newpath
translate
0 0 m
4 0 l
gsave
0.000 setgray
fill
grestore
stroke
grestore
} bind def
105.3 358.56 o
grestore
gsave
/o {
gsave
newpath
translate
0 0 m
-4 0 l
gsave
0.000 setgray
fill
grestore
stroke
grestore
} bind def
758.16 358.56 o
grestore
gsave
84.315625 354.020938 translate
0.000000 rotate
0.000000 0.171875 m /one glyphshow
7.634766 0.171875 m /period glyphshow
11.449219 0.171875 m /zero glyphshow
grestore
gsave
/o {
gsave
newpath
translate
0 0 m
4 0 l
gsave
0.000 setgray
fill
grestore
stroke
grestore
} bind def
105.3 418.32 o
grestore
gsave
/o {
gsave
newpath
translate
0 0 m
-4 0 l
gsave
0.000 setgray
fill
grestore
stroke
grestore
} bind def
758.16 418.32 o
grestore
gsave
84.721875 413.866875 translate
0.000000 rotate
0.000000 0.000000 m /one glyphshow
7.634766 0.000000 m /period glyphshow
11.449219 0.000000 m /two glyphshow
grestore
gsave
/o {
gsave
newpath
translate
0 0 m
4 0 l
gsave
0.000 setgray
fill
grestore
stroke
grestore
} bind def
105.3 478.08 o
grestore
gsave
/o {
gsave
newpath
translate
0 0 m
-4 0 l
gsave
0.000 setgray
fill
grestore
stroke
grestore
} bind def
758.16 478.08 o
grestore
gsave
84.190625 473.705000 translate
0.000000 rotate
0.000000 0.000000 m /one glyphshow
7.634766 0.000000 m /period glyphshow
11.449219 0.000000 m /four glyphshow
grestore
gsave
/o {
gsave
newpath
translate
0 0 m
4 0 l
gsave
0.000 setgray
fill
grestore
stroke
grestore
} bind def
105.3 537.84 o
grestore
gsave
/o {
gsave
newpath
translate
0 0 m
-4 0 l
gsave
0.000 setgray
fill
grestore
stroke
grestore
} bind def
758.16 537.84 o
grestore
gsave
84.284375 533.300938 translate
0.000000 rotate
0.000000 0.171875 m /one glyphshow
7.634766 0.171875 m /period glyphshow
11.449219 0.171875 m /six glyphshow
grestore
gsave
78.675000 257.229688 translate
90.000000 rotate
0.000000 2.500000 m /E glyphshow
7.582031 2.500000 m /n glyphshow
15.187500 2.500000 m /t glyphshow
19.892578 2.500000 m /a glyphshow
27.246094 2.500000 m /n glyphshow
34.851562 2.500000 m /g glyphshow
42.468750 2.500000 m /l glyphshow
45.802734 2.500000 m /e glyphshow
53.185547 2.500000 m /m glyphshow
64.875000 2.500000 m /e glyphshow
72.257812 2.500000 m /n glyphshow
79.863281 2.500000 m /t glyphshow
grestore
1.000 setlinewidth
2 setlinecap
gsave
105.3 537.84 m
758.16 537.84 l
stroke
grestore
gsave
758.16 59.76 m
758.16 537.84 l
stroke
grestore
gsave
105.3 59.76 m
758.16 59.76 l
stroke
grestore
gsave
105.3 59.76 m
105.3 537.84 l
stroke
grestore
/BitstreamVeraSans-Roman findfont
14.400 scalefont
setfont
gsave
273.480000 540.996250 translate
0.000000 rotate
0.000000 1.843750 m /E glyphshow
9.082642 1.843750 m /v glyphshow
17.589722 1.843750 m /o glyphshow
26.384583 1.843750 m /l glyphshow
30.378418 1.843750 m /u glyphshow
39.489136 1.843750 m /t glyphshow
45.125427 1.843750 m /i glyphshow
49.119263 1.843750 m /o glyphshow
57.914124 1.843750 m /n glyphshow
67.024841 1.843750 m /space glyphshow
71.594238 1.843750 m /o glyphshow
80.389099 1.843750 m /f glyphshow
85.449829 1.843750 m /space glyphshow
90.019226 1.843750 m /three glyphshow
99.165039 1.843750 m /d glyphshow
108.289795 1.843750 m /six glyphshow
117.435608 1.843750 m /space glyphshow
122.005005 1.843750 m /parenleft glyphshow
127.613220 1.843750 m /m glyphshow
141.616211 1.843750 m /e glyphshow
150.460205 1.843750 m /a glyphshow
159.269104 1.843750 m /s glyphshow
166.758423 1.843750 m /u glyphshow
175.869141 1.843750 m /r glyphshow
181.404175 1.843750 m /e glyphshow
190.248169 1.843750 m /colon glyphshow
195.091309 1.843750 m /space glyphshow
199.660706 1.843750 m /H glyphshow
210.470032 1.843750 m /i glyphshow
214.463867 1.843750 m /l glyphshow
218.457703 1.843750 m /b glyphshow
227.582458 1.843750 m /e glyphshow
236.426453 1.843750 m /r glyphshow
242.336487 1.843750 m /t glyphshow
247.972778 1.843750 m /hyphen glyphshow
253.159851 1.843750 m /S glyphshow
262.284607 1.843750 m /c glyphshow
270.188049 1.843750 m /h glyphshow
279.298767 1.843750 m /m glyphshow
293.301758 1.843750 m /i glyphshow
297.295593 1.843750 m /d glyphshow
306.420349 1.843750 m /t glyphshow
312.056641 1.843750 m /parenright glyphshow
grestore
gsave
601.183 298.104 m
750.96 298.104 l
750.96 530.64 l
601.183 530.64 l
601.183 298.104 l
cl
gsave
1.000 setgray
fill
grestore
stroke
grestore
0.000 0.000 1.000 setrgbcolor
gsave
611.263 519.279 m
631.423 519.279 l
stroke
grestore
0.000 setgray
gsave
647.262500 511.333125 translate
0.000000 rotate
0.000000 2.906250 m /p glyphshow
9.124756 2.906250 m /space glyphshow
13.694153 2.906250 m /equal glyphshow
25.738831 2.906250 m /space glyphshow
30.308228 2.906250 m /zero glyphshow
39.454041 2.906250 m /period glyphshow
44.023438 2.906250 m /zero glyphshow
53.169250 2.906250 m /zero glyphshow
62.315063 2.906250 m /zero glyphshow
71.460876 2.906250 m /zero glyphshow
80.606689 2.906250 m /zero glyphshow
89.752502 2.906250 m /zero glyphshow
grestore
0.000 0.500 0.000 setrgbcolor
gsave
611.263 498.533 m
631.423 498.533 l
stroke
grestore
0.000 setgray
gsave
647.262500 490.586250 translate
0.000000 rotate
0.000000 2.906250 m /p glyphshow
9.124756 2.906250 m /space glyphshow
13.694153 2.906250 m /equal glyphshow
25.738831 2.906250 m /space glyphshow
30.308228 2.906250 m /zero glyphshow
39.454041 2.906250 m /period glyphshow
44.023438 2.906250 m /one glyphshow
53.169250 2.906250 m /zero glyphshow
62.315063 2.906250 m /zero glyphshow
71.460876 2.906250 m /zero glyphshow
80.606689 2.906250 m /zero glyphshow
89.752502 2.906250 m /zero glyphshow
grestore
1.000 0.000 0.000 setrgbcolor
gsave
611.263 477.786 m
631.423 477.786 l
stroke
grestore
0.000 setgray
gsave
647.262500 469.839375 translate
0.000000 rotate
0.000000 2.906250 m /p glyphshow
9.124756 2.906250 m /space glyphshow
13.694153 2.906250 m /equal glyphshow
25.738831 2.906250 m /space glyphshow
30.308228 2.906250 m /zero glyphshow
39.454041 2.906250 m /period glyphshow
44.023438 2.906250 m /two glyphshow
53.169250 2.906250 m /zero glyphshow
62.315063 2.906250 m /zero glyphshow
71.460876 2.906250 m /zero glyphshow
80.606689 2.906250 m /zero glyphshow
89.752502 2.906250 m /zero glyphshow
grestore
0.000 0.750 0.750 setrgbcolor
gsave
611.263 457.039 m
631.423 457.039 l
stroke
grestore
0.000 setgray
gsave
647.262500 449.092500 translate
0.000000 rotate
0.000000 2.906250 m /p glyphshow
9.124756 2.906250 m /space glyphshow
13.694153 2.906250 m /equal glyphshow
25.738831 2.906250 m /space glyphshow
30.308228 2.906250 m /zero glyphshow
39.454041 2.906250 m /period glyphshow
44.023438 2.906250 m /three glyphshow
53.169250 2.906250 m /zero glyphshow
62.315063 2.906250 m /zero glyphshow
71.460876 2.906250 m /zero glyphshow
80.606689 2.906250 m /zero glyphshow
89.752502 2.906250 m /zero glyphshow
grestore
0.750 0.000 0.750 setrgbcolor
gsave
611.263 436.292 m
631.423 436.292 l
stroke
grestore
0.000 setgray
gsave
647.262500 428.345625 translate
0.000000 rotate
0.000000 2.906250 m /p glyphshow
9.124756 2.906250 m /space glyphshow
13.694153 2.906250 m /equal glyphshow
25.738831 2.906250 m /space glyphshow
30.308228 2.906250 m /zero glyphshow
39.454041 2.906250 m /period glyphshow
44.023438 2.906250 m /four glyphshow
53.169250 2.906250 m /zero glyphshow
62.315063 2.906250 m /zero glyphshow
71.460876 2.906250 m /zero glyphshow
80.606689 2.906250 m /zero glyphshow
89.752502 2.906250 m /zero glyphshow
grestore
0.750 0.750 0.000 setrgbcolor
gsave
611.263 415.545 m
631.423 415.545 l
stroke
grestore
0.000 setgray
gsave
647.262500 407.598750 translate
0.000000 rotate
0.000000 2.906250 m /p glyphshow
9.124756 2.906250 m /space glyphshow
13.694153 2.906250 m /equal glyphshow
25.738831 2.906250 m /space glyphshow
30.308228 2.906250 m /zero glyphshow
39.454041 2.906250 m /period glyphshow
44.023438 2.906250 m /five glyphshow
53.169250 2.906250 m /zero glyphshow
62.315063 2.906250 m /zero glyphshow
71.460876 2.906250 m /zero glyphshow
80.606689 2.906250 m /zero glyphshow
89.752502 2.906250 m /zero glyphshow
grestore
gsave
611.263 394.798 m
631.423 394.798 l
stroke
grestore
gsave
647.262500 386.851875 translate
0.000000 rotate
0.000000 2.906250 m /p glyphshow
9.124756 2.906250 m /space glyphshow
13.694153 2.906250 m /equal glyphshow
25.738831 2.906250 m /space glyphshow
30.308228 2.906250 m /zero glyphshow
39.454041 2.906250 m /period glyphshow
44.023438 2.906250 m /six glyphshow
53.169250 2.906250 m /zero glyphshow
62.315063 2.906250 m /zero glyphshow
71.460876 2.906250 m /zero glyphshow
80.606689 2.906250 m /zero glyphshow
89.752502 2.906250 m /zero glyphshow
grestore
0.000 0.000 1.000 setrgbcolor
gsave
611.263 374.051 m
631.423 374.051 l
stroke
grestore
0.000 setgray
gsave
647.262500 366.105000 translate
0.000000 rotate
0.000000 2.906250 m /p glyphshow
9.124756 2.906250 m /space glyphshow
13.694153 2.906250 m /equal glyphshow
25.738831 2.906250 m /space glyphshow
30.308228 2.906250 m /zero glyphshow
39.454041 2.906250 m /period glyphshow
44.023438 2.906250 m /seven glyphshow
53.169250 2.906250 m /zero glyphshow
62.315063 2.906250 m /zero glyphshow
71.460876 2.906250 m /zero glyphshow
80.606689 2.906250 m /zero glyphshow
89.752502 2.906250 m /zero glyphshow
grestore
0.000 0.500 0.000 setrgbcolor
gsave
611.263 353.304 m
631.423 353.304 l
stroke
grestore
0.000 setgray
gsave
647.262500 345.358125 translate
0.000000 rotate
0.000000 2.906250 m /p glyphshow
9.124756 2.906250 m /space glyphshow
13.694153 2.906250 m /equal glyphshow
25.738831 2.906250 m /space glyphshow
30.308228 2.906250 m /zero glyphshow
39.454041 2.906250 m /period glyphshow
44.023438 2.906250 m /eight glyphshow
53.169250 2.906250 m /zero glyphshow
62.315063 2.906250 m /zero glyphshow
71.460876 2.906250 m /zero glyphshow
80.606689 2.906250 m /zero glyphshow
89.752502 2.906250 m /zero glyphshow
grestore
1.000 0.000 0.000 setrgbcolor
gsave
611.263 332.558 m
631.423 332.558 l
stroke
grestore
0.000 setgray
gsave
647.262500 324.611250 translate
0.000000 rotate
0.000000 2.906250 m /p glyphshow
9.124756 2.906250 m /space glyphshow
13.694153 2.906250 m /equal glyphshow
25.738831 2.906250 m /space glyphshow
30.308228 2.906250 m /zero glyphshow
39.454041 2.906250 m /period glyphshow
44.023438 2.906250 m /nine glyphshow
53.169250 2.906250 m /zero glyphshow
62.315063 2.906250 m /zero glyphshow
71.460876 2.906250 m /zero glyphshow
80.606689 2.906250 m /zero glyphshow
89.752502 2.906250 m /zero glyphshow
grestore
0.000 0.750 0.750 setrgbcolor
gsave
611.263 311.811 m
631.423 311.811 l
stroke
grestore
0.000 setgray
gsave
647.262500 303.864375 translate
0.000000 rotate
0.000000 2.906250 m /p glyphshow
9.124756 2.906250 m /space glyphshow
13.694153 2.906250 m /equal glyphshow
25.738831 2.906250 m /space glyphshow
30.308228 2.906250 m /one glyphshow
39.454041 2.906250 m /period glyphshow
44.023438 2.906250 m /zero glyphshow
53.169250 2.906250 m /zero glyphshow
62.315063 2.906250 m /zero glyphshow
71.460876 2.906250 m /zero glyphshow
80.606689 2.906250 m /zero glyphshow
89.752502 2.906250 m /zero glyphshow
grestore

end
showpage
