%!PS-Adobe-3.0 EPSF-3.0
%%Title: 3d7.entropy.example.evolution.eps
%%Creator: matplotlib version 1.1.0, http://matplotlib.sourceforge.net/
%%CreationDate: Wed Dec  5 14:55:43 2012
%%Orientation: portrait
%%BoundingBox: -115 97 727 694
%%EndComments
%%BeginProlog
/mpldict 8 dict def
mpldict begin
/m { moveto } bind def
/l { lineto } bind def
/r { rlineto } bind def
/c { curveto } bind def
/cl { closepath } bind def
/box {
m
1 index 0 r
0 exch r
neg 0 r
cl
} bind def
/clipbox {
box
clip
newpath
} bind def
%!PS-Adobe-3.0 Resource-Font
%%Title: Bitstream Vera Sans
%%Copyright: Copyright (c) 2003 by Bitstream, Inc. All Rights Reserved.
%%Creator: Converted from TrueType to type 3 by PPR
25 dict begin
/_d{bind def}bind def
/_m{moveto}_d
/_l{lineto}_d
/_cl{closepath eofill}_d
/_c{curveto}_d
/_sc{7 -1 roll{setcachedevice}{pop pop pop pop pop pop}ifelse}_d
/_e{exec}_d
/FontName /BitstreamVeraSans-Roman def
/PaintType 0 def
/FontMatrix[.001 0 0 .001 0 0]def
/FontBBox[-183 -236 1287 928]def
/FontType 3 def
/Encoding [ /space /parenleft /parenright /period /zero /one /two /three /four /five /six /seven /eight /nine /colon /equal /E /G /a /d /e /f /g /i /l /m /n /o /p /r /s /t /u /v /y ] def
/FontInfo 10 dict dup begin
/FamilyName (Bitstream Vera Sans) def
/FullName (Bitstream Vera Sans) def
/Notice (Copyright (c) 2003 by Bitstream, Inc. All Rights Reserved. Bitstream Vera is a trademark of Bitstream, Inc.) def
/Weight (Roman) def
/Version (Release 1.10) def
/ItalicAngle 0.0 def
/isFixedPitch false def
/UnderlinePosition -213 def
/UnderlineThickness 143 def
end readonly def
/CharStrings 35 dict dup begin
/space{318 0 0 0 0 0 _sc
}_d
/parenleft{390 0 86 -131 310 759 _sc
310 759 _m
266 683 234 609 213 536 _c
191 463 181 389 181 314 _c
181 238 191 164 213 91 _c
234 17 266 -56 310 -131 _c
232 -131 _l
183 -54 146 20 122 94 _c
98 168 86 241 86 314 _c
86 386 98 459 122 533 _c
146 607 182 682 232 759 _c
310 759 _l
_cl}_d
/parenright{390 0 80 -131 304 759 _sc
80 759 _m
158 759 _l
206 682 243 607 267 533 _c
291 459 304 386 304 314 _c
304 241 291 168 267 94 _c
243 20 206 -54 158 -131 _c
80 -131 _l
123 -56 155 17 177 91 _c
198 164 209 238 209 314 _c
209 389 198 463 177 536 _c
155 609 123 683 80 759 _c
_cl}_d
/period{318 0 107 0 210 124 _sc
107 124 _m
210 124 _l
210 0 _l
107 0 _l
107 124 _l
_cl}_d
/zero{636 0 66 -13 570 742 _sc
318 664 _m
267 664 229 639 203 589 _c
177 539 165 464 165 364 _c
165 264 177 189 203 139 _c
229 89 267 64 318 64 _c
369 64 407 89 433 139 _c
458 189 471 264 471 364 _c
471 464 458 539 433 589 _c
407 639 369 664 318 664 _c
318 742 _m
399 742 461 709 505 645 _c
548 580 570 486 570 364 _c
570 241 548 147 505 83 _c
461 19 399 -13 318 -13 _c
236 -13 173 19 130 83 _c
87 147 66 241 66 364 _c
66 486 87 580 130 645 _c
173 709 236 742 318 742 _c
_cl}_d
/one{636 0 110 0 544 729 _sc
124 83 _m
285 83 _l
285 639 _l
110 604 _l
110 694 _l
284 729 _l
383 729 _l
383 83 _l
544 83 _l
544 0 _l
124 0 _l
124 83 _l
_cl}_d
/two{{636 0 73 0 536 742 _sc
192 83 _m
536 83 _l
536 0 _l
73 0 _l
73 83 _l
110 121 161 173 226 239 _c
290 304 331 346 348 365 _c
380 400 402 430 414 455 _c
426 479 433 504 433 528 _c
433 566 419 598 392 622 _c
365 646 330 659 286 659 _c
255 659 222 653 188 643 _c
154 632 117 616 78 594 _c
78 694 _l
118 710 155 722 189 730 _c
223 738 255 742 284 742 _c
359 742 419 723 464 685 _c
509 647 532 597 532 534 _c
532 504 526 475 515 449 _c
504 422 484 390 454 354 _c
446 344 420 317 376 272 _c
332 227 271 164 192 83 _c
_cl}_e}_d
/three{{636 0 76 -13 556 742 _sc
406 393 _m
453 383 490 362 516 330 _c
542 298 556 258 556 212 _c
556 140 531 84 482 45 _c
432 6 362 -13 271 -13 _c
240 -13 208 -10 176 -4 _c
144 1 110 10 76 22 _c
76 117 _l
103 101 133 89 166 81 _c
198 73 232 69 268 69 _c
330 69 377 81 409 105 _c
441 129 458 165 458 212 _c
458 254 443 288 413 312 _c
383 336 341 349 287 349 _c
202 349 _l
202 430 _l
291 430 _l
339 430 376 439 402 459 _c
428 478 441 506 441 543 _c
441 580 427 609 401 629 _c
374 649 336 659 287 659 _c
260 659 231 656 200 650 _c
169 644 135 635 98 623 _c
98 711 _l
135 721 170 729 203 734 _c
235 739 266 742 296 742 _c
}_e{370 742 429 725 473 691 _c
517 657 539 611 539 553 _c
539 513 527 479 504 451 _c
481 423 448 403 406 393 _c
_cl}_e}_d
/four{636 0 49 0 580 729 _sc
378 643 _m
129 254 _l
378 254 _l
378 643 _l
352 729 _m
476 729 _l
476 254 _l
580 254 _l
580 172 _l
476 172 _l
476 0 _l
378 0 _l
378 172 _l
49 172 _l
49 267 _l
352 729 _l
_cl}_d
/five{{636 0 77 -13 549 729 _sc
108 729 _m
495 729 _l
495 646 _l
198 646 _l
198 467 _l
212 472 227 476 241 478 _c
255 480 270 482 284 482 _c
365 482 429 459 477 415 _c
525 370 549 310 549 234 _c
549 155 524 94 475 51 _c
426 8 357 -13 269 -13 _c
238 -13 207 -10 175 -6 _c
143 -1 111 6 77 17 _c
77 116 _l
106 100 136 88 168 80 _c
199 72 232 69 267 69 _c
323 69 368 83 401 113 _c
433 143 450 183 450 234 _c
450 284 433 324 401 354 _c
368 384 323 399 267 399 _c
241 399 214 396 188 390 _c
162 384 135 375 108 363 _c
108 729 _l
_cl}_e}_d
/six{{636 0 70 -13 573 742 _sc
330 404 _m
286 404 251 388 225 358 _c
199 328 186 286 186 234 _c
186 181 199 139 225 109 _c
251 79 286 64 330 64 _c
374 64 409 79 435 109 _c
461 139 474 181 474 234 _c
474 286 461 328 435 358 _c
409 388 374 404 330 404 _c
526 713 _m
526 623 _l
501 635 476 644 451 650 _c
425 656 400 659 376 659 _c
310 659 260 637 226 593 _c
192 549 172 482 168 394 _c
187 422 211 444 240 459 _c
269 474 301 482 336 482 _c
409 482 467 459 509 415 _c
551 371 573 310 573 234 _c
573 159 550 99 506 54 _c
462 9 403 -13 330 -13 _c
246 -13 181 19 137 83 _c
92 147 70 241 70 364 _c
70 479 97 571 152 639 _c
206 707 280 742 372 742 _c
}_e{396 742 421 739 447 735 _c
472 730 498 723 526 713 _c
_cl}_e}_d
/seven{636 0 82 0 551 729 _sc
82 729 _m
551 729 _l
551 687 _l
286 0 _l
183 0 _l
432 646 _l
82 646 _l
82 729 _l
_cl}_d
/eight{{636 0 68 -13 568 742 _sc
318 346 _m
271 346 234 333 207 308 _c
180 283 167 249 167 205 _c
167 161 180 126 207 101 _c
234 76 271 64 318 64 _c
364 64 401 76 428 102 _c
455 127 469 161 469 205 _c
469 249 455 283 429 308 _c
402 333 365 346 318 346 _c
219 388 _m
177 398 144 418 120 447 _c
96 476 85 511 85 553 _c
85 611 105 657 147 691 _c
188 725 245 742 318 742 _c
390 742 447 725 489 691 _c
530 657 551 611 551 553 _c
551 511 539 476 515 447 _c
491 418 459 398 417 388 _c
464 377 501 355 528 323 _c
554 291 568 251 568 205 _c
568 134 546 80 503 43 _c
459 5 398 -13 318 -13 _c
237 -13 175 5 132 43 _c
89 80 68 134 68 205 _c
68 251 81 291 108 323 _c
134 355 171 377 219 388 _c
}_e{183 544 _m
183 506 194 476 218 455 _c
242 434 275 424 318 424 _c
360 424 393 434 417 455 _c
441 476 453 506 453 544 _c
453 582 441 611 417 632 _c
393 653 360 664 318 664 _c
275 664 242 653 218 632 _c
194 611 183 582 183 544 _c
_cl}_e}_d
/nine{{636 0 63 -13 566 742 _sc
110 15 _m
110 105 _l
134 93 159 84 185 78 _c
210 72 235 69 260 69 _c
324 69 374 90 408 134 _c
442 178 462 244 468 334 _c
448 306 424 284 396 269 _c
367 254 335 247 300 247 _c
226 247 168 269 126 313 _c
84 357 63 417 63 494 _c
63 568 85 628 129 674 _c
173 719 232 742 306 742 _c
390 742 455 709 499 645 _c
543 580 566 486 566 364 _c
566 248 538 157 484 89 _c
429 21 356 -13 264 -13 _c
239 -13 214 -10 189 -6 _c
163 -2 137 5 110 15 _c
306 324 _m
350 324 385 339 411 369 _c
437 399 450 441 450 494 _c
450 546 437 588 411 618 _c
385 648 350 664 306 664 _c
262 664 227 648 201 618 _c
175 588 162 546 162 494 _c
}_e{162 441 175 399 201 369 _c
227 339 262 324 306 324 _c
_cl}_e}_d
/colon{337 0 117 0 220 517 _sc
117 124 _m
220 124 _l
220 0 _l
117 0 _l
117 124 _l
117 517 _m
220 517 _l
220 393 _l
117 393 _l
117 517 _l
_cl}_d
/equal{838 0 106 172 732 454 _sc
106 454 _m
732 454 _l
732 372 _l
106 372 _l
106 454 _l
106 255 _m
732 255 _l
732 172 _l
106 172 _l
106 255 _l
_cl}_d
/E{632 0 98 0 568 729 _sc
98 729 _m
559 729 _l
559 646 _l
197 646 _l
197 430 _l
544 430 _l
544 347 _l
197 347 _l
197 83 _l
568 83 _l
568 0 _l
98 0 _l
98 729 _l
_cl}_d
/G{{775 0 56 -13 693 742 _sc
595 104 _m
595 300 _l
434 300 _l
434 381 _l
693 381 _l
693 68 _l
655 40 613 20 567 7 _c
521 -6 472 -13 420 -13 _c
306 -13 216 20 152 86 _c
88 152 56 245 56 364 _c
56 482 88 575 152 642 _c
216 708 306 742 420 742 _c
467 742 512 736 555 724 _c
598 712 638 695 674 673 _c
674 568 _l
637 598 598 621 557 637 _c
516 653 473 661 428 661 _c
338 661 271 636 227 586 _c
182 536 160 462 160 364 _c
160 265 182 191 227 141 _c
271 91 338 67 428 67 _c
462 67 493 70 521 76 _c
549 82 573 91 595 104 _c
_cl}_e}_d
/a{{613 0 60 -13 522 560 _sc
343 275 _m
270 275 220 266 192 250 _c
164 233 150 205 150 165 _c
150 133 160 107 181 89 _c
202 70 231 61 267 61 _c
317 61 357 78 387 114 _c
417 149 432 196 432 255 _c
432 275 _l
343 275 _l
522 312 _m
522 0 _l
432 0 _l
432 83 _l
411 49 385 25 355 10 _c
325 -5 287 -13 243 -13 _c
187 -13 142 2 109 33 _c
76 64 60 106 60 159 _c
60 220 80 266 122 298 _c
163 329 224 345 306 345 _c
432 345 _l
432 354 _l
432 395 418 427 391 450 _c
364 472 326 484 277 484 _c
245 484 215 480 185 472 _c
155 464 127 453 100 439 _c
100 522 _l
}_e{132 534 164 544 195 550 _c
226 556 256 560 286 560 _c
365 560 424 539 463 498 _c
502 457 522 395 522 312 _c
_cl}_e}_d
/d{{635 0 55 -13 544 760 _sc
454 464 _m
454 760 _l
544 760 _l
544 0 _l
454 0 _l
454 82 _l
435 49 411 25 382 10 _c
353 -5 319 -13 279 -13 _c
213 -13 159 13 117 65 _c
75 117 55 187 55 273 _c
55 359 75 428 117 481 _c
159 533 213 560 279 560 _c
319 560 353 552 382 536 _c
411 520 435 496 454 464 _c
148 273 _m
148 207 161 155 188 117 _c
215 79 253 61 301 61 _c
348 61 385 79 413 117 _c
440 155 454 207 454 273 _c
454 339 440 390 413 428 _c
385 466 348 485 301 485 _c
253 485 215 466 188 428 _c
161 390 148 339 148 273 _c
_cl}_e}_d
/e{{615 0 55 -13 562 560 _sc
562 296 _m
562 252 _l
149 252 _l
153 190 171 142 205 110 _c
238 78 284 62 344 62 _c
378 62 412 66 444 74 _c
476 82 509 95 541 113 _c
541 28 _l
509 14 476 3 442 -3 _c
408 -9 373 -13 339 -13 _c
251 -13 182 12 131 62 _c
80 112 55 181 55 268 _c
55 357 79 428 127 481 _c
175 533 241 560 323 560 _c
397 560 455 536 498 489 _c
540 441 562 377 562 296 _c
472 322 _m
471 371 457 410 431 440 _c
404 469 368 484 324 484 _c
274 484 234 469 204 441 _c
174 413 156 373 152 322 _c
472 322 _l
_cl}_e}_d
/f{352 0 23 0 371 760 _sc
371 760 _m
371 685 _l
285 685 _l
253 685 230 678 218 665 _c
205 652 199 629 199 595 _c
199 547 _l
347 547 _l
347 477 _l
199 477 _l
199 0 _l
109 0 _l
109 477 _l
23 477 _l
23 547 _l
109 547 _l
109 585 _l
109 645 123 690 151 718 _c
179 746 224 760 286 760 _c
371 760 _l
_cl}_d
/g{{635 0 55 -207 544 560 _sc
454 280 _m
454 344 440 395 414 431 _c
387 467 349 485 301 485 _c
253 485 215 467 188 431 _c
161 395 148 344 148 280 _c
148 215 161 165 188 129 _c
215 93 253 75 301 75 _c
349 75 387 93 414 129 _c
440 165 454 215 454 280 _c
544 68 _m
544 -24 523 -93 482 -139 _c
440 -184 377 -207 292 -207 _c
260 -207 231 -204 203 -200 _c
175 -195 147 -188 121 -178 _c
121 -91 _l
147 -105 173 -115 199 -122 _c
225 -129 251 -133 278 -133 _c
336 -133 380 -117 410 -87 _c
439 -56 454 -10 454 52 _c
454 96 _l
435 64 411 40 382 24 _c
353 8 319 0 279 0 _c
211 0 157 25 116 76 _c
75 127 55 195 55 280 _c
55 364 75 432 116 483 _c
157 534 211 560 279 560 _c
}_e{319 560 353 552 382 536 _c
411 520 435 496 454 464 _c
454 547 _l
544 547 _l
544 68 _l
_cl}_e}_d
/i{278 0 94 0 184 760 _sc
94 547 _m
184 547 _l
184 0 _l
94 0 _l
94 547 _l
94 760 _m
184 760 _l
184 646 _l
94 646 _l
94 760 _l
_cl}_d
/l{278 0 94 0 184 760 _sc
94 760 _m
184 760 _l
184 0 _l
94 0 _l
94 760 _l
_cl}_d
/m{{974 0 91 0 889 560 _sc
520 442 _m
542 482 569 511 600 531 _c
631 550 668 560 711 560 _c
767 560 811 540 842 500 _c
873 460 889 403 889 330 _c
889 0 _l
799 0 _l
799 327 _l
799 379 789 418 771 444 _c
752 469 724 482 686 482 _c
639 482 602 466 575 435 _c
548 404 535 362 535 309 _c
535 0 _l
445 0 _l
445 327 _l
445 379 435 418 417 444 _c
398 469 369 482 331 482 _c
285 482 248 466 221 435 _c
194 404 181 362 181 309 _c
181 0 _l
91 0 _l
91 547 _l
181 547 _l
181 462 _l
201 495 226 520 255 536 _c
283 552 317 560 357 560 _c
397 560 430 550 458 530 _c
486 510 506 480 520 442 _c
}_e{_cl}_e}_d
/n{634 0 91 0 549 560 _sc
549 330 _m
549 0 _l
459 0 _l
459 327 _l
459 379 448 417 428 443 _c
408 469 378 482 338 482 _c
289 482 251 466 223 435 _c
195 404 181 362 181 309 _c
181 0 _l
91 0 _l
91 547 _l
181 547 _l
181 462 _l
202 494 227 519 257 535 _c
286 551 320 560 358 560 _c
420 560 468 540 500 501 _c
532 462 549 405 549 330 _c
_cl}_d
/o{612 0 55 -13 557 560 _sc
306 484 _m
258 484 220 465 192 427 _c
164 389 150 338 150 273 _c
150 207 163 156 191 118 _c
219 80 257 62 306 62 _c
354 62 392 80 420 118 _c
448 156 462 207 462 273 _c
462 337 448 389 420 427 _c
392 465 354 484 306 484 _c
306 560 _m
384 560 445 534 490 484 _c
534 433 557 363 557 273 _c
557 183 534 113 490 63 _c
445 12 384 -13 306 -13 _c
227 -13 165 12 121 63 _c
77 113 55 183 55 273 _c
55 363 77 433 121 484 _c
165 534 227 560 306 560 _c
_cl}_d
/p{{635 0 91 -207 580 560 _sc
181 82 _m
181 -207 _l
91 -207 _l
91 547 _l
181 547 _l
181 464 _l
199 496 223 520 252 536 _c
281 552 316 560 356 560 _c
422 560 476 533 518 481 _c
559 428 580 359 580 273 _c
580 187 559 117 518 65 _c
476 13 422 -13 356 -13 _c
316 -13 281 -5 252 10 _c
223 25 199 49 181 82 _c
487 273 _m
487 339 473 390 446 428 _c
418 466 381 485 334 485 _c
286 485 249 466 222 428 _c
194 390 181 339 181 273 _c
181 207 194 155 222 117 _c
249 79 286 61 334 61 _c
381 61 418 79 446 117 _c
473 155 487 207 487 273 _c
_cl}_e}_d
/r{411 0 91 0 411 560 _sc
411 463 _m
401 469 390 473 378 476 _c
366 478 353 480 339 480 _c
288 480 249 463 222 430 _c
194 397 181 350 181 288 _c
181 0 _l
91 0 _l
91 547 _l
181 547 _l
181 462 _l
199 495 224 520 254 536 _c
284 552 321 560 365 560 _c
371 560 378 559 386 559 _c
393 558 401 557 411 555 _c
411 463 _l
_cl}_d
/s{{521 0 54 -13 472 560 _sc
443 531 _m
443 446 _l
417 458 391 468 364 475 _c
336 481 308 485 279 485 _c
234 485 200 478 178 464 _c
156 450 145 430 145 403 _c
145 382 153 366 169 354 _c
185 342 217 330 265 320 _c
296 313 _l
360 299 405 279 432 255 _c
458 230 472 195 472 151 _c
472 100 452 60 412 31 _c
372 1 316 -13 246 -13 _c
216 -13 186 -10 154 -5 _c
122 0 89 8 54 20 _c
54 113 _l
87 95 120 82 152 74 _c
184 65 216 61 248 61 _c
290 61 323 68 346 82 _c
368 96 380 117 380 144 _c
380 168 371 187 355 200 _c
339 213 303 226 247 238 _c
216 245 _l
160 257 119 275 95 299 _c
70 323 58 356 58 399 _c
58 450 76 490 112 518 _c
148 546 200 560 268 560 _c
}_e{301 560 332 557 362 552 _c
391 547 418 540 443 531 _c
_cl}_e}_d
/t{392 0 27 0 368 702 _sc
183 702 _m
183 547 _l
368 547 _l
368 477 _l
183 477 _l
183 180 _l
183 135 189 106 201 94 _c
213 81 238 75 276 75 _c
368 75 _l
368 0 _l
276 0 _l
206 0 158 13 132 39 _c
106 65 93 112 93 180 _c
93 477 _l
27 477 _l
27 547 _l
93 547 _l
93 702 _l
183 702 _l
_cl}_d
/u{634 0 85 -13 543 547 _sc
85 216 _m
85 547 _l
175 547 _l
175 219 _l
175 167 185 129 205 103 _c
225 77 255 64 296 64 _c
344 64 383 79 411 110 _c
439 141 453 183 453 237 _c
453 547 _l
543 547 _l
543 0 _l
453 0 _l
453 84 _l
431 50 405 26 377 10 _c
348 -5 315 -13 277 -13 _c
214 -13 166 6 134 45 _c
101 83 85 140 85 216 _c
_cl}_d
/v{592 0 30 0 562 547 _sc
30 547 _m
125 547 _l
296 88 _l
467 547 _l
562 547 _l
357 0 _l
235 0 _l
30 547 _l
_cl}_d
/y{592 0 30 -207 562 547 _sc
322 -50 _m
296 -114 271 -157 247 -177 _c
223 -197 191 -207 151 -207 _c
79 -207 _l
79 -132 _l
132 -132 _l
156 -132 175 -126 189 -114 _c
203 -102 218 -75 235 -31 _c
251 9 _l
30 547 _l
125 547 _l
296 119 _l
467 547 _l
562 547 _l
322 -50 _l
_cl}_d
end readonly def

/BuildGlyph
 {exch begin
 CharStrings exch
 2 copy known not{pop /.notdef}if
 true 3 1 roll get exec
 end}_d

/BuildChar {
 1 index /Encoding get exch get
 1 index /BuildGlyph get exec
}_d

FontName currentdict end definefont pop
end
%%EndProlog
mpldict begin
-115.2 97.2 translate
842.4 597.6 0 0 clipbox
gsave
0 0 m
842.4 0 l
842.4 597.6 l
0 597.6 l
cl
1.000 setgray
fill
grestore
gsave
105.3 59.76 m
758.16 59.76 l
758.16 537.84 l
105.3 537.84 l
cl
1.000 setgray
fill
grestore
1.000 setlinewidth
1 setlinejoin
2 setlinecap
[] 0 setdash
0.000 0.000 1.000 setrgbcolor
gsave
652.9 478.1 105.3 59.76 clipbox
105.3 329.235 m
108.564 265.203 l
111.829 234.905 l
115.093 234.905 l
118.357 227.205 l
121.621 227.205 l
124.886 221.707 l
131.414 221.707 l
134.679 220.133 l
137.943 216.593 l
141.207 210.105 l
147.736 210.105 l
151 182.457 l
154.264 171.94 l
157.529 165.569 l
160.793 165.446 l
180.379 165.446 l
183.643 165.021 l
186.907 163.599 l
203.229 163.599 l
206.493 161.536 l
219.55 161.536 l
222.815 160.83 l
229.343 160.83 l
232.608 160.472 l
235.872 159.963 l
255.458 159.963 l
258.722 159.258 l
265.251 159.197 l
275.044 159.197 l
278.308 159.049 l
281.572 159.049 l
284.837 158.761 l
346.858 158.677 l
353.387 158.605 l
363.18 158.565 l
366.444 158.439 l
754.896 158.371 l
754.896 158.371 l
stroke
grestore
0.000 0.500 0.000 setrgbcolor
gsave
652.9 478.1 105.3 59.76 clipbox
105.3 471.674 m
108.564 407.012 l
111.829 294.247 l
115.093 255.476 l
118.357 255.476 l
121.621 252.558 l
124.886 246.712 l
128.15 244.095 l
131.414 236.746 l
134.679 236.746 l
137.943 231.501 l
154.264 231.501 l
157.529 227.863 l
160.793 227.289 l
164.057 222.188 l
173.85 222.188 l
177.115 220.974 l
183.643 220.974 l
186.907 220.416 l
193.436 218.026 l
199.965 218.026 l
203.229 217.884 l
206.493 214.11 l
213.022 214.11 l
216.286 212.993 l
219.55 212.605 l
226.079 212.605 l
229.343 211.982 l
232.608 211.554 l
235.872 210.498 l
242.401 210.498 l
245.665 209.788 l
255.458 209.788 l
258.722 207.628 l
261.986 206.872 l
268.515 206.872 l
271.779 206.149 l
278.308 206.084 l
284.837 205.293 l
297.894 204.61 l
301.158 203.753 l
314.215 203.753 l
317.479 203.432 l
320.744 203.432 l
327.272 202.905 l
333.801 202.905 l
337.065 202.577 l
340.33 202.096 l
343.594 201.925 l
346.858 201.61 l
353.387 201.524 l
356.651 201.057 l
359.915 200.775 l
363.18 200.331 l
366.444 200.331 l
369.708 199.929 l
372.973 199.929 l
376.237 199.736 l
379.501 199.317 l
386.03 199.248 l
389.294 199.248 l
392.558 198.982 l
395.823 198.238 l
399.087 198.238 l
402.351 198.11 l
415.409 197.172 l
418.673 197.172 l
421.937 196.743 l
425.201 196.086 l
434.994 196.086 l
438.259 195.736 l
448.051 195.709 l
451.316 195.604 l
454.58 195.196 l
457.844 194.984 l
461.109 194.984 l
467.637 194.599 l
470.902 194.599 l
474.166 194.385 l
487.223 194.285 l
490.487 194.066 l
500.28 193.976 l
513.337 193.735 l
529.659 193.22 l
549.245 193.13 l
559.038 192.971 l
562.302 192.971 l
568.831 192.832 l
601.474 192.603 l
614.531 192.513 l
621.059 192.389 l
643.909 192.339 l
650.438 192.219 l
699.403 192.109 l
754.896 192.048 l
754.896 192.048 l
stroke
grestore
1.000 0.000 0.000 setrgbcolor
gsave
652.9 478.1 105.3 59.76 clipbox
105.3 453.086 m
108.564 453.086 l
111.829 392.933 l
115.093 359.607 l
118.357 302.084 l
121.621 298.051 l
124.886 282.734 l
128.15 282.382 l
131.414 282.382 l
134.679 279.009 l
137.943 270.763 l
141.207 260.596 l
144.472 260.596 l
147.736 257.51 l
151 253.387 l
157.529 253.387 l
160.793 251.625 l
164.057 250.615 l
167.322 242.41 l
177.115 242.333 l
180.379 242.139 l
190.172 242.139 l
193.436 239.078 l
196.7 237.798 l
209.758 237.798 l
213.022 232.82 l
226.079 232.82 l
229.343 232.706 l
232.608 230.536 l
235.872 228.547 l
239.136 228.547 l
242.401 227.829 l
245.665 226.759 l
248.929 226.311 l
252.194 226.311 l
255.458 225.574 l
258.722 225.574 l
261.986 222.979 l
265.251 222.578 l
268.515 222.423 l
271.779 219.241 l
278.308 218.531 l
291.365 218.531 l
294.629 216.416 l
301.158 216.416 l
307.687 215.441 l
310.951 215.441 l
314.215 213.735 l
324.008 213.735 l
330.537 212.822 l
333.801 212.702 l
340.33 212.074 l
343.594 211.763 l
346.858 211.279 l
350.123 211.21 l
353.387 210.848 l
356.651 210.361 l
363.18 210.282 l
366.444 209.927 l
369.708 209.818 l
372.973 209.333 l
376.237 209.333 l
379.501 208.634 l
382.765 208.216 l
389.294 208.119 l
392.558 207.537 l
405.616 207.537 l
408.88 207.255 l
412.144 207.252 l
418.673 206.723 l
425.201 206.677 l
431.73 205.977 l
438.259 205.798 l
451.316 205.798 l
454.58 205.548 l
457.844 205.548 l
464.373 205.129 l
467.637 205.006 l
487.223 204.933 l
503.545 204.642 l
506.809 204.642 l
513.337 204.35 l
519.866 204.282 l
529.659 204.282 l
532.923 203.884 l
575.359 203.793 l
604.738 203.685 l
754.896 203.536 l
754.896 203.536 l
stroke
grestore
0.000 0.750 0.750 setrgbcolor
gsave
652.9 478.1 105.3 59.76 clipbox
105.3 445.447 m
108.564 418.893 l
111.829 394.466 l
115.093 391.49 l
118.357 387.758 l
121.621 365.322 l
124.886 335.571 l
128.15 324.613 l
131.414 298.825 l
134.679 293.357 l
137.943 288.943 l
141.207 282.159 l
144.472 265.253 l
157.529 265.253 l
160.793 264.887 l
164.057 262.073 l
167.322 252.612 l
183.643 252.612 l
186.907 251.074 l
193.436 251.074 l
196.7 250.486 l
199.965 249.706 l
203.229 249.706 l
206.493 244.809 l
213.022 244.809 l
216.286 244.252 l
219.55 238.711 l
226.079 238.711 l
229.343 235.559 l
232.608 235.559 l
235.872 231.417 l
239.136 229.621 l
258.722 229.621 l
261.986 228.379 l
265.251 228.379 l
268.515 227.862 l
281.572 227.862 l
284.837 226.78 l
288.101 226.78 l
291.365 223.949 l
301.158 223.949 l
304.422 222.437 l
307.687 221.526 l
310.951 220.343 l
317.479 220.232 l
320.744 219.235 l
327.272 219.235 l
330.537 219.113 l
333.801 218.707 l
337.065 218.707 l
343.594 217.317 l
350.123 217.317 l
353.387 216.964 l
356.651 216.867 l
363.18 215.24 l
366.444 214.925 l
369.708 214.925 l
372.973 214.001 l
376.237 213.734 l
386.03 213.734 l
389.294 213.373 l
395.823 213.373 l
402.351 213.048 l
405.616 212.654 l
415.409 212.583 l
421.937 212.134 l
425.201 212.084 l
428.466 211.631 l
431.73 211.597 l
434.994 211.345 l
444.787 211.345 l
448.051 211.121 l
464.373 211.103 l
467.637 210.95 l
470.902 210.95 l
474.166 210.69 l
487.223 210.65 l
490.487 210.535 l
500.28 210.479 l
503.545 210.218 l
513.337 210.218 l
519.866 210.055 l
568.831 209.831 l
575.359 209.748 l
594.945 209.667 l
608.002 209.638 l
754.896 209.53 l
754.896 209.53 l
stroke
grestore
0.750 0.000 0.750 setrgbcolor
gsave
652.9 478.1 105.3 59.76 clipbox
105.3 506.792 m
108.564 400.262 l
111.829 398.088 l
115.093 367.387 l
118.357 367.387 l
121.621 366.723 l
124.886 347.783 l
128.15 324.42 l
131.414 310.713 l
137.943 310.713 l
141.207 302.182 l
144.472 295.534 l
147.736 280.702 l
151 277.637 l
154.264 277.637 l
157.529 276.539 l
160.793 274.602 l
164.057 271.256 l
167.322 271.256 l
170.586 264.119 l
173.85 264.119 l
177.115 258.851 l
190.172 258.851 l
193.436 255.092 l
196.7 255.092 l
199.965 252.663 l
203.229 248.288 l
206.493 248.288 l
209.758 247.648 l
213.022 246.235 l
235.872 246.235 l
239.136 243.805 l
242.401 239.366 l
245.665 239.366 l
248.929 237.812 l
252.194 234.991 l
255.458 233.601 l
258.722 232.755 l
261.986 232.435 l
265.251 231.538 l
268.515 228.594 l
281.572 228.594 l
284.837 227.98 l
288.101 226.773 l
297.894 226.725 l
301.158 224.307 l
317.479 224.229 l
320.744 222.506 l
327.272 222.506 l
330.537 221.492 l
333.801 221.143 l
337.065 220.497 l
340.33 220.497 l
343.594 220.039 l
356.651 219.604 l
359.915 218.102 l
363.18 217.932 l
366.444 217.487 l
372.973 217.487 l
376.237 217.123 l
379.501 217.123 l
382.765 216.601 l
386.03 216.601 l
392.558 215.987 l
402.351 215.967 l
405.616 215.464 l
412.144 215.369 l
415.409 214.985 l
418.673 214.985 l
421.937 214.307 l
428.466 214.307 l
431.73 213.807 l
441.523 213.536 l
444.787 213.26 l
454.58 213.26 l
474.166 212.556 l
487.223 212.357 l
490.487 212.231 l
513.337 212.188 l
519.866 212 l
529.659 211.952 l
532.923 211.791 l
549.245 211.735 l
555.773 211.652 l
581.888 211.559 l
624.324 211.323 l
754.896 211.135 l
754.896 211.135 l
stroke
grestore
0.750 0.750 0.000 setrgbcolor
gsave
652.9 478.1 105.3 59.76 clipbox
105.3 459.164 m
108.564 453.341 l
111.829 391.125 l
115.093 378.167 l
118.357 366.034 l
121.621 366.034 l
124.886 332.694 l
128.15 325.944 l
131.414 306.418 l
134.679 303.929 l
141.207 303.929 l
144.472 296.582 l
147.736 287.352 l
151 280.139 l
154.264 280.139 l
157.529 270.233 l
164.057 270.233 l
167.322 263.698 l
170.586 262.643 l
177.115 262.643 l
180.379 253.577 l
213.022 253.514 l
216.286 253.095 l
219.55 250.45 l
222.815 250.45 l
226.079 245.691 l
232.608 245.691 l
235.872 242.808 l
239.136 238.845 l
261.986 238.758 l
265.251 238.027 l
268.515 232.363 l
278.308 232.363 l
281.572 231.528 l
284.837 231.512 l
288.101 230.226 l
291.365 227.98 l
294.629 226.183 l
297.894 225.154 l
301.158 225.154 l
304.422 224.599 l
307.687 224.335 l
310.951 224.335 l
314.215 222.793 l
317.479 222.054 l
320.744 221.5 l
324.008 221.418 l
327.272 218.705 l
333.801 218.705 l
337.065 217.067 l
340.33 216.777 l
343.594 216.664 l
346.858 216.229 l
353.387 216.229 l
356.651 215.216 l
359.915 214.985 l
363.18 214.489 l
372.973 214.405 l
386.03 213.947 l
389.294 213.041 l
405.616 213.041 l
408.88 212.641 l
421.937 212.557 l
425.201 212.143 l
428.466 212.129 l
444.787 211.479 l
461.109 211.429 l
464.373 211.299 l
467.637 210.995 l
470.902 210.995 l
474.166 210.551 l
480.695 210.551 l
483.959 210.4 l
506.809 210.381 l
523.13 209.972 l
539.452 209.902 l
545.981 209.805 l
585.152 209.517 l
614.531 209.412 l
647.174 209.293 l
660.231 209.228 l
754.896 209.14 l
754.896 209.14 l
stroke
grestore
0.000 setgray
gsave
652.9 478.1 105.3 59.76 clipbox
105.3 400.725 m
108.564 400.725 l
111.829 389.488 l
115.093 370.549 l
118.357 337.098 l
121.621 318.796 l
131.414 318.796 l
134.679 288.566 l
144.472 288.566 l
147.736 276.057 l
151 276.057 l
154.264 265.91 l
157.529 265.91 l
160.793 265.786 l
167.322 265.786 l
170.586 252.558 l
173.85 251.545 l
177.115 248.963 l
183.643 248.963 l
186.907 247.3 l
190.172 244.465 l
193.436 244.068 l
196.7 243.86 l
206.493 243.86 l
209.758 242.923 l
216.286 242.923 l
219.55 239.704 l
232.608 239.704 l
235.872 239.033 l
239.136 238.095 l
242.401 238.095 l
245.665 236.031 l
248.929 232.254 l
258.722 232.254 l
261.986 232.026 l
265.251 231.63 l
268.515 229.024 l
275.044 229.024 l
278.308 228.696 l
281.572 228.696 l
284.837 228.284 l
291.365 228.284 l
297.894 226.244 l
304.422 226.244 l
307.687 225.354 l
310.951 225.354 l
314.215 225.189 l
317.479 225.189 l
320.744 224.061 l
324.008 221.63 l
327.272 221.63 l
330.537 220.236 l
333.801 216.057 l
337.065 216.057 l
340.33 213.261 l
346.858 213.261 l
350.123 212.596 l
353.387 212.596 l
356.651 211.487 l
359.915 210.758 l
363.18 210.69 l
366.444 210.335 l
369.708 209.836 l
376.237 209.836 l
379.501 209.201 l
382.765 209.089 l
386.03 208.824 l
389.294 208.818 l
392.558 207.467 l
395.823 207.467 l
399.087 206.611 l
402.351 206.611 l
412.144 206.284 l
418.673 206.284 l
421.937 206.044 l
425.201 205.632 l
434.994 205.632 l
441.523 205.164 l
448.051 205.164 l
451.316 205.037 l
454.58 204.792 l
464.373 204.695 l
470.902 204.601 l
493.752 204.491 l
513.337 204.144 l
552.509 204.059 l
559.038 203.961 l
562.302 203.824 l
588.416 203.748 l
591.681 203.628 l
617.795 203.558 l
627.588 203.5 l
748.367 203.389 l
754.896 203.386 l
754.896 203.386 l
stroke
grestore
0.000 0.000 1.000 setrgbcolor
gsave
652.9 478.1 105.3 59.76 clipbox
105.3 479.912 m
108.564 402.706 l
111.829 370.785 l
115.093 370.785 l
118.357 360.212 l
121.621 309.373 l
124.886 300.578 l
128.15 300.578 l
131.414 281.906 l
134.679 281.906 l
137.943 270.875 l
144.472 270.875 l
147.736 246.621 l
167.322 246.621 l
170.586 232.466 l
177.115 232.466 l
180.379 228.278 l
183.643 227.55 l
186.907 222.581 l
203.229 222.503 l
206.493 220.051 l
209.758 217.806 l
213.022 217.605 l
216.286 216.287 l
229.343 216.287 l
232.608 216.16 l
235.872 216.16 l
239.136 215.161 l
245.665 215.161 l
248.929 214.984 l
255.458 214.984 l
258.722 213.385 l
268.515 213.385 l
271.779 213.011 l
281.572 213.011 l
284.837 212.256 l
297.894 211.707 l
310.951 211.626 l
314.215 211.433 l
317.479 211.433 l
320.744 211.299 l
330.537 211.299 l
333.801 211.17 l
340.33 211.085 l
350.123 211.039 l
356.651 211.039 l
359.915 209.507 l
363.18 209.099 l
366.444 202.963 l
369.708 202.899 l
372.973 202.016 l
376.237 200.581 l
379.501 200.571 l
382.765 198.517 l
389.294 198.418 l
392.558 198.247 l
395.823 198.247 l
399.087 197.689 l
402.351 197.689 l
405.616 197.458 l
408.88 197.458 l
412.144 196.839 l
415.409 196.839 l
418.673 196.569 l
421.937 196.097 l
428.466 196.097 l
434.994 195.488 l
444.787 195.423 l
451.316 195.355 l
454.58 195.056 l
457.844 195.056 l
461.109 194.869 l
464.373 194.86 l
470.902 194.603 l
477.43 194.603 l
480.695 194.365 l
490.487 194.286 l
497.016 194.153 l
500.28 194.133 l
503.545 193.907 l
545.981 193.707 l
552.509 193.597 l
559.038 193.409 l
585.152 193.32 l
621.059 193.109 l
676.553 193.009 l
692.874 192.952 l
754.896 192.865 l
754.896 192.865 l
stroke
grestore
0.000 0.500 0.000 setrgbcolor
gsave
652.9 478.1 105.3 59.76 clipbox
105.3 423.179 m
108.564 393.932 l
111.829 377.733 l
115.093 289.97 l
118.357 254.976 l
121.621 245.484 l
124.886 245.484 l
128.15 241.51 l
131.414 238.455 l
137.943 238.455 l
141.207 235.378 l
144.472 225.759 l
151 225.759 l
154.264 216.099 l
157.529 215.184 l
160.793 208.349 l
164.057 202.689 l
167.322 202.689 l
170.586 201.515 l
173.85 201.515 l
177.115 197.268 l
180.379 197.268 l
183.643 196.189 l
186.907 188.01 l
196.7 188.01 l
199.965 186.421 l
206.493 186.354 l
209.758 185.646 l
213.022 185.646 l
216.286 185.301 l
229.343 185.301 l
232.608 184.246 l
239.136 184.155 l
242.401 183.269 l
245.665 183.13 l
261.986 183.13 l
265.251 182.23 l
275.044 182.15 l
278.308 182.15 l
281.572 181.508 l
284.837 181.06 l
291.365 181.06 l
294.629 180.613 l
297.894 179.666 l
317.479 179.643 l
320.744 179.332 l
337.065 179.31 l
340.33 179.1 l
353.387 179.1 l
359.915 178.89 l
366.444 178.878 l
369.708 178.654 l
395.823 178.579 l
399.087 178.451 l
428.466 178.359 l
448.051 178.32 l
506.809 178.21 l
578.624 178.131 l
754.896 178.099 l
754.896 178.099 l
stroke
grestore
1.000 0.000 0.000 setrgbcolor
gsave
652.9 478.1 105.3 59.76 clipbox
105.3 333.592 m
108.564 246.645 l
111.829 191.981 l
115.093 191.981 l
118.357 175.281 l
121.621 175.281 l
124.886 174.254 l
128.15 171.438 l
131.414 171.438 l
134.679 167.693 l
137.943 167.693 l
141.207 163.615 l
144.472 160.296 l
147.736 151.836 l
157.529 151.836 l
160.793 150.37 l
164.057 146.292 l
170.586 146.259 l
173.85 143.264 l
186.907 143.264 l
190.172 141.69 l
196.7 141.69 l
199.965 141.513 l
213.022 141.513 l
216.286 140.975 l
219.55 139.978 l
222.815 139.883 l
226.079 138.202 l
245.665 138.114 l
248.929 137.992 l
252.194 137.467 l
255.458 137.321 l
258.722 137.321 l
261.986 135.54 l
294.629 135.44 l
297.894 134.984 l
307.687 134.982 l
310.951 134.839 l
330.537 134.832 l
333.801 134.586 l
389.294 134.3 l
392.558 134.146 l
421.937 134.045 l
428.466 133.971 l
500.28 133.862 l
536.188 133.804 l
754.896 133.714 l
754.896 133.714 l
stroke
grestore
0.000 0.750 0.750 setrgbcolor
gsave
652.9 478.1 105.3 59.76 clipbox
105.3 166.261 m
108.564 114.797 l
111.829 83.6212 l
115.093 73.1344 l
118.357 73.1344 l
121.621 68.1709 l
128.15 68.1709 l
131.414 65.2736 l
141.207 65.2736 l
144.472 64.2246 l
147.736 63.3896 l
151 63.1209 l
170.586 63.1209 l
173.85 62.7205 l
177.115 62.0937 l
183.643 62.0937 l
186.907 61.3248 l
190.172 61.3248 l
193.436 60.5932 l
196.7 60.5283 l
199.965 60.1994 l
216.286 60.1602 l
219.55 60.0014 l
261.986 59.9215 l
271.779 59.8734 l
454.58 59.7626 l
754.896 59.76 l
754.896 59.76 l
stroke
grestore
0.500 setlinewidth
0 setlinecap
0.000 setgray
gsave
/o {
gsave
newpath
translate
0 0 m
0 4 l
gsave
0.000 setgray
fill
grestore
stroke
grestore
} bind def
105.3 59.76 o
grestore
gsave
/o {
gsave
newpath
translate
0 0 m
0 -4 l
gsave
0.000 setgray
fill
grestore
stroke
grestore
} bind def
105.3 537.84 o
grestore
/BitstreamVeraSans-Roman findfont
12.000 scalefont
setfont
gsave
102.276562 46.681875 translate
0.000000 rotate
0.000000 0.171875 m /zero glyphshow
grestore
gsave
/o {
gsave
newpath
translate
0 0 m
0 4 l
gsave
0.000 setgray
fill
grestore
stroke
grestore
} bind def
268.515 59.76 o
grestore
gsave
/o {
gsave
newpath
translate
0 0 m
0 -4 l
gsave
0.000 setgray
fill
grestore
stroke
grestore
} bind def
268.515 537.84 o
grestore
gsave
261.733750 46.681875 translate
0.000000 rotate
0.000000 0.171875 m /five glyphshow
7.634766 0.171875 m /zero glyphshow
grestore
gsave
/o {
gsave
newpath
translate
0 0 m
0 4 l
gsave
0.000 setgray
fill
grestore
stroke
grestore
} bind def
431.73 59.76 o
grestore
gsave
/o {
gsave
newpath
translate
0 0 m
0 -4 l
gsave
0.000 setgray
fill
grestore
stroke
grestore
} bind def
431.73 537.84 o
grestore
gsave
421.323750 46.681875 translate
0.000000 rotate
0.000000 0.171875 m /one glyphshow
7.634766 0.171875 m /zero glyphshow
15.269531 0.171875 m /zero glyphshow
grestore
gsave
/o {
gsave
newpath
translate
0 0 m
0 4 l
gsave
0.000 setgray
fill
grestore
stroke
grestore
} bind def
594.945 59.76 o
grestore
gsave
/o {
gsave
newpath
translate
0 0 m
0 -4 l
gsave
0.000 setgray
fill
grestore
stroke
grestore
} bind def
594.945 537.84 o
grestore
gsave
584.538750 46.681875 translate
0.000000 rotate
0.000000 0.171875 m /one glyphshow
7.634766 0.171875 m /five glyphshow
15.269531 0.171875 m /zero glyphshow
grestore
gsave
/o {
gsave
newpath
translate
0 0 m
0 4 l
gsave
0.000 setgray
fill
grestore
stroke
grestore
} bind def
758.16 59.76 o
grestore
gsave
/o {
gsave
newpath
translate
0 0 m
0 -4 l
gsave
0.000 setgray
fill
grestore
stroke
grestore
} bind def
758.16 537.84 o
grestore
gsave
747.535000 46.681875 translate
0.000000 rotate
0.000000 0.171875 m /two glyphshow
7.634766 0.171875 m /zero glyphshow
15.269531 0.171875 m /zero glyphshow
grestore
gsave
399.089375 32.385000 translate
0.000000 rotate
0.000000 0.171875 m /G glyphshow
9.298828 0.171875 m /e glyphshow
16.681641 0.171875 m /n glyphshow
24.287109 0.171875 m /e glyphshow
31.669922 0.171875 m /r glyphshow
36.603516 0.171875 m /a glyphshow
43.957031 0.171875 m /t glyphshow
48.662109 0.171875 m /i glyphshow
51.996094 0.171875 m /o glyphshow
59.337891 0.171875 m /n glyphshow
grestore
gsave
/o {
gsave
newpath
translate
0 0 m
4 0 l
gsave
0.000 setgray
fill
grestore
stroke
grestore
} bind def
105.3 59.76 o
grestore
gsave
/o {
gsave
newpath
translate
0 0 m
-4 0 l
gsave
0.000 setgray
fill
grestore
stroke
grestore
} bind def
758.16 59.76 o
grestore
gsave
83.800000 55.220937 translate
0.000000 rotate
0.000000 0.171875 m /zero glyphshow
7.634766 0.171875 m /period glyphshow
11.449219 0.171875 m /zero glyphshow
grestore
gsave
/o {
gsave
newpath
translate
0 0 m
4 0 l
gsave
0.000 setgray
fill
grestore
stroke
grestore
} bind def
105.3 128.057 o
grestore
gsave
/o {
gsave
newpath
translate
0 0 m
-4 0 l
gsave
0.000 setgray
fill
grestore
stroke
grestore
} bind def
758.16 128.057 o
grestore
gsave
84.050000 123.518080 translate
0.000000 rotate
0.000000 0.171875 m /zero glyphshow
7.634766 0.171875 m /period glyphshow
11.449219 0.171875 m /five glyphshow
grestore
gsave
/o {
gsave
newpath
translate
0 0 m
4 0 l
gsave
0.000 setgray
fill
grestore
stroke
grestore
} bind def
105.3 196.354 o
grestore
gsave
/o {
gsave
newpath
translate
0 0 m
-4 0 l
gsave
0.000 setgray
fill
grestore
stroke
grestore
} bind def
758.16 196.354 o
grestore
gsave
84.315625 191.815223 translate
0.000000 rotate
0.000000 0.171875 m /one glyphshow
7.634766 0.171875 m /period glyphshow
11.449219 0.171875 m /zero glyphshow
grestore
gsave
/o {
gsave
newpath
translate
0 0 m
4 0 l
gsave
0.000 setgray
fill
grestore
stroke
grestore
} bind def
105.3 264.651 o
grestore
gsave
/o {
gsave
newpath
translate
0 0 m
-4 0 l
gsave
0.000 setgray
fill
grestore
stroke
grestore
} bind def
758.16 264.651 o
grestore
gsave
84.565625 260.190491 translate
0.000000 rotate
0.000000 0.171875 m /one glyphshow
7.634766 0.171875 m /period glyphshow
11.449219 0.171875 m /five glyphshow
grestore
gsave
/o {
gsave
newpath
translate
0 0 m
4 0 l
gsave
0.000 setgray
fill
grestore
stroke
grestore
} bind def
105.3 332.949 o
grestore
gsave
/o {
gsave
newpath
translate
0 0 m
-4 0 l
gsave
0.000 setgray
fill
grestore
stroke
grestore
} bind def
758.16 332.949 o
grestore
gsave
83.878125 328.409509 translate
0.000000 rotate
0.000000 0.171875 m /two glyphshow
7.634766 0.171875 m /period glyphshow
11.449219 0.171875 m /zero glyphshow
grestore
gsave
/o {
gsave
newpath
translate
0 0 m
4 0 l
gsave
0.000 setgray
fill
grestore
stroke
grestore
} bind def
105.3 401.246 o
grestore
gsave
/o {
gsave
newpath
translate
0 0 m
-4 0 l
gsave
0.000 setgray
fill
grestore
stroke
grestore
} bind def
758.16 401.246 o
grestore
gsave
84.128125 396.706652 translate
0.000000 rotate
0.000000 0.171875 m /two glyphshow
7.634766 0.171875 m /period glyphshow
11.449219 0.171875 m /five glyphshow
grestore
gsave
/o {
gsave
newpath
translate
0 0 m
4 0 l
gsave
0.000 setgray
fill
grestore
stroke
grestore
} bind def
105.3 469.543 o
grestore
gsave
/o {
gsave
newpath
translate
0 0 m
-4 0 l
gsave
0.000 setgray
fill
grestore
stroke
grestore
} bind def
758.16 469.543 o
grestore
gsave
83.925000 465.003795 translate
0.000000 rotate
0.000000 0.171875 m /three glyphshow
7.634766 0.171875 m /period glyphshow
11.449219 0.171875 m /zero glyphshow
grestore
gsave
/o {
gsave
newpath
translate
0 0 m
4 0 l
gsave
0.000 setgray
fill
grestore
stroke
grestore
} bind def
105.3 537.84 o
grestore
gsave
/o {
gsave
newpath
translate
0 0 m
-4 0 l
gsave
0.000 setgray
fill
grestore
stroke
grestore
} bind def
758.16 537.84 o
grestore
gsave
84.175000 533.300938 translate
0.000000 rotate
0.000000 0.171875 m /three glyphshow
7.634766 0.171875 m /period glyphshow
11.449219 0.171875 m /five glyphshow
grestore
gsave
78.800000 257.229688 translate
90.000000 rotate
0.000000 2.500000 m /E glyphshow
7.582031 2.500000 m /n glyphshow
15.187500 2.500000 m /t glyphshow
19.892578 2.500000 m /a glyphshow
27.246094 2.500000 m /n glyphshow
34.851562 2.500000 m /g glyphshow
42.468750 2.500000 m /l glyphshow
45.802734 2.500000 m /e glyphshow
53.185547 2.500000 m /m glyphshow
64.875000 2.500000 m /e glyphshow
72.257812 2.500000 m /n glyphshow
79.863281 2.500000 m /t glyphshow
grestore
1.000 setlinewidth
2 setlinecap
gsave
105.3 537.84 m
758.16 537.84 l
stroke
grestore
gsave
758.16 59.76 m
758.16 537.84 l
stroke
grestore
gsave
105.3 59.76 m
758.16 59.76 l
stroke
grestore
gsave
105.3 59.76 m
105.3 537.84 l
stroke
grestore
/BitstreamVeraSans-Roman findfont
14.400 scalefont
setfont
gsave
301.909688 539.933750 translate
0.000000 rotate
0.000000 2.906250 m /E glyphshow
9.082642 2.906250 m /v glyphshow
17.589722 2.906250 m /o glyphshow
26.384583 2.906250 m /l glyphshow
30.378418 2.906250 m /u glyphshow
39.489136 2.906250 m /t glyphshow
45.125427 2.906250 m /i glyphshow
49.119263 2.906250 m /o glyphshow
57.914124 2.906250 m /n glyphshow
67.024841 2.906250 m /space glyphshow
71.594238 2.906250 m /o glyphshow
80.389099 2.906250 m /f glyphshow
85.449829 2.906250 m /space glyphshow
90.019226 2.906250 m /three glyphshow
99.165039 2.906250 m /d glyphshow
108.289795 2.906250 m /seven glyphshow
117.435608 2.906250 m /space glyphshow
122.005005 2.906250 m /parenleft glyphshow
127.613220 2.906250 m /m glyphshow
141.616211 2.906250 m /e glyphshow
150.460205 2.906250 m /a glyphshow
159.269104 2.906250 m /s glyphshow
166.758423 2.906250 m /u glyphshow
175.869141 2.906250 m /r glyphshow
181.404175 2.906250 m /e glyphshow
190.248169 2.906250 m /colon glyphshow
195.091309 2.906250 m /space glyphshow
199.660706 2.906250 m /e glyphshow
208.504700 2.906250 m /n glyphshow
217.615417 2.906250 m /t glyphshow
223.251709 2.906250 m /r glyphshow
228.786743 2.906250 m /o glyphshow
237.581604 2.906250 m /p glyphshow
246.706360 2.906250 m /y glyphshow
255.213440 2.906250 m /parenright glyphshow
grestore
gsave
601.183 298.104 m
750.96 298.104 l
750.96 530.64 l
601.183 530.64 l
601.183 298.104 l
cl
gsave
1.000 setgray
fill
grestore
stroke
grestore
0.000 0.000 1.000 setrgbcolor
gsave
611.263 519.279 m
631.423 519.279 l
stroke
grestore
0.000 setgray
gsave
647.262500 511.333125 translate
0.000000 rotate
0.000000 2.906250 m /p glyphshow
9.124756 2.906250 m /space glyphshow
13.694153 2.906250 m /equal glyphshow
25.738831 2.906250 m /space glyphshow
30.308228 2.906250 m /zero glyphshow
39.454041 2.906250 m /period glyphshow
44.023438 2.906250 m /zero glyphshow
53.169250 2.906250 m /zero glyphshow
62.315063 2.906250 m /zero glyphshow
71.460876 2.906250 m /zero glyphshow
80.606689 2.906250 m /zero glyphshow
89.752502 2.906250 m /zero glyphshow
grestore
0.000 0.500 0.000 setrgbcolor
gsave
611.263 498.533 m
631.423 498.533 l
stroke
grestore
0.000 setgray
gsave
647.262500 490.586250 translate
0.000000 rotate
0.000000 2.906250 m /p glyphshow
9.124756 2.906250 m /space glyphshow
13.694153 2.906250 m /equal glyphshow
25.738831 2.906250 m /space glyphshow
30.308228 2.906250 m /zero glyphshow
39.454041 2.906250 m /period glyphshow
44.023438 2.906250 m /one glyphshow
53.169250 2.906250 m /zero glyphshow
62.315063 2.906250 m /zero glyphshow
71.460876 2.906250 m /zero glyphshow
80.606689 2.906250 m /zero glyphshow
89.752502 2.906250 m /zero glyphshow
grestore
1.000 0.000 0.000 setrgbcolor
gsave
611.263 477.786 m
631.423 477.786 l
stroke
grestore
0.000 setgray
gsave
647.262500 469.839375 translate
0.000000 rotate
0.000000 2.906250 m /p glyphshow
9.124756 2.906250 m /space glyphshow
13.694153 2.906250 m /equal glyphshow
25.738831 2.906250 m /space glyphshow
30.308228 2.906250 m /zero glyphshow
39.454041 2.906250 m /period glyphshow
44.023438 2.906250 m /two glyphshow
53.169250 2.906250 m /zero glyphshow
62.315063 2.906250 m /zero glyphshow
71.460876 2.906250 m /zero glyphshow
80.606689 2.906250 m /zero glyphshow
89.752502 2.906250 m /zero glyphshow
grestore
0.000 0.750 0.750 setrgbcolor
gsave
611.263 457.039 m
631.423 457.039 l
stroke
grestore
0.000 setgray
gsave
647.262500 449.092500 translate
0.000000 rotate
0.000000 2.906250 m /p glyphshow
9.124756 2.906250 m /space glyphshow
13.694153 2.906250 m /equal glyphshow
25.738831 2.906250 m /space glyphshow
30.308228 2.906250 m /zero glyphshow
39.454041 2.906250 m /period glyphshow
44.023438 2.906250 m /three glyphshow
53.169250 2.906250 m /zero glyphshow
62.315063 2.906250 m /zero glyphshow
71.460876 2.906250 m /zero glyphshow
80.606689 2.906250 m /zero glyphshow
89.752502 2.906250 m /zero glyphshow
grestore
0.750 0.000 0.750 setrgbcolor
gsave
611.263 436.292 m
631.423 436.292 l
stroke
grestore
0.000 setgray
gsave
647.262500 428.345625 translate
0.000000 rotate
0.000000 2.906250 m /p glyphshow
9.124756 2.906250 m /space glyphshow
13.694153 2.906250 m /equal glyphshow
25.738831 2.906250 m /space glyphshow
30.308228 2.906250 m /zero glyphshow
39.454041 2.906250 m /period glyphshow
44.023438 2.906250 m /four glyphshow
53.169250 2.906250 m /zero glyphshow
62.315063 2.906250 m /zero glyphshow
71.460876 2.906250 m /zero glyphshow
80.606689 2.906250 m /zero glyphshow
89.752502 2.906250 m /zero glyphshow
grestore
0.750 0.750 0.000 setrgbcolor
gsave
611.263 415.545 m
631.423 415.545 l
stroke
grestore
0.000 setgray
gsave
647.262500 407.598750 translate
0.000000 rotate
0.000000 2.906250 m /p glyphshow
9.124756 2.906250 m /space glyphshow
13.694153 2.906250 m /equal glyphshow
25.738831 2.906250 m /space glyphshow
30.308228 2.906250 m /zero glyphshow
39.454041 2.906250 m /period glyphshow
44.023438 2.906250 m /five glyphshow
53.169250 2.906250 m /zero glyphshow
62.315063 2.906250 m /zero glyphshow
71.460876 2.906250 m /zero glyphshow
80.606689 2.906250 m /zero glyphshow
89.752502 2.906250 m /zero glyphshow
grestore
gsave
611.263 394.798 m
631.423 394.798 l
stroke
grestore
gsave
647.262500 386.851875 translate
0.000000 rotate
0.000000 2.906250 m /p glyphshow
9.124756 2.906250 m /space glyphshow
13.694153 2.906250 m /equal glyphshow
25.738831 2.906250 m /space glyphshow
30.308228 2.906250 m /zero glyphshow
39.454041 2.906250 m /period glyphshow
44.023438 2.906250 m /six glyphshow
53.169250 2.906250 m /zero glyphshow
62.315063 2.906250 m /zero glyphshow
71.460876 2.906250 m /zero glyphshow
80.606689 2.906250 m /zero glyphshow
89.752502 2.906250 m /zero glyphshow
grestore
0.000 0.000 1.000 setrgbcolor
gsave
611.263 374.051 m
631.423 374.051 l
stroke
grestore
0.000 setgray
gsave
647.262500 366.105000 translate
0.000000 rotate
0.000000 2.906250 m /p glyphshow
9.124756 2.906250 m /space glyphshow
13.694153 2.906250 m /equal glyphshow
25.738831 2.906250 m /space glyphshow
30.308228 2.906250 m /zero glyphshow
39.454041 2.906250 m /period glyphshow
44.023438 2.906250 m /seven glyphshow
53.169250 2.906250 m /zero glyphshow
62.315063 2.906250 m /zero glyphshow
71.460876 2.906250 m /zero glyphshow
80.606689 2.906250 m /zero glyphshow
89.752502 2.906250 m /zero glyphshow
grestore
0.000 0.500 0.000 setrgbcolor
gsave
611.263 353.304 m
631.423 353.304 l
stroke
grestore
0.000 setgray
gsave
647.262500 345.358125 translate
0.000000 rotate
0.000000 2.906250 m /p glyphshow
9.124756 2.906250 m /space glyphshow
13.694153 2.906250 m /equal glyphshow
25.738831 2.906250 m /space glyphshow
30.308228 2.906250 m /zero glyphshow
39.454041 2.906250 m /period glyphshow
44.023438 2.906250 m /eight glyphshow
53.169250 2.906250 m /zero glyphshow
62.315063 2.906250 m /zero glyphshow
71.460876 2.906250 m /zero glyphshow
80.606689 2.906250 m /zero glyphshow
89.752502 2.906250 m /zero glyphshow
grestore
1.000 0.000 0.000 setrgbcolor
gsave
611.263 332.558 m
631.423 332.558 l
stroke
grestore
0.000 setgray
gsave
647.262500 324.611250 translate
0.000000 rotate
0.000000 2.906250 m /p glyphshow
9.124756 2.906250 m /space glyphshow
13.694153 2.906250 m /equal glyphshow
25.738831 2.906250 m /space glyphshow
30.308228 2.906250 m /zero glyphshow
39.454041 2.906250 m /period glyphshow
44.023438 2.906250 m /nine glyphshow
53.169250 2.906250 m /zero glyphshow
62.315063 2.906250 m /zero glyphshow
71.460876 2.906250 m /zero glyphshow
80.606689 2.906250 m /zero glyphshow
89.752502 2.906250 m /zero glyphshow
grestore
0.000 0.750 0.750 setrgbcolor
gsave
611.263 311.811 m
631.423 311.811 l
stroke
grestore
0.000 setgray
gsave
647.262500 303.864375 translate
0.000000 rotate
0.000000 2.906250 m /p glyphshow
9.124756 2.906250 m /space glyphshow
13.694153 2.906250 m /equal glyphshow
25.738831 2.906250 m /space glyphshow
30.308228 2.906250 m /one glyphshow
39.454041 2.906250 m /period glyphshow
44.023438 2.906250 m /zero glyphshow
53.169250 2.906250 m /zero glyphshow
62.315063 2.906250 m /zero glyphshow
71.460876 2.906250 m /zero glyphshow
80.606689 2.906250 m /zero glyphshow
89.752502 2.906250 m /zero glyphshow
grestore

end
showpage
