%!PS-Adobe-3.0 EPSF-3.0
%%Title: 3d8.Hilbert-Schmidt.example.evolution.eps
%%Creator: matplotlib version 1.1.0, http://matplotlib.sourceforge.net/
%%CreationDate: Wed Dec  5 14:55:51 2012
%%Orientation: portrait
%%BoundingBox: -115 97 727 694
%%EndComments
%%BeginProlog
/mpldict 8 dict def
mpldict begin
/m { moveto } bind def
/l { lineto } bind def
/r { rlineto } bind def
/c { curveto } bind def
/cl { closepath } bind def
/box {
m
1 index 0 r
0 exch r
neg 0 r
cl
} bind def
/clipbox {
box
clip
newpath
} bind def
%!PS-Adobe-3.0 Resource-Font
%%Title: Bitstream Vera Sans
%%Copyright: Copyright (c) 2003 by Bitstream, Inc. All Rights Reserved.
%%Creator: Converted from TrueType to type 3 by PPR
25 dict begin
/_d{bind def}bind def
/_m{moveto}_d
/_l{lineto}_d
/_cl{closepath eofill}_d
/_c{curveto}_d
/_sc{7 -1 roll{setcachedevice}{pop pop pop pop pop pop}ifelse}_d
/_e{exec}_d
/FontName /BitstreamVeraSans-Roman def
/PaintType 0 def
/FontMatrix[.001 0 0 .001 0 0]def
/FontBBox[-183 -236 1287 928]def
/FontType 3 def
/Encoding [ /space /parenleft /parenright /hyphen /period /zero /one /two /three /four /five /six /seven /eight /nine /colon /equal /E /G /H /S /a /b /c /d /e /f /g /h /i /l /m /n /o /p /r /s /t /u /v ] def
/FontInfo 10 dict dup begin
/FamilyName (Bitstream Vera Sans) def
/FullName (Bitstream Vera Sans) def
/Notice (Copyright (c) 2003 by Bitstream, Inc. All Rights Reserved. Bitstream Vera is a trademark of Bitstream, Inc.) def
/Weight (Roman) def
/Version (Release 1.10) def
/ItalicAngle 0.0 def
/isFixedPitch false def
/UnderlinePosition -213 def
/UnderlineThickness 143 def
end readonly def
/CharStrings 40 dict dup begin
/space{318 0 0 0 0 0 _sc
}_d
/parenleft{390 0 86 -131 310 759 _sc
310 759 _m
266 683 234 609 213 536 _c
191 463 181 389 181 314 _c
181 238 191 164 213 91 _c
234 17 266 -56 310 -131 _c
232 -131 _l
183 -54 146 20 122 94 _c
98 168 86 241 86 314 _c
86 386 98 459 122 533 _c
146 607 182 682 232 759 _c
310 759 _l
_cl}_d
/parenright{390 0 80 -131 304 759 _sc
80 759 _m
158 759 _l
206 682 243 607 267 533 _c
291 459 304 386 304 314 _c
304 241 291 168 267 94 _c
243 20 206 -54 158 -131 _c
80 -131 _l
123 -56 155 17 177 91 _c
198 164 209 238 209 314 _c
209 389 198 463 177 536 _c
155 609 123 683 80 759 _c
_cl}_d
/hyphen{361 0 49 234 312 314 _sc
49 314 _m
312 314 _l
312 234 _l
49 234 _l
49 314 _l
_cl}_d
/period{318 0 107 0 210 124 _sc
107 124 _m
210 124 _l
210 0 _l
107 0 _l
107 124 _l
_cl}_d
/zero{636 0 66 -13 570 742 _sc
318 664 _m
267 664 229 639 203 589 _c
177 539 165 464 165 364 _c
165 264 177 189 203 139 _c
229 89 267 64 318 64 _c
369 64 407 89 433 139 _c
458 189 471 264 471 364 _c
471 464 458 539 433 589 _c
407 639 369 664 318 664 _c
318 742 _m
399 742 461 709 505 645 _c
548 580 570 486 570 364 _c
570 241 548 147 505 83 _c
461 19 399 -13 318 -13 _c
236 -13 173 19 130 83 _c
87 147 66 241 66 364 _c
66 486 87 580 130 645 _c
173 709 236 742 318 742 _c
_cl}_d
/one{636 0 110 0 544 729 _sc
124 83 _m
285 83 _l
285 639 _l
110 604 _l
110 694 _l
284 729 _l
383 729 _l
383 83 _l
544 83 _l
544 0 _l
124 0 _l
124 83 _l
_cl}_d
/two{{636 0 73 0 536 742 _sc
192 83 _m
536 83 _l
536 0 _l
73 0 _l
73 83 _l
110 121 161 173 226 239 _c
290 304 331 346 348 365 _c
380 400 402 430 414 455 _c
426 479 433 504 433 528 _c
433 566 419 598 392 622 _c
365 646 330 659 286 659 _c
255 659 222 653 188 643 _c
154 632 117 616 78 594 _c
78 694 _l
118 710 155 722 189 730 _c
223 738 255 742 284 742 _c
359 742 419 723 464 685 _c
509 647 532 597 532 534 _c
532 504 526 475 515 449 _c
504 422 484 390 454 354 _c
446 344 420 317 376 272 _c
332 227 271 164 192 83 _c
_cl}_e}_d
/three{{636 0 76 -13 556 742 _sc
406 393 _m
453 383 490 362 516 330 _c
542 298 556 258 556 212 _c
556 140 531 84 482 45 _c
432 6 362 -13 271 -13 _c
240 -13 208 -10 176 -4 _c
144 1 110 10 76 22 _c
76 117 _l
103 101 133 89 166 81 _c
198 73 232 69 268 69 _c
330 69 377 81 409 105 _c
441 129 458 165 458 212 _c
458 254 443 288 413 312 _c
383 336 341 349 287 349 _c
202 349 _l
202 430 _l
291 430 _l
339 430 376 439 402 459 _c
428 478 441 506 441 543 _c
441 580 427 609 401 629 _c
374 649 336 659 287 659 _c
260 659 231 656 200 650 _c
169 644 135 635 98 623 _c
98 711 _l
135 721 170 729 203 734 _c
235 739 266 742 296 742 _c
}_e{370 742 429 725 473 691 _c
517 657 539 611 539 553 _c
539 513 527 479 504 451 _c
481 423 448 403 406 393 _c
_cl}_e}_d
/four{636 0 49 0 580 729 _sc
378 643 _m
129 254 _l
378 254 _l
378 643 _l
352 729 _m
476 729 _l
476 254 _l
580 254 _l
580 172 _l
476 172 _l
476 0 _l
378 0 _l
378 172 _l
49 172 _l
49 267 _l
352 729 _l
_cl}_d
/five{{636 0 77 -13 549 729 _sc
108 729 _m
495 729 _l
495 646 _l
198 646 _l
198 467 _l
212 472 227 476 241 478 _c
255 480 270 482 284 482 _c
365 482 429 459 477 415 _c
525 370 549 310 549 234 _c
549 155 524 94 475 51 _c
426 8 357 -13 269 -13 _c
238 -13 207 -10 175 -6 _c
143 -1 111 6 77 17 _c
77 116 _l
106 100 136 88 168 80 _c
199 72 232 69 267 69 _c
323 69 368 83 401 113 _c
433 143 450 183 450 234 _c
450 284 433 324 401 354 _c
368 384 323 399 267 399 _c
241 399 214 396 188 390 _c
162 384 135 375 108 363 _c
108 729 _l
_cl}_e}_d
/six{{636 0 70 -13 573 742 _sc
330 404 _m
286 404 251 388 225 358 _c
199 328 186 286 186 234 _c
186 181 199 139 225 109 _c
251 79 286 64 330 64 _c
374 64 409 79 435 109 _c
461 139 474 181 474 234 _c
474 286 461 328 435 358 _c
409 388 374 404 330 404 _c
526 713 _m
526 623 _l
501 635 476 644 451 650 _c
425 656 400 659 376 659 _c
310 659 260 637 226 593 _c
192 549 172 482 168 394 _c
187 422 211 444 240 459 _c
269 474 301 482 336 482 _c
409 482 467 459 509 415 _c
551 371 573 310 573 234 _c
573 159 550 99 506 54 _c
462 9 403 -13 330 -13 _c
246 -13 181 19 137 83 _c
92 147 70 241 70 364 _c
70 479 97 571 152 639 _c
206 707 280 742 372 742 _c
}_e{396 742 421 739 447 735 _c
472 730 498 723 526 713 _c
_cl}_e}_d
/seven{636 0 82 0 551 729 _sc
82 729 _m
551 729 _l
551 687 _l
286 0 _l
183 0 _l
432 646 _l
82 646 _l
82 729 _l
_cl}_d
/eight{{636 0 68 -13 568 742 _sc
318 346 _m
271 346 234 333 207 308 _c
180 283 167 249 167 205 _c
167 161 180 126 207 101 _c
234 76 271 64 318 64 _c
364 64 401 76 428 102 _c
455 127 469 161 469 205 _c
469 249 455 283 429 308 _c
402 333 365 346 318 346 _c
219 388 _m
177 398 144 418 120 447 _c
96 476 85 511 85 553 _c
85 611 105 657 147 691 _c
188 725 245 742 318 742 _c
390 742 447 725 489 691 _c
530 657 551 611 551 553 _c
551 511 539 476 515 447 _c
491 418 459 398 417 388 _c
464 377 501 355 528 323 _c
554 291 568 251 568 205 _c
568 134 546 80 503 43 _c
459 5 398 -13 318 -13 _c
237 -13 175 5 132 43 _c
89 80 68 134 68 205 _c
68 251 81 291 108 323 _c
134 355 171 377 219 388 _c
}_e{183 544 _m
183 506 194 476 218 455 _c
242 434 275 424 318 424 _c
360 424 393 434 417 455 _c
441 476 453 506 453 544 _c
453 582 441 611 417 632 _c
393 653 360 664 318 664 _c
275 664 242 653 218 632 _c
194 611 183 582 183 544 _c
_cl}_e}_d
/nine{{636 0 63 -13 566 742 _sc
110 15 _m
110 105 _l
134 93 159 84 185 78 _c
210 72 235 69 260 69 _c
324 69 374 90 408 134 _c
442 178 462 244 468 334 _c
448 306 424 284 396 269 _c
367 254 335 247 300 247 _c
226 247 168 269 126 313 _c
84 357 63 417 63 494 _c
63 568 85 628 129 674 _c
173 719 232 742 306 742 _c
390 742 455 709 499 645 _c
543 580 566 486 566 364 _c
566 248 538 157 484 89 _c
429 21 356 -13 264 -13 _c
239 -13 214 -10 189 -6 _c
163 -2 137 5 110 15 _c
306 324 _m
350 324 385 339 411 369 _c
437 399 450 441 450 494 _c
450 546 437 588 411 618 _c
385 648 350 664 306 664 _c
262 664 227 648 201 618 _c
175 588 162 546 162 494 _c
}_e{162 441 175 399 201 369 _c
227 339 262 324 306 324 _c
_cl}_e}_d
/colon{337 0 117 0 220 517 _sc
117 124 _m
220 124 _l
220 0 _l
117 0 _l
117 124 _l
117 517 _m
220 517 _l
220 393 _l
117 393 _l
117 517 _l
_cl}_d
/equal{838 0 106 172 732 454 _sc
106 454 _m
732 454 _l
732 372 _l
106 372 _l
106 454 _l
106 255 _m
732 255 _l
732 172 _l
106 172 _l
106 255 _l
_cl}_d
/E{632 0 98 0 568 729 _sc
98 729 _m
559 729 _l
559 646 _l
197 646 _l
197 430 _l
544 430 _l
544 347 _l
197 347 _l
197 83 _l
568 83 _l
568 0 _l
98 0 _l
98 729 _l
_cl}_d
/G{{775 0 56 -13 693 742 _sc
595 104 _m
595 300 _l
434 300 _l
434 381 _l
693 381 _l
693 68 _l
655 40 613 20 567 7 _c
521 -6 472 -13 420 -13 _c
306 -13 216 20 152 86 _c
88 152 56 245 56 364 _c
56 482 88 575 152 642 _c
216 708 306 742 420 742 _c
467 742 512 736 555 724 _c
598 712 638 695 674 673 _c
674 568 _l
637 598 598 621 557 637 _c
516 653 473 661 428 661 _c
338 661 271 636 227 586 _c
182 536 160 462 160 364 _c
160 265 182 191 227 141 _c
271 91 338 67 428 67 _c
462 67 493 70 521 76 _c
549 82 573 91 595 104 _c
_cl}_e}_d
/H{752 0 98 0 654 729 _sc
98 729 _m
197 729 _l
197 430 _l
555 430 _l
555 729 _l
654 729 _l
654 0 _l
555 0 _l
555 347 _l
197 347 _l
197 0 _l
98 0 _l
98 729 _l
_cl}_d
/S{{635 0 66 -13 579 742 _sc
535 705 _m
535 609 _l
497 627 462 640 429 649 _c
395 657 363 662 333 662 _c
279 662 237 651 208 631 _c
179 610 165 580 165 542 _c
165 510 174 485 194 469 _c
213 452 250 439 304 429 _c
364 417 _l
437 403 491 378 526 343 _c
561 307 579 260 579 201 _c
579 130 555 77 508 41 _c
460 5 391 -13 300 -13 _c
265 -13 228 -9 189 -2 _c
150 5 110 16 69 32 _c
69 134 _l
109 111 148 94 186 83 _c
224 71 262 66 300 66 _c
356 66 399 77 430 99 _c
460 121 476 152 476 194 _c
476 230 465 258 443 278 _c
421 298 385 313 335 323 _c
275 335 _l
201 349 148 372 115 404 _c
82 435 66 478 66 534 _c
66 598 88 649 134 686 _c
179 723 242 742 322 742 _c
}_e{356 742 390 739 426 733 _c
461 727 497 717 535 705 _c
_cl}_e}_d
/a{{613 0 60 -13 522 560 _sc
343 275 _m
270 275 220 266 192 250 _c
164 233 150 205 150 165 _c
150 133 160 107 181 89 _c
202 70 231 61 267 61 _c
317 61 357 78 387 114 _c
417 149 432 196 432 255 _c
432 275 _l
343 275 _l
522 312 _m
522 0 _l
432 0 _l
432 83 _l
411 49 385 25 355 10 _c
325 -5 287 -13 243 -13 _c
187 -13 142 2 109 33 _c
76 64 60 106 60 159 _c
60 220 80 266 122 298 _c
163 329 224 345 306 345 _c
432 345 _l
432 354 _l
432 395 418 427 391 450 _c
364 472 326 484 277 484 _c
245 484 215 480 185 472 _c
155 464 127 453 100 439 _c
100 522 _l
}_e{132 534 164 544 195 550 _c
226 556 256 560 286 560 _c
365 560 424 539 463 498 _c
502 457 522 395 522 312 _c
_cl}_e}_d
/b{{635 0 91 -13 580 760 _sc
487 273 _m
487 339 473 390 446 428 _c
418 466 381 485 334 485 _c
286 485 249 466 222 428 _c
194 390 181 339 181 273 _c
181 207 194 155 222 117 _c
249 79 286 61 334 61 _c
381 61 418 79 446 117 _c
473 155 487 207 487 273 _c
181 464 _m
199 496 223 520 252 536 _c
281 552 316 560 356 560 _c
422 560 476 533 518 481 _c
559 428 580 359 580 273 _c
580 187 559 117 518 65 _c
476 13 422 -13 356 -13 _c
316 -13 281 -5 252 10 _c
223 25 199 49 181 82 _c
181 0 _l
91 0 _l
91 760 _l
181 760 _l
181 464 _l
_cl}_e}_d
/c{{550 0 55 -13 488 560 _sc
488 526 _m
488 442 _l
462 456 437 466 411 473 _c
385 480 360 484 334 484 _c
276 484 230 465 198 428 _c
166 391 150 339 150 273 _c
150 206 166 154 198 117 _c
230 80 276 62 334 62 _c
360 62 385 65 411 72 _c
437 79 462 90 488 104 _c
488 21 _l
462 9 436 0 410 -5 _c
383 -10 354 -13 324 -13 _c
242 -13 176 12 128 64 _c
79 115 55 185 55 273 _c
55 362 79 432 128 483 _c
177 534 244 560 330 560 _c
358 560 385 557 411 551 _c
437 545 463 537 488 526 _c
_cl}_e}_d
/d{{635 0 55 -13 544 760 _sc
454 464 _m
454 760 _l
544 760 _l
544 0 _l
454 0 _l
454 82 _l
435 49 411 25 382 10 _c
353 -5 319 -13 279 -13 _c
213 -13 159 13 117 65 _c
75 117 55 187 55 273 _c
55 359 75 428 117 481 _c
159 533 213 560 279 560 _c
319 560 353 552 382 536 _c
411 520 435 496 454 464 _c
148 273 _m
148 207 161 155 188 117 _c
215 79 253 61 301 61 _c
348 61 385 79 413 117 _c
440 155 454 207 454 273 _c
454 339 440 390 413 428 _c
385 466 348 485 301 485 _c
253 485 215 466 188 428 _c
161 390 148 339 148 273 _c
_cl}_e}_d
/e{{615 0 55 -13 562 560 _sc
562 296 _m
562 252 _l
149 252 _l
153 190 171 142 205 110 _c
238 78 284 62 344 62 _c
378 62 412 66 444 74 _c
476 82 509 95 541 113 _c
541 28 _l
509 14 476 3 442 -3 _c
408 -9 373 -13 339 -13 _c
251 -13 182 12 131 62 _c
80 112 55 181 55 268 _c
55 357 79 428 127 481 _c
175 533 241 560 323 560 _c
397 560 455 536 498 489 _c
540 441 562 377 562 296 _c
472 322 _m
471 371 457 410 431 440 _c
404 469 368 484 324 484 _c
274 484 234 469 204 441 _c
174 413 156 373 152 322 _c
472 322 _l
_cl}_e}_d
/f{352 0 23 0 371 760 _sc
371 760 _m
371 685 _l
285 685 _l
253 685 230 678 218 665 _c
205 652 199 629 199 595 _c
199 547 _l
347 547 _l
347 477 _l
199 477 _l
199 0 _l
109 0 _l
109 477 _l
23 477 _l
23 547 _l
109 547 _l
109 585 _l
109 645 123 690 151 718 _c
179 746 224 760 286 760 _c
371 760 _l
_cl}_d
/g{{635 0 55 -207 544 560 _sc
454 280 _m
454 344 440 395 414 431 _c
387 467 349 485 301 485 _c
253 485 215 467 188 431 _c
161 395 148 344 148 280 _c
148 215 161 165 188 129 _c
215 93 253 75 301 75 _c
349 75 387 93 414 129 _c
440 165 454 215 454 280 _c
544 68 _m
544 -24 523 -93 482 -139 _c
440 -184 377 -207 292 -207 _c
260 -207 231 -204 203 -200 _c
175 -195 147 -188 121 -178 _c
121 -91 _l
147 -105 173 -115 199 -122 _c
225 -129 251 -133 278 -133 _c
336 -133 380 -117 410 -87 _c
439 -56 454 -10 454 52 _c
454 96 _l
435 64 411 40 382 24 _c
353 8 319 0 279 0 _c
211 0 157 25 116 76 _c
75 127 55 195 55 280 _c
55 364 75 432 116 483 _c
157 534 211 560 279 560 _c
}_e{319 560 353 552 382 536 _c
411 520 435 496 454 464 _c
454 547 _l
544 547 _l
544 68 _l
_cl}_e}_d
/h{634 0 91 0 549 760 _sc
549 330 _m
549 0 _l
459 0 _l
459 327 _l
459 379 448 417 428 443 _c
408 469 378 482 338 482 _c
289 482 251 466 223 435 _c
195 404 181 362 181 309 _c
181 0 _l
91 0 _l
91 760 _l
181 760 _l
181 462 _l
202 494 227 519 257 535 _c
286 551 320 560 358 560 _c
420 560 468 540 500 501 _c
532 462 549 405 549 330 _c
_cl}_d
/i{278 0 94 0 184 760 _sc
94 547 _m
184 547 _l
184 0 _l
94 0 _l
94 547 _l
94 760 _m
184 760 _l
184 646 _l
94 646 _l
94 760 _l
_cl}_d
/l{278 0 94 0 184 760 _sc
94 760 _m
184 760 _l
184 0 _l
94 0 _l
94 760 _l
_cl}_d
/m{{974 0 91 0 889 560 _sc
520 442 _m
542 482 569 511 600 531 _c
631 550 668 560 711 560 _c
767 560 811 540 842 500 _c
873 460 889 403 889 330 _c
889 0 _l
799 0 _l
799 327 _l
799 379 789 418 771 444 _c
752 469 724 482 686 482 _c
639 482 602 466 575 435 _c
548 404 535 362 535 309 _c
535 0 _l
445 0 _l
445 327 _l
445 379 435 418 417 444 _c
398 469 369 482 331 482 _c
285 482 248 466 221 435 _c
194 404 181 362 181 309 _c
181 0 _l
91 0 _l
91 547 _l
181 547 _l
181 462 _l
201 495 226 520 255 536 _c
283 552 317 560 357 560 _c
397 560 430 550 458 530 _c
486 510 506 480 520 442 _c
}_e{_cl}_e}_d
/n{634 0 91 0 549 560 _sc
549 330 _m
549 0 _l
459 0 _l
459 327 _l
459 379 448 417 428 443 _c
408 469 378 482 338 482 _c
289 482 251 466 223 435 _c
195 404 181 362 181 309 _c
181 0 _l
91 0 _l
91 547 _l
181 547 _l
181 462 _l
202 494 227 519 257 535 _c
286 551 320 560 358 560 _c
420 560 468 540 500 501 _c
532 462 549 405 549 330 _c
_cl}_d
/o{612 0 55 -13 557 560 _sc
306 484 _m
258 484 220 465 192 427 _c
164 389 150 338 150 273 _c
150 207 163 156 191 118 _c
219 80 257 62 306 62 _c
354 62 392 80 420 118 _c
448 156 462 207 462 273 _c
462 337 448 389 420 427 _c
392 465 354 484 306 484 _c
306 560 _m
384 560 445 534 490 484 _c
534 433 557 363 557 273 _c
557 183 534 113 490 63 _c
445 12 384 -13 306 -13 _c
227 -13 165 12 121 63 _c
77 113 55 183 55 273 _c
55 363 77 433 121 484 _c
165 534 227 560 306 560 _c
_cl}_d
/p{{635 0 91 -207 580 560 _sc
181 82 _m
181 -207 _l
91 -207 _l
91 547 _l
181 547 _l
181 464 _l
199 496 223 520 252 536 _c
281 552 316 560 356 560 _c
422 560 476 533 518 481 _c
559 428 580 359 580 273 _c
580 187 559 117 518 65 _c
476 13 422 -13 356 -13 _c
316 -13 281 -5 252 10 _c
223 25 199 49 181 82 _c
487 273 _m
487 339 473 390 446 428 _c
418 466 381 485 334 485 _c
286 485 249 466 222 428 _c
194 390 181 339 181 273 _c
181 207 194 155 222 117 _c
249 79 286 61 334 61 _c
381 61 418 79 446 117 _c
473 155 487 207 487 273 _c
_cl}_e}_d
/r{411 0 91 0 411 560 _sc
411 463 _m
401 469 390 473 378 476 _c
366 478 353 480 339 480 _c
288 480 249 463 222 430 _c
194 397 181 350 181 288 _c
181 0 _l
91 0 _l
91 547 _l
181 547 _l
181 462 _l
199 495 224 520 254 536 _c
284 552 321 560 365 560 _c
371 560 378 559 386 559 _c
393 558 401 557 411 555 _c
411 463 _l
_cl}_d
/s{{521 0 54 -13 472 560 _sc
443 531 _m
443 446 _l
417 458 391 468 364 475 _c
336 481 308 485 279 485 _c
234 485 200 478 178 464 _c
156 450 145 430 145 403 _c
145 382 153 366 169 354 _c
185 342 217 330 265 320 _c
296 313 _l
360 299 405 279 432 255 _c
458 230 472 195 472 151 _c
472 100 452 60 412 31 _c
372 1 316 -13 246 -13 _c
216 -13 186 -10 154 -5 _c
122 0 89 8 54 20 _c
54 113 _l
87 95 120 82 152 74 _c
184 65 216 61 248 61 _c
290 61 323 68 346 82 _c
368 96 380 117 380 144 _c
380 168 371 187 355 200 _c
339 213 303 226 247 238 _c
216 245 _l
160 257 119 275 95 299 _c
70 323 58 356 58 399 _c
58 450 76 490 112 518 _c
148 546 200 560 268 560 _c
}_e{301 560 332 557 362 552 _c
391 547 418 540 443 531 _c
_cl}_e}_d
/t{392 0 27 0 368 702 _sc
183 702 _m
183 547 _l
368 547 _l
368 477 _l
183 477 _l
183 180 _l
183 135 189 106 201 94 _c
213 81 238 75 276 75 _c
368 75 _l
368 0 _l
276 0 _l
206 0 158 13 132 39 _c
106 65 93 112 93 180 _c
93 477 _l
27 477 _l
27 547 _l
93 547 _l
93 702 _l
183 702 _l
_cl}_d
/u{634 0 85 -13 543 547 _sc
85 216 _m
85 547 _l
175 547 _l
175 219 _l
175 167 185 129 205 103 _c
225 77 255 64 296 64 _c
344 64 383 79 411 110 _c
439 141 453 183 453 237 _c
453 547 _l
543 547 _l
543 0 _l
453 0 _l
453 84 _l
431 50 405 26 377 10 _c
348 -5 315 -13 277 -13 _c
214 -13 166 6 134 45 _c
101 83 85 140 85 216 _c
_cl}_d
/v{592 0 30 0 562 547 _sc
30 547 _m
125 547 _l
296 88 _l
467 547 _l
562 547 _l
357 0 _l
235 0 _l
30 547 _l
_cl}_d
end readonly def

/BuildGlyph
 {exch begin
 CharStrings exch
 2 copy known not{pop /.notdef}if
 true 3 1 roll get exec
 end}_d

/BuildChar {
 1 index /Encoding get exch get
 1 index /BuildGlyph get exec
}_d

FontName currentdict end definefont pop
end
%%EndProlog
mpldict begin
-115.2 97.2 translate
842.4 597.6 0 0 clipbox
gsave
0 0 m
842.4 0 l
842.4 597.6 l
0 597.6 l
cl
1.000 setgray
fill
grestore
gsave
105.3 59.76 m
758.16 59.76 l
758.16 537.84 l
105.3 537.84 l
cl
1.000 setgray
fill
grestore
1.000 setlinewidth
1 setlinejoin
2 setlinecap
[] 0 setdash
0.000 0.000 1.000 setrgbcolor
gsave
652.9 478.1 105.3 59.76 clipbox
105.3 407.885 m
107.911 407.885 l
110.523 369.501 l
113.134 366.557 l
115.746 366.557 l
118.357 357.257 l
120.969 354.489 l
123.58 341.243 l
126.192 341.243 l
128.803 340.195 l
139.249 340.191 l
141.86 334.177 l
144.472 331.338 l
147.083 331.182 l
154.917 331.182 l
157.529 326.801 l
165.363 326.801 l
167.975 324.019 l
170.586 323.596 l
173.197 321.814 l
175.809 321.814 l
178.42 319.204 l
183.643 319.204 l
186.255 318.495 l
188.866 317.244 l
191.478 317.244 l
194.089 315.463 l
196.7 315.463 l
199.312 314.659 l
201.923 314.659 l
204.535 314.133 l
207.146 313.004 l
209.758 312.235 l
217.592 312.235 l
220.203 311.231 l
222.815 310.648 l
225.426 310.648 l
228.038 309.607 l
230.649 309.475 l
233.261 309.475 l
235.872 307.624 l
238.483 307.293 l
243.706 305.88 l
248.929 305.796 l
251.541 304.86 l
254.152 304.86 l
256.764 303.983 l
269.821 303.927 l
272.432 302.196 l
277.655 302.196 l
280.266 301.797 l
282.878 301.235 l
293.324 301.151 l
295.935 300.158 l
306.381 300.158 l
308.992 299.936 l
311.604 299.498 l
314.215 299.498 l
316.827 299.332 l
319.438 299.332 l
322.05 298.968 l
324.661 298.833 l
327.272 298.475 l
329.884 298.277 l
332.495 298.244 l
335.107 297.549 l
337.718 297.348 l
340.33 297.348 l
345.552 296.993 l
348.164 296.993 l
353.387 296.536 l
355.998 296.124 l
361.221 296.124 l
363.833 295.936 l
366.444 295.547 l
369.055 295.362 l
374.278 295.362 l
376.89 295.221 l
382.113 295.178 l
389.947 294.384 l
392.558 294.384 l
395.17 294.041 l
403.004 293.942 l
405.616 293.624 l
410.838 293.51 l
418.673 293.327 l
421.284 293.082 l
423.896 293.082 l
426.507 292.918 l
436.953 292.825 l
442.176 292.682 l
450.01 292.419 l
452.622 292.216 l
460.456 292.108 l
470.902 291.796 l
476.124 291.613 l
483.959 291.545 l
491.793 291.397 l
507.462 291.152 l
512.685 290.915 l
523.13 290.849 l
528.353 290.736 l
549.245 290.518 l
557.079 290.41 l
604.085 290.05 l
622.365 289.967 l
643.257 289.816 l
677.205 289.679 l
732.046 289.476 l
755.549 289.403 l
755.549 289.403 l
stroke
grestore
0.000 0.500 0.000 setrgbcolor
gsave
652.9 478.1 105.3 59.76 clipbox
105.3 435.936 m
107.911 430.438 l
110.523 418.712 l
113.134 406.151 l
115.746 400.815 l
118.357 392.334 l
126.192 392.334 l
128.803 390.721 l
131.414 387.542 l
134.026 386.086 l
141.86 386.086 l
144.472 384.749 l
157.529 384.749 l
160.14 380.456 l
165.363 380.456 l
167.975 378.48 l
170.586 378.48 l
173.197 375.405 l
175.809 375.405 l
178.42 372.286 l
181.032 372.087 l
183.643 372.087 l
186.255 371.037 l
188.866 368.146 l
191.478 362.445 l
196.7 362.445 l
199.312 353.847 l
201.923 353.847 l
204.535 350.115 l
207.146 349.383 l
209.758 343.428 l
217.592 343.428 l
220.203 340.474 l
222.815 340.474 l
225.426 339.701 l
230.649 339.701 l
233.261 338.632 l
235.872 338.632 l
238.483 335.52 l
241.095 335.52 l
243.706 334.586 l
248.929 334.586 l
251.541 333.078 l
256.764 333.078 l
259.375 332.351 l
264.598 332.327 l
267.209 332.237 l
269.821 330.342 l
275.044 330.317 l
280.266 329.825 l
282.878 329.825 l
285.489 329.406 l
288.101 329.215 l
290.712 328.54 l
298.547 327.921 l
314.215 327.834 l
316.827 327.639 l
332.495 327.485 l
335.107 327.299 l
350.775 327.299 l
353.387 327.098 l
355.998 327.063 l
358.61 326.667 l
374.278 326.609 l
376.89 326.434 l
379.501 326.434 l
382.113 326.245 l
384.724 326.245 l
387.336 326.125 l
408.227 326.05 l
413.45 325.961 l
450.01 325.861 l
491.793 325.781 l
755.549 325.737 l
755.549 325.737 l
stroke
grestore
1.000 0.000 0.000 setrgbcolor
gsave
652.9 478.1 105.3 59.76 clipbox
105.3 470.098 m
107.911 469.359 l
110.523 436.806 l
113.134 436.806 l
115.746 436.348 l
118.357 423.6 l
120.969 423.6 l
123.58 422.203 l
126.192 417.755 l
134.026 417.755 l
136.637 417.569 l
139.249 413.36 l
149.694 413.36 l
152.306 411.091 l
154.917 411.091 l
157.529 405.565 l
160.14 400.716 l
162.752 399.89 l
165.363 395.472 l
167.975 392.413 l
170.586 392.413 l
173.197 392.233 l
175.809 388.532 l
181.032 388.532 l
183.643 384.363 l
186.255 382.811 l
188.866 382.303 l
191.478 382.303 l
194.089 375.335 l
196.7 374.37 l
199.312 372.516 l
201.923 370.933 l
204.535 369.631 l
212.369 369.631 l
214.98 367.35 l
217.592 367.35 l
220.203 365.712 l
228.038 365.712 l
230.649 365.588 l
233.261 364.67 l
235.872 364 l
238.483 362.069 l
241.095 359.728 l
251.541 359.728 l
256.764 357.19 l
261.986 357.104 l
264.598 356.454 l
267.209 356.25 l
282.878 356.25 l
285.489 355.921 l
290.712 355.921 l
293.324 355.565 l
295.935 354.265 l
301.158 354.246 l
303.769 353.961 l
306.381 353.391 l
316.827 353.391 l
319.438 352.846 l
327.272 352.846 l
329.884 352.547 l
335.107 352.476 l
337.718 352.158 l
348.164 352.157 l
350.775 351.963 l
358.61 351.93 l
366.444 351.736 l
382.113 351.679 l
387.336 351.619 l
392.558 351.574 l
397.781 351.486 l
413.45 351.387 l
421.284 351.348 l
463.067 351.238 l
656.314 351.147 l
755.549 351.145 l
755.549 351.145 l
stroke
grestore
0.000 0.750 0.750 setrgbcolor
gsave
652.9 478.1 105.3 59.76 clipbox
105.3 468.197 m
107.911 468.197 l
110.523 465.203 l
113.134 460.197 l
115.746 460.197 l
118.357 454.259 l
120.969 443.026 l
123.58 443.026 l
126.192 440.34 l
128.803 440.34 l
131.414 430.066 l
134.026 430.066 l
136.637 425.942 l
139.249 419.314 l
141.86 416.883 l
144.472 416.883 l
147.083 413.524 l
149.694 413.524 l
152.306 410.53 l
154.917 410.53 l
157.529 408.265 l
160.14 406.331 l
162.752 406.073 l
165.363 405.533 l
170.586 403.239 l
178.42 403.239 l
181.032 400.982 l
183.643 400.364 l
186.255 397.982 l
188.866 397.982 l
194.089 396.921 l
196.7 392.873 l
201.923 392.873 l
204.535 392.589 l
209.758 390.589 l
212.369 387.084 l
214.98 385.797 l
217.592 383.299 l
220.203 383.299 l
222.815 380.042 l
225.426 379.594 l
228.038 379.463 l
233.261 379.463 l
235.872 378.686 l
238.483 378.686 l
241.095 378.195 l
248.929 378.195 l
251.541 376.077 l
254.152 376.077 l
256.764 375.634 l
259.375 372.741 l
267.209 372.741 l
269.821 371.391 l
272.432 371.391 l
275.044 371.271 l
277.655 370.225 l
280.266 368.892 l
285.489 368.701 l
288.101 368.17 l
306.381 368.155 l
308.992 367.691 l
319.438 367.657 l
322.05 367.063 l
324.661 366.796 l
361.221 366.731 l
366.444 366.553 l
397.781 366.412 l
400.393 366.196 l
429.119 366.033 l
486.57 365.924 l
755.549 365.821 l
755.549 365.821 l
stroke
grestore
0.750 0.000 0.750 setrgbcolor
gsave
652.9 478.1 105.3 59.76 clipbox
105.3 518.458 m
107.911 486.204 l
110.523 486.204 l
113.134 482.219 l
115.746 471.591 l
118.357 471.591 l
120.969 469 l
123.58 459.433 l
126.192 459.433 l
128.803 454.471 l
131.414 454.008 l
134.026 434.338 l
139.249 434.338 l
141.86 425.25 l
144.472 421.426 l
147.083 421.426 l
149.694 418.393 l
152.306 416.799 l
154.917 412.717 l
160.14 412.717 l
162.752 407.489 l
165.363 407.489 l
167.975 406.243 l
170.586 405.673 l
175.809 405.673 l
178.42 404.466 l
181.032 402.062 l
186.255 402.062 l
188.866 399.598 l
191.478 399.234 l
194.089 399.234 l
196.7 397.624 l
217.592 397.624 l
220.203 396.369 l
222.815 396.369 l
225.426 393.515 l
228.038 393.515 l
230.649 388.831 l
233.261 388.831 l
235.872 388.231 l
238.483 387.835 l
241.095 387.835 l
246.318 386.495 l
248.929 384.359 l
251.541 382.875 l
254.152 377.989 l
264.598 377.899 l
267.209 376.912 l
269.821 376.912 l
272.432 375.963 l
288.101 375.931 l
290.712 375.61 l
295.935 375.45 l
298.547 375.45 l
301.158 375.135 l
306.381 373.723 l
311.604 373.723 l
314.215 373.31 l
329.884 373.209 l
332.495 373.046 l
337.718 373.046 l
340.33 372.737 l
342.941 372.737 l
345.552 372.171 l
350.775 372.095 l
353.387 371.972 l
363.833 371.972 l
366.444 371.854 l
374.278 371.85 l
376.89 371.689 l
382.113 371.644 l
384.724 371.512 l
395.17 371.444 l
400.393 371.348 l
408.227 371.297 l
450.01 371.218 l
455.233 371.159 l
619.754 371.032 l
755.549 371.026 l
755.549 371.026 l
stroke
grestore
0.750 0.750 0.000 setrgbcolor
gsave
652.9 478.1 105.3 59.76 clipbox
105.3 503.058 m
107.911 484.061 l
110.523 481.516 l
113.134 478.192 l
115.746 470.615 l
118.357 461.899 l
120.969 437.337 l
128.803 437.337 l
131.414 434.58 l
134.026 427.439 l
136.637 424.486 l
139.249 421.033 l
141.86 416.737 l
144.472 416.737 l
147.083 411.297 l
149.694 407.716 l
152.306 402.487 l
154.917 402.487 l
157.529 400.639 l
160.14 399.728 l
162.752 397.456 l
178.42 397.456 l
181.032 397.006 l
183.643 397.006 l
186.255 396.105 l
188.866 395.906 l
191.478 394.435 l
194.089 393.803 l
196.7 393.803 l
199.312 393.291 l
201.923 393.291 l
204.535 392.363 l
207.146 388.76 l
225.426 388.76 l
228.038 388.224 l
230.649 387.946 l
233.261 387.946 l
235.872 386.789 l
238.483 386.789 l
241.095 383.411 l
246.318 383.411 l
248.929 382.336 l
251.541 380.3 l
254.152 379.799 l
256.764 378.553 l
264.598 378.553 l
267.209 376.885 l
272.432 376.885 l
275.044 375.126 l
277.655 374.793 l
280.266 373.638 l
282.878 373.391 l
285.489 371.994 l
290.712 371.994 l
293.324 371.26 l
295.935 370.232 l
301.158 370.232 l
303.769 369.986 l
306.381 369.986 l
308.992 369.762 l
324.661 369.762 l
327.272 369.291 l
335.107 368.426 l
353.387 368.408 l
358.61 368.3 l
369.055 368.247 l
371.667 368.046 l
379.501 367.966 l
384.724 367.858 l
403.004 367.752 l
410.838 367.701 l
413.45 367.701 l
416.061 367.577 l
439.564 367.469 l
444.787 367.394 l
502.239 367.291 l
523.13 367.274 l
755.549 367.214 l
755.549 367.214 l
stroke
grestore
0.000 setgray
gsave
652.9 478.1 105.3 59.76 clipbox
105.3 480.077 m
107.911 477.778 l
110.523 447.436 l
113.134 447.436 l
118.357 435.547 l
120.969 433.756 l
123.58 414.765 l
131.414 414.765 l
134.026 409.684 l
136.637 408.104 l
139.249 402.616 l
141.86 401.326 l
144.472 397.355 l
147.083 396.546 l
149.694 390.281 l
152.306 389.84 l
154.917 387.508 l
157.529 386.044 l
160.14 385.975 l
162.752 384.185 l
167.975 384.185 l
170.586 380.984 l
173.197 380.491 l
181.032 380.491 l
183.643 377.384 l
191.478 377.384 l
194.089 374.336 l
196.7 374.336 l
199.312 372.202 l
201.923 372.202 l
204.535 371.598 l
209.758 371.598 l
212.369 370.958 l
214.98 369.046 l
217.592 369.046 l
220.203 365.351 l
222.815 365.169 l
228.038 365.169 l
230.649 364.021 l
238.483 364.021 l
241.095 362.931 l
246.318 362.931 l
248.929 362.592 l
251.541 362.014 l
256.764 362.014 l
261.986 361.63 l
267.209 361.01 l
269.821 360.206 l
272.432 360.206 l
275.044 359.949 l
277.655 359.567 l
280.266 358.884 l
285.489 358.803 l
288.101 357.703 l
293.324 357.608 l
303.769 357.425 l
314.215 357.425 l
316.827 357.183 l
319.438 357.183 l
322.05 356.889 l
324.661 356.889 l
327.272 356.762 l
329.884 356.762 l
332.495 356.366 l
335.107 356.366 l
337.718 355.924 l
342.941 355.924 l
345.552 355.588 l
348.164 355.588 l
350.775 355.236 l
353.387 355.236 l
355.998 354.436 l
369.055 354.399 l
374.278 354.205 l
376.89 354.205 l
379.501 354.07 l
400.393 353.972 l
413.45 353.811 l
426.507 353.721 l
429.119 353.59 l
442.176 353.493 l
457.844 353.443 l
551.856 353.333 l
656.314 353.278 l
755.549 353.26 l
755.549 353.26 l
stroke
grestore
0.000 0.000 1.000 setrgbcolor
gsave
652.9 478.1 105.3 59.76 clipbox
105.3 447.129 m
107.911 444.687 l
110.523 422.959 l
113.134 409.1 l
115.746 402.548 l
118.357 393.988 l
123.58 393.988 l
126.192 392.906 l
131.414 392.905 l
134.026 387.305 l
136.637 387.305 l
139.249 379.418 l
141.86 377.549 l
144.472 374.837 l
147.083 367.004 l
149.694 367.004 l
152.306 366.331 l
154.917 366.331 l
157.529 362.787 l
160.14 361.347 l
162.752 355.67 l
165.363 352.261 l
167.975 351.759 l
186.255 351.759 l
188.866 342.857 l
196.7 342.857 l
199.312 340.627 l
204.535 340.627 l
207.146 339.343 l
212.369 338.616 l
214.98 338.616 l
217.592 337.925 l
225.426 337.925 l
228.038 337.66 l
230.649 337.66 l
233.261 336.797 l
235.872 336.148 l
254.152 336.058 l
256.764 336.022 l
259.375 334.975 l
261.986 334.975 l
264.598 334.402 l
272.432 334.328 l
277.655 333.682 l
288.101 333.682 l
293.324 332.763 l
316.827 332.76 l
319.438 332.168 l
332.495 332.125 l
335.107 331.828 l
337.718 331.774 l
340.33 331.518 l
358.61 331.121 l
363.833 331.084 l
374.278 330.699 l
382.113 330.641 l
405.616 330.263 l
410.838 330.19 l
416.061 329.998 l
423.896 329.921 l
436.953 329.787 l
442.176 329.691 l
447.399 329.613 l
460.456 329.511 l
473.513 329.418 l
507.462 329.3 l
611.919 329.19 l
750.326 329.172 l
755.549 329.172 l
755.549 329.172 l
stroke
grestore
0.000 0.500 0.000 setrgbcolor
gsave
652.9 478.1 105.3 59.76 clipbox
105.3 366.191 m
107.911 359.484 l
110.523 357.734 l
115.746 357.734 l
118.357 356.387 l
120.969 353.802 l
126.192 353.802 l
128.803 353.143 l
131.414 351.363 l
136.637 350.276 l
139.249 350.276 l
141.86 348.091 l
144.472 348.091 l
147.083 332.763 l
149.694 332.763 l
152.306 325.133 l
160.14 325.13 l
162.752 324.236 l
165.363 324.236 l
167.975 323.993 l
170.586 323.993 l
173.197 315.487 l
178.42 315.487 l
181.032 314.564 l
183.643 314.564 l
188.866 312.857 l
191.478 309.8 l
196.7 309.8 l
199.312 308.048 l
204.535 308.048 l
207.146 305.274 l
209.758 305.14 l
214.98 305.14 l
220.203 304.021 l
225.426 303.122 l
228.038 302.412 l
230.649 302.412 l
233.261 301.09 l
235.872 300.821 l
243.706 300.757 l
246.318 300.13 l
248.929 297.6 l
259.375 297.6 l
261.986 297.153 l
272.432 297.153 l
275.044 296.949 l
277.655 296.585 l
280.266 296.585 l
282.878 294.745 l
308.992 294.706 l
311.604 294.512 l
314.215 293.955 l
322.05 293.866 l
324.661 293.536 l
329.884 293.455 l
332.495 293.455 l
335.107 293.228 l
345.552 293.149 l
348.164 292.913 l
353.387 292.913 l
355.998 292.67 l
371.667 292.583 l
376.89 292.492 l
410.838 292.25 l
413.45 292.107 l
447.399 291.999 l
481.347 291.869 l
755.549 291.771 l
755.549 291.771 l
stroke
grestore
1.000 0.000 0.000 setrgbcolor
gsave
652.9 478.1 105.3 59.76 clipbox
105.3 298.627 m
107.911 288.793 l
110.523 288.793 l
113.134 282.099 l
115.746 276.904 l
120.969 276.904 l
123.58 274.621 l
136.637 274.621 l
139.249 274.166 l
147.083 274.166 l
149.694 271.34 l
152.306 271.34 l
154.917 269.449 l
160.14 269.449 l
162.752 257.767 l
173.197 257.767 l
175.809 251.597 l
181.032 251.597 l
183.643 249.735 l
191.478 249.713 l
194.089 249.029 l
196.7 248.542 l
204.535 248.542 l
207.146 247.271 l
209.758 247.271 l
212.369 247.079 l
214.98 243.573 l
225.426 243.512 l
228.038 243.124 l
233.261 243.124 l
235.872 242.875 l
238.483 242.875 l
241.095 242.753 l
243.706 242.753 l
246.318 242.098 l
248.929 242.098 l
251.541 240.606 l
254.152 240.336 l
256.764 240.336 l
261.986 239.32 l
264.598 239.32 l
267.209 239.026 l
269.821 238.979 l
272.432 238.465 l
288.101 238.142 l
290.712 237.746 l
295.935 237.746 l
298.547 236.412 l
303.769 236.412 l
306.381 236.143 l
311.604 236.122 l
314.215 235.418 l
324.661 235.418 l
327.272 235.152 l
332.495 235.088 l
335.107 234.762 l
342.941 234.762 l
348.164 234.125 l
353.387 234.125 l
355.998 233.981 l
366.444 233.879 l
369.055 233.593 l
371.667 233.593 l
374.278 233.457 l
397.781 233.352 l
400.393 233.342 l
403.004 233.186 l
426.507 233.08 l
483.959 232.777 l
525.742 232.676 l
554.468 232.634 l
617.142 232.598 l
755.549 232.562 l
755.549 232.562 l
stroke
grestore
0.000 0.750 0.750 setrgbcolor
gsave
652.9 478.1 105.3 59.76 clipbox
105.3 349.901 m
107.911 177.16 l
110.523 139.426 l
113.134 132.593 l
115.746 126.629 l
118.357 123.028 l
120.969 103.071 l
123.58 89.8176 l
126.192 78.1487 l
136.637 78.1483 l
139.249 76.8213 l
141.86 76.8213 l
144.472 75.9836 l
147.083 64.1573 l
220.203 64.1512 l
222.815 62.3628 l
261.986 62.3628 l
267.209 62.0459 l
277.655 62.0459 l
280.266 61.5047 l
311.604 61.4002 l
314.215 60.5485 l
342.941 60.5485 l
345.552 60.3443 l
348.164 59.9639 l
447.399 59.8604 l
491.793 59.8119 l
755.549 59.7607 l
755.549 59.7607 l
stroke
grestore
0.500 setlinewidth
0 setlinecap
0.000 setgray
gsave
/o {
gsave
newpath
translate
0 0 m
0 4 l
gsave
0.000 setgray
fill
grestore
stroke
grestore
} bind def
105.3 59.76 o
grestore
gsave
/o {
gsave
newpath
translate
0 0 m
0 -4 l
gsave
0.000 setgray
fill
grestore
stroke
grestore
} bind def
105.3 537.84 o
grestore
/BitstreamVeraSans-Roman findfont
12.000 scalefont
setfont
gsave
102.276562 46.681875 translate
0.000000 rotate
0.000000 0.171875 m /zero glyphshow
grestore
gsave
/o {
gsave
newpath
translate
0 0 m
0 4 l
gsave
0.000 setgray
fill
grestore
stroke
grestore
} bind def
235.872 59.76 o
grestore
gsave
/o {
gsave
newpath
translate
0 0 m
0 -4 l
gsave
0.000 setgray
fill
grestore
stroke
grestore
} bind def
235.872 537.84 o
grestore
gsave
229.090750 46.681875 translate
0.000000 rotate
0.000000 0.171875 m /five glyphshow
7.634766 0.171875 m /zero glyphshow
grestore
gsave
/o {
gsave
newpath
translate
0 0 m
0 4 l
gsave
0.000 setgray
fill
grestore
stroke
grestore
} bind def
366.444 59.76 o
grestore
gsave
/o {
gsave
newpath
translate
0 0 m
0 -4 l
gsave
0.000 setgray
fill
grestore
stroke
grestore
} bind def
366.444 537.84 o
grestore
gsave
356.037750 46.681875 translate
0.000000 rotate
0.000000 0.171875 m /one glyphshow
7.634766 0.171875 m /zero glyphshow
15.269531 0.171875 m /zero glyphshow
grestore
gsave
/o {
gsave
newpath
translate
0 0 m
0 4 l
gsave
0.000 setgray
fill
grestore
stroke
grestore
} bind def
497.016 59.76 o
grestore
gsave
/o {
gsave
newpath
translate
0 0 m
0 -4 l
gsave
0.000 setgray
fill
grestore
stroke
grestore
} bind def
497.016 537.84 o
grestore
gsave
486.609750 46.681875 translate
0.000000 rotate
0.000000 0.171875 m /one glyphshow
7.634766 0.171875 m /five glyphshow
15.269531 0.171875 m /zero glyphshow
grestore
gsave
/o {
gsave
newpath
translate
0 0 m
0 4 l
gsave
0.000 setgray
fill
grestore
stroke
grestore
} bind def
627.588 59.76 o
grestore
gsave
/o {
gsave
newpath
translate
0 0 m
0 -4 l
gsave
0.000 setgray
fill
grestore
stroke
grestore
} bind def
627.588 537.84 o
grestore
gsave
616.963000 46.681875 translate
0.000000 rotate
0.000000 0.171875 m /two glyphshow
7.634766 0.171875 m /zero glyphshow
15.269531 0.171875 m /zero glyphshow
grestore
gsave
/o {
gsave
newpath
translate
0 0 m
0 4 l
gsave
0.000 setgray
fill
grestore
stroke
grestore
} bind def
758.16 59.76 o
grestore
gsave
/o {
gsave
newpath
translate
0 0 m
0 -4 l
gsave
0.000 setgray
fill
grestore
stroke
grestore
} bind def
758.16 537.84 o
grestore
gsave
747.535000 46.681875 translate
0.000000 rotate
0.000000 0.171875 m /two glyphshow
7.634766 0.171875 m /five glyphshow
15.269531 0.171875 m /zero glyphshow
grestore
gsave
399.089375 32.385000 translate
0.000000 rotate
0.000000 0.171875 m /G glyphshow
9.298828 0.171875 m /e glyphshow
16.681641 0.171875 m /n glyphshow
24.287109 0.171875 m /e glyphshow
31.669922 0.171875 m /r glyphshow
36.603516 0.171875 m /a glyphshow
43.957031 0.171875 m /t glyphshow
48.662109 0.171875 m /i glyphshow
51.996094 0.171875 m /o glyphshow
59.337891 0.171875 m /n glyphshow
grestore
gsave
/o {
gsave
newpath
translate
0 0 m
4 0 l
gsave
0.000 setgray
fill
grestore
stroke
grestore
} bind def
105.3 59.76 o
grestore
gsave
/o {
gsave
newpath
translate
0 0 m
-4 0 l
gsave
0.000 setgray
fill
grestore
stroke
grestore
} bind def
758.16 59.76 o
grestore
gsave
83.800000 55.220937 translate
0.000000 rotate
0.000000 0.171875 m /zero glyphshow
7.634766 0.171875 m /period glyphshow
11.449219 0.171875 m /zero glyphshow
grestore
gsave
/o {
gsave
newpath
translate
0 0 m
4 0 l
gsave
0.000 setgray
fill
grestore
stroke
grestore
} bind def
105.3 128.057 o
grestore
gsave
/o {
gsave
newpath
translate
0 0 m
-4 0 l
gsave
0.000 setgray
fill
grestore
stroke
grestore
} bind def
758.16 128.057 o
grestore
gsave
84.206250 123.518080 translate
0.000000 rotate
0.000000 0.171875 m /zero glyphshow
7.634766 0.171875 m /period glyphshow
11.449219 0.171875 m /two glyphshow
grestore
gsave
/o {
gsave
newpath
translate
0 0 m
4 0 l
gsave
0.000 setgray
fill
grestore
stroke
grestore
} bind def
105.3 196.354 o
grestore
gsave
/o {
gsave
newpath
translate
0 0 m
-4 0 l
gsave
0.000 setgray
fill
grestore
stroke
grestore
} bind def
758.16 196.354 o
grestore
gsave
83.675000 191.815223 translate
0.000000 rotate
0.000000 0.171875 m /zero glyphshow
7.634766 0.171875 m /period glyphshow
11.449219 0.171875 m /four glyphshow
grestore
gsave
/o {
gsave
newpath
translate
0 0 m
4 0 l
gsave
0.000 setgray
fill
grestore
stroke
grestore
} bind def
105.3 264.651 o
grestore
gsave
/o {
gsave
newpath
translate
0 0 m
-4 0 l
gsave
0.000 setgray
fill
grestore
stroke
grestore
} bind def
758.16 264.651 o
grestore
gsave
83.768750 260.112366 translate
0.000000 rotate
0.000000 0.171875 m /zero glyphshow
7.634766 0.171875 m /period glyphshow
11.449219 0.171875 m /six glyphshow
grestore
gsave
/o {
gsave
newpath
translate
0 0 m
4 0 l
gsave
0.000 setgray
fill
grestore
stroke
grestore
} bind def
105.3 332.949 o
grestore
gsave
/o {
gsave
newpath
translate
0 0 m
-4 0 l
gsave
0.000 setgray
fill
grestore
stroke
grestore
} bind def
758.16 332.949 o
grestore
gsave
83.831250 328.409509 translate
0.000000 rotate
0.000000 0.171875 m /zero glyphshow
7.634766 0.171875 m /period glyphshow
11.449219 0.171875 m /eight glyphshow
grestore
gsave
/o {
gsave
newpath
translate
0 0 m
4 0 l
gsave
0.000 setgray
fill
grestore
stroke
grestore
} bind def
105.3 401.246 o
grestore
gsave
/o {
gsave
newpath
translate
0 0 m
-4 0 l
gsave
0.000 setgray
fill
grestore
stroke
grestore
} bind def
758.16 401.246 o
grestore
gsave
84.315625 396.706652 translate
0.000000 rotate
0.000000 0.171875 m /one glyphshow
7.634766 0.171875 m /period glyphshow
11.449219 0.171875 m /zero glyphshow
grestore
gsave
/o {
gsave
newpath
translate
0 0 m
4 0 l
gsave
0.000 setgray
fill
grestore
stroke
grestore
} bind def
105.3 469.543 o
grestore
gsave
/o {
gsave
newpath
translate
0 0 m
-4 0 l
gsave
0.000 setgray
fill
grestore
stroke
grestore
} bind def
758.16 469.543 o
grestore
gsave
84.721875 465.089732 translate
0.000000 rotate
0.000000 0.000000 m /one glyphshow
7.634766 0.000000 m /period glyphshow
11.449219 0.000000 m /two glyphshow
grestore
gsave
/o {
gsave
newpath
translate
0 0 m
4 0 l
gsave
0.000 setgray
fill
grestore
stroke
grestore
} bind def
105.3 537.84 o
grestore
gsave
/o {
gsave
newpath
translate
0 0 m
-4 0 l
gsave
0.000 setgray
fill
grestore
stroke
grestore
} bind def
758.16 537.84 o
grestore
gsave
84.190625 533.465000 translate
0.000000 rotate
0.000000 0.000000 m /one glyphshow
7.634766 0.000000 m /period glyphshow
11.449219 0.000000 m /four glyphshow
grestore
gsave
78.675000 257.229688 translate
90.000000 rotate
0.000000 2.500000 m /E glyphshow
7.582031 2.500000 m /n glyphshow
15.187500 2.500000 m /t glyphshow
19.892578 2.500000 m /a glyphshow
27.246094 2.500000 m /n glyphshow
34.851562 2.500000 m /g glyphshow
42.468750 2.500000 m /l glyphshow
45.802734 2.500000 m /e glyphshow
53.185547 2.500000 m /m glyphshow
64.875000 2.500000 m /e glyphshow
72.257812 2.500000 m /n glyphshow
79.863281 2.500000 m /t glyphshow
grestore
1.000 setlinewidth
2 setlinecap
gsave
105.3 537.84 m
758.16 537.84 l
stroke
grestore
gsave
758.16 59.76 m
758.16 537.84 l
stroke
grestore
gsave
105.3 59.76 m
758.16 59.76 l
stroke
grestore
gsave
105.3 59.76 m
105.3 537.84 l
stroke
grestore
/BitstreamVeraSans-Roman findfont
14.400 scalefont
setfont
gsave
273.480000 540.996250 translate
0.000000 rotate
0.000000 1.843750 m /E glyphshow
9.082642 1.843750 m /v glyphshow
17.589722 1.843750 m /o glyphshow
26.384583 1.843750 m /l glyphshow
30.378418 1.843750 m /u glyphshow
39.489136 1.843750 m /t glyphshow
45.125427 1.843750 m /i glyphshow
49.119263 1.843750 m /o glyphshow
57.914124 1.843750 m /n glyphshow
67.024841 1.843750 m /space glyphshow
71.594238 1.843750 m /o glyphshow
80.389099 1.843750 m /f glyphshow
85.449829 1.843750 m /space glyphshow
90.019226 1.843750 m /three glyphshow
99.165039 1.843750 m /d glyphshow
108.289795 1.843750 m /eight glyphshow
117.435608 1.843750 m /space glyphshow
122.005005 1.843750 m /parenleft glyphshow
127.613220 1.843750 m /m glyphshow
141.616211 1.843750 m /e glyphshow
150.460205 1.843750 m /a glyphshow
159.269104 1.843750 m /s glyphshow
166.758423 1.843750 m /u glyphshow
175.869141 1.843750 m /r glyphshow
181.404175 1.843750 m /e glyphshow
190.248169 1.843750 m /colon glyphshow
195.091309 1.843750 m /space glyphshow
199.660706 1.843750 m /H glyphshow
210.470032 1.843750 m /i glyphshow
214.463867 1.843750 m /l glyphshow
218.457703 1.843750 m /b glyphshow
227.582458 1.843750 m /e glyphshow
236.426453 1.843750 m /r glyphshow
242.336487 1.843750 m /t glyphshow
247.972778 1.843750 m /hyphen glyphshow
253.159851 1.843750 m /S glyphshow
262.284607 1.843750 m /c glyphshow
270.188049 1.843750 m /h glyphshow
279.298767 1.843750 m /m glyphshow
293.301758 1.843750 m /i glyphshow
297.295593 1.843750 m /d glyphshow
306.420349 1.843750 m /t glyphshow
312.056641 1.843750 m /parenright glyphshow
grestore
gsave
601.183 298.104 m
750.96 298.104 l
750.96 530.64 l
601.183 530.64 l
601.183 298.104 l
cl
gsave
1.000 setgray
fill
grestore
stroke
grestore
0.000 0.000 1.000 setrgbcolor
gsave
611.263 519.279 m
631.423 519.279 l
stroke
grestore
0.000 setgray
gsave
647.262500 511.333125 translate
0.000000 rotate
0.000000 2.906250 m /p glyphshow
9.124756 2.906250 m /space glyphshow
13.694153 2.906250 m /equal glyphshow
25.738831 2.906250 m /space glyphshow
30.308228 2.906250 m /zero glyphshow
39.454041 2.906250 m /period glyphshow
44.023438 2.906250 m /zero glyphshow
53.169250 2.906250 m /zero glyphshow
62.315063 2.906250 m /zero glyphshow
71.460876 2.906250 m /zero glyphshow
80.606689 2.906250 m /zero glyphshow
89.752502 2.906250 m /zero glyphshow
grestore
0.000 0.500 0.000 setrgbcolor
gsave
611.263 498.533 m
631.423 498.533 l
stroke
grestore
0.000 setgray
gsave
647.262500 490.586250 translate
0.000000 rotate
0.000000 2.906250 m /p glyphshow
9.124756 2.906250 m /space glyphshow
13.694153 2.906250 m /equal glyphshow
25.738831 2.906250 m /space glyphshow
30.308228 2.906250 m /zero glyphshow
39.454041 2.906250 m /period glyphshow
44.023438 2.906250 m /one glyphshow
53.169250 2.906250 m /zero glyphshow
62.315063 2.906250 m /zero glyphshow
71.460876 2.906250 m /zero glyphshow
80.606689 2.906250 m /zero glyphshow
89.752502 2.906250 m /zero glyphshow
grestore
1.000 0.000 0.000 setrgbcolor
gsave
611.263 477.786 m
631.423 477.786 l
stroke
grestore
0.000 setgray
gsave
647.262500 469.839375 translate
0.000000 rotate
0.000000 2.906250 m /p glyphshow
9.124756 2.906250 m /space glyphshow
13.694153 2.906250 m /equal glyphshow
25.738831 2.906250 m /space glyphshow
30.308228 2.906250 m /zero glyphshow
39.454041 2.906250 m /period glyphshow
44.023438 2.906250 m /two glyphshow
53.169250 2.906250 m /zero glyphshow
62.315063 2.906250 m /zero glyphshow
71.460876 2.906250 m /zero glyphshow
80.606689 2.906250 m /zero glyphshow
89.752502 2.906250 m /zero glyphshow
grestore
0.000 0.750 0.750 setrgbcolor
gsave
611.263 457.039 m
631.423 457.039 l
stroke
grestore
0.000 setgray
gsave
647.262500 449.092500 translate
0.000000 rotate
0.000000 2.906250 m /p glyphshow
9.124756 2.906250 m /space glyphshow
13.694153 2.906250 m /equal glyphshow
25.738831 2.906250 m /space glyphshow
30.308228 2.906250 m /zero glyphshow
39.454041 2.906250 m /period glyphshow
44.023438 2.906250 m /three glyphshow
53.169250 2.906250 m /zero glyphshow
62.315063 2.906250 m /zero glyphshow
71.460876 2.906250 m /zero glyphshow
80.606689 2.906250 m /zero glyphshow
89.752502 2.906250 m /zero glyphshow
grestore
0.750 0.000 0.750 setrgbcolor
gsave
611.263 436.292 m
631.423 436.292 l
stroke
grestore
0.000 setgray
gsave
647.262500 428.345625 translate
0.000000 rotate
0.000000 2.906250 m /p glyphshow
9.124756 2.906250 m /space glyphshow
13.694153 2.906250 m /equal glyphshow
25.738831 2.906250 m /space glyphshow
30.308228 2.906250 m /zero glyphshow
39.454041 2.906250 m /period glyphshow
44.023438 2.906250 m /four glyphshow
53.169250 2.906250 m /zero glyphshow
62.315063 2.906250 m /zero glyphshow
71.460876 2.906250 m /zero glyphshow
80.606689 2.906250 m /zero glyphshow
89.752502 2.906250 m /zero glyphshow
grestore
0.750 0.750 0.000 setrgbcolor
gsave
611.263 415.545 m
631.423 415.545 l
stroke
grestore
0.000 setgray
gsave
647.262500 407.598750 translate
0.000000 rotate
0.000000 2.906250 m /p glyphshow
9.124756 2.906250 m /space glyphshow
13.694153 2.906250 m /equal glyphshow
25.738831 2.906250 m /space glyphshow
30.308228 2.906250 m /zero glyphshow
39.454041 2.906250 m /period glyphshow
44.023438 2.906250 m /five glyphshow
53.169250 2.906250 m /zero glyphshow
62.315063 2.906250 m /zero glyphshow
71.460876 2.906250 m /zero glyphshow
80.606689 2.906250 m /zero glyphshow
89.752502 2.906250 m /zero glyphshow
grestore
gsave
611.263 394.798 m
631.423 394.798 l
stroke
grestore
gsave
647.262500 386.851875 translate
0.000000 rotate
0.000000 2.906250 m /p glyphshow
9.124756 2.906250 m /space glyphshow
13.694153 2.906250 m /equal glyphshow
25.738831 2.906250 m /space glyphshow
30.308228 2.906250 m /zero glyphshow
39.454041 2.906250 m /period glyphshow
44.023438 2.906250 m /six glyphshow
53.169250 2.906250 m /zero glyphshow
62.315063 2.906250 m /zero glyphshow
71.460876 2.906250 m /zero glyphshow
80.606689 2.906250 m /zero glyphshow
89.752502 2.906250 m /zero glyphshow
grestore
0.000 0.000 1.000 setrgbcolor
gsave
611.263 374.051 m
631.423 374.051 l
stroke
grestore
0.000 setgray
gsave
647.262500 366.105000 translate
0.000000 rotate
0.000000 2.906250 m /p glyphshow
9.124756 2.906250 m /space glyphshow
13.694153 2.906250 m /equal glyphshow
25.738831 2.906250 m /space glyphshow
30.308228 2.906250 m /zero glyphshow
39.454041 2.906250 m /period glyphshow
44.023438 2.906250 m /seven glyphshow
53.169250 2.906250 m /zero glyphshow
62.315063 2.906250 m /zero glyphshow
71.460876 2.906250 m /zero glyphshow
80.606689 2.906250 m /zero glyphshow
89.752502 2.906250 m /zero glyphshow
grestore
0.000 0.500 0.000 setrgbcolor
gsave
611.263 353.304 m
631.423 353.304 l
stroke
grestore
0.000 setgray
gsave
647.262500 345.358125 translate
0.000000 rotate
0.000000 2.906250 m /p glyphshow
9.124756 2.906250 m /space glyphshow
13.694153 2.906250 m /equal glyphshow
25.738831 2.906250 m /space glyphshow
30.308228 2.906250 m /zero glyphshow
39.454041 2.906250 m /period glyphshow
44.023438 2.906250 m /eight glyphshow
53.169250 2.906250 m /zero glyphshow
62.315063 2.906250 m /zero glyphshow
71.460876 2.906250 m /zero glyphshow
80.606689 2.906250 m /zero glyphshow
89.752502 2.906250 m /zero glyphshow
grestore
1.000 0.000 0.000 setrgbcolor
gsave
611.263 332.558 m
631.423 332.558 l
stroke
grestore
0.000 setgray
gsave
647.262500 324.611250 translate
0.000000 rotate
0.000000 2.906250 m /p glyphshow
9.124756 2.906250 m /space glyphshow
13.694153 2.906250 m /equal glyphshow
25.738831 2.906250 m /space glyphshow
30.308228 2.906250 m /zero glyphshow
39.454041 2.906250 m /period glyphshow
44.023438 2.906250 m /nine glyphshow
53.169250 2.906250 m /zero glyphshow
62.315063 2.906250 m /zero glyphshow
71.460876 2.906250 m /zero glyphshow
80.606689 2.906250 m /zero glyphshow
89.752502 2.906250 m /zero glyphshow
grestore
0.000 0.750 0.750 setrgbcolor
gsave
611.263 311.811 m
631.423 311.811 l
stroke
grestore
0.000 setgray
gsave
647.262500 303.864375 translate
0.000000 rotate
0.000000 2.906250 m /p glyphshow
9.124756 2.906250 m /space glyphshow
13.694153 2.906250 m /equal glyphshow
25.738831 2.906250 m /space glyphshow
30.308228 2.906250 m /one glyphshow
39.454041 2.906250 m /period glyphshow
44.023438 2.906250 m /zero glyphshow
53.169250 2.906250 m /zero glyphshow
62.315063 2.906250 m /zero glyphshow
71.460876 2.906250 m /zero glyphshow
80.606689 2.906250 m /zero glyphshow
89.752502 2.906250 m /zero glyphshow
grestore

end
showpage
