0.000000000000	0.010000000000	0.020000000000	0.030000000000	0.040000000000	0.050000000000	0.060000000000	0.070000000000	0.080000000000	0.090000000000	0.100000000000	0.110000000000	0.120000000000	0.130000000000	0.140000000000	0.150000000000	0.160000000000	0.170000000000	0.180000000000	0.190000000000	0.200000000000	0.210000000000	0.220000000000	0.230000000000	0.240000000000	0.250000000000	0.260000000000	0.270000000000	0.280000000000	0.290000000000	0.300000000000	0.310000000000	0.320000000000	0.330000000000	0.340000000000	0.350000000000	0.360000000000	0.370000000000	0.380000000000	0.390000000000	0.400000000000	0.410000000000	0.420000000000	0.430000000000	0.440000000000	0.450000000000	0.460000000000	0.470000000000	0.480000000000	0.490000000000	0.500000000000	
0.890602106332	0.428613590952	0.800037743808	0.685707429340	0.514390397833	0.562778086600	0.258215498754	0.695127915823	0.502807952264	0.438998421675	0.549693951511	0.447650571734	0.338979792369	0.403704923782	0.623165387378	0.392708296934	0.284204743350	0.197050849407	0.460490051671	0.400041077993	0.494726533628	0.239955098284	0.408043268620	0.471997156424	0.174193860547	0.474885447215	0.216792270345	0.431493301436	0.480756534240	0.466612230508	0.363037270572	0.534014946783	0.211166513448	0.394510365969	0.476828770964	0.289430073913	0.394436449890	0.612565346378	0.408828088133	0.418101599806	0.505665130100	0.631737005146	0.426663915234	0.366211649957	0.499369878073	0.481150060713	0.825315834380	0.719902476647	0.464471645039	0.565808695192	0.504201328395	
0.513149599085	0.428613590952	0.396340916906	0.586093384646	0.514390397833	0.493223096463	0.258215498754	0.240009031333	0.273240304644	0.401669289149	0.289278100310	0.411556360329	0.256956469973	0.265507061169	0.261030772591	0.328536219233	0.210065491717	0.197050849407	0.189794533431	0.290501413029	0.224289493565	0.239955098284	0.255822967292	0.342507768404	0.174193860547	0.178014435646	0.216792270345	0.222268501366	0.258598593864	0.283113892616	0.269937030266	0.371863628836	0.211166513448	0.213252635538	0.240869441442	0.289430073913	0.287061958012	0.409107446402	0.294746837493	0.129924970515	0.329357879200	0.393510461824	0.315816183940	0.265550457874	0.369199475346	0.442190424215	0.297948632281	0.446466310547	0.435693481662	0.411423359819	0.504201328395	
0.474104956888	0.320349563359	0.396340916906	0.371764334215	0.414815415270	0.278991196468	0.258215498754	0.214509381247	0.224025756355	0.211825487464	0.289278100310	0.281345934922	0.256956469973	0.243284399808	0.253139243786	0.259458869841	0.205330122503	0.094467710617	0.189794533431	0.183516070283	0.224289493565	0.129585411506	0.255822967292	0.171164416210	0.094561961665	0.178014435646	0.182604607787	0.162435935699	0.228476821751	0.267645319207	0.269937030266	0.209743475649	0.117615100057	0.207725321507	0.204471904988	0.246167316319	0.228463904472	0.294587180262	0.241727231642	0.129924970515	0.132079017377	0.300025553314	0.272189007049	0.220027746491	0.268925875202	0.372772852012	0.297948632281	0.263197112311	0.368403625402	0.250861129923	0.416073446023	
0.446441871232	0.300486073994	0.293485461059	0.371764334215	0.352238735563	0.278991196468	0.166106758877	0.176082216826	0.211175112048	0.210007393817	0.201650400658	0.183958691281	0.246638785197	0.167228802809	0.197334074385	0.132776395941	0.154327741170	0.094467710617	0.086368515479	0.167665925891	0.178175386287	0.079652032628	0.135840416731	0.171164416210	0.094561961665	0.096778341691	0.166308397932	0.162435935699	0.161771750023	0.211327594997	0.181422206003	0.209743475649	0.111119427677	0.120482821977	0.204471904988	0.186246956347	0.194543236775	0.225605661991	0.128377403983	0.129924970515	0.132079017377	0.134834235885	0.215963082579	0.220027746491	0.222368576905	0.272886843806	0.297948632281	0.148238885225	0.270571571582	0.250861129923	0.258601539518	
0.367359394909	0.295143115322	0.242090496554	0.274317450116	0.302823700178	0.247359008319	0.079466799215	0.152801812901	0.092191750429	0.209805755290	0.191230722230	0.183958691281	0.175327594722	0.167228802809	0.167594682361	0.115074935739	0.103589862875	0.094467710617	0.086368515479	0.079247173169	0.124200288294	0.063329792520	0.083030855551	0.093136712403	0.094561961665	0.096105687914	0.091983228786	0.100871616585	0.161771750023	0.150415713139	0.181422206003	0.114104059019	0.111119427677	0.107175625362	0.111095506199	0.163251183909	0.086087581564	0.197247674561	0.128377403983	0.117448376761	0.132079017377	0.134834235885	0.138185902420	0.213115214729	0.217880570650	0.195503416271	0.256401855359	0.148238885225	0.156234478850	0.250861129923	0.258601539518	
0.348892246400	0.226885659686	0.209987476781	0.223836698680	0.260200423211	0.181980935145	0.079466799215	0.070205428125	0.092191750429	0.091223704119	0.166097986565	0.183958691281	0.168139616382	0.125464022556	0.133317519506	0.115074935739	0.082204113881	0.094467710617	0.069115583540	0.079247173169	0.073063610011	0.063329792520	0.065441471525	0.087250640920	0.071880417092	0.086602941633	0.091983228786	0.094495438179	0.099666910690	0.145931937805	0.152025584319	0.100412140815	0.098322223513	0.091366045192	0.109481936380	0.086118797019	0.086087581564	0.088817701492	0.128377403983	0.105186633715	0.102945571409	0.134834235885	0.133171574652	0.142129853086	0.137470928704	0.176276128017	0.140822493921	0.148238885225	0.156234478850	0.164808114144	0.258601539518	
0.276653502023	0.198432437854	0.182816061980	0.137485802224	0.210633884846	0.091297400598	0.079466799215	0.070205428125	0.063167249478	0.091223704119	0.092020508146	0.159894464216	0.168139616382	0.125464022556	0.116057297477	0.109067425897	0.067403686612	0.074667035912	0.063475775034	0.067358499978	0.047425989838	0.059458645453	0.065441471525	0.068394112976	0.071880417092	0.074231723831	0.089532310962	0.094495438179	0.089737132796	0.099177943367	0.110796480525	0.087080472030	0.090910409979	0.089423147714	0.065530830568	0.083983692084	0.086087581564	0.088817701492	0.092166795313	0.081851767879	0.102945571409	0.108058674895	0.133171574652	0.142129853086	0.137470928704	0.144289047063	0.140822493921	0.144842715288	0.156234478850	0.164808114144	0.173959096949	
0.204524157124	0.181806045613	0.162944693608	0.131981074330	0.132035705416	0.091297400598	0.072598941435	0.067260513500	0.063167249478	0.058093983272	0.092020508146	0.094422724122	0.135232048929	0.125464022556	0.116057297477	0.090815217670	0.067403686612	0.061979593304	0.063475775034	0.044290233948	0.047425989838	0.045179273091	0.061866626311	0.068394112976	0.056028423110	0.074231723831	0.077352627610	0.093211664609	0.089737132796	0.091775757898	0.097500667990	0.079051889352	0.078595165283	0.059923439369	0.065530830568	0.072036397355	0.079545318527	0.088817701492	0.071852064132	0.070099347376	0.087566641171	0.090025634364	0.113768226408	0.112255520989	0.137470928704	0.133986937701	0.140822493921	0.106958820058	0.152682441303	0.164808114144	0.173959096949	
0.204524157124	0.163192061554	0.147986883070	0.131053561032	0.106184807976	0.091297400598	0.072598941435	0.067139335407	0.059389917396	0.058093983272	0.054785567402	0.094422724122	0.098300397551	0.115148286589	0.112795238125	0.073901805741	0.063350395377	0.045308586117	0.052239605935	0.042959123525	0.039647775394	0.037647016407	0.043802438357	0.065115569615	0.056028423110	0.057771526399	0.039858688343	0.048287999253	0.089737132796	0.091775757898	0.084350527158	0.079051889352	0.055482089181	0.057627393095	0.060758364394	0.072036397355	0.057661276263	0.079897828090	0.071852064132	0.070099347376	0.072838792976	0.090025634364	0.090283904059	0.106753928745	0.114571454943	0.133986937701	0.137582191594	0.106958820058	0.115700111544	0.161100208988	0.173959096949	
0.195101022386	0.137080698046	0.113918097594	0.092664607913	0.106184807976	0.080627777756	0.056904099282	0.057417092710	0.054369520040	0.053484233733	0.054785567402	0.053082563483	0.098300397551	0.095341609895	0.100558564609	0.073901805741	0.063350395377	0.045308586117	0.036940929592	0.042959123525	0.039100845821	0.024611493722	0.036796887534	0.043266566068	0.021904202777	0.054101439081	0.039858688343	0.039228564250	0.050905364840	0.091775757898	0.077193704493	0.075518026274	0.054790003183	0.043930456158	0.056108964474	0.065123010166	0.057661276263	0.058709756598	0.067966382106	0.062719514690	0.072838792976	0.072650541199	0.090283904059	0.096696013657	0.110820233995	0.117472940175	0.098796730894	0.105019759132	0.115700111544	0.125019444698	0.170095324183	
0.162583624207	0.137080698046	0.102268428998	0.083401447891	0.088665046689	0.080627777756	0.055022714114	0.049926110676	0.051312972922	0.047451440360	0.049343400406	0.053082563483	0.052855017015	0.093231942831	0.081532168019	0.071731999435	0.049304533323	0.045308586117	0.036940929592	0.033446148724	0.028235221603	0.024611493722	0.024973978782	0.036787721109	0.021904202777	0.021330851128	0.038594022806	0.039228564250	0.039330529521	0.054238469000	0.077193704493	0.052348781647	0.037471494354	0.043930456158	0.048736383184	0.057239026376	0.050912414021	0.058709756598	0.060377210826	0.062461925152	0.062887753685	0.043526893372	0.077819143501	0.084575703480	0.103696781357	0.115472090522	0.098796730894	0.093827816052	0.111311289489	0.125019444698	0.134916125364	
0.129457371534	0.112413619561	0.101715153176	0.069883518892	0.074430183131	0.066451318181	0.036096252970	0.048680924556	0.044884537972	0.047155949803	0.045116605655	0.036035159740	0.052855017015	0.053995057930	0.081532168019	0.071731999435	0.049304533323	0.041413563288	0.036028731573	0.033446148724	0.025118890676	0.016326502853	0.024973978782	0.022456635718	0.016758002224	0.019451920352	0.021527096520	0.038397716526	0.029231841580	0.040148233365	0.058272356048	0.050319651289	0.037358885925	0.040243847437	0.038897112381	0.054185292000	0.050912414021	0.053004919316	0.058881083884	0.052400556979	0.057812434778	0.043526893372	0.047532250649	0.056266462854	0.088965842206	0.091215476813	0.098796730894	0.089526366533	0.100811659580	0.118180861516	0.134916125364	
0.129457371534	0.097165003722	0.072551114477	0.069883518892	0.061248246057	0.063933733965	0.036096252970	0.029991613796	0.041988613363	0.041339753392	0.044625449202	0.036035159740	0.033876886969	0.053995057930	0.056411791971	0.054374506349	0.049304533323	0.038569420966	0.036028731573	0.028276072479	0.025118890676	0.016326502853	0.016144013982	0.022456635718	0.016758002224	0.016719921582	0.018851000513	0.022473326230	0.029231841580	0.031564914935	0.041666720096	0.035362225562	0.037358885925	0.039746439830	0.038897112381	0.040953319814	0.050902291942	0.052372926158	0.055716398503	0.052400556979	0.040117984121	0.043526893372	0.047532250649	0.052129892058	0.058277349755	0.084378143677	0.087423174844	0.082725916604	0.097046083352	0.108373544778	0.125627781053	
0.123442349814	0.081704449142	0.072551114477	0.059344937370	0.061248246057	0.044770122437	0.036096252970	0.029991613796	0.026110167065	0.038331580617	0.039559819149	0.033154167453	0.033876886969	0.033086201580	0.056411791971	0.054374506349	0.046909154104	0.030732794372	0.025992913118	0.022960508472	0.017378873737	0.016326502853	0.014759444692	0.016802487557	0.016758002224	0.016719921582	0.015277343185	0.019000064991	0.024151645303	0.031564914935	0.034451268215	0.029240907566	0.026732218600	0.037483886739	0.038897112381	0.040953319814	0.043643743770	0.046286124833	0.049176227505	0.052400556979	0.040117984121	0.043526893372	0.047532250649	0.052129892058	0.057316191568	0.060873787932	0.082585852035	0.078857690901	0.089693288308	0.105143841840	0.116512777487	
0.118840168227	0.077106573001	0.063302375451	0.059344937370	0.051189744302	0.044548191972	0.036096252970	0.029991613796	0.026110167065	0.024193632775	0.036439398209	0.033154167453	0.031717261759	0.033086201580	0.033572209317	0.054374506349	0.041574609675	0.025061164697	0.025992913118	0.022960508472	0.017378873737	0.015555073375	0.014759444692	0.015016529303	0.016758002224	0.015832399610	0.014316322547	0.015800515849	0.019881218833	0.026545702950	0.033927516570	0.027435531860	0.026732218600	0.028545070462	0.038897112381	0.040953319814	0.043643743770	0.046286124833	0.049176227505	0.037310246517	0.040117984121	0.043526893372	0.047532250649	0.052129892058	0.057316191568	0.060873787932	0.064053174044	0.074936147313	0.085065797430	0.097238701683	0.113818947839	
0.097376205818	0.073994279657	0.057226672870	0.052596393117	0.051189744302	0.042845634032	0.036096252970	0.029991613796	0.026110167065	0.024193632775	0.024041948822	0.028268603525	0.031502607794	0.031647943448	0.033572209317	0.035257350595	0.035387887030	0.025061164697	0.019236916925	0.019333234581	0.017378873737	0.012339225841	0.007269018889	0.015016529303	0.011359685399	0.015159371405	0.013512651215	0.014441891056	0.017055777876	0.021478111248	0.026469449620	0.020675231616	0.024915217798	0.028545070462	0.031010505187	0.040953319814	0.043552549801	0.044405144234	0.046087929554	0.035724490632	0.040117984121	0.043526893372	0.047532250649	0.052129892058	0.057316191568	0.060873787932	0.064053174044	0.067813395240	0.082255626985	0.091851945628	0.105361462567	
0.097376205818	0.051866936060	0.057226672870	0.043031702514	0.046941394821	0.042615287410	0.034574242074	0.026092946648	0.024598446015	0.024193632775	0.023863670186	0.025495676818	0.028169580755	0.024779086008	0.032855318262	0.035257350595	0.029447818030	0.025061164697	0.019236916925	0.017255438436	0.017161221783	0.012339225841	0.007269018889	0.008300300110	0.011130637255	0.010252154485	0.008700518352	0.013772808590	0.015299548930	0.018423336953	0.023775786551	0.018508915379	0.022050585272	0.028545070462	0.023211920116	0.034118921702	0.043552549801	0.025777912976	0.035108989243	0.035724490632	0.040117984121	0.043526893372	0.047532250649	0.050571186964	0.057316191568	0.060873787932	0.064053174044	0.067813395240	0.072152818756	0.090153148327	0.099215441336	
0.073964747527	0.051866936060	0.038740119516	0.037409785858	0.040412443656	0.042615287410	0.033947760125	0.026092946648	0.022644930350	0.024193632775	0.023863670186	0.022836106953	0.023271310691	0.024779086008	0.024297755180	0.035257350595	0.029447818030	0.022196248242	0.017640993614	0.011311362382	0.012024579295	0.007078700114	0.007269018889	0.008300300110	0.010146406078	0.009466774460	0.008700518352	0.008822905041	0.014765055329	0.016661165520	0.019568982704	0.018508915379	0.016379789468	0.024089023219	0.023211920116	0.024776300254	0.037861554739	0.025777912976	0.028314317854	0.035724490632	0.040117984121	0.043526893372	0.047532250649	0.050528605467	0.051951771887	0.060873787932	0.064053174044	0.064012195079	0.072152818756	0.077070283942	0.098628017180	
0.073964747527	0.033457472688	0.035282186996	0.032163160023	0.031500176012	0.028055525567	0.026963511413	0.022784580097	0.020135736572	0.021161826492	0.023863670186	0.022836106953	0.023271310691	0.022340297012	0.024297755180	0.025015557894	0.029447818030	0.021924824537	0.017640993614	0.011311362382	0.012024579295	0.007078700114	0.006561264854	0.008300300110	0.010146406078	0.009328115980	0.008682810855	0.008822905041	0.009677381095	0.013251680742	0.016021252434	0.018508915379	0.016379789468	0.018604906372	0.023211920116	0.024776300254	0.023860481991	0.022607285835	0.028314317854	0.031463125992	0.040117984121	0.043526893372	0.047532250649	0.049477820172	0.051844195488	0.053917908086	0.064053174044	0.064012195079	0.071002543292	0.077070283942	0.082565096639	
0.072331875879	0.033457472688	0.022382023172	0.025476384632	0.025112002164	0.028055525567	0.023147857415	0.019454965506	0.019934787570	0.013386583812	0.021443572971	0.017039758622	0.020968608798	0.022340297012	0.022685976459	0.025015557894	0.026178536679	0.019696816184	0.011195269229	0.011311362382	0.007758263352	0.007078700114	0.006561264854	0.007549134784	0.008820416020	0.007416553612	0.008073498971	0.008822905041	0.009677381095	0.009807890843	0.015138767344	0.014817756855	0.016379789468	0.018604906372	0.021482606138	0.024776300254	0.023860481991	0.022607285835	0.025286029864	0.031463125992	0.035218414459	0.042718881177	0.045360598303	0.047081925872	0.051473320851	0.052248010836	0.056466992219	0.062994647834	0.071002543292	0.077070283942	0.082565096639	
0.063478167270	0.029925379611	0.022005486629	0.019002665012	0.020721566307	0.021856407523	0.021550381820	0.011970184989	0.018317929552	0.013386583812	0.012200466183	0.017039758622	0.017258517673	0.020846374884	0.019553138521	0.024230789447	0.024200055567	0.019341033557	0.011195269229	0.011311362382	0.007758263352	0.006414357370	0.005083713290	0.007549134784	0.008820416020	0.006610302871	0.006905526882	0.008713901413	0.009677381095	0.009733459355	0.011142354139	0.014817756855	0.014550663879	0.018604906372	0.021482606138	0.022087732593	0.020547515699	0.022607285831	0.025286029864	0.028577177154	0.034483461995	0.038973108332	0.040779566489	0.045267779564	0.048781914123	0.052248010836	0.054921123326	0.059596911437	0.069216505651	0.077070283942	0.082565096639	
0.062713517524	0.029925379611	0.019350102688	0.018635967160	0.020674290892	0.019762311198	0.017329942080	0.011737639294	0.009991897447	0.013386583812	0.012200466183	0.012619760505	0.017258517673	0.018844864107	0.019553138521	0.019822216879	0.022775595874	0.012057028904	0.011195269229	0.009339816550	0.007758263352	0.006414357370	0.002992601897	0.004746749975	0.008095396902	0.005971400473	0.006573311780	0.007072912343	0.008156665733	0.009588666195	0.011142354139	0.013163911180	0.014311041479	0.017469025240	0.021482606138	0.022087732593	0.020547515699	0.022607285831	0.025286029859	0.028577177149	0.032474804772	0.033680085692	0.040779566489	0.044934664667	0.046176935243	0.049945734310	0.054921123326	0.058175070899	0.063306032975	0.076016405138	0.082565096639	
0.052668742215	0.024279490963	0.019350102688	0.016408302993	0.016784602803	0.016515219724	0.016171664974	0.009814670327	0.009991897447	0.009978522345	0.012200466183	0.012619760505	0.013628439624	0.015443443560	0.017242847830	0.019610368452	0.021223538386	0.012057028904	0.009527883974	0.009339816550	0.007137331899	0.006261639050	0.002992601897	0.002740462589	0.004961499645	0.003992059293	0.005966580614	0.007072912343	0.007972387168	0.009588666195	0.010972179811	0.012295386809	0.011627865634	0.016035727407	0.021039969463	0.019113976010	0.020547515694	0.018522116157	0.025286029859	0.028577177148	0.032373001495	0.033680085692	0.036312510596	0.038853241599	0.046176935243	0.047671642200	0.052204754150	0.058175070899	0.062008220793	0.067593196183	0.082565096639	
0.046775149656	0.024279490963	0.017249681936	0.016408302993	0.013805194238	0.016003476006	0.012243033339	0.009814565261	0.008207272232	0.009978522345	0.011729997581	0.012619760505	0.013628439624	0.013493836833	0.016512535668	0.017889293261	0.013941745700	0.012057028904	0.009527883974	0.008190547907	0.007137331899	0.004085703652	0.002992601897	0.002740462589	0.003303148027	0.003674278726	0.004107162463	0.006205195339	0.007963991898	0.009587600565	0.010964681619	0.012295386809	0.011627865634	0.013823365483	0.018412996197	0.019113976010	0.020547515694	0.018522116157	0.022054261967	0.028577177148	0.031644108815	0.033680085692	0.036312510596	0.038853241599	0.041279125546	0.047671642200	0.049749297090	0.055044609075	0.062003317066	0.066419412357	0.072457706901	
0.046775149656	0.021124143377	0.014455459159	0.013875733560	0.012808587156	0.012838415520	0.012243033339	0.009814565261	0.008207253492	0.008564786577	0.011729997581	0.012619760505	0.013628439624	0.013493836833	0.014635927169	0.017889293261	0.013941745700	0.011843072870	0.007797257609	0.008161071556	0.007137331899	0.004085703652	0.002833499024	0.002740462589	0.003303148027	0.003674278726	0.003617986257	0.004972249951	0.006708326915	0.007967099330	0.010714669539	0.010095450076	0.011627865634	0.013823365483	0.016671448193	0.019113976006	0.015608944240	0.018522116157	0.018853181299	0.026198811038	0.031324450447	0.032988961707	0.035377406465	0.037029466043	0.041279125546	0.044290560770	0.047580706835	0.052407787066	0.058463666320	0.066414766832	0.071407951432	
0.040997157904	0.021124143377	0.014455459159	0.011136830059	0.011754706228	0.012838415520	0.011551446737	0.008795453085	0.008117975881	0.008564786577	0.010687151258	0.012619760505	0.013568088184	0.013493836833	0.013627575534	0.016900488315	0.013941745700	0.010921204723	0.006600845738	0.006375473240	0.006048687419	0.004085703652	0.002576027672	0.002600170946	0.003303148027	0.002708517893	0.003161843911	0.004311678106	0.006001842665	0.007967099330	0.010059779124	0.009665962904	0.011627865634	0.013288023060	0.016671448193	0.019113976006	0.015608944240	0.018522116157	0.018853181299	0.020709513523	0.027572649870	0.032898624228	0.035377406465	0.031583318809	0.023368915621	0.044290560770	0.024381574247	0.050781096376	0.055645479361	0.062460765235	0.071403564109	
0.036324904773	0.019929969992	0.013656551313	0.011136830059	0.011517093938	0.012838415520	0.009272950143	0.008795453085	0.007484485802	0.007673458603	0.010687151258	0.011970195506	0.012819067850	0.010912625290	0.012513607382	0.013389551439	0.013941745700	0.008732805399	0.006600845738	0.005825974851	0.005899285938	0.003907789549	0.002576027672	0.002540355827	0.003181667614	0.001610950211	0.003161843911	0.003673771704	0.005737459319	0.006072321689	0.009237594319	0.009665962904	0.011105414587	0.013288023060	0.015756718204	0.013322002770	0.015535963564	0.017609252337	0.018853181299	0.020709513523	0.023172326075	0.031099659579	0.035377406465	0.031081978071	0.023368915621	0.025179058557	0.024381574247	0.025770827721	0.054560688237	0.058614338727	0.067035211660	
0.035925871598	0.016905457914	0.013223704725	0.009463833923	0.011517093938	0.012804896575	0.008780758245	0.007474574450	0.007035930527	0.007254734416	0.008993791662	0.011970195506	0.011886696628	0.010912625290	0.011414857485	0.013087559530	0.012734121106	0.008353569453	0.006600845738	0.005288781259	0.005880780149	0.003452661964	0.002576027672	0.002540355827	0.002214753729	0.001610950211	0.002061616857	0.003243333466	0.004012696104	0.006072321689	0.007543177639	0.009665962904	0.008829033372	0.013207950562	0.015756718204	0.013322002770	0.015535963564	0.017195622743	0.018853181299	0.020709513523	0.023172326075	0.026236310274	0.031388074340	0.022144323962	0.023368915621	0.023573155858	0.024381574247	0.025770827721	0.027739283515	0.058614338727	0.064149833960	
0.035925871598	0.014501815070	0.013223704725	0.007224416256	0.009906266634	0.010049046284	0.008158228749	0.007474574450	0.006849739830	0.006877709924	0.008993791662	0.009325792580	0.010911537358	0.010473177532	0.008670739068	0.009860399115	0.009820274453	0.008353569453	0.006600845738	0.003712463690	0.005355045528	0.003452661964	0.002572877095	0.002540355827	0.001929880605	0.001572847427	0.002061616857	0.003243333466	0.004012696104	0.004954013663	0.007543177639	0.009665962904	0.008726342943	0.011086860691	0.011669277823	0.013154236421	0.015318249103	0.017195622743	0.018853181299	0.020709513523	0.022456551872	0.026236310274	0.029896742500	0.022144323962	0.023368915621	0.021445302813	0.024381574247	0.025770827721	0.027739283515	0.030285780978	0.059173102084	
0.034210934676	0.014501815070	0.011615911787	0.006135742119	0.008817538297	0.008171655547	0.007486160213	0.007474574450	0.006490128579	0.006877709924	0.008118164202	0.009092890133	0.009397935667	0.008938581532	0.008108373560	0.009860399115	0.009820274453	0.008353569453	0.006160296143	0.003712463690	0.003384491767	0.003450519884	0.002500831749	0.002512120327	0.001739293871	0.001533291276	0.001859434193	0.002926554399	0.003588216284	0.004954013663	0.006923320607	0.007234290343	0.007931775052	0.011042777566	0.011669277823	0.013154236421	0.015068779744	0.013837712877	0.018853181299	0.020709513523	0.022456551872	0.025401020739	0.021508390406	0.022144323962	0.023347685403	0.021445302813	0.021952937139	0.025770827721	0.024892959599	0.030285780978	0.033409625952	
0.032319763615	0.014404006973	0.010682278254	0.006135742119	0.004961175858	0.008171655547	0.006655264585	0.006511539634	0.006490128579	0.006877709924	0.007820937416	0.008940301879	0.008862915051	0.008660445837	0.008015282058	0.009051086785	0.009820274453	0.008036828364	0.004978214766	0.003712463690	0.003384491767	0.003306488260	0.002500831749	0.002411863138	0.001430623502	0.001063200220	0.001779260650	0.002896005278	0.003180717173	0.004954013663	0.006923320607	0.006623139744	0.007931775052	0.010169593952	0.011406725801	0.013154236421	0.014862975490	0.013837712877	0.016789016566	0.020113254651	0.022456551872	0.025401020739	0.021508390406	0.020321488619	0.021520616420	0.020220718470	0.018768038970	0.023041406550	0.024892959599	0.026821862025	0.033409625952	
0.032319763615	0.010812829852	0.009212832174	0.006135742119	0.004961175858	0.007582172814	0.006655264585	0.006511539634	0.005171537073	0.006877709924	0.007130714206	0.007636227186	0.008862915051	0.008364793877	0.008015282058	0.007795092758	0.009820274453	0.007451815743	0.004920580761	0.003712463690	0.003384491767	0.003306488260	0.002483572646	0.002411863138	0.001430623502	0.001005534216	0.001156703610	0.002630435009	0.003033747760	0.003891902856	0.006314107115	0.006287253060	0.007931775052	0.010065470546	0.011406725801	0.013154236421	0.011505383081	0.013668965433	0.016789016566	0.020113254651	0.020197079855	0.021464740979	0.021508390406	0.014392080537	0.019655382655	0.020220718470	0.018768038970	0.021065514502	0.024709078281	0.026821862025	0.029328111962	
0.032319763615	0.010812829852	0.009212832174	0.006135742119	0.004961175858	0.007582172814	0.005135369326	0.005481914930	0.003920225873	0.006453440784	0.007130714206	0.007547415223	0.007673623836	0.007734424860	0.007419780815	0.007720343561	0.009263719227	0.007221818670	0.004769103330	0.003686443277	0.003384491767	0.003306488260	0.002483572646	0.002411863138	0.001430623502	0.001005534216	0.001156703610	0.001964456607	0.002915047299	0.003891902856	0.005194496344	0.006276476439	0.007755356914	0.010065470546	0.011401495937	0.012143626962	0.011505383081	0.012937651561	0.016600914594	0.017235705944	0.020197079855	0.021464740979	0.020605510172	0.014392080537	0.012513838209	0.017051398523	0.014939101876	0.014627059025	0.023942192355	0.020630043306	0.029328111962	
0.031860635621	0.010812829852	0.009212832174	0.005579328988	0.004961175858	0.007582172814	0.005135369326	0.005296969030	0.003920225873	0.004342153267	0.007130714206	0.005688500890	0.007619575875	0.007552877220	0.007419780815	0.006624086327	0.008894616127	0.004348296109	0.004692781878	0.003547961552	0.003288003606	0.003286456432	0.002481068332	0.002411862129	0.001061180611	0.001005534216	0.001156703610	0.001595922894	0.002564932228	0.003817011783	0.005194496344	0.006276476439	0.007288223252	0.009855177461	0.011401495937	0.009799283733	0.011355990164	0.010499814404	0.016433472991	0.016352836727	0.018376246538	0.021464740979	0.013868353363	0.014392080537	0.010078739186	0.012763840362	0.014019116402	0.014627059025	0.015874264534	0.020003280574	0.023039445257	
0.031812918981	0.010648506120	0.008327352211	0.005572248712	0.004961175858	0.007347182295	0.005050427147	0.003733104475	0.003920225873	0.004342153267	0.006487295944	0.004984532395	0.004560261058	0.005897283494	0.006086466798	0.006624086327	0.007687184116	0.004348296109	0.002843806749	0.003385542537	0.003264598926	0.003280368544	0.002479381978	0.002410122273	0.001061180611	0.000841486070	0.000966397595	0.001595922894	0.002435503768	0.003817011783	0.005194496344	0.006172224126	0.007285784135	0.009430884549	0.010058494956	0.009799283733	0.010060804023	0.010499814404	0.013461526625	0.016352836727	0.018156226652	0.021464740979	0.013868353363	0.012849387334	0.010078739186	0.010560628497	0.012206691566	0.011410998298	0.015874264534	0.017699511713	0.022297983598	
0.031812918981	0.010648506120	0.008327352211	0.005570966426	0.004961175858	0.007347182295	0.003403893933	0.003733104475	0.003357716524	0.004342153267	0.005328814908	0.004984532395	0.004560261058	0.005897283494	0.006049013906	0.005177883982	0.006875742589	0.004348296109	0.002843806749	0.002317170217	0.002964203321	0.003280368544	0.002479381978	0.001995816417	0.001061180611	0.000841486070	0.000954254134	0.001595922894	0.002386336810	0.003606644683	0.005194496344	0.005808646247	0.007151225553	0.009345832979	0.008727400907	0.009365577594	0.008157076077	0.010499814404	0.013461526625	0.015113729712	0.018156226652	0.013936910320	0.013868353363	0.010182401152	0.010078739186	0.010550093043	0.011625465741	0.011410998298	0.012755173208	0.017699511713	0.016977013863	
0.031812918981	0.010648506120	0.008327352211	0.004656785598	0.004961175858	0.007082335671	0.003334755009	0.001952226090	0.003171832022	0.004342153267	0.005328814908	0.004054217183	0.004560261058	0.005528962702	0.005723900747	0.005177628094	0.006405694970	0.004097599005	0.002843806749	0.002317170217	0.002728312837	0.003280189898	0.002436290183	0.001995816417	0.001061180611	0.000774222335	0.000833551613	0.001320311099	0.002319723617	0.003408142391	0.005194496344	0.005805881011	0.007151225553	0.008616344741	0.008333468138	0.007810186933	0.008070336900	0.010499814404	0.013461526625	0.015113729712	0.017239908834	0.013936910320	0.013773594561	0.008567721497	0.009449153357	0.010550087871	0.010646025708	0.011410998298	0.009248726810	0.013689540311	0.016977013863	
0.031812918981	0.010648506120	0.008262663794	0.004656785598	0.002634905404	0.006902199357	0.002937350785	0.001857525438	0.002723750691	0.004128447864	0.005328814908	0.004054217183	0.004560261058	0.004614329351	0.005082316144	0.005177628094	0.006403745011	0.004097599005	0.002843806749	0.002317170217	0.002676957040	0.003274275424	0.002414558459	0.001995816417	0.001024651268	0.000504979132	0.000833551613	0.001320311099	0.002211248175	0.003408142391	0.005003629042	0.005670402980	0.007151225553	0.008298499872	0.007547160441	0.006440568197	0.008070336900	0.010283934625	0.012908198037	0.013519501633	0.014601915304	0.013936910320	0.009760961153	0.007836925235	0.008588330922	0.009690043921	0.010646025708	0.008586591317	0.009248726810	0.010688245536	0.016101291202	
0.031352098755	0.010648506120	0.007575717971	0.004656785598	0.002634905404	0.002932622159	0.002937350785	0.001857525438	0.002649699913	0.003755402428	0.004876176288	0.004054217183	0.003902967344	0.004614329351	0.004932136481	0.004990093586	0.005755567270	0.004097599005	0.002843806749	0.002317170217	0.002676957040	0.003274208397	0.002414558459	0.001995816417	0.000934227213	0.000504979132	0.000833551613	0.001320311099	0.002208791683	0.003285992900	0.005000537687	0.005670402980	0.007151225553	0.007075100369	0.006193786365	0.006374769250	0.008070336900	0.010138427759	0.012908198037	0.011564534049	0.014601915304	0.013936910320	0.008316183536	0.007836925235	0.007311167319	0.008719325197	0.008120941232	0.008105379960	0.009248726810	0.010688245536	0.012512432627	
0.031352098755	0.010058976874	0.007165255039	0.004656785598	0.002634905404	0.002932622159	0.002581739558	0.001857525438	0.002649699913	0.003451635679	0.003702725875	0.004054217183	0.003902967344	0.003683148844	0.003760475796	0.004990090493	0.005755567270	0.004097599005	0.002843806749	0.002317170217	0.002676957040	0.003272818780	0.002414558459	0.001995816417	0.000832543636	0.000504979132	0.000786626812	0.001291362157	0.002127447882	0.003190089494	0.004864140207	0.005670402980	0.006853019267	0.006371725079	0.005358276840	0.006374769250	0.007909252658	0.010138427759	0.012277785684	0.010586421759	0.013553601617	0.011309099254	0.007847732964	0.007472283405	0.007170235721	0.006516552118	0.006845794296	0.008105379960	0.009248726810	0.008985906703	0.012512432627	
0.031352098755	0.010058976874	0.007165255039	0.004373721120	0.002634905404	0.002932622159	0.002098364798	0.001854411252	0.002493544778	0.003451635679	0.003702725875	0.003996398207	0.003902967344	0.003683148844	0.003760475796	0.004316548269	0.005755567270	0.004097599005	0.002843806749	0.002317170217	0.002676957040	0.003272818780	0.002414558459	0.001842997394	0.000832543636	0.000504979132	0.000786626812	0.001268977748	0.002053408209	0.003190089494	0.004826901139	0.005491442381	0.006469315462	0.005220367589	0.004539010990	0.006372221977	0.007786819021	0.010138426143	0.008979288844	0.010586421759	0.012857835483	0.009752367798	0.007040046480	0.006148150979	0.006786397110	0.006516552118	0.006845794296	0.007920712127	0.009248726810	0.008985906703	0.010670665472	
0.031352098755	0.010056461283	0.006533600925	0.004373721120	0.002634905404	0.002932622159	0.002098364798	0.001151600854	0.002493544778	0.002958055830	0.003702725875	0.003996398207	0.003902967344	0.003556351709	0.003311015890	0.004316545604	0.005755567270	0.003885934782	0.002843806749	0.002317170217	0.002595025837	0.003246049574	0.002414558459	0.001802714917	0.000832543636	0.000504979132	0.000666356342	0.001268090697	0.001977555933	0.003178655945	0.004826901139	0.005452615731	0.005848872578	0.004667369040	0.004539010990	0.005925605101	0.007786819021	0.010138426143	0.008268754059	0.010586421759	0.012857835483	0.009014075523	0.006706380357	0.006148150979	0.005910505176	0.005685832360	0.006845794296	0.006542722889	0.007878495444	0.008861905271	0.010589329507	
0.030781923902	0.010056461283	0.006533600925	0.004373721120	0.002634905404	0.002932622159	0.002098364798	0.001151600854	0.002028280753	0.002958055830	0.003179943814	0.003685340476	0.003177466746	0.003305175465	0.003311015890	0.003795858629	0.004623531359	0.003789556372	0.002536870741	0.002317170217	0.002595025837	0.003115006817	0.002411427669	0.001730011599	0.000719908815	0.000504979132	0.000649881791	0.001258795720	0.001964896017	0.003128911614	0.004191473210	0.005423178815	0.004899531674	0.003783679282	0.004531981885	0.005889311113	0.007474485417	0.007006446900	0.008268754059	0.010226388941	0.011785000087	0.008394542538	0.006706380357	0.005433313772	0.005529775922	0.005685832360	0.006845794296	0.006542722889	0.005980032946	0.008755694978	0.009851963324	
0.030781923902	0.010056461283	0.006433069855	0.004373719223	0.002634905404	0.002932622159	0.001954699565	0.001151600854	0.002028280753	0.002958055830	0.003179943814	0.003685340476	0.003177466746	0.003305175465	0.002303679237	0.003516726528	0.004623531359	0.003789556372	0.002536870741	0.002165659529	0.002589953003	0.003115006817	0.002411349083	0.001730011599	0.000705831538	0.000474042349	0.000649881791	0.001160600733	0.001927388828	0.003080238083	0.004191473210	0.005423178815	0.004089562387	0.003761536710	0.004296816049	0.005889311113	0.007474485417	0.006563489619	0.008268754059	0.010224109955	0.010776866109	0.007957582590	0.006671243720	0.005327582315	0.005037281397	0.005685832360	0.005602987072	0.006083447577	0.005929055366	0.007403004436	0.009851963324	
0.030623461239	0.009865688223	0.006136159615	0.003972615666	0.002634905404	0.002932622159	0.001824382780	0.001151600854	0.001868111556	0.002842695994	0.003179943814	0.003685340476	0.003177466746	0.002833620264	0.002303679237	0.003143571642	0.004616233041	0.003761946463	0.002536870741	0.002165659529	0.002578183344	0.003110618769	0.002391880112	0.001508099045	0.000687587504	0.000474042349	0.000623664485	0.001147804316	0.001927388828	0.003043197005	0.004191473210	0.005241780051	0.003690667348	0.003761536710	0.004280260867	0.005587498996	0.005652578848	0.006563489619	0.007754800415	0.008616227467	0.010345486623	0.007913145724	0.006418004248	0.005327582315	0.004048542023	0.004725445286	0.005602987072	0.005039065467	0.005929055366	0.007003693563	0.009403323436	
0.030532375548	0.009625414128	0.005800667416	0.003972615666	0.002634905404	0.002932622159	0.001821481500	0.001151600854	0.001868111556	0.002678119953	0.003179943814	0.003365617407	0.003177466746	0.002631416872	0.002295027389	0.003073793163	0.004616233041	0.003656776793	0.002536870741	0.002097834259	0.002578183341	0.003097116126	0.002391880112	0.001508099045	0.000683536727	0.000474042349	0.000570331032	0.001118980963	0.001792693345	0.003043197005	0.004191473210	0.004174840026	0.003672673031	0.003649114893	0.004264202723	0.005451632590	0.005477199071	0.006563489619	0.007754800415	0.007815110391	0.009958109326	0.007913069361	0.005159660864	0.004559518495	0.004011112365	0.004365971968	0.005052403613	0.005039065467	0.005039706283	0.007003693563	0.008748824596	
0.029530613529	0.009625414128	0.005800667416	0.003972615666	0.002634905404	0.002932622159	0.001821481500	0.001075811645	0.001844118776	0.002160766745	0.003179943814	0.003338261268	0.003077982850	0.002589351845	0.001915547013	0.003073793163	0.004610951835	0.003493764984	0.002536870740	0.002097834259	0.002578183341	0.003097116123	0.002378321202	0.001488461508	0.000683536727	0.000473017920	0.000570331032	0.001088744744	0.001778454922	0.003043197005	0.004168987140	0.003656629178	0.003156018104	0.003633990096	0.004264202723	0.004924941244	0.005477199071	0.006114381724	0.006649648589	0.007815110391	0.009912739660	0.006493128710	0.005159660864	0.004280123769	0.004011112365	0.004299958159	0.003984798652	0.004784582830	0.003882563508	0.006498465536	0.008504889867	
0.029530613529	0.009510271009	0.005633228558	0.003972615666	0.002634905404	0.002932622159	0.001821481086	0.001075811645	0.001674922065	0.002102250098	0.002749042592	0.003338261268	0.002848179836	0.001967558046	0.001915547013	0.003069953603	0.004235781700	0.003290839075	0.002472173955	0.002097834259	0.002578183341	0.003097116123	0.002378321202	0.001488461508	0.000683536727	0.000460775194	0.000570331032	0.000987961717	0.001767922310	0.003043197005	0.004168987140	0.003656629178	0.003156018104	0.003619972150	0.004184837307	0.004924941244	0.005477199071	0.006114381724	0.005840065224	0.007720470691	0.009912647714	0.006493128710	0.005159660864	0.004280123769	0.003776338142	0.004149208529	0.003984798652	0.004158988699	0.003858827311	0.005508218673	0.007084136095	
0.025874559311	0.009183681710	0.005553754031	0.003972615666	0.002585361885	0.002932622159	0.001732008856	0.001075811645	0.001487400419	0.002102250098	0.002709866548	0.003085335221	0.002674869139	0.001960273965	0.001906262275	0.002778164742	0.004235680896	0.003290839075	0.002472173955	0.002094633643	0.002578183341	0.003097116123	0.002378321202	0.001488461508	0.000683536727	0.000446439907	0.000570331032	0.000987961717	0.001752514923	0.003043197005	0.004168987140	0.003059488570	0.003156018104	0.003619972150	0.004184837307	0.004737536705	0.005092936925	0.005295472972	0.005840065224	0.007720470691	0.006511859292	0.006493128710	0.004826806827	0.003987700376	0.003069040209	0.003511366923	0.003263514902	0.002834950013	0.003858827311	0.005264401108	0.007084136095	
0.025874559311	0.009155424782	0.005118389203	0.003972615666	0.002585361885	0.002932622159	0.001715621262	0.001075811645	0.001487400419	0.002102250098	0.002709866548	0.003085335221	0.002674869139	0.001931852736	0.001864614893	0.002770881394	0.004235680896	0.003290839075	0.002472173955	0.002094633643	0.002498939188	0.003097116123	0.002362578716	0.001488461508	0.000657527232	0.000446439907	0.000563296481	0.000987961717	0.001736448550	0.003043197005	0.004168987140	0.003059488570	0.002528773767	0.003561023815	0.004184837307	0.004737536705	0.004987093354	0.004477423317	0.005781626086	0.007048401050	0.006511859292	0.006096847224	0.004058141154	0.003299120483	0.003069040209	0.003437140554	0.002925461195	0.002307711099	0.002557944973	0.005193220814	0.006577851301	
0.025874559311	0.009155424782	0.005106809406	0.003972606418	0.002557342795	0.002932622159	0.001715621262	0.001075164488	0.001487400419	0.002102250098	0.002709866548	0.003085335221	0.002674869139	0.001931852736	0.001857587722	0.002705145544	0.004235656144	0.003290839075	0.002369701730	0.002094633643	0.002498883674	0.003055587257	0.002362578716	0.001485458110	0.000657527232	0.000427229772	0.000563296481	0.000987961717	0.001719314416	0.003043197005	0.003637518837	0.003059488570	0.002424242589	0.002897069696	0.003561127677	0.004244774771	0.004560271247	0.004477423317	0.005648436365	0.007048401050	0.006511859292	0.006096847224	0.003050542059	0.003161206000	0.002734964205	0.002974302053	0.002366538838	0.002132429302	0.002557944973	0.003793926641	0.005237046382	
0.023694117369	0.007591381617	0.005008172652	0.003972606418	0.002458971474	0.002838045056	0.001714004345	0.001050540413	0.001440268579	0.002102250070	0.002705326259	0.003085335221	0.002503294261	0.001889084654	0.001857587722	0.002640302484	0.004235655167	0.003290839075	0.002323526014	0.002011455994	0.002418160961	0.003055301347	0.002362578716	0.001482501376	0.000657527232	0.000427229772	0.000563296481	0.000980863553	0.001702845875	0.003043197005	0.003637518837	0.002823562128	0.002423239092	0.002798964254	0.003561127677	0.003105745120	0.003733755302	0.004455184742	0.005138787703	0.006878484549	0.006511859292	0.005417138478	0.002508113843	0.002319681552	0.002734964205	0.002368303624	0.002044508804	0.001464459180	0.002279799226	0.003793926641	0.005237046382	
0.023553856385	0.005798893682	0.005008172652	0.003972606418	0.002458971474	0.002838045056	0.001548194913	0.001050540413	0.001331794591	0.002102250070	0.002705326259	0.003085335221	0.002428519170	0.001834576353	0.001857302303	0.002640302484	0.004235655167	0.003186958630	0.002323526014	0.002011455994	0.002418160961	0.003015233529	0.002362578716	0.001482501376	0.000657527232	0.000419967045	0.000558798568	0.000980863553	0.001694771222	0.003043197005	0.003637518837	0.002712605216	0.002423239092	0.002798964254	0.003558561777	0.003105745120	0.003641976390	0.004329521669	0.004953171074	0.006867676627	0.006511859292	0.004373686696	0.002508113843	0.001866741063	0.002177479148	0.002368303624	0.001874286167	0.001464459180	0.002279799226	0.003200288749	0.005206138739	
0.023553856385	0.005798893682	0.004946142549	0.003972606418	0.002447962099	0.002554243118	0.001438693821	0.000982070869	0.001331794591	0.002098265432	0.002583175140	0.003085335221	0.002158092537	0.001834576353	0.001856276765	0.002618866925	0.004230392095	0.003186958630	0.002323526014	0.002008536361	0.002418160961	0.003015233529	0.002361640593	0.001482501376	0.000657527232	0.000417604974	0.000550844990	0.000974284529	0.001667150941	0.003043197005	0.003637518837	0.002684887211	0.002419583662	0.002798964254	0.003203730373	0.003105745120	0.003641976390	0.003841577617	0.004613191759	0.006738006436	0.006511859292	0.003741770753	0.002508113843	0.001866741063	0.001814026386	0.002362141594	0.001108428933	0.001444017228	0.002279799226	0.003200288749	0.005119135175	
0.019342613051	0.005798893682	0.004946142549	0.003972606418	0.002447962099	0.002255826043	0.001438693821	0.000982070869	0.001081108298	0.002029338707	0.002423947569	0.003085335221	0.002158092537	0.001834576353	0.001856007845	0.002617921325	0.003985974180	0.003186958630	0.002323526014	0.002008536361	0.002418160752	0.003015233528	0.002361640593	0.001482501376	0.000657527232	0.000411426603	0.000545556574	0.000964254686	0.001659596014	0.003031386905	0.003637518837	0.002684887211	0.002419583662	0.002798964195	0.003203730373	0.003091574078	0.003452145866	0.003705467219	0.004613191759	0.006606386885	0.006293279360	0.003741770753	0.002508113843	0.001866741063	0.001814026386	0.002196978117	0.001108428933	0.001355913711	0.001858789834	0.003200288749	0.004855902194	
0.017789096849	0.005798893682	0.004929599464	0.003972606418	0.002447962099	0.002255826043	0.001161500855	0.000982070869	0.001081108298	0.002026121536	0.002423947569	0.003058761940	0.002158092537	0.001834576353	0.001856007845	0.002608373547	0.003985974180	0.003183203645	0.002323526014	0.002008536361	0.002418160752	0.003013600243	0.002361598587	0.001481391299	0.000657527232	0.000411426603	0.000544345580	0.000963974670	0.001659596014	0.003003822751	0.003621095131	0.002684887211	0.002419583662	0.002698642289	0.003203730373	0.003091574078	0.003163341423	0.003232399893	0.004591760023	0.006483978165	0.005571875691	0.003741770753	0.002508113843	0.001866167862	0.001814026386	0.001333233771	0.001108428933	0.001156446919	0.001858789834	0.003000495627	0.004658806331	
0.017372215113	0.005702504558	0.004929599464	0.003972606418	0.002447962099	0.001909887270	0.001161077449	0.000868038164	0.001081108298	0.002023425127	0.002322072568	0.002882817771	0.002158092537	0.001834576353	0.001849072711	0.002363595007	0.003887660865	0.003183203645	0.002323526014	0.002008536361	0.002387721214	0.003013600243	0.002322726760	0.001477501649	0.000657019323	0.000411426603	0.000541941360	0.000962827598	0.001659596014	0.002911177044	0.003592707411	0.002683523948	0.002419583662	0.002698642289	0.003049668881	0.002987086975	0.003082890135	0.003057804953	0.004412140027	0.006122839752	0.005571875691	0.003741770753	0.002508113843	0.001752777050	0.001814026386	0.001333233771	0.001030792330	0.001095332588	0.001857088053	0.003000495627	0.004288625283	
0.017316683998	0.005598595242	0.004886969360	0.003972606418	0.002447962099	0.001716630338	0.001161077449	0.000868038164	0.001020370082	0.001978964255	0.002322072568	0.002882817771	0.002113364308	0.001783175232	0.001849072711	0.002363595007	0.003766766565	0.003183203645	0.002323526014	0.002008536361	0.002387721214	0.002990436519	0.002322726760	0.001477501649	0.000655927316	0.000411426603	0.000541941360	0.000961561826	0.001657940883	0.002885805879	0.003592707411	0.002682934867	0.002401770984	0.002698642289	0.003049668881	0.002834742865	0.002470581920	0.003057804953	0.004016191078	0.006122839752	0.005571875691	0.003741770753	0.002506834202	0.001752777050	0.001647373346	0.001056554543	0.001030792330	0.000903335543	0.001748315977	0.003000495627	0.004288625283	
0.017034050840	0.003977272477	0.004886969360	0.003972606418	0.002447962099	0.001559819439	0.000961304551	0.000868038164	0.001020370082	0.001885345154	0.002291096209	0.002882817771	0.002109837932	0.001783175232	0.001849072711	0.002169681844	0.003766766565	0.003164920887	0.002323526014	0.002008536361	0.002387721214	0.002090159955	0.002322726760	0.001470731973	0.000655927316	0.000410734572	0.000541941360	0.000961561826	0.001647418696	0.002885805879	0.003592707411	0.002682930747	0.002397383488	0.002698603913	0.003049668881	0.002660170733	0.002277358404	0.002969932859	0.003960300377	0.005854130129	0.005571875691	0.003741770753	0.002446838856	0.001710752664	0.001647373346	0.001056554543	0.000799434180	0.000903335543	0.001529556309	0.002850644516	0.003856990550	
0.017034050840	0.003768325853	0.004886969360	0.003972606418	0.002447962099	0.001559819439	0.000961304551	0.000868038164	0.001020370082	0.001885345154	0.002176052371	0.002882817771	0.002080366679	0.001783175232	0.001849072711	0.002169681844	0.003570767858	0.003164920887	0.002323526014	0.002008536361	0.002386473887	0.002090159955	0.002322726760	0.001470731973	0.000655673555	0.000410723180	0.000539924185	0.000960209627	0.001647418696	0.002884263227	0.003330607999	0.002682930747	0.002395463256	0.002698603913	0.002787793661	0.002334994396	0.002277358404	0.002604763283	0.003960300377	0.005593957501	0.005403613643	0.003739191610	0.002446838856	0.001707962471	0.001600382732	0.001030108032	0.000799434180	0.000903335543	0.001529556309	0.002733818746	0.003856990550	
0.015735513562	0.003266598721	0.004886969360	0.003972606418	0.002447938801	0.001559819439	0.000961304551	0.000825819982	0.001020369674	0.001885345154	0.002176052371	0.002477585461	0.002075385519	0.001783175232	0.001835723373	0.002169681844	0.003570767858	0.003164920887	0.002103917768	0.001984320558	0.002386473887	0.002090159955	0.002120384748	0.001465101230	0.000654981659	0.000409964186	0.000535810332	0.000959664829	0.001647418696	0.002871379562	0.002423691606	0.002677408954	0.002395463256	0.002698603913	0.002708413012	0.002123142303	0.002227934175	0.002604763283	0.003805683527	0.005593957501	0.005403613643	0.003612297424	0.002394140306	0.001707962471	0.001600382732	0.001030108032	0.000745269562	0.000876661253	0.001529556309	0.002490690315	0.003718976136	
0.015086240327	0.003217297003	0.004872142659	0.003972606418	0.002447938801	0.001559819439	0.000961304551	0.000825819982	0.001020097108	0.001739400794	0.002176052371	0.002477585461	0.002027931265	0.001777133193	0.001835723373	0.002131171075	0.003466775499	0.003164920861	0.002103917768	0.001915789250	0.002386473885	0.002090159955	0.001467931896	0.001465080851	0.000654981659	0.000408004223	0.000534534820	0.000959664829	0.001647418696	0.002853864451	0.002423691606	0.002442673566	0.002395463256	0.002698603683	0.002708413012	0.002097768368	0.002022816930	0.002604763283	0.003543371970	0.005451654141	0.005403613643	0.003612297424	0.002340457585	0.001698058506	0.001600382732	0.001030108032	0.000745269562	0.000862228044	0.001491480046	0.002490690315	0.003718976136	
0.014044148379	0.003043315043	0.004872142659	0.003972606418	0.002447938801	0.001559819439	0.000961304551	0.000825819982	0.000988539513	0.001482037069	0.002176052371	0.002477585461	0.002015290280	0.001776970567	0.001835449789	0.002131171075	0.003466775499	0.003053153669	0.002024001747	0.001812287278	0.002386473885	0.002090159955	0.001416026606	0.001465080851	0.000654953297	0.000408004223	0.000533831272	0.000959359124	0.001644077840	0.002812351963	0.002227109938	0.002442673566	0.002395463256	0.002695221163	0.002603142725	0.002097768368	0.002022816930	0.002485273054	0.003543371970	0.005388168926	0.005331080724	0.003612297424	0.002337542792	0.001674057746	0.001600382732	0.001030108032	0.000596853144	0.000763258595	0.001491480046	0.002338005668	0.003718976136	
0.014044148379	0.003043315043	0.004851469752	0.003972606418	0.002447938801	0.001559819439	0.000932887283	0.000825819982	0.000886946993	0.001482037069	0.002176052371	0.002245831246	0.001911309399	0.001776970509	0.001835208953	0.002131171075	0.003427361219	0.003053153669	0.002024001747	0.001812287278	0.002386473885	0.001971737384	0.001416026606	0.001239498516	0.000654953297	0.000408004223	0.000532613718	0.000959134402	0.001644077840	0.002812043045	0.002227109938	0.002245842252	0.002395463256	0.002695221163	0.002379440085	0.001923585829	0.001757113409	0.002260680920	0.003543371970	0.005298685770	0.005331080724	0.003572149367	0.002320232515	0.001672142727	0.001591785511	0.001030108032	0.000596853144	0.000624196334	0.001446805135	0.002338005668	0.003718661138	
0.014015306161	0.003043315043	0.004851469752	0.003972606418	0.002447938801	0.001559819439	0.000932887274	0.000825819982	0.000886946993	0.001482037069	0.002156713378	0.002245831246	0.001767401323	0.001776970509	0.001835208953	0.002131171075	0.003397268388	0.002961051632	0.001856211130	0.001726292175	0.002386473885	0.001916823711	0.001416026606	0.001239498516	0.000654194364	0.000407861933	0.000531583610	0.000958051247	0.001644077840	0.002812043045	0.002227109938	0.001936258176	0.002395463256	0.002695221163	0.002379440085	0.001923516527	0.001757113409	0.002260680920	0.003538795099	0.005186968677	0.005323323285	0.003392005942	0.002320232515	0.001668841042	0.001591785511	0.001030065665	0.000595109521	0.000616261154	0.001230741843	0.002338005668	0.003718661138	
0.013600674514	0.002902165696	0.004851461687	0.003816559857	0.002447891684	0.001559819439	0.000932887274	0.000733870081	0.000886946993	0.001482037042	0.002046718831	0.002239945414	0.001767401323	0.001775322008	0.001835208953	0.002131171075	0.003397268388	0.002961051632	0.001856211130	0.001724865979	0.002383131600	0.001876593998	0.001416026606	0.001239498516	0.000654194364	0.000406698052	0.000531583610	0.000957778637	0.001641758306	0.002812043045	0.002227109938	0.001936258176	0.002254294127	0.002695221163	0.002256636176	0.001682858072	0.001601540634	0.002220074896	0.003456776328	0.005107331683	0.005087145671	0.003327129473	0.002200903296	0.001661338193	0.001591785511	0.001030065665	0.000589664905	0.000616080455	0.001187752913	0.002337269724	0.003718522652	
0.011605791754	0.002902165696	0.004851461687	0.003433188476	0.002447891684	0.001559819439	0.000932887274	0.000733870081	0.000886946993	0.001482037042	0.002046718831	0.002239945414	0.001619873147	0.001775322008	0.001835208953	0.002131171072	0.003397268388	0.002821504983	0.001856211130	0.001663072714	0.001950659851	0.001518407448	0.001055341970	0.001239498516	0.000653955692	0.000406698052	0.000531583610	0.000957726581	0.001641758306	0.002806134299	0.002091255299	0.001935729421	0.002254294127	0.002695221163	0.002256636176	0.001682858072	0.001575303800	0.002220074896	0.003454613474	0.005061232074	0.005087145671	0.003212368135	0.002147672455	0.001602084780	0.001579900326	0.000895745637	0.000538936272	0.000608085959	0.001187752913	0.002337260444	0.003718522652	
0.011605791754	0.002797599990	0.004851461687	0.003433188476	0.002447889355	0.001559819439	0.000932887274	0.000733870081	0.000886946993	0.001482037042	0.002041071407	0.002239945414	0.001619873147	0.001659951814	0.001835208953	0.002131171072	0.003397268388	0.002821504983	0.001781747761	0.001663072714	0.001950659851	0.001435713267	0.000962202456	0.000998459056	0.000653563386	0.000406698052	0.000531583610	0.000957726581	0.001641758306	0.002806134299	0.002091255299	0.001935729421	0.002253436053	0.002695217253	0.001936194451	0.001568630796	0.001553143939	0.002180312592	0.003316169945	0.005047990719	0.005062131635	0.003190171478	0.002043246238	0.001450384040	0.001579703275	0.000874317619	0.000498782339	0.000575361952	0.001187752913	0.002337149663	0.003718522567	
0.011605791754	0.002797599990	0.004851461687	0.003433188476	0.002447889355	0.001559819439	0.000932887274	0.000733870081	0.000881333014	0.001482037042	0.002041071407	0.002239733938	0.001619873147	0.001659951814	0.001835208953	0.002131171072	0.003397268388	0.002719569786	0.001780918439	0.001591515920	0.001825647062	0.001335226008	0.000936743529	0.000908279693	0.000653563386	0.000406455253	0.000531583610	0.000957726581	0.001637354490	0.002788287011	0.002069258859	0.001935720680	0.002234598771	0.002695217253	0.001936194451	0.001483669366	0.001521071789	0.002171722570	0.003316169945	0.005008569280	0.004977938059	0.003190171478	0.002025730989	0.001447384436	0.001463153159	0.000769401284	0.000498782339	0.000575361952	0.001167972395	0.002337149663	0.003718522567	
0.011322855953	0.002786689457	0.004848600122	0.003433188476	0.002447889355	0.001230413819	0.000932887274	0.000733870081	0.000881333014	0.001482037042	0.002041071407	0.002239733938	0.001619873147	0.001659951814	0.001835208953	0.002131046287	0.003397268388	0.002474553739	0.001696026727	0.001591358809	0.001825647062	0.001335113630	0.000770550608	0.000908279693	0.000653224950	0.000406455253	0.000531508395	0.000957726581	0.001637072338	0.002788287011	0.001928695054	0.001935608511	0.002180984744	0.002519183087	0.001934805461	0.001437790881	0.001508184985	0.002119493837	0.003293185903	0.004999083933	0.004951059993	0.003190170322	0.002025482222	0.001441847960	0.001463153159	0.000769401284	0.000487779508	0.000575361952	0.001160374508	0.002337149598	0.003538559487	
0.011062961832	0.002786689457	0.004846811572	0.003107414256	0.002447889355	0.001230413819	0.000932887274	0.000728061423	0.000881333014	0.001482037042	0.002041071407	0.002239733938	0.001619873147	0.001659951814	0.001835208953	0.002131046287	0.002751815100	0.002379619191	0.001594452832	0.001542116301	0.001617511791	0.001150682708	0.000654540638	0.000899692638	0.000652836139	0.000406455253	0.000531508395	0.000957665088	0.001632420799	0.002347695332	0.001671284204	0.001894808813	0.002177234567	0.002519183087	0.001900305560	0.001437790881	0.001448902444	0.002084009369	0.003281419439	0.004961991331	0.004937271724	0.003150986256	0.002001020328	0.001440501899	0.001463153159	0.000759100514	0.000487779508	0.000572750167	0.001155285316	0.002313137049	0.003538559487	
0.010518896206	0.002777368305	0.004846811572	0.003107414256	0.002447889355	0.001230413819	0.000932887274	0.000728061423	0.000881333014	0.001482037042	0.002041071407	0.002192917866	0.001619873147	0.001659951814	0.001835197070	0.001636220554	0.002751815100	0.002275432859	0.001565852633	0.001509476177	0.001617511791	0.000835807061	0.000578829912	0.000845924773	0.000652836139	0.000406455253	0.000531508395	0.000957665088	0.001630629781	0.002227919134	0.001671284204	0.001838361563	0.002177234567	0.002519183087	0.001888633094	0.001338078430	0.001423995905	0.002084009369	0.003281419439	0.004961991331	0.004928400113	0.003150986256	0.001998349898	0.001440221583	0.001461496180	0.000753524501	0.000466060511	0.000571747556	0.001155285316	0.002169100436	0.003538559487	
0.010426472390	0.002777368305	0.004846811572	0.003062956350	0.002344835008	0.001230413819	0.000932887274	0.000728061423	0.000881333014	0.001482037042	0.001933562279	0.002158190178	0.001619873147	0.001659951814	0.001835197070	0.001636220554	0.001928567598	0.002275432859	0.001355272337	0.001495698233	0.001617511791	0.000717583508	0.000578829912	0.000699753964	0.000652836139	0.000406323146	0.000531479686	0.000957665088	0.001626122168	0.002191300589	0.001671284204	0.001838361563	0.002177234407	0.002502314401	0.001802130289	0.001328638119	0.001402689171	0.002078304622	0.003281419439	0.004924441276	0.004894255848	0.003143640455	0.001995616104	0.001440221583	0.001461496180	0.000753516499	0.000466060511	0.000570061749	0.001155264462	0.002169100436	0.003538559487	
0.010426472390	0.002777368305	0.004706364726	0.002927172141	0.002344835008	0.001230413819	0.000931932622	0.000728061423	0.000881333014	0.001482037042	0.001928879244	0.001609493622	0.001580107368	0.001659951814	0.001835195946	0.001636220554	0.001928567598	0.002275432859	0.001355272337	0.001468479362	0.001508195997	0.000717583508	0.000517979555	0.000560110287	0.000652836139	0.000406323146	0.000531479686	0.000957665088	0.001626122168	0.001954555850	0.001671284204	0.001838361563	0.002177234407	0.002476300570	0.001748780338	0.001299399196	0.001402689171	0.002038634111	0.003272680299	0.004924441276	0.004894255848	0.003143640455	0.001994652999	0.001151788737	0.001461496180	0.000744679201	0.000460488219	0.000569720817	0.001150696412	0.002169100436	0.003469173495	
0.010426472390	0.002768066441	0.004706364726	0.002927172141	0.001894113387	0.000963882000	0.000931917071	0.000727949756	0.000850320656	0.001482037042	0.001928879244	0.001609493622	0.001222991053	0.001659951814	0.001835195946	0.001400371686	0.001928567598	0.002039815361	0.001355272337	0.001468479362	0.001383542339	0.000717583508	0.000499702266	0.000560110287	0.000652836139	0.000406323146	0.000531479686	0.000957612705	0.001624786923	0.001954555850	0.001258093199	0.001838361563	0.002177234407	0.002476300570	0.001741575598	0.001299399196	0.001373243839	0.002038634111	0.003272324381	0.004896561335	0.004885183859	0.003143014440	0.001994652999	0.001151788737	0.001461496180	0.000703145048	0.000444771383	0.000569108555	0.001149089304	0.002169100436	0.003469173495	
0.010409743733	0.002768066441	0.004706364726	0.002824387304	0.001880080803	0.000963882000	0.000931917071	0.000727949756	0.000850320656	0.001482037042	0.001928879212	0.001314025525	0.001222991053	0.001659951814	0.001835195946	0.001400371686	0.001928567598	0.001937409169	0.001355272337	0.001468479362	0.001383542339	0.000652468148	0.000479198247	0.000546944164	0.000652836139	0.000406315016	0.000531479686	0.000957612705	0.001624786923	0.001675817588	0.001205353140	0.001698566543	0.001746151903	0.002281010736	0.001495014262	0.001291502548	0.001358977837	0.002029438806	0.003259884724	0.004896536010	0.004885183859	0.003141991433	0.001302325714	0.001151788737	0.001461447323	0.000702939863	0.000388914086	0.000566124291	0.001149089304	0.002169100436	0.003469173495	
0.009295801793	0.002768066441	0.004706364726	0.002785375761	0.001710730631	0.000963882000	0.000931916995	0.000727949756	0.000850163724	0.001482037042	0.001928879212	0.001314025525	0.001222991053	0.001659951814	0.001508575019	0.001400371686	0.001928567598	0.001937409169	0.001355272337	0.001460300508	0.001383542339	0.000521060067	0.000392275489	0.000546944164	0.000652836139	0.000406315016	0.000531479686	0.000957612705	0.001623735084	0.001504713599	0.001190087337	0.001613810426	0.001746150843	0.002181386416	0.001495014262	0.001266574989	0.001339760040	0.002029438806	0.003259884724	0.004876486477	0.004885183859	0.003141991433	0.001302325714	0.000898337756	0.001461447323	0.000702835970	0.000388914086	0.000566124291	0.001148958706	0.002169100436	0.003469173495	
0.008843271779	0.002768066441	0.004706364726	0.002673932656	0.001432476313	0.000925876515	0.000931916995	0.000727943375	0.000850163724	0.001230608621	0.001928879212	0.001038588756	0.001222991053	0.001659951814	0.001508575019	0.001400371686	0.001689042461	0.001867553329	0.001005331910	0.001457891234	0.001304918250	0.000499250932	0.000378236820	0.000463585789	0.000652807728	0.000406315016	0.000531479686	0.000957612467	0.001623735084	0.001483989599	0.001190087337	0.001603312842	0.001746112643	0.002141572150	0.001495014262	0.001266574989	0.001339760040	0.002029438806	0.003253419923	0.004876486477	0.004885183859	0.002045146822	0.001302325714	0.000898337756	0.001177878657	0.000702835970	0.000388914086	0.000566124291	0.001148958706	0.002168573720	0.003469173495	
0.008843271779	0.002762258131	0.004706364726	0.002596341892	0.001304500354	0.000838608690	0.000931916995	0.000727943375	0.000850163724	0.001230608621	0.001928879212	0.001038588756	0.000861363572	0.001659951814	0.001497313784	0.001400371686	0.001484274865	0.001855158083	0.001005331910	0.001449070423	0.001079719017	0.000439406041	0.000378236820	0.000463585789	0.000491721808	0.000406315016	0.000531479686	0.000957612467	0.001623735084	0.001463955575	0.001190087337	0.001326866646	0.001746112121	0.002054744470	0.001495014262	0.001239594204	0.001339760040	0.002029115504	0.003249751933	0.004876485321	0.004881693994	0.002045146822	0.001207454958	0.000898337756	0.001177878657	0.000702835970	0.000387230039	0.000565935122	0.001148881450	0.002168573720	0.003468939644	
0.008843271779	0.002759724602	0.004593006731	0.002596341892	0.001304500354	0.000681985335	0.000931916995	0.000727943375	0.000850163724	0.001230608621	0.001928000154	0.001038588756	0.000490502803	0.001647607351	0.001445828129	0.001400371686	0.001287492368	0.001385854683	0.001005331910	0.001357173751	0.001079719017	0.000404141537	0.000361238997	0.000451054830	0.000491721808	0.000406315016	0.000531479686	0.000957612467	0.001622880660	0.001463955575	0.001190087337	0.001326866646	0.001637732657	0.001998518663	0.001495014262	0.001232410903	0.001322477965	0.002018339940	0.003237800145	0.004866944947	0.003384415957	0.002045146822	0.001207454958	0.000898337756	0.000927316489	0.000702835970	0.000387227282	0.000564211398	0.001148881450	0.002168573720	0.003468939644	
0.008824220965	0.002759724602	0.004593006731	0.002542894219	0.000995911535	0.000681985335	0.000931916995	0.000727943375	0.000850163724	0.001054194398	0.001928000122	0.001038588756	0.000490502803	0.000887880326	0.001442517015	0.001367905368	0.001107515474	0.001385854683	0.001005331910	0.001345971662	0.001074762925	0.000404141537	0.000349810655	0.000451054830	0.000491721808	0.000406315016	0.000531479686	0.000957612467	0.001621799301	0.001463955575	0.001190087333	0.001326866646	0.001637732657	0.001998518663	0.001482067195	0.001232410803	0.001321822709	0.002018339940	0.003232441228	0.004866944947	0.003384415957	0.002045146822	0.001207454958	0.000898337756	0.000927316489	0.000702835970	0.000387086237	0.000564211398	0.001148534545	0.002168573720	0.003468939644	
0.008824220965	0.001914126632	0.004367501086	0.002542196955	0.000973858006	0.000681985335	0.000931916995	0.000727943375	0.000850163724	0.001043389685	0.001928000122	0.000808362460	0.000490502803	0.000704288748	0.001289210262	0.001128525527	0.001107515474	0.001385854683	0.001005331910	0.001341230430	0.001008050858	0.000404141537	0.000332800957	0.000428516176	0.000491721808	0.000406315016	0.000531479686	0.000957612467	0.001621799301	0.001463955575	0.001190087333	0.001326866646	0.001637732562	0.001998518663	0.001482067174	0.001218971787	0.001314928352	0.002008371525	0.003232441228	0.004866944947	0.003249235784	0.002045146822	0.001207454958	0.000704767019	0.000927316489	0.000702828540	0.000387086237	0.000564211398	0.001148529404	0.002168573720	0.003468939644	
0.008596626836	0.001914126632	0.004013759629	0.002170452178	0.000877410102	0.000466985831	0.000885822591	0.000727943375	0.000850160921	0.001043389685	0.001928000122	0.000784799420	0.000361548269	0.000704288748	0.001289210262	0.001103124465	0.001107515474	0.001385854683	0.000862249020	0.001284889223	0.000972697176	0.000397395991	0.000312637882	0.000358414286	0.000491721808	0.000406315016	0.000531479686	0.000957612467	0.001621799301	0.001463955571	0.001190087333	0.001326866646	0.001637732562	0.001998518663	0.001482067174	0.001210753551	0.001312302227	0.002008340299	0.003232441228	0.004863362360	0.003249235784	0.001938630142	0.001091810030	0.000704767019	0.000927316489	0.000702806536	0.000387086237	0.000564211398	0.001148529226	0.002168573720	0.003468939644	
0.007904847612	0.001914126632	0.004013759629	0.002170452178	0.000877410102	0.000466985831	0.000885822591	0.000727943375	0.000850160921	0.000783126341	0.001779015311	0.000784799420	0.000334076489	0.000704288748	0.001001970858	0.000916077108	0.001064008853	0.001385854683	0.000862249020	0.001284889223	0.000810173801	0.000397395991	0.000312637882	0.000358414286	0.000491721808	0.000406315016	0.000531479686	0.000957612467	0.001621799301	0.001463955571	0.001190087333	0.001326866562	0.001637732338	0.001996381724	0.001463532969	0.001194466860	0.001304210257	0.002003173551	0.003232441228	0.004863362360	0.003249235784	0.001859335120	0.001055648146	0.000704767019	0.000927316489	0.000702806536	0.000387086237	0.000562335965	0.001148528732	0.002168573720	0.003468939644	
0.007635380124	0.001909648366	0.003184627531	0.002170452178	0.000659869742	0.000466985831	0.000885822591	0.000727943375	0.000850160921	0.000743831159	0.001486730938	0.000784799420	0.000334076489	0.000704288748	0.000830133688	0.000872745665	0.000929797594	0.001173603203	0.000849196828	0.001284889223	0.000709817979	0.000321170749	0.000274324000	0.000358414286	0.000491721808	0.000406315016	0.000531479686	0.000957612467	0.001621799301	0.001463955571	0.001190087333	0.001326865902	0.001637732330	0.001996381724	0.001463531859	0.001194466860	0.001304210257	0.002003173551	0.003232441228	0.004861458160	0.003249235784	0.001591033749	0.001055648146	0.000673596000	0.000927316489	0.000702764507	0.000386975967	0.000562335965	0.001148143799	0.002168573720	0.003468931229	
0.006570260038	0.001909647892	0.003184627531	0.001860310464	0.000659869742	0.000466985831	0.000321122348	0.000362862802	0.000850160921	0.000743831159	0.001427220517	0.000757160357	0.000317640582	0.000696946070	0.000830133688	0.000826224850	0.000723295066	0.001173603203	0.000849196828	0.000977759930	0.000698255376	0.000321170749	0.000244282506	0.000335420476	0.000491721808	0.000406315016	0.000531479686	0.000957612467	0.001621799301	0.001361058412	0.001190087333	0.001326865804	0.001637732330	0.001982389939	0.001463531859	0.001194466860	0.001304210257	0.002002625992	0.003232441228	0.004861458160	0.002843459152	0.001591033749	0.000969219284	0.000673596000	0.000921719719	0.000702764507	0.000386973019	0.000562228793	0.001148143799	0.002168573634	0.003468931229	
0.006570260038	0.001268942434	0.003116690920	0.001844427961	0.000620795728	0.000466985831	0.000321122348	0.000362862802	0.000850160921	0.000743831159	0.001427220517	0.000699294945	0.000275853098	0.000559248318	0.000830133688	0.000779791226	0.000723295066	0.001173603203	0.000789794550	0.000977759930	0.000698253406	0.000317304217	0.000244282506	0.000320891859	0.000491721808	0.000406315016	0.000488350833	0.000888268027	0.001621799301	0.001361058412	0.001187901033	0.001323470804	0.001637732330	0.001982332359	0.001463531859	0.001194466860	0.001301556606	0.001990602715	0.003232441228	0.004861442738	0.002774064863	0.001382353288	0.000912322981	0.000631926053	0.000901156703	0.000702764507	0.000386973019	0.000562228793	0.001143173281	0.002168253313	0.003468931229	
0.006570260038	0.001268942434	0.002578228619	0.001300438925	0.000505291606	0.000433509894	0.000321122348	0.000166378084	0.000850160921	0.000652595970	0.001378051343	0.000535816215	0.000225471155	0.000491534416	0.000830133688	0.000741701921	0.000723295066	0.001173603203	0.000789794550	0.000928188351	0.000698236824	0.000317304217	0.000244282506	0.000301129832	0.000491721808	0.000381723855	0.000488350833	0.000800806579	0.001621795394	0.001343318613	0.001187901033	0.001323470804	0.001634296829	0.001982332359	0.001462541382	0.001190165777	0.001291764462	0.001990602715	0.003232441228	0.004462957908	0.002571594817	0.001382353288	0.000829738046	0.000554027471	0.000867762589	0.000702764507	0.000386973019	0.000562228793	0.001143173281	0.002168253313	0.003468931229	
0.006060072828	0.001268942434	0.002194853707	0.001300438925	0.000437433087	0.000433509894	0.000321122348	0.000166378084	0.000850160921	0.000534022772	0.001378051343	0.000535816215	0.000225471155	0.000491534416	0.000699947735	0.000735108224	0.000482225769	0.001173603203	0.000655842615	0.000911620694	0.000687711890	0.000317182610	0.000227431414	0.000299285279	0.000491721808	0.000348798840	0.000414433891	0.000791676900	0.001621795394	0.001171115770	0.001187901033	0.001323470804	0.001634296829	0.001982332359	0.001462493733	0.001190164091	0.001289486284	0.001990602715	0.003232441228	0.004462957908	0.002442743421	0.001134816399	0.000829738046	0.000468025196	0.000806804245	0.000702764507	0.000386973019	0.000558692794	0.001143173281	0.002168253313	0.003468931229	
0.005755080809	0.001268942434	0.001680233226	0.001300438925	0.000433930440	0.000375482211	0.000321122348	0.000166378084	0.000850160921	0.000534022772	0.001337417053	0.000535816215	0.000196604259	0.000432736850	0.000699947735	0.000690090370	0.000482225769	0.001103007930	0.000655842615	0.000704273689	0.000612921281	0.000299541595	0.000205325276	0.000293527749	0.000485648381	0.000336793447	0.000359387052	0.000765552914	0.001621795394	0.001104866750	0.001175839648	0.001314710433	0.001631655323	0.001981369394	0.001452016818	0.001190164091	0.001275814210	0.001985511507	0.003232441228	0.004254523815	0.002442743421	0.001041952579	0.000759981200	0.000370899065	0.000713452495	0.000702764507	0.000386963944	0.000558692794	0.001143173281	0.002168253313	0.003468931229	
0.005755080809	0.001081644061	0.001680233226	0.001196178261	0.000430263611	0.000375482211	0.000321122348	0.000166378084	0.000850160921	0.000529477642	0.001337417053	0.000531099014	0.000134169664	0.000419468681	0.000508864049	0.000628297709	0.000482225769	0.001077210016	0.000655842615	0.000704273689	0.000612921281	0.000275927463	0.000192801786	0.000288005847	0.000355882681	0.000336793447	0.000359387052	0.000765552914	0.001373696765	0.001104866750	0.001175839648	0.001314710433	0.001624004109	0.001981312823	0.001436006208	0.001185466799	0.001275814209	0.001985511507	0.003232441228	0.004069915203	0.002106099625	0.001041952579	0.000629663365	0.000370899065	0.000600959538	0.000702764507	0.000386938498	0.000558692794	0.001143173281	0.002168253313	0.003191699619	
0.005755080809	0.000980622487	0.001668840678	0.001190838329	0.000335806322	0.000375482211	0.000321122348	0.000166378084	0.000850160921	0.000479442930	0.001200452103	0.000356956532	0.000106527357	0.000401588403	0.000508864049	0.000602124089	0.000482225769	0.001077210016	0.000585955104	0.000698829503	0.000612921281	0.000275927463	0.000192801786	0.000277134609	0.000355882681	0.000258532716	0.000336400415	0.000765552914	0.001373696765	0.001104866750	0.001150075308	0.001314710433	0.001624004109	0.001981312823	0.001436006208	0.001185466799	0.001275811906	0.001985511507	0.003232441228	0.004069915203	0.002050689820	0.000954940078	0.000629663365	0.000370899065	0.000600959538	0.000702764507	0.000386938498	0.000558692794	0.001143173281	0.001867276514	0.003102941462	
0.005701303013	0.000866055340	0.001239853634	0.001000831965	0.000335806322	0.000375482211	0.000313529689	0.000166378084	0.000785967762	0.000438269788	0.001061709540	0.000356956532	0.000106527357	0.000367087686	0.000465756808	0.000587184259	0.000482225769	0.001063754115	0.000542850906	0.000665060881	0.000580936991	0.000275025614	0.000192800686	0.000272684720	0.000355882681	0.000258532716	0.000336400415	0.000765552914	0.001274374743	0.001104866750	0.001019934509	0.001314710433	0.001624004109	0.001398537218	0.001436002781	0.001185466799	0.001275811906	0.001985511507	0.003232434364	0.003650283422	0.002050689820	0.000918762241	0.000552117181	0.000370899065	0.000600959538	0.000702764507	0.000386936932	0.000558692794	0.001143173281	0.001867276514	0.003083016898	
0.005200235431	0.000866055340	0.001117466211	0.001000831965	0.000335806322	0.000307697376	0.000270889487	0.000166378084	0.000709960632	0.000431395369	0.001009003744	0.000356956532	0.000106527357	0.000329411068	0.000436263963	0.000587184259	0.000432737197	0.001063754115	0.000534735357	0.000568949721	0.000575735230	0.000272081979	0.000190699167	0.000272684720	0.000329987379	0.000243338059	0.000336400415	0.000750802181	0.001274374743	0.000972371932	0.001019934509	0.001314710433	0.001624004109	0.001302877028	0.001331169988	0.001184397555	0.001275811906	0.001985511507	0.003232434364	0.003346601195	0.001954211002	0.000918734813	0.000533534438	0.000370899065	0.000600959538	0.000702764507	0.000386936932	0.000558692794	0.001136457362	0.001774951584	0.003047518370	
0.005200235431	0.000713353116	0.001024226078	0.000962501116	0.000335806322	0.000295555134	0.000189626923	0.000162384727	0.000615614713	0.000410500940	0.000968139629	0.000274385960	0.000096911643	0.000327299004	0.000436263963	0.000557804824	0.000432737197	0.001010652809	0.000519366140	0.000539463167	0.000547314593	0.000266787425	0.000190699167	0.000272684720	0.000275007843	0.000178686075	0.000226880086	0.000750802181	0.001274374743	0.000972371932	0.001019901327	0.001314710433	0.001624004014	0.001249955408	0.001284552330	0.001184397555	0.001275811906	0.001985511190	0.003232434364	0.003186867918	0.001900438071	0.000829656899	0.000527997284	0.000370899065	0.000600959538	0.000702764507	0.000386934894	0.000558692794	0.001136457362	0.001762472196	0.002918857507	
0.005104309903	0.000713353116	0.000904952026	0.000894122050	0.000303948359	0.000220869780	0.000188796913	0.000162384727	0.000615614713	0.000396534619	0.000842925082	0.000274385960	0.000087220506	0.000284295190	0.000436263963	0.000540151862	0.000411556905	0.001010652809	0.000442762517	0.000482222526	0.000547314593	0.000264874446	0.000186410021	0.000272684720	0.000275007843	0.000137663156	0.000226880086	0.000724235722	0.001274374743	0.000972371932	0.001019901095	0.001314710418	0.001624004014	0.001249955408	0.001163428755	0.001183246814	0.001275811906	0.001954987845	0.003232434364	0.003124974442	0.001548984601	0.000788982257	0.000440419942	0.000364439044	0.000600959538	0.000702764507	0.000386905839	0.000558685904	0.001121650986	0.001762472196	0.002808301561	
0.004984245885	0.000629399751	0.000749282063	0.000894122050	0.000303948359	0.000220869780	0.000188796913	0.000162384727	0.000571164598	0.000354225146	0.000702293467	0.000274385960	0.000087220506	0.000219140657	0.000436263963	0.000540151862	0.000406934465	0.000978980264	0.000441064456	0.000464732126	0.000534790012	0.000264540088	0.000177964549	0.000272684720	0.000256876013	0.000137663156	0.000214524546	0.000724235722	0.000889759981	0.000882927788	0.000954465734	0.001314710349	0.001624004014	0.001238930538	0.001163428755	0.001183246814	0.001275786496	0.001954987845	0.003119411589	0.002850573578	0.001521458747	0.000788982257	0.000411919918	0.000364439044	0.000600959538	0.000702764507	0.000386905839	0.000558685904	0.001119895540	0.001452943967	0.002604690666	
0.004984245885	0.000629399751	0.000749282063	0.000894122050	0.000283411806	0.000220869780	0.000173762148	0.000162384727	0.000414200567	0.000348536813	0.000669748368	0.000274385960	0.000087220506	0.000186712022	0.000335343796	0.000532402759	0.000406934465	0.000924864538	0.000441064456	0.000397388321	0.000534790012	0.000261693604	0.000177964549	0.000272684720	0.000246897821	0.000137663156	0.000206817608	0.000615096269	0.000799618110	0.000732025087	0.000954465734	0.001314710349	0.001624003803	0.001165944805	0.001163428755	0.001183246814	0.001275472146	0.001954987845	0.002788083689	0.002184889537	0.001521458747	0.000788982257	0.000411919918	0.000361846450	0.000600959538	0.000702764507	0.000386905833	0.000558685904	0.001038886801	0.001452943967	0.002604690666	
0.004955897970	0.000629399751	0.000718947038	0.000862418477	0.000283411806	0.000156464743	0.000168919989	0.000162384727	0.000414200567	0.000336334767	0.000539719547	0.000274385960	0.000087220506	0.000172041289	0.000334766473	0.000508706189	0.000382365585	0.000924864538	0.000441064456	0.000397388321	0.000534789258	0.000261690312	0.000172924498	0.000272080652	0.000246897821	0.000137663156	0.000177859207	0.000615096269	0.000799618110	0.000587271173	0.000954465734	0.001314710334	0.001624003803	0.001165944805	0.001163428755	0.001183246814	0.001165212462	0.001777931004	0.002788083689	0.002184889537	0.001117312706	0.000788982257	0.000411919918	0.000345100026	0.000600959538	0.000702764507	0.000386905833	0.000558685904	0.000834321691	0.001423189288	0.002324753880	
0.004747691421	0.000535767558	0.000680295190	0.000811716032	0.000265560293	0.000156464743	0.000145886518	0.000144539147	0.000414200567	0.000336334767	0.000502562466	0.000274385960	0.000087220506	0.000158291659	0.000334766473	0.000495007200	0.000379109409	0.000864363249	0.000415741440	0.000358404968	0.000534789258	0.000261690312	0.000172924498	0.000272080652	0.000246897821	0.000137663156	0.000177859207	0.000600378913	0.000799618110	0.000587271173	0.000954465734	0.001314710158	0.001624003803	0.001069208691	0.001103980234	0.001183246814	0.001164945964	0.001703197081	0.002621711909	0.002184889537	0.001117312706	0.000650907522	0.000407973125	0.000344915618	0.000600959538	0.000702764507	0.000386905833	0.000558685904	0.000834321691	0.001345082013	0.002324753880	
0.004746662517	0.000460918082	0.000680295190	0.000811716032	0.000265560293	0.000147823744	0.000145725905	0.000144539147	0.000359769553	0.000298751894	0.000502370599	0.000274385960	0.000081961362	0.000158291659	0.000329134423	0.000455805847	0.000360238194	0.000864363249	0.000415741440	0.000358404968	0.000521047391	0.000261690312	0.000172025579	0.000272079115	0.000246897821	0.000131518281	0.000177859207	0.000600378913	0.000742051203	0.000587271173	0.000954465734	0.001314710143	0.001624003803	0.001069208691	0.000999724187	0.001031935659	0.001164944244	0.001523139097	0.002009918288	0.002184889537	0.001117312706	0.000650907522	0.000407973125	0.000344915618	0.000600959538	0.000702764275	0.000386905833	0.000558684925	0.000642569690	0.001233285005	0.002274126611	
