%!PS-Adobe-3.0 EPSF-3.0
%%Title: Werner.entropy.evolution.evolution.eps
%%Creator: matplotlib version 1.2.1, http://matplotlib.org/
%%CreationDate: Sun Jun  9 21:26:02 2013
%%Orientation: portrait
%%BoundingBox: -115 126 727 666
%%EndComments
%%BeginProlog
/mpldict 8 dict def
mpldict begin
/m { moveto } bind def
/l { lineto } bind def
/r { rlineto } bind def
/c { curveto } bind def
/cl { closepath } bind def
/box {
m
1 index 0 r
0 exch r
neg 0 r
cl
} bind def
/clipbox {
box
clip
newpath
} bind def
%!PS-Adobe-3.0 Resource-Font
%%Title: Bitstream Vera Sans
%%Copyright: Copyright (c) 2003 by Bitstream, Inc. All Rights Reserved.
%%Creator: Converted from TrueType to type 3 by PPR
25 dict begin
/_d{bind def}bind def
/_m{moveto}_d
/_l{lineto}_d
/_cl{closepath eofill}_d
/_c{curveto}_d
/_sc{7 -1 roll{setcachedevice}{pop pop pop pop pop pop}ifelse}_d
/_e{exec}_d
/FontName /BitstreamVeraSans-Roman def
/PaintType 0 def
/FontMatrix[.001 0 0 .001 0 0]def
/FontBBox[-183 -236 1287 928]def
/FontType 3 def
/Encoding [ /space /parenleft /parenright /hyphen /period /zero /one /two /three /four /six /eight /colon /E /G /W /bracketleft /bracketright /a /b /d /e /f /g /h /i /l /m /n /o /p /r /s /t /u /v /w /y ] def
/FontInfo 10 dict dup begin
/FamilyName (Bitstream Vera Sans) def
/FullName (Bitstream Vera Sans) def
/Notice (Copyright (c) 2003 by Bitstream, Inc. All Rights Reserved. Bitstream Vera is a trademark of Bitstream, Inc.) def
/Weight (Roman) def
/Version (Release 1.10) def
/ItalicAngle 0.0 def
/isFixedPitch false def
/UnderlinePosition -213 def
/UnderlineThickness 143 def
end readonly def
/CharStrings 38 dict dup begin
/space{318 0 0 0 0 0 _sc
}_d
/parenleft{390 0 86 -131 310 759 _sc
310 759 _m
266 683 234 609 213 536 _c
191 463 181 389 181 314 _c
181 238 191 164 213 91 _c
234 17 266 -56 310 -131 _c
232 -131 _l
183 -54 146 20 122 94 _c
98 168 86 241 86 314 _c
86 386 98 459 122 533 _c
146 607 182 682 232 759 _c
310 759 _l
_cl}_d
/parenright{390 0 80 -131 304 759 _sc
80 759 _m
158 759 _l
206 682 243 607 267 533 _c
291 459 304 386 304 314 _c
304 241 291 168 267 94 _c
243 20 206 -54 158 -131 _c
80 -131 _l
123 -56 155 17 177 91 _c
198 164 209 238 209 314 _c
209 389 198 463 177 536 _c
155 609 123 683 80 759 _c
_cl}_d
/hyphen{361 0 49 234 312 314 _sc
49 314 _m
312 314 _l
312 234 _l
49 234 _l
49 314 _l
_cl}_d
/period{318 0 107 0 210 124 _sc
107 124 _m
210 124 _l
210 0 _l
107 0 _l
107 124 _l
_cl}_d
/zero{636 0 66 -13 570 742 _sc
318 664 _m
267 664 229 639 203 589 _c
177 539 165 464 165 364 _c
165 264 177 189 203 139 _c
229 89 267 64 318 64 _c
369 64 407 89 433 139 _c
458 189 471 264 471 364 _c
471 464 458 539 433 589 _c
407 639 369 664 318 664 _c
318 742 _m
399 742 461 709 505 645 _c
548 580 570 486 570 364 _c
570 241 548 147 505 83 _c
461 19 399 -13 318 -13 _c
236 -13 173 19 130 83 _c
87 147 66 241 66 364 _c
66 486 87 580 130 645 _c
173 709 236 742 318 742 _c
_cl}_d
/one{636 0 110 0 544 729 _sc
124 83 _m
285 83 _l
285 639 _l
110 604 _l
110 694 _l
284 729 _l
383 729 _l
383 83 _l
544 83 _l
544 0 _l
124 0 _l
124 83 _l
_cl}_d
/two{{636 0 73 0 536 742 _sc
192 83 _m
536 83 _l
536 0 _l
73 0 _l
73 83 _l
110 121 161 173 226 239 _c
290 304 331 346 348 365 _c
380 400 402 430 414 455 _c
426 479 433 504 433 528 _c
433 566 419 598 392 622 _c
365 646 330 659 286 659 _c
255 659 222 653 188 643 _c
154 632 117 616 78 594 _c
78 694 _l
118 710 155 722 189 730 _c
223 738 255 742 284 742 _c
}_e{359 742 419 723 464 685 _c
509 647 532 597 532 534 _c
532 504 526 475 515 449 _c
504 422 484 390 454 354 _c
446 344 420 317 376 272 _c
332 227 271 164 192 83 _c
_cl}_e}_d
/three{{636 0 76 -13 556 742 _sc
406 393 _m
453 383 490 362 516 330 _c
542 298 556 258 556 212 _c
556 140 531 84 482 45 _c
432 6 362 -13 271 -13 _c
240 -13 208 -10 176 -4 _c
144 1 110 10 76 22 _c
76 117 _l
103 101 133 89 166 81 _c
198 73 232 69 268 69 _c
330 69 377 81 409 105 _c
441 129 458 165 458 212 _c
458 254 443 288 413 312 _c
383 336 341 349 287 349 _c
}_e{202 349 _l
202 430 _l
291 430 _l
339 430 376 439 402 459 _c
428 478 441 506 441 543 _c
441 580 427 609 401 629 _c
374 649 336 659 287 659 _c
260 659 231 656 200 650 _c
169 644 135 635 98 623 _c
98 711 _l
135 721 170 729 203 734 _c
235 739 266 742 296 742 _c
370 742 429 725 473 691 _c
517 657 539 611 539 553 _c
539 513 527 479 504 451 _c
481 423 448 403 406 393 _c
_cl}_e}_d
/four{636 0 49 0 580 729 _sc
378 643 _m
129 254 _l
378 254 _l
378 643 _l
352 729 _m
476 729 _l
476 254 _l
580 254 _l
580 172 _l
476 172 _l
476 0 _l
378 0 _l
378 172 _l
49 172 _l
49 267 _l
352 729 _l
_cl}_d
/six{{636 0 70 -13 573 742 _sc
330 404 _m
286 404 251 388 225 358 _c
199 328 186 286 186 234 _c
186 181 199 139 225 109 _c
251 79 286 64 330 64 _c
374 64 409 79 435 109 _c
461 139 474 181 474 234 _c
474 286 461 328 435 358 _c
409 388 374 404 330 404 _c
526 713 _m
526 623 _l
501 635 476 644 451 650 _c
425 656 400 659 376 659 _c
310 659 260 637 226 593 _c
}_e{192 549 172 482 168 394 _c
187 422 211 444 240 459 _c
269 474 301 482 336 482 _c
409 482 467 459 509 415 _c
551 371 573 310 573 234 _c
573 159 550 99 506 54 _c
462 9 403 -13 330 -13 _c
246 -13 181 19 137 83 _c
92 147 70 241 70 364 _c
70 479 97 571 152 639 _c
206 707 280 742 372 742 _c
396 742 421 739 447 735 _c
472 730 498 723 526 713 _c
_cl}_e}_d
/eight{{636 0 68 -13 568 742 _sc
318 346 _m
271 346 234 333 207 308 _c
180 283 167 249 167 205 _c
167 161 180 126 207 101 _c
234 76 271 64 318 64 _c
364 64 401 76 428 102 _c
455 127 469 161 469 205 _c
469 249 455 283 429 308 _c
402 333 365 346 318 346 _c
219 388 _m
177 398 144 418 120 447 _c
96 476 85 511 85 553 _c
85 611 105 657 147 691 _c
188 725 245 742 318 742 _c
}_e{390 742 447 725 489 691 _c
530 657 551 611 551 553 _c
551 511 539 476 515 447 _c
491 418 459 398 417 388 _c
464 377 501 355 528 323 _c
554 291 568 251 568 205 _c
568 134 546 80 503 43 _c
459 5 398 -13 318 -13 _c
237 -13 175 5 132 43 _c
89 80 68 134 68 205 _c
68 251 81 291 108 323 _c
134 355 171 377 219 388 _c
183 544 _m
183 506 194 476 218 455 _c
}_e{242 434 275 424 318 424 _c
360 424 393 434 417 455 _c
441 476 453 506 453 544 _c
453 582 441 611 417 632 _c
393 653 360 664 318 664 _c
275 664 242 653 218 632 _c
194 611 183 582 183 544 _c
_cl}_e}_d
/colon{337 0 117 0 220 517 _sc
117 124 _m
220 124 _l
220 0 _l
117 0 _l
117 124 _l
117 517 _m
220 517 _l
220 393 _l
117 393 _l
117 517 _l
_cl}_d
/E{632 0 98 0 568 729 _sc
98 729 _m
559 729 _l
559 646 _l
197 646 _l
197 430 _l
544 430 _l
544 347 _l
197 347 _l
197 83 _l
568 83 _l
568 0 _l
98 0 _l
98 729 _l
_cl}_d
/G{{775 0 56 -13 693 742 _sc
595 104 _m
595 300 _l
434 300 _l
434 381 _l
693 381 _l
693 68 _l
655 40 613 20 567 7 _c
521 -6 472 -13 420 -13 _c
306 -13 216 20 152 86 _c
88 152 56 245 56 364 _c
56 482 88 575 152 642 _c
216 708 306 742 420 742 _c
467 742 512 736 555 724 _c
598 712 638 695 674 673 _c
674 568 _l
637 598 598 621 557 637 _c
516 653 473 661 428 661 _c
}_e{338 661 271 636 227 586 _c
182 536 160 462 160 364 _c
160 265 182 191 227 141 _c
271 91 338 67 428 67 _c
462 67 493 70 521 76 _c
549 82 573 91 595 104 _c
_cl}_e}_d
/W{989 0 33 0 956 729 _sc
33 729 _m
133 729 _l
286 113 _l
439 729 _l
550 729 _l
703 113 _l
856 729 _l
956 729 _l
773 0 _l
649 0 _l
495 633 _l
340 0 _l
216 0 _l
33 729 _l
_cl}_d
/bracketleft{390 0 86 -131 293 760 _sc
86 760 _m
293 760 _l
293 690 _l
176 690 _l
176 -61 _l
293 -61 _l
293 -131 _l
86 -131 _l
86 760 _l
_cl}_d
/bracketright{390 0 97 -131 304 760 _sc
304 760 _m
304 -131 _l
97 -131 _l
97 -61 _l
214 -61 _l
214 690 _l
97 690 _l
97 760 _l
304 760 _l
_cl}_d
/a{{613 0 60 -13 522 560 _sc
343 275 _m
270 275 220 266 192 250 _c
164 233 150 205 150 165 _c
150 133 160 107 181 89 _c
202 70 231 61 267 61 _c
317 61 357 78 387 114 _c
417 149 432 196 432 255 _c
432 275 _l
343 275 _l
522 312 _m
522 0 _l
432 0 _l
432 83 _l
411 49 385 25 355 10 _c
325 -5 287 -13 243 -13 _c
187 -13 142 2 109 33 _c
76 64 60 106 60 159 _c
}_e{60 220 80 266 122 298 _c
163 329 224 345 306 345 _c
432 345 _l
432 354 _l
432 395 418 427 391 450 _c
364 472 326 484 277 484 _c
245 484 215 480 185 472 _c
155 464 127 453 100 439 _c
100 522 _l
132 534 164 544 195 550 _c
226 556 256 560 286 560 _c
365 560 424 539 463 498 _c
502 457 522 395 522 312 _c
_cl}_e}_d
/b{{635 0 91 -13 580 760 _sc
487 273 _m
487 339 473 390 446 428 _c
418 466 381 485 334 485 _c
286 485 249 466 222 428 _c
194 390 181 339 181 273 _c
181 207 194 155 222 117 _c
249 79 286 61 334 61 _c
381 61 418 79 446 117 _c
473 155 487 207 487 273 _c
181 464 _m
199 496 223 520 252 536 _c
281 552 316 560 356 560 _c
422 560 476 533 518 481 _c
559 428 580 359 580 273 _c
}_e{580 187 559 117 518 65 _c
476 13 422 -13 356 -13 _c
316 -13 281 -5 252 10 _c
223 25 199 49 181 82 _c
181 0 _l
91 0 _l
91 760 _l
181 760 _l
181 464 _l
_cl}_e}_d
/d{{635 0 55 -13 544 760 _sc
454 464 _m
454 760 _l
544 760 _l
544 0 _l
454 0 _l
454 82 _l
435 49 411 25 382 10 _c
353 -5 319 -13 279 -13 _c
213 -13 159 13 117 65 _c
75 117 55 187 55 273 _c
55 359 75 428 117 481 _c
159 533 213 560 279 560 _c
319 560 353 552 382 536 _c
411 520 435 496 454 464 _c
148 273 _m
148 207 161 155 188 117 _c
215 79 253 61 301 61 _c
}_e{348 61 385 79 413 117 _c
440 155 454 207 454 273 _c
454 339 440 390 413 428 _c
385 466 348 485 301 485 _c
253 485 215 466 188 428 _c
161 390 148 339 148 273 _c
_cl}_e}_d
/e{{615 0 55 -13 562 560 _sc
562 296 _m
562 252 _l
149 252 _l
153 190 171 142 205 110 _c
238 78 284 62 344 62 _c
378 62 412 66 444 74 _c
476 82 509 95 541 113 _c
541 28 _l
509 14 476 3 442 -3 _c
408 -9 373 -13 339 -13 _c
251 -13 182 12 131 62 _c
80 112 55 181 55 268 _c
55 357 79 428 127 481 _c
175 533 241 560 323 560 _c
397 560 455 536 498 489 _c
}_e{540 441 562 377 562 296 _c
472 322 _m
471 371 457 410 431 440 _c
404 469 368 484 324 484 _c
274 484 234 469 204 441 _c
174 413 156 373 152 322 _c
472 322 _l
_cl}_e}_d
/f{352 0 23 0 371 760 _sc
371 760 _m
371 685 _l
285 685 _l
253 685 230 678 218 665 _c
205 652 199 629 199 595 _c
199 547 _l
347 547 _l
347 477 _l
199 477 _l
199 0 _l
109 0 _l
109 477 _l
23 477 _l
23 547 _l
109 547 _l
109 585 _l
109 645 123 690 151 718 _c
179 746 224 760 286 760 _c
371 760 _l
_cl}_d
/g{{635 0 55 -207 544 560 _sc
454 280 _m
454 344 440 395 414 431 _c
387 467 349 485 301 485 _c
253 485 215 467 188 431 _c
161 395 148 344 148 280 _c
148 215 161 165 188 129 _c
215 93 253 75 301 75 _c
349 75 387 93 414 129 _c
440 165 454 215 454 280 _c
544 68 _m
544 -24 523 -93 482 -139 _c
440 -184 377 -207 292 -207 _c
260 -207 231 -204 203 -200 _c
175 -195 147 -188 121 -178 _c
}_e{121 -91 _l
147 -105 173 -115 199 -122 _c
225 -129 251 -133 278 -133 _c
336 -133 380 -117 410 -87 _c
439 -56 454 -10 454 52 _c
454 96 _l
435 64 411 40 382 24 _c
353 8 319 0 279 0 _c
211 0 157 25 116 76 _c
75 127 55 195 55 280 _c
55 364 75 432 116 483 _c
157 534 211 560 279 560 _c
319 560 353 552 382 536 _c
411 520 435 496 454 464 _c
454 547 _l
544 547 _l
}_e{544 68 _l
_cl}_e}_d
/h{634 0 91 0 549 760 _sc
549 330 _m
549 0 _l
459 0 _l
459 327 _l
459 379 448 417 428 443 _c
408 469 378 482 338 482 _c
289 482 251 466 223 435 _c
195 404 181 362 181 309 _c
181 0 _l
91 0 _l
91 760 _l
181 760 _l
181 462 _l
202 494 227 519 257 535 _c
286 551 320 560 358 560 _c
420 560 468 540 500 501 _c
532 462 549 405 549 330 _c
_cl}_d
/i{278 0 94 0 184 760 _sc
94 547 _m
184 547 _l
184 0 _l
94 0 _l
94 547 _l
94 760 _m
184 760 _l
184 646 _l
94 646 _l
94 760 _l
_cl}_d
/l{278 0 94 0 184 760 _sc
94 760 _m
184 760 _l
184 0 _l
94 0 _l
94 760 _l
_cl}_d
/m{{974 0 91 0 889 560 _sc
520 442 _m
542 482 569 511 600 531 _c
631 550 668 560 711 560 _c
767 560 811 540 842 500 _c
873 460 889 403 889 330 _c
889 0 _l
799 0 _l
799 327 _l
799 379 789 418 771 444 _c
752 469 724 482 686 482 _c
639 482 602 466 575 435 _c
548 404 535 362 535 309 _c
535 0 _l
445 0 _l
445 327 _l
445 379 435 418 417 444 _c
398 469 369 482 331 482 _c
}_e{285 482 248 466 221 435 _c
194 404 181 362 181 309 _c
181 0 _l
91 0 _l
91 547 _l
181 547 _l
181 462 _l
201 495 226 520 255 536 _c
283 552 317 560 357 560 _c
397 560 430 550 458 530 _c
486 510 506 480 520 442 _c
_cl}_e}_d
/n{634 0 91 0 549 560 _sc
549 330 _m
549 0 _l
459 0 _l
459 327 _l
459 379 448 417 428 443 _c
408 469 378 482 338 482 _c
289 482 251 466 223 435 _c
195 404 181 362 181 309 _c
181 0 _l
91 0 _l
91 547 _l
181 547 _l
181 462 _l
202 494 227 519 257 535 _c
286 551 320 560 358 560 _c
420 560 468 540 500 501 _c
532 462 549 405 549 330 _c
_cl}_d
/o{612 0 55 -13 557 560 _sc
306 484 _m
258 484 220 465 192 427 _c
164 389 150 338 150 273 _c
150 207 163 156 191 118 _c
219 80 257 62 306 62 _c
354 62 392 80 420 118 _c
448 156 462 207 462 273 _c
462 337 448 389 420 427 _c
392 465 354 484 306 484 _c
306 560 _m
384 560 445 534 490 484 _c
534 433 557 363 557 273 _c
557 183 534 113 490 63 _c
445 12 384 -13 306 -13 _c
227 -13 165 12 121 63 _c
77 113 55 183 55 273 _c
55 363 77 433 121 484 _c
165 534 227 560 306 560 _c
_cl}_d
/p{{635 0 91 -207 580 560 _sc
181 82 _m
181 -207 _l
91 -207 _l
91 547 _l
181 547 _l
181 464 _l
199 496 223 520 252 536 _c
281 552 316 560 356 560 _c
422 560 476 533 518 481 _c
559 428 580 359 580 273 _c
580 187 559 117 518 65 _c
476 13 422 -13 356 -13 _c
316 -13 281 -5 252 10 _c
223 25 199 49 181 82 _c
487 273 _m
487 339 473 390 446 428 _c
418 466 381 485 334 485 _c
}_e{286 485 249 466 222 428 _c
194 390 181 339 181 273 _c
181 207 194 155 222 117 _c
249 79 286 61 334 61 _c
381 61 418 79 446 117 _c
473 155 487 207 487 273 _c
_cl}_e}_d
/r{411 0 91 0 411 560 _sc
411 463 _m
401 469 390 473 378 476 _c
366 478 353 480 339 480 _c
288 480 249 463 222 430 _c
194 397 181 350 181 288 _c
181 0 _l
91 0 _l
91 547 _l
181 547 _l
181 462 _l
199 495 224 520 254 536 _c
284 552 321 560 365 560 _c
371 560 378 559 386 559 _c
393 558 401 557 411 555 _c
411 463 _l
_cl}_d
/s{{521 0 54 -13 472 560 _sc
443 531 _m
443 446 _l
417 458 391 468 364 475 _c
336 481 308 485 279 485 _c
234 485 200 478 178 464 _c
156 450 145 430 145 403 _c
145 382 153 366 169 354 _c
185 342 217 330 265 320 _c
296 313 _l
360 299 405 279 432 255 _c
458 230 472 195 472 151 _c
472 100 452 60 412 31 _c
372 1 316 -13 246 -13 _c
216 -13 186 -10 154 -5 _c
}_e{122 0 89 8 54 20 _c
54 113 _l
87 95 120 82 152 74 _c
184 65 216 61 248 61 _c
290 61 323 68 346 82 _c
368 96 380 117 380 144 _c
380 168 371 187 355 200 _c
339 213 303 226 247 238 _c
216 245 _l
160 257 119 275 95 299 _c
70 323 58 356 58 399 _c
58 450 76 490 112 518 _c
148 546 200 560 268 560 _c
301 560 332 557 362 552 _c
391 547 418 540 443 531 _c
}_e{_cl}_e}_d
/t{392 0 27 0 368 702 _sc
183 702 _m
183 547 _l
368 547 _l
368 477 _l
183 477 _l
183 180 _l
183 135 189 106 201 94 _c
213 81 238 75 276 75 _c
368 75 _l
368 0 _l
276 0 _l
206 0 158 13 132 39 _c
106 65 93 112 93 180 _c
93 477 _l
27 477 _l
27 547 _l
93 547 _l
93 702 _l
183 702 _l
_cl}_d
/u{634 0 85 -13 543 547 _sc
85 216 _m
85 547 _l
175 547 _l
175 219 _l
175 167 185 129 205 103 _c
225 77 255 64 296 64 _c
344 64 383 79 411 110 _c
439 141 453 183 453 237 _c
453 547 _l
543 547 _l
543 0 _l
453 0 _l
453 84 _l
431 50 405 26 377 10 _c
348 -5 315 -13 277 -13 _c
214 -13 166 6 134 45 _c
101 83 85 140 85 216 _c
_cl}_d
/v{592 0 30 0 562 547 _sc
30 547 _m
125 547 _l
296 88 _l
467 547 _l
562 547 _l
357 0 _l
235 0 _l
30 547 _l
_cl}_d
/w{818 0 42 0 776 547 _sc
42 547 _m
132 547 _l
244 120 _l
356 547 _l
462 547 _l
574 120 _l
686 547 _l
776 547 _l
633 0 _l
527 0 _l
409 448 _l
291 0 _l
185 0 _l
42 547 _l
_cl}_d
/y{592 0 30 -207 562 547 _sc
322 -50 _m
296 -114 271 -157 247 -177 _c
223 -197 191 -207 151 -207 _c
79 -207 _l
79 -132 _l
132 -132 _l
156 -132 175 -126 189 -114 _c
203 -102 218 -75 235 -31 _c
251 9 _l
30 547 _l
125 547 _l
296 119 _l
467 547 _l
562 547 _l
322 -50 _l
_cl}_d
end readonly def

/BuildGlyph
 {exch begin
 CharStrings exch
 2 copy known not{pop /.notdef}if
 true 3 1 roll get exec
 end}_d

/BuildChar {
 1 index /Encoding get exch get
 1 index /BuildGlyph get exec
}_d

FontName currentdict end definefont pop
end
%%EndProlog
mpldict begin
-115.2 126 translate
842.4 540 0 0 clipbox
gsave
0 0 m
842.4 0 l
842.4 540 l
0 540 l
cl
1.000 setgray
fill
grestore
gsave
105.3 54 m
758.16 54 l
758.16 486 l
105.3 486 l
cl
1.000 setgray
fill
grestore
1.000 setlinewidth
1 setlinejoin
2 setlinecap
[] 0 setdash
0.000 0.000 1.000 setrgbcolor
gsave
652.9 432 105.3 54 clipbox
105.3 450.589 m
111.829 436.107 l
118.357 422.273 l
124.886 412.394 l
131.414 400.661 l
137.943 393.166 l
144.472 388.694 l
151 384.06 l
157.529 378.517 l
164.057 374.678 l
170.586 370.396 l
177.115 366.564 l
183.643 362.118 l
190.172 358.186 l
196.7 353.897 l
203.229 347.858 l
209.758 342.945 l
216.286 337.386 l
222.815 332.267 l
229.343 328.014 l
235.872 325.265 l
242.401 321.341 l
248.929 319.494 l
255.458 316.99 l
261.986 314.243 l
268.515 311.902 l
275.044 308.916 l
281.572 305.318 l
288.101 302.478 l
294.629 298.977 l
301.158 296.245 l
307.687 294.022 l
314.215 291.694 l
320.744 288.256 l
327.272 285.078 l
333.801 282.136 l
340.33 279.477 l
346.858 275.96 l
353.387 273.339 l
359.915 268.643 l
366.444 264.695 l
372.973 262.017 l
379.501 259.271 l
386.03 256.966 l
392.558 254.125 l
399.087 252.116 l
405.616 250.25 l
412.144 248.151 l
418.673 246.971 l
425.201 243.476 l
431.73 241.007 l
438.259 239.214 l
444.787 238.015 l
451.316 235.827 l
457.844 233.396 l
464.373 231.74 l
470.902 230.528 l
477.43 228.122 l
483.959 226.333 l
490.487 222.9 l
497.016 219.682 l
503.545 217.696 l
510.073 215.904 l
516.602 214.531 l
523.13 212.628 l
529.659 210.198 l
536.188 209.333 l
542.716 207.396 l
549.245 204.408 l
555.773 201.979 l
562.302 199.976 l
568.831 196.232 l
575.359 194.272 l
581.888 191.986 l
588.416 189.596 l
594.945 188.247 l
601.474 186.19 l
608.002 183.483 l
614.531 181.863 l
621.059 179.287 l
627.588 177.907 l
634.117 176.39 l
640.645 174.217 l
647.174 172.237 l
653.702 170.097 l
660.231 168.069 l
666.76 165.662 l
673.288 164.258 l
679.817 162.246 l
686.345 160.614 l
692.874 157.849 l
699.403 156.572 l
705.931 154.04 l
712.46 153.206 l
718.988 150.038 l
725.517 147.295 l
732.046 144.095 l
738.574 141.938 l
745.103 138.627 l
751.631 136.969 l
758.16 134.569 l
stroke
grestore
0.000 0.500 0.000 setrgbcolor
gsave
652.9 432 105.3 54 clipbox
105.3 450.233 m
111.829 431.445 l
118.357 419.888 l
124.886 409.347 l
131.414 399.142 l
137.943 389.32 l
144.472 382.095 l
151 375.746 l
157.529 370.3 l
164.057 363.608 l
170.586 357.369 l
177.115 350.369 l
183.643 344.305 l
190.172 339.417 l
196.7 335.864 l
203.229 331.864 l
209.758 327.868 l
216.286 323.25 l
222.815 319.209 l
229.343 315.47 l
235.872 311.75 l
242.401 308.806 l
248.929 304.916 l
255.458 302.264 l
261.986 299.702 l
268.515 295.071 l
275.044 289.767 l
281.572 285.263 l
288.101 280.561 l
294.629 277.558 l
301.158 274.876 l
307.687 271.905 l
314.215 267.851 l
320.744 263.448 l
327.272 259.914 l
333.801 256.649 l
340.33 253.943 l
346.858 250.395 l
353.387 247.558 l
359.915 244.612 l
366.444 242.493 l
372.973 240.601 l
379.501 237.621 l
386.03 235.981 l
392.558 233.668 l
399.087 231.922 l
405.616 229.68 l
412.144 228.426 l
418.673 224.92 l
425.201 223.118 l
431.73 221.206 l
438.259 218.029 l
444.787 216.339 l
451.316 215.104 l
457.844 213.052 l
464.373 211.468 l
470.902 210.44 l
477.43 209.531 l
483.959 207.795 l
490.487 206.941 l
497.016 205.238 l
503.545 204.187 l
510.073 203.068 l
516.602 202.161 l
523.13 201.572 l
529.659 200.631 l
536.188 198.729 l
542.716 197.966 l
549.245 197.486 l
555.773 196.736 l
562.302 195.353 l
568.831 194.326 l
575.359 193.394 l
581.888 192.468 l
588.416 191.338 l
594.945 189.927 l
601.474 188.581 l
608.002 186.555 l
614.531 185.511 l
621.059 183.477 l
627.588 182.529 l
634.117 181.064 l
640.645 179.761 l
647.174 178.474 l
653.702 176.627 l
660.231 174.046 l
666.76 172.826 l
673.288 170.614 l
679.817 168.658 l
686.345 166.804 l
692.874 165.192 l
699.403 164.037 l
705.931 161.637 l
712.46 159.699 l
718.988 158.256 l
725.517 156.659 l
732.046 154.437 l
738.574 152.158 l
745.103 150.405 l
751.631 148.848 l
758.16 146.72 l
stroke
grestore
1.000 0.000 0.000 setrgbcolor
gsave
652.9 432 105.3 54 clipbox
105.3 450.924 m
111.829 436.776 l
118.357 423.936 l
124.886 415.231 l
131.414 409.521 l
137.943 401.295 l
144.472 393.663 l
151 389.167 l
157.529 385.578 l
164.057 379.644 l
170.586 375.661 l
177.115 370.902 l
183.643 366.601 l
190.172 361.731 l
196.7 360.489 l
203.229 358.222 l
209.758 355.703 l
216.286 352.895 l
222.815 349.364 l
229.343 345.698 l
235.872 342.281 l
242.401 339.718 l
248.929 336.357 l
255.458 334.496 l
261.986 332.53 l
268.515 330.799 l
275.044 326.995 l
281.572 324.963 l
288.101 322.299 l
294.629 320.735 l
301.158 317.824 l
307.687 314.805 l
314.215 312.346 l
320.744 310.817 l
327.272 308.846 l
333.801 306.293 l
340.33 304.556 l
346.858 302.991 l
353.387 300.995 l
359.915 297.292 l
366.444 294.746 l
372.973 291.382 l
379.501 289.959 l
386.03 287.946 l
392.558 285.938 l
399.087 282.859 l
405.616 280.866 l
412.144 278.934 l
418.673 275.775 l
425.201 274.725 l
431.73 270.942 l
438.259 268.798 l
444.787 266.98 l
451.316 264.102 l
457.844 261.349 l
464.373 259.516 l
470.902 256.432 l
477.43 254.428 l
483.959 252.548 l
490.487 249.801 l
497.016 245.831 l
503.545 242.621 l
510.073 241.462 l
516.602 237.916 l
523.13 234.968 l
529.659 233.397 l
536.188 230.802 l
542.716 227.024 l
549.245 223.432 l
555.773 221.508 l
562.302 217.016 l
568.831 214.453 l
575.359 213.079 l
581.888 210.069 l
588.416 206.788 l
594.945 204.961 l
601.474 203.559 l
608.002 200.449 l
614.531 198.581 l
621.059 196.697 l
627.588 194.873 l
634.117 191.945 l
640.645 190.398 l
647.174 188.215 l
653.702 185.056 l
660.231 182.616 l
666.76 179.542 l
673.288 178.039 l
679.817 175.084 l
686.345 173.081 l
692.874 171.271 l
699.403 168.462 l
705.931 166.892 l
712.46 165.47 l
718.988 163.495 l
725.517 160.729 l
732.046 158.663 l
738.574 157.732 l
745.103 155.447 l
751.631 153.366 l
758.16 150.687 l
stroke
grestore
0.000 0.750 0.750 setrgbcolor
gsave
652.9 432 105.3 54 clipbox
105.3 436.067 m
111.829 407.647 l
118.357 389.971 l
124.886 383.626 l
131.414 378.112 l
137.943 374.255 l
144.472 371.567 l
151 369.363 l
157.529 367.181 l
164.057 365.292 l
170.586 363.36 l
177.115 361.397 l
183.643 359.369 l
190.172 357.316 l
196.7 355.304 l
203.229 353.185 l
209.758 351.272 l
216.286 348.58 l
222.815 345.864 l
229.343 343.846 l
235.872 342.499 l
242.401 340.762 l
248.929 338.663 l
255.458 336.393 l
261.986 334.529 l
268.515 333.246 l
275.044 331.379 l
281.572 329.86 l
288.101 327.637 l
294.629 325.954 l
301.158 324.513 l
307.687 322.79 l
314.215 321.352 l
320.744 319.88 l
327.272 318.443 l
333.801 316.817 l
340.33 315.324 l
346.858 313.856 l
353.387 312.712 l
359.915 310.703 l
366.444 309.081 l
372.973 306.289 l
379.501 304.558 l
386.03 302.393 l
392.558 300.31 l
399.087 297.912 l
405.616 295.218 l
412.144 293.191 l
418.673 290.073 l
425.201 288.058 l
431.73 284.138 l
438.259 282.374 l
444.787 279.472 l
451.316 276.558 l
457.844 273.676 l
464.373 270.967 l
470.902 268.53 l
477.43 265.775 l
483.959 263.086 l
490.487 260.148 l
497.016 257.734 l
503.545 255.223 l
510.073 253.471 l
516.602 250.398 l
523.13 248.623 l
529.659 245.86 l
536.188 243.505 l
542.716 240.942 l
549.245 237.976 l
555.773 236.089 l
562.302 234.24 l
568.831 231.116 l
575.359 228.704 l
581.888 225.739 l
588.416 223.729 l
594.945 220.56 l
601.474 217.821 l
608.002 214.028 l
614.531 210.212 l
621.059 208.007 l
627.588 206.141 l
634.117 204.177 l
640.645 203.166 l
647.174 201.531 l
653.702 200.51 l
660.231 197.969 l
666.76 196.822 l
673.288 193.501 l
679.817 188.78 l
686.345 187.063 l
692.874 185.561 l
699.403 182.531 l
705.931 180.942 l
712.46 179.263 l
718.988 175.846 l
725.517 174.223 l
732.046 172.243 l
738.574 170.091 l
745.103 168.924 l
751.631 166.848 l
758.16 164.921 l
stroke
grestore
0.500 setlinewidth
0 setlinecap
0.000 setgray
gsave
/o {
gsave
newpath
translate
0.5 setlinewidth
1 setlinejoin
0 setlinecap
0 0 m
0 4 l
gsave
0.000 setgray
fill
grestore
stroke
grestore
} bind def
105.3 54 o
grestore
gsave
/o {
gsave
newpath
translate
0.5 setlinewidth
1 setlinejoin
0 setlinecap
0 0 m
0 -4 l
gsave
0.000 setgray
fill
grestore
stroke
grestore
} bind def
105.3 486 o
grestore
/BitstreamVeraSans-Roman findfont
12.000 scalefont
setfont
gsave
102.276562 40.921875 translate
0.000000 rotate
0.000000 0.171875 m /zero glyphshow
grestore
gsave
/o {
gsave
newpath
translate
0.5 setlinewidth
1 setlinejoin
0 setlinecap
0 0 m
0 4 l
gsave
0.000 setgray
fill
grestore
stroke
grestore
} bind def
235.872 54 o
grestore
gsave
/o {
gsave
newpath
translate
0.5 setlinewidth
1 setlinejoin
0 setlinecap
0 0 m
0 -4 l
gsave
0.000 setgray
fill
grestore
stroke
grestore
} bind def
235.872 486 o
grestore
gsave
229.067312 40.921875 translate
0.000000 rotate
0.000000 0.171875 m /two glyphshow
7.634766 0.171875 m /zero glyphshow
grestore
gsave
/o {
gsave
newpath
translate
0.5 setlinewidth
1 setlinejoin
0 setlinecap
0 0 m
0 4 l
gsave
0.000 setgray
fill
grestore
stroke
grestore
} bind def
366.444 54 o
grestore
gsave
/o {
gsave
newpath
translate
0.5 setlinewidth
1 setlinejoin
0 setlinecap
0 0 m
0 -4 l
gsave
0.000 setgray
fill
grestore
stroke
grestore
} bind def
366.444 486 o
grestore
gsave
359.498688 40.921875 translate
0.000000 rotate
0.000000 0.171875 m /four glyphshow
7.634766 0.171875 m /zero glyphshow
grestore
gsave
/o {
gsave
newpath
translate
0.5 setlinewidth
1 setlinejoin
0 setlinecap
0 0 m
0 4 l
gsave
0.000 setgray
fill
grestore
stroke
grestore
} bind def
497.016 54 o
grestore
gsave
/o {
gsave
newpath
translate
0.5 setlinewidth
1 setlinejoin
0 setlinecap
0 0 m
0 -4 l
gsave
0.000 setgray
fill
grestore
stroke
grestore
} bind def
497.016 486 o
grestore
gsave
490.195688 40.921875 translate
0.000000 rotate
0.000000 0.171875 m /six glyphshow
7.634766 0.171875 m /zero glyphshow
grestore
gsave
/o {
gsave
newpath
translate
0.5 setlinewidth
1 setlinejoin
0 setlinecap
0 0 m
0 4 l
gsave
0.000 setgray
fill
grestore
stroke
grestore
} bind def
627.588 54 o
grestore
gsave
/o {
gsave
newpath
translate
0.5 setlinewidth
1 setlinejoin
0 setlinecap
0 0 m
0 -4 l
gsave
0.000 setgray
fill
grestore
stroke
grestore
} bind def
627.588 486 o
grestore
gsave
620.752062 40.921875 translate
0.000000 rotate
0.000000 0.171875 m /eight glyphshow
7.634766 0.171875 m /zero glyphshow
grestore
gsave
/o {
gsave
newpath
translate
0.5 setlinewidth
1 setlinejoin
0 setlinecap
0 0 m
0 4 l
gsave
0.000 setgray
fill
grestore
stroke
grestore
} bind def
758.16 54 o
grestore
gsave
/o {
gsave
newpath
translate
0.5 setlinewidth
1 setlinejoin
0 setlinecap
0 0 m
0 -4 l
gsave
0.000 setgray
fill
grestore
stroke
grestore
} bind def
758.16 486 o
grestore
gsave
747.753750 40.921875 translate
0.000000 rotate
0.000000 0.171875 m /one glyphshow
7.634766 0.171875 m /zero glyphshow
15.269531 0.171875 m /zero glyphshow
grestore
gsave
399.089375 26.625000 translate
0.000000 rotate
0.000000 0.171875 m /G glyphshow
9.298828 0.171875 m /e glyphshow
16.681641 0.171875 m /n glyphshow
24.287109 0.171875 m /e glyphshow
31.669922 0.171875 m /r glyphshow
36.603516 0.171875 m /a glyphshow
43.957031 0.171875 m /t glyphshow
48.662109 0.171875 m /i glyphshow
51.996094 0.171875 m /o glyphshow
59.337891 0.171875 m /n glyphshow
grestore
gsave
/o {
gsave
newpath
translate
0.5 setlinewidth
1 setlinejoin
0 setlinecap
0 0 m
4 0 l
gsave
0.000 setgray
fill
grestore
stroke
grestore
} bind def
105.3 54 o
grestore
gsave
/o {
gsave
newpath
translate
0.5 setlinewidth
1 setlinejoin
0 setlinecap
0 0 m
-4 0 l
gsave
0.000 setgray
fill
grestore
stroke
grestore
} bind def
758.16 54 o
grestore
gsave
74.300000 47.000000 translate
0.000000 rotate
/BitstreamVeraSans-Roman findfont
12.0 scalefont
setfont
0.000000 1.575000 moveto
/one glyphshow

7.634766 1.575000 moveto
/zero glyphshow

/BitstreamVeraSans-Roman findfont
8.4 scalefont
setfont
15.269531 7.875000 moveto
/hyphen glyphshow

18.300586 7.875000 moveto
/four glyphshow


grestore
gsave
/o {
gsave
newpath
translate
0.5 setlinewidth
1 setlinejoin
0 setlinecap
0 0 m
4 0 l
gsave
0.000 setgray
fill
grestore
stroke
grestore
} bind def
105.3 162 o
grestore
gsave
/o {
gsave
newpath
translate
0.5 setlinewidth
1 setlinejoin
0 setlinecap
0 0 m
-4 0 l
gsave
0.000 setgray
fill
grestore
stroke
grestore
} bind def
758.16 162 o
grestore
gsave
74.300000 155.000000 translate
0.000000 rotate
/BitstreamVeraSans-Roman findfont
12.0 scalefont
setfont
0.000000 1.465625 moveto
/one glyphshow

7.634766 1.465625 moveto
/zero glyphshow

/BitstreamVeraSans-Roman findfont
8.4 scalefont
setfont
15.269531 7.765625 moveto
/hyphen glyphshow

18.300586 7.765625 moveto
/three glyphshow


grestore
gsave
/o {
gsave
newpath
translate
0.5 setlinewidth
1 setlinejoin
0 setlinecap
0 0 m
4 0 l
gsave
0.000 setgray
fill
grestore
stroke
grestore
} bind def
105.3 270 o
grestore
gsave
/o {
gsave
newpath
translate
0.5 setlinewidth
1 setlinejoin
0 setlinecap
0 0 m
-4 0 l
gsave
0.000 setgray
fill
grestore
stroke
grestore
} bind def
758.16 270 o
grestore
gsave
74.300000 263.000000 translate
0.000000 rotate
/BitstreamVeraSans-Roman findfont
12.0 scalefont
setfont
0.000000 1.465625 moveto
/one glyphshow

7.634766 1.465625 moveto
/zero glyphshow

/BitstreamVeraSans-Roman findfont
8.4 scalefont
setfont
15.269531 7.765625 moveto
/hyphen glyphshow

18.300586 7.765625 moveto
/two glyphshow


grestore
gsave
/o {
gsave
newpath
translate
0.5 setlinewidth
1 setlinejoin
0 setlinecap
0 0 m
4 0 l
gsave
0.000 setgray
fill
grestore
stroke
grestore
} bind def
105.3 378 o
grestore
gsave
/o {
gsave
newpath
translate
0.5 setlinewidth
1 setlinejoin
0 setlinecap
0 0 m
-4 0 l
gsave
0.000 setgray
fill
grestore
stroke
grestore
} bind def
758.16 378 o
grestore
gsave
74.300000 371.000000 translate
0.000000 rotate
/BitstreamVeraSans-Roman findfont
12.0 scalefont
setfont
0.000000 1.575000 moveto
/one glyphshow

7.634766 1.575000 moveto
/zero glyphshow

/BitstreamVeraSans-Roman findfont
8.4 scalefont
setfont
15.269531 7.875000 moveto
/hyphen glyphshow

18.300586 7.875000 moveto
/one glyphshow


grestore
gsave
/o {
gsave
newpath
translate
0.5 setlinewidth
1 setlinejoin
0 setlinecap
0 0 m
4 0 l
gsave
0.000 setgray
fill
grestore
stroke
grestore
} bind def
105.3 486 o
grestore
gsave
/o {
gsave
newpath
translate
0.5 setlinewidth
1 setlinejoin
0 setlinecap
0 0 m
-4 0 l
gsave
0.000 setgray
fill
grestore
stroke
grestore
} bind def
758.16 486 o
grestore
gsave
77.300000 479.000000 translate
0.000000 rotate
/BitstreamVeraSans-Roman findfont
12.0 scalefont
setfont
0.000000 1.465625 moveto
/one glyphshow

7.634766 1.465625 moveto
/zero glyphshow

/BitstreamVeraSans-Roman findfont
8.4 scalefont
setfont
15.269531 7.765625 moveto
/zero glyphshow


grestore
gsave
/o {
gsave
newpath
translate
0.5 setlinewidth
1 setlinejoin
0 setlinecap
0 0 m
2 0 l
gsave
0.000 setgray
fill
grestore
stroke
grestore
} bind def
105.3 86.5112 o
grestore
gsave
/o {
gsave
newpath
translate
0.5 setlinewidth
1 setlinejoin
0 setlinecap
0 0 m
-2 0 l
gsave
0.000 setgray
fill
grestore
stroke
grestore
} bind def
758.16 86.5112 o
grestore
gsave
/o {
gsave
newpath
translate
0.5 setlinewidth
1 setlinejoin
0 setlinecap
0 0 m
2 0 l
gsave
0.000 setgray
fill
grestore
stroke
grestore
} bind def
105.3 105.529 o
grestore
gsave
/o {
gsave
newpath
translate
0.5 setlinewidth
1 setlinejoin
0 setlinecap
0 0 m
-2 0 l
gsave
0.000 setgray
fill
grestore
stroke
grestore
} bind def
758.16 105.529 o
grestore
gsave
/o {
gsave
newpath
translate
0.5 setlinewidth
1 setlinejoin
0 setlinecap
0 0 m
2 0 l
gsave
0.000 setgray
fill
grestore
stroke
grestore
} bind def
105.3 119.022 o
grestore
gsave
/o {
gsave
newpath
translate
0.5 setlinewidth
1 setlinejoin
0 setlinecap
0 0 m
-2 0 l
gsave
0.000 setgray
fill
grestore
stroke
grestore
} bind def
758.16 119.022 o
grestore
gsave
/o {
gsave
newpath
translate
0.5 setlinewidth
1 setlinejoin
0 setlinecap
0 0 m
2 0 l
gsave
0.000 setgray
fill
grestore
stroke
grestore
} bind def
105.3 129.489 o
grestore
gsave
/o {
gsave
newpath
translate
0.5 setlinewidth
1 setlinejoin
0 setlinecap
0 0 m
-2 0 l
gsave
0.000 setgray
fill
grestore
stroke
grestore
} bind def
758.16 129.489 o
grestore
gsave
/o {
gsave
newpath
translate
0.5 setlinewidth
1 setlinejoin
0 setlinecap
0 0 m
2 0 l
gsave
0.000 setgray
fill
grestore
stroke
grestore
} bind def
105.3 138.04 o
grestore
gsave
/o {
gsave
newpath
translate
0.5 setlinewidth
1 setlinejoin
0 setlinecap
0 0 m
-2 0 l
gsave
0.000 setgray
fill
grestore
stroke
grestore
} bind def
758.16 138.04 o
grestore
gsave
/o {
gsave
newpath
translate
0.5 setlinewidth
1 setlinejoin
0 setlinecap
0 0 m
2 0 l
gsave
0.000 setgray
fill
grestore
stroke
grestore
} bind def
105.3 145.271 o
grestore
gsave
/o {
gsave
newpath
translate
0.5 setlinewidth
1 setlinejoin
0 setlinecap
0 0 m
-2 0 l
gsave
0.000 setgray
fill
grestore
stroke
grestore
} bind def
758.16 145.271 o
grestore
gsave
/o {
gsave
newpath
translate
0.5 setlinewidth
1 setlinejoin
0 setlinecap
0 0 m
2 0 l
gsave
0.000 setgray
fill
grestore
stroke
grestore
} bind def
105.3 151.534 o
grestore
gsave
/o {
gsave
newpath
translate
0.5 setlinewidth
1 setlinejoin
0 setlinecap
0 0 m
-2 0 l
gsave
0.000 setgray
fill
grestore
stroke
grestore
} bind def
758.16 151.534 o
grestore
gsave
/o {
gsave
newpath
translate
0.5 setlinewidth
1 setlinejoin
0 setlinecap
0 0 m
2 0 l
gsave
0.000 setgray
fill
grestore
stroke
grestore
} bind def
105.3 157.058 o
grestore
gsave
/o {
gsave
newpath
translate
0.5 setlinewidth
1 setlinejoin
0 setlinecap
0 0 m
-2 0 l
gsave
0.000 setgray
fill
grestore
stroke
grestore
} bind def
758.16 157.058 o
grestore
gsave
/o {
gsave
newpath
translate
0.5 setlinewidth
1 setlinejoin
0 setlinecap
0 0 m
2 0 l
gsave
0.000 setgray
fill
grestore
stroke
grestore
} bind def
105.3 194.511 o
grestore
gsave
/o {
gsave
newpath
translate
0.5 setlinewidth
1 setlinejoin
0 setlinecap
0 0 m
-2 0 l
gsave
0.000 setgray
fill
grestore
stroke
grestore
} bind def
758.16 194.511 o
grestore
gsave
/o {
gsave
newpath
translate
0.5 setlinewidth
1 setlinejoin
0 setlinecap
0 0 m
2 0 l
gsave
0.000 setgray
fill
grestore
stroke
grestore
} bind def
105.3 213.529 o
grestore
gsave
/o {
gsave
newpath
translate
0.5 setlinewidth
1 setlinejoin
0 setlinecap
0 0 m
-2 0 l
gsave
0.000 setgray
fill
grestore
stroke
grestore
} bind def
758.16 213.529 o
grestore
gsave
/o {
gsave
newpath
translate
0.5 setlinewidth
1 setlinejoin
0 setlinecap
0 0 m
2 0 l
gsave
0.000 setgray
fill
grestore
stroke
grestore
} bind def
105.3 227.022 o
grestore
gsave
/o {
gsave
newpath
translate
0.5 setlinewidth
1 setlinejoin
0 setlinecap
0 0 m
-2 0 l
gsave
0.000 setgray
fill
grestore
stroke
grestore
} bind def
758.16 227.022 o
grestore
gsave
/o {
gsave
newpath
translate
0.5 setlinewidth
1 setlinejoin
0 setlinecap
0 0 m
2 0 l
gsave
0.000 setgray
fill
grestore
stroke
grestore
} bind def
105.3 237.489 o
grestore
gsave
/o {
gsave
newpath
translate
0.5 setlinewidth
1 setlinejoin
0 setlinecap
0 0 m
-2 0 l
gsave
0.000 setgray
fill
grestore
stroke
grestore
} bind def
758.16 237.489 o
grestore
gsave
/o {
gsave
newpath
translate
0.5 setlinewidth
1 setlinejoin
0 setlinecap
0 0 m
2 0 l
gsave
0.000 setgray
fill
grestore
stroke
grestore
} bind def
105.3 246.04 o
grestore
gsave
/o {
gsave
newpath
translate
0.5 setlinewidth
1 setlinejoin
0 setlinecap
0 0 m
-2 0 l
gsave
0.000 setgray
fill
grestore
stroke
grestore
} bind def
758.16 246.04 o
grestore
gsave
/o {
gsave
newpath
translate
0.5 setlinewidth
1 setlinejoin
0 setlinecap
0 0 m
2 0 l
gsave
0.000 setgray
fill
grestore
stroke
grestore
} bind def
105.3 253.271 o
grestore
gsave
/o {
gsave
newpath
translate
0.5 setlinewidth
1 setlinejoin
0 setlinecap
0 0 m
-2 0 l
gsave
0.000 setgray
fill
grestore
stroke
grestore
} bind def
758.16 253.271 o
grestore
gsave
/o {
gsave
newpath
translate
0.5 setlinewidth
1 setlinejoin
0 setlinecap
0 0 m
2 0 l
gsave
0.000 setgray
fill
grestore
stroke
grestore
} bind def
105.3 259.534 o
grestore
gsave
/o {
gsave
newpath
translate
0.5 setlinewidth
1 setlinejoin
0 setlinecap
0 0 m
-2 0 l
gsave
0.000 setgray
fill
grestore
stroke
grestore
} bind def
758.16 259.534 o
grestore
gsave
/o {
gsave
newpath
translate
0.5 setlinewidth
1 setlinejoin
0 setlinecap
0 0 m
2 0 l
gsave
0.000 setgray
fill
grestore
stroke
grestore
} bind def
105.3 265.058 o
grestore
gsave
/o {
gsave
newpath
translate
0.5 setlinewidth
1 setlinejoin
0 setlinecap
0 0 m
-2 0 l
gsave
0.000 setgray
fill
grestore
stroke
grestore
} bind def
758.16 265.058 o
grestore
gsave
/o {
gsave
newpath
translate
0.5 setlinewidth
1 setlinejoin
0 setlinecap
0 0 m
2 0 l
gsave
0.000 setgray
fill
grestore
stroke
grestore
} bind def
105.3 302.511 o
grestore
gsave
/o {
gsave
newpath
translate
0.5 setlinewidth
1 setlinejoin
0 setlinecap
0 0 m
-2 0 l
gsave
0.000 setgray
fill
grestore
stroke
grestore
} bind def
758.16 302.511 o
grestore
gsave
/o {
gsave
newpath
translate
0.5 setlinewidth
1 setlinejoin
0 setlinecap
0 0 m
2 0 l
gsave
0.000 setgray
fill
grestore
stroke
grestore
} bind def
105.3 321.529 o
grestore
gsave
/o {
gsave
newpath
translate
0.5 setlinewidth
1 setlinejoin
0 setlinecap
0 0 m
-2 0 l
gsave
0.000 setgray
fill
grestore
stroke
grestore
} bind def
758.16 321.529 o
grestore
gsave
/o {
gsave
newpath
translate
0.5 setlinewidth
1 setlinejoin
0 setlinecap
0 0 m
2 0 l
gsave
0.000 setgray
fill
grestore
stroke
grestore
} bind def
105.3 335.022 o
grestore
gsave
/o {
gsave
newpath
translate
0.5 setlinewidth
1 setlinejoin
0 setlinecap
0 0 m
-2 0 l
gsave
0.000 setgray
fill
grestore
stroke
grestore
} bind def
758.16 335.022 o
grestore
gsave
/o {
gsave
newpath
translate
0.5 setlinewidth
1 setlinejoin
0 setlinecap
0 0 m
2 0 l
gsave
0.000 setgray
fill
grestore
stroke
grestore
} bind def
105.3 345.489 o
grestore
gsave
/o {
gsave
newpath
translate
0.5 setlinewidth
1 setlinejoin
0 setlinecap
0 0 m
-2 0 l
gsave
0.000 setgray
fill
grestore
stroke
grestore
} bind def
758.16 345.489 o
grestore
gsave
/o {
gsave
newpath
translate
0.5 setlinewidth
1 setlinejoin
0 setlinecap
0 0 m
2 0 l
gsave
0.000 setgray
fill
grestore
stroke
grestore
} bind def
105.3 354.04 o
grestore
gsave
/o {
gsave
newpath
translate
0.5 setlinewidth
1 setlinejoin
0 setlinecap
0 0 m
-2 0 l
gsave
0.000 setgray
fill
grestore
stroke
grestore
} bind def
758.16 354.04 o
grestore
gsave
/o {
gsave
newpath
translate
0.5 setlinewidth
1 setlinejoin
0 setlinecap
0 0 m
2 0 l
gsave
0.000 setgray
fill
grestore
stroke
grestore
} bind def
105.3 361.271 o
grestore
gsave
/o {
gsave
newpath
translate
0.5 setlinewidth
1 setlinejoin
0 setlinecap
0 0 m
-2 0 l
gsave
0.000 setgray
fill
grestore
stroke
grestore
} bind def
758.16 361.271 o
grestore
gsave
/o {
gsave
newpath
translate
0.5 setlinewidth
1 setlinejoin
0 setlinecap
0 0 m
2 0 l
gsave
0.000 setgray
fill
grestore
stroke
grestore
} bind def
105.3 367.534 o
grestore
gsave
/o {
gsave
newpath
translate
0.5 setlinewidth
1 setlinejoin
0 setlinecap
0 0 m
-2 0 l
gsave
0.000 setgray
fill
grestore
stroke
grestore
} bind def
758.16 367.534 o
grestore
gsave
/o {
gsave
newpath
translate
0.5 setlinewidth
1 setlinejoin
0 setlinecap
0 0 m
2 0 l
gsave
0.000 setgray
fill
grestore
stroke
grestore
} bind def
105.3 373.058 o
grestore
gsave
/o {
gsave
newpath
translate
0.5 setlinewidth
1 setlinejoin
0 setlinecap
0 0 m
-2 0 l
gsave
0.000 setgray
fill
grestore
stroke
grestore
} bind def
758.16 373.058 o
grestore
gsave
/o {
gsave
newpath
translate
0.5 setlinewidth
1 setlinejoin
0 setlinecap
0 0 m
2 0 l
gsave
0.000 setgray
fill
grestore
stroke
grestore
} bind def
105.3 410.511 o
grestore
gsave
/o {
gsave
newpath
translate
0.5 setlinewidth
1 setlinejoin
0 setlinecap
0 0 m
-2 0 l
gsave
0.000 setgray
fill
grestore
stroke
grestore
} bind def
758.16 410.511 o
grestore
gsave
/o {
gsave
newpath
translate
0.5 setlinewidth
1 setlinejoin
0 setlinecap
0 0 m
2 0 l
gsave
0.000 setgray
fill
grestore
stroke
grestore
} bind def
105.3 429.529 o
grestore
gsave
/o {
gsave
newpath
translate
0.5 setlinewidth
1 setlinejoin
0 setlinecap
0 0 m
-2 0 l
gsave
0.000 setgray
fill
grestore
stroke
grestore
} bind def
758.16 429.529 o
grestore
gsave
/o {
gsave
newpath
translate
0.5 setlinewidth
1 setlinejoin
0 setlinecap
0 0 m
2 0 l
gsave
0.000 setgray
fill
grestore
stroke
grestore
} bind def
105.3 443.022 o
grestore
gsave
/o {
gsave
newpath
translate
0.5 setlinewidth
1 setlinejoin
0 setlinecap
0 0 m
-2 0 l
gsave
0.000 setgray
fill
grestore
stroke
grestore
} bind def
758.16 443.022 o
grestore
gsave
/o {
gsave
newpath
translate
0.5 setlinewidth
1 setlinejoin
0 setlinecap
0 0 m
2 0 l
gsave
0.000 setgray
fill
grestore
stroke
grestore
} bind def
105.3 453.489 o
grestore
gsave
/o {
gsave
newpath
translate
0.5 setlinewidth
1 setlinejoin
0 setlinecap
0 0 m
-2 0 l
gsave
0.000 setgray
fill
grestore
stroke
grestore
} bind def
758.16 453.489 o
grestore
gsave
/o {
gsave
newpath
translate
0.5 setlinewidth
1 setlinejoin
0 setlinecap
0 0 m
2 0 l
gsave
0.000 setgray
fill
grestore
stroke
grestore
} bind def
105.3 462.04 o
grestore
gsave
/o {
gsave
newpath
translate
0.5 setlinewidth
1 setlinejoin
0 setlinecap
0 0 m
-2 0 l
gsave
0.000 setgray
fill
grestore
stroke
grestore
} bind def
758.16 462.04 o
grestore
gsave
/o {
gsave
newpath
translate
0.5 setlinewidth
1 setlinejoin
0 setlinecap
0 0 m
2 0 l
gsave
0.000 setgray
fill
grestore
stroke
grestore
} bind def
105.3 469.271 o
grestore
gsave
/o {
gsave
newpath
translate
0.5 setlinewidth
1 setlinejoin
0 setlinecap
0 0 m
-2 0 l
gsave
0.000 setgray
fill
grestore
stroke
grestore
} bind def
758.16 469.271 o
grestore
gsave
/o {
gsave
newpath
translate
0.5 setlinewidth
1 setlinejoin
0 setlinecap
0 0 m
2 0 l
gsave
0.000 setgray
fill
grestore
stroke
grestore
} bind def
105.3 475.534 o
grestore
gsave
/o {
gsave
newpath
translate
0.5 setlinewidth
1 setlinejoin
0 setlinecap
0 0 m
-2 0 l
gsave
0.000 setgray
fill
grestore
stroke
grestore
} bind def
758.16 475.534 o
grestore
gsave
/o {
gsave
newpath
translate
0.5 setlinewidth
1 setlinejoin
0 setlinecap
0 0 m
2 0 l
gsave
0.000 setgray
fill
grestore
stroke
grestore
} bind def
105.3 481.058 o
grestore
gsave
/o {
gsave
newpath
translate
0.5 setlinewidth
1 setlinejoin
0 setlinecap
0 0 m
-2 0 l
gsave
0.000 setgray
fill
grestore
stroke
grestore
} bind def
758.16 481.058 o
grestore
gsave
69.300000 228.429688 translate
90.000000 rotate
0.000000 2.500000 m /E glyphshow
7.582031 2.500000 m /n glyphshow
15.187500 2.500000 m /t glyphshow
19.892578 2.500000 m /a glyphshow
27.246094 2.500000 m /n glyphshow
34.851562 2.500000 m /g glyphshow
42.468750 2.500000 m /l glyphshow
45.802734 2.500000 m /e glyphshow
53.185547 2.500000 m /m glyphshow
64.875000 2.500000 m /e glyphshow
72.257812 2.500000 m /n glyphshow
79.863281 2.500000 m /t glyphshow
grestore
1.000 setlinewidth
2 setlinecap
gsave
105.3 486 m
758.16 486 l
stroke
grestore
gsave
758.16 54 m
758.16 486 l
stroke
grestore
gsave
105.3 54 m
758.16 54 l
stroke
grestore
gsave
105.3 54 m
105.3 486 l
stroke
grestore
/BitstreamVeraSans-Roman findfont
14.400 scalefont
setfont
gsave
187.589375 488.093750 translate
0.000000 rotate
0.000000 2.906250 m /E glyphshow
9.082642 2.906250 m /v glyphshow
17.589722 2.906250 m /o glyphshow
26.384583 2.906250 m /l glyphshow
30.378418 2.906250 m /u glyphshow
39.489136 2.906250 m /t glyphshow
45.125427 2.906250 m /i glyphshow
49.119263 2.906250 m /o glyphshow
57.914124 2.906250 m /n glyphshow
67.024841 2.906250 m /space glyphshow
71.594238 2.906250 m /o glyphshow
80.389099 2.906250 m /f glyphshow
85.449829 2.906250 m /space glyphshow
90.019226 2.906250 m /W glyphshow
103.357788 2.906250 m /e glyphshow
112.201782 2.906250 m /r glyphshow
117.861816 2.906250 m /n glyphshow
126.972534 2.906250 m /e glyphshow
135.816528 2.906250 m /r glyphshow
141.726562 2.906250 m /space glyphshow
146.295959 2.906250 m /bracketleft glyphshow
151.904175 2.906250 m /w glyphshow
163.661072 2.906250 m /i glyphshow
167.654907 2.906250 m /t glyphshow
173.291199 2.906250 m /h glyphshow
182.401917 2.906250 m /space glyphshow
186.971313 2.906250 m /n glyphshow
196.082031 2.906250 m /o glyphshow
204.876892 2.906250 m /i glyphshow
208.870728 2.906250 m /s glyphshow
216.360046 2.906250 m /e glyphshow
225.204041 2.906250 m /space glyphshow
229.773438 2.906250 m /hyphen glyphshow
234.960510 2.906250 m /space glyphshow
239.529907 2.906250 m /one glyphshow
248.675720 2.906250 m /period glyphshow
253.245117 2.906250 m /zero glyphshow
262.390930 2.906250 m /zero glyphshow
271.536743 2.906250 m /zero glyphshow
280.682556 2.906250 m /zero glyphshow
289.828369 2.906250 m /zero glyphshow
298.974182 2.906250 m /zero glyphshow
308.119995 2.906250 m /e glyphshow
316.963989 2.906250 m /hyphen glyphshow
322.151062 2.906250 m /one glyphshow
331.296875 2.906250 m /six glyphshow
340.442688 2.906250 m /bracketright glyphshow
346.050903 2.906250 m /space glyphshow
350.620300 2.906250 m /parenleft glyphshow
356.228516 2.906250 m /m glyphshow
370.231506 2.906250 m /e glyphshow
379.075500 2.906250 m /a glyphshow
387.884399 2.906250 m /s glyphshow
395.373718 2.906250 m /u glyphshow
404.484436 2.906250 m /r glyphshow
410.019470 2.906250 m /e glyphshow
418.863464 2.906250 m /colon glyphshow
423.706604 2.906250 m /space glyphshow
428.276001 2.906250 m /e glyphshow
437.119995 2.906250 m /n glyphshow
446.230713 2.906250 m /t glyphshow
451.867004 2.906250 m /r glyphshow
457.402039 2.906250 m /o glyphshow
466.196899 2.906250 m /p glyphshow
475.321655 2.906250 m /y glyphshow
483.828735 2.906250 m /parenright glyphshow
grestore
gsave
517.198 391.493 m
750.96 391.493 l
750.96 478.8 l
517.198 478.8 l
517.198 391.493 l
cl
gsave
1.000 setgray
fill
grestore
stroke
grestore
0.000 0.000 1.000 setrgbcolor
gsave
527.278 467.439 m
547.438 467.439 l
stroke
grestore
0.000 setgray
gsave
563.278125 462.196250 translate
0.000000 rotate
0.000000 0.203125 m /n glyphshow
9.110718 0.203125 m /o glyphshow
17.905579 0.203125 m /r glyphshow
23.565613 0.203125 m /m glyphshow
37.568604 0.203125 m /a glyphshow
46.377502 0.203125 m /l glyphshow
grestore
0.000 0.500 0.000 setrgbcolor
gsave
527.278 446.693 m
547.438 446.693 l
stroke
grestore
0.000 setgray
gsave
563.278125 438.746250 translate
0.000000 rotate
0.000000 2.906250 m /m glyphshow
14.002991 2.906250 m /u glyphshow
23.113708 2.906250 m /t glyphshow
28.750000 2.906250 m /a glyphshow
37.558899 2.906250 m /t glyphshow
43.195190 2.906250 m /e glyphshow
52.039185 2.906250 m /space glyphshow
56.608582 2.906250 m /h glyphshow
65.719299 2.906250 m /a glyphshow
74.528198 2.906250 m /l glyphshow
78.522034 2.906250 m /f glyphshow
83.582764 2.906250 m /space glyphshow
88.152161 2.906250 m /o glyphshow
96.947021 2.906250 m /f glyphshow
102.007751 2.906250 m /space glyphshow
106.577148 2.906250 m /p glyphshow
115.701904 2.906250 m /o glyphshow
124.496765 2.906250 m /p glyphshow
133.621521 2.906250 m /u glyphshow
142.732239 2.906250 m /l glyphshow
146.726074 2.906250 m /a glyphshow
155.534973 2.906250 m /t glyphshow
161.171265 2.906250 m /i glyphshow
165.165100 2.906250 m /o glyphshow
173.959961 2.906250 m /n glyphshow
grestore
1.000 0.000 0.000 setrgbcolor
gsave
527.278 425.946 m
547.438 425.946 l
stroke
grestore
0.000 setgray
gsave
563.278125 420.702500 translate
0.000000 rotate
0.000000 0.203125 m /d glyphshow
9.124756 0.203125 m /o glyphshow
17.919617 0.203125 m /space glyphshow
22.489014 0.203125 m /n glyphshow
31.599731 0.203125 m /o glyphshow
40.394592 0.203125 m /t glyphshow
46.030884 0.203125 m /space glyphshow
50.600281 0.203125 m /s glyphshow
58.089600 0.203125 m /h glyphshow
67.200317 0.203125 m /a glyphshow
76.009216 0.203125 m /r glyphshow
81.544250 0.203125 m /e glyphshow
90.388245 0.203125 m /space glyphshow
94.957642 0.203125 m /b glyphshow
104.082397 0.203125 m /e glyphshow
112.926392 0.203125 m /s glyphshow
120.415710 0.203125 m /t glyphshow
126.052002 0.203125 m /space glyphshow
130.621399 0.203125 m /s glyphshow
138.110718 0.203125 m /t glyphshow
143.747009 0.203125 m /a glyphshow
152.555908 0.203125 m /t glyphshow
158.192200 0.203125 m /e glyphshow
grestore
0.000 0.750 0.750 setrgbcolor
gsave
527.278 405.199 m
547.438 405.199 l
stroke
grestore
0.000 setgray
gsave
563.278125 397.252500 translate
0.000000 rotate
0.000000 2.906250 m /r glyphshow
5.910034 2.906250 m /a glyphshow
14.718933 2.906250 m /n glyphshow
23.829651 2.906250 m /d glyphshow
32.954407 2.906250 m /o glyphshow
41.749268 2.906250 m /m glyphshow
55.752258 2.906250 m /space glyphshow
60.321655 2.906250 m /p glyphshow
69.446411 2.906250 m /u glyphshow
78.557129 2.906250 m /r glyphshow
84.092163 2.906250 m /e glyphshow
92.936157 2.906250 m /space glyphshow
97.505554 2.906250 m /s glyphshow
104.994873 2.906250 m /t glyphshow
110.631165 2.906250 m /a glyphshow
119.440063 2.906250 m /t glyphshow
125.076355 2.906250 m /e glyphshow
133.920349 2.906250 m /s glyphshow
grestore

end
showpage
