%!PS-Adobe-3.0 EPSF-3.0
%%Title: output/circle.eps
%%Creator: matplotlib version 1.2.1, http://matplotlib.org/
%%CreationDate: Thu May 16 15:18:30 2013
%%Orientation: portrait
%%BoundingBox: 126 216 486 576
%%EndComments
%%BeginProlog
/mpldict 8 dict def
mpldict begin
/m { moveto } bind def
/l { lineto } bind def
/r { rlineto } bind def
/c { curveto } bind def
/cl { closepath } bind def
/box {
m
1 index 0 r
0 exch r
neg 0 r
cl
} bind def
/clipbox {
box
clip
newpath
} bind def
%!PS-Adobe-3.0 Resource-Font
%%Title: Bitstream Vera Sans
%%Copyright: Copyright (c) 2003 by Bitstream, Inc. All Rights Reserved.
%%Creator: Converted from TrueType to type 3 by PPR
25 dict begin
/_d{bind def}bind def
/_m{moveto}_d
/_l{lineto}_d
/_cl{closepath eofill}_d
/_c{curveto}_d
/_sc{7 -1 roll{setcachedevice}{pop pop pop pop pop pop}ifelse}_d
/_e{exec}_d
/FontName /BitstreamVeraSans-Roman def
/PaintType 0 def
/FontMatrix[.001 0 0 .001 0 0]def
/FontBBox[-183 -236 1287 928]def
/FontType 3 def
/Encoding [ /period /zero /one /five /minus ] def
/FontInfo 10 dict dup begin
/FamilyName (Bitstream Vera Sans) def
/FullName (Bitstream Vera Sans) def
/Notice (Copyright (c) 2003 by Bitstream, Inc. All Rights Reserved. Bitstream Vera is a trademark of Bitstream, Inc.) def
/Weight (Roman) def
/Version (Release 1.10) def
/ItalicAngle 0.0 def
/isFixedPitch false def
/UnderlinePosition -213 def
/UnderlineThickness 143 def
end readonly def
/CharStrings 5 dict dup begin
/period{318 0 107 0 210 124 _sc
107 124 _m
210 124 _l
210 0 _l
107 0 _l
107 124 _l
_cl}_d
/zero{636 0 66 -13 570 742 _sc
318 664 _m
267 664 229 639 203 589 _c
177 539 165 464 165 364 _c
165 264 177 189 203 139 _c
229 89 267 64 318 64 _c
369 64 407 89 433 139 _c
458 189 471 264 471 364 _c
471 464 458 539 433 589 _c
407 639 369 664 318 664 _c
318 742 _m
399 742 461 709 505 645 _c
548 580 570 486 570 364 _c
570 241 548 147 505 83 _c
461 19 399 -13 318 -13 _c
236 -13 173 19 130 83 _c
87 147 66 241 66 364 _c
66 486 87 580 130 645 _c
173 709 236 742 318 742 _c
_cl}_d
/one{636 0 110 0 544 729 _sc
124 83 _m
285 83 _l
285 639 _l
110 604 _l
110 694 _l
284 729 _l
383 729 _l
383 83 _l
544 83 _l
544 0 _l
124 0 _l
124 83 _l
_cl}_d
/five{{636 0 77 -13 549 729 _sc
108 729 _m
495 729 _l
495 646 _l
198 646 _l
198 467 _l
212 472 227 476 241 478 _c
255 480 270 482 284 482 _c
365 482 429 459 477 415 _c
525 370 549 310 549 234 _c
549 155 524 94 475 51 _c
426 8 357 -13 269 -13 _c
238 -13 207 -10 175 -6 _c
143 -1 111 6 77 17 _c
77 116 _l
106 100 136 88 168 80 _c
199 72 232 69 267 69 _c
}_e{323 69 368 83 401 113 _c
433 143 450 183 450 234 _c
450 284 433 324 401 354 _c
368 384 323 399 267 399 _c
241 399 214 396 188 390 _c
162 384 135 375 108 363 _c
108 729 _l
_cl}_e}_d
/minus{838 0 106 272 732 355 _sc
106 355 _m
732 355 _l
732 272 _l
106 272 _l
106 355 _l
_cl}_d
end readonly def

/BuildGlyph
 {exch begin
 CharStrings exch
 2 copy known not{pop /.notdef}if
 true 3 1 roll get exec
 end}_d

/BuildChar {
 1 index /Encoding get exch get
 1 index /BuildGlyph get exec
}_d

FontName currentdict end definefont pop
end
%%EndProlog
mpldict begin
126 216 translate
360 360 0 0 clipbox
gsave
0 0 m
360 0 l
360 360 l
0 360 l
cl
1.000 setgray
fill
grestore
gsave
45 40.5 m
324 40.5 l
324 319.5 l
45 319.5 l
cl
1.000 setgray
fill
grestore
2.000 setlinewidth
1 setlinejoin
2 setlinecap
[] 0 setdash
0.000 0.000 1.000 setrgbcolor
gsave
279 279 45 40.5 clipbox
257.719 180 m
257.713 180.899 l
257.697 181.797 l
257.669 182.695 l
257.63 183.593 l
257.581 184.49 l
257.52 185.386 l
257.449 186.282 l
257.366 187.177 l
257.273 188.07 l
257.168 188.963 l
257.053 189.854 l
256.926 190.743 l
256.789 191.631 l
256.641 192.518 l
256.482 193.402 l
256.312 194.284 l
256.131 195.164 l
255.94 196.042 l
255.737 196.918 l
255.524 197.791 l
255.301 198.661 l
255.066 199.528 l
254.821 200.393 l
254.566 201.254 l
254.3 202.112 l
254.023 202.967 l
253.736 203.819 l
253.439 204.667 l
253.131 205.511 l
252.812 206.351 l
252.484 207.187 l
252.145 208.02 l
251.796 208.848 l
251.437 209.671 l
251.068 210.49 l
250.689 211.305 l
250.3 212.115 l
249.901 212.92 l
249.492 213.72 l
249.073 214.515 l
248.645 215.305 l
248.207 216.089 l
247.759 216.868 l
247.302 217.642 l
246.835 218.41 l
246.359 219.172 l
245.874 219.928 l
245.379 220.678 l
244.875 221.422 l
244.362 222.16 l
243.841 222.891 l
243.31 223.616 l
242.77 224.335 l
242.222 225.046 l
241.665 225.751 l
241.099 226.449 l
240.525 227.14 l
239.942 227.824 l
239.351 228.501 l
238.751 229.171 l
238.144 229.833 l
237.528 230.487 l
236.905 231.134 l
236.273 231.773 l
235.634 232.405 l
234.987 233.028 l
234.333 233.644 l
233.671 234.251 l
233.001 234.851 l
232.324 235.442 l
231.64 236.025 l
230.949 236.599 l
230.251 237.165 l
229.546 237.722 l
228.835 238.27 l
228.116 238.81 l
227.391 239.341 l
226.66 239.862 l
225.922 240.375 l
225.178 240.879 l
224.428 241.374 l
223.672 241.859 l
222.91 242.335 l
222.142 242.802 l
221.368 243.259 l
220.589 243.707 l
219.805 244.145 l
219.015 244.573 l
218.22 244.992 l
217.42 245.401 l
216.615 245.8 l
215.805 246.189 l
214.99 246.568 l
214.171 246.937 l
213.348 247.296 l
212.52 247.645 l
211.687 247.984 l
210.851 248.312 l
210.011 248.631 l
209.167 248.939 l
208.319 249.236 l
207.467 249.523 l
206.612 249.8 l
205.754 250.066 l
204.893 250.321 l
204.028 250.566 l
203.161 250.801 l
202.291 251.024 l
201.418 251.237 l
200.542 251.44 l
199.664 251.631 l
198.784 251.812 l
197.902 251.982 l
197.018 252.141 l
196.131 252.289 l
195.243 252.426 l
194.354 252.553 l
193.463 252.668 l
192.57 252.773 l
191.677 252.866 l
190.782 252.949 l
189.886 253.02 l
188.99 253.081 l
188.093 253.13 l
187.195 253.169 l
186.297 253.197 l
185.399 253.213 l
184.5 253.219 l
183.601 253.213 l
182.703 253.197 l
181.805 253.169 l
180.907 253.13 l
180.01 253.081 l
179.114 253.02 l
178.218 252.949 l
177.323 252.866 l
176.43 252.773 l
175.537 252.668 l
174.646 252.553 l
173.757 252.426 l
172.869 252.289 l
171.982 252.141 l
171.098 251.982 l
170.216 251.812 l
169.336 251.631 l
168.458 251.44 l
167.582 251.237 l
166.709 251.024 l
165.839 250.801 l
164.972 250.566 l
164.107 250.321 l
163.246 250.066 l
162.388 249.8 l
161.533 249.523 l
160.681 249.236 l
159.833 248.939 l
158.989 248.631 l
158.149 248.312 l
157.313 247.984 l
156.48 247.645 l
155.652 247.296 l
154.829 246.937 l
154.01 246.568 l
153.195 246.189 l
152.385 245.8 l
151.58 245.401 l
150.78 244.992 l
149.985 244.573 l
149.195 244.145 l
148.411 243.707 l
147.632 243.259 l
146.858 242.802 l
146.09 242.335 l
145.328 241.859 l
144.572 241.374 l
143.822 240.879 l
143.078 240.375 l
142.34 239.862 l
141.609 239.341 l
140.884 238.81 l
140.165 238.27 l
139.454 237.722 l
138.749 237.165 l
138.051 236.599 l
137.36 236.025 l
136.676 235.442 l
135.999 234.851 l
135.329 234.251 l
134.667 233.644 l
134.013 233.028 l
133.366 232.405 l
132.727 231.773 l
132.095 231.134 l
131.472 230.487 l
130.856 229.833 l
130.249 229.171 l
129.649 228.501 l
129.058 227.824 l
128.475 227.14 l
127.901 226.449 l
127.335 225.751 l
126.778 225.046 l
126.23 224.335 l
125.69 223.616 l
125.159 222.891 l
124.638 222.16 l
124.125 221.422 l
123.621 220.678 l
123.126 219.928 l
122.641 219.172 l
122.165 218.41 l
121.698 217.642 l
121.241 216.868 l
120.793 216.089 l
120.355 215.305 l
119.927 214.515 l
119.508 213.72 l
119.099 212.92 l
118.7 212.115 l
118.311 211.305 l
117.932 210.49 l
117.563 209.671 l
117.204 208.848 l
116.855 208.02 l
116.516 207.187 l
116.188 206.351 l
115.869 205.511 l
115.561 204.667 l
115.264 203.819 l
114.977 202.967 l
114.7 202.112 l
114.434 201.254 l
114.179 200.393 l
113.934 199.528 l
113.699 198.661 l
113.476 197.791 l
113.263 196.918 l
113.06 196.042 l
112.869 195.164 l
112.688 194.284 l
112.518 193.402 l
112.359 192.518 l
112.211 191.631 l
112.074 190.743 l
111.947 189.854 l
111.832 188.963 l
111.727 188.07 l
111.634 187.177 l
111.551 186.282 l
111.48 185.386 l
111.419 184.49 l
111.37 183.593 l
111.331 182.695 l
111.303 181.797 l
111.287 180.899 l
111.281 180 l
111.287 179.101 l
111.303 178.203 l
111.331 177.305 l
111.37 176.407 l
111.419 175.51 l
111.48 174.614 l
111.551 173.718 l
111.634 172.823 l
111.727 171.93 l
111.832 171.037 l
111.947 170.146 l
112.074 169.257 l
112.211 168.369 l
112.359 167.482 l
112.518 166.598 l
112.688 165.716 l
112.869 164.836 l
113.06 163.958 l
113.263 163.082 l
113.476 162.209 l
113.699 161.339 l
113.934 160.472 l
114.179 159.607 l
114.434 158.746 l
114.7 157.888 l
114.977 157.033 l
115.264 156.181 l
115.561 155.333 l
115.869 154.489 l
116.188 153.649 l
116.516 152.813 l
116.855 151.98 l
117.204 151.152 l
117.563 150.329 l
117.932 149.51 l
118.311 148.695 l
118.7 147.885 l
119.099 147.08 l
119.508 146.28 l
119.927 145.485 l
120.355 144.695 l
120.793 143.911 l
121.241 143.132 l
121.698 142.358 l
122.165 141.59 l
122.641 140.828 l
123.126 140.072 l
123.621 139.322 l
124.125 138.578 l
124.638 137.84 l
125.159 137.109 l
125.69 136.384 l
126.23 135.665 l
126.778 134.954 l
127.335 134.249 l
127.901 133.551 l
128.475 132.86 l
129.058 132.176 l
129.649 131.499 l
130.249 130.829 l
130.856 130.167 l
131.472 129.513 l
132.095 128.866 l
132.727 128.227 l
133.366 127.595 l
134.013 126.972 l
134.667 126.356 l
135.329 125.749 l
135.999 125.149 l
136.676 124.558 l
137.36 123.975 l
138.051 123.401 l
138.749 122.835 l
139.454 122.278 l
140.165 121.73 l
140.884 121.19 l
141.609 120.659 l
142.34 120.138 l
143.078 119.625 l
143.822 119.121 l
144.572 118.626 l
145.328 118.141 l
146.09 117.665 l
146.858 117.198 l
147.632 116.741 l
148.411 116.293 l
149.195 115.855 l
149.985 115.427 l
150.78 115.008 l
151.58 114.599 l
152.385 114.2 l
153.195 113.811 l
154.01 113.432 l
154.829 113.063 l
155.652 112.704 l
156.48 112.355 l
157.313 112.016 l
158.149 111.688 l
158.989 111.369 l
159.833 111.061 l
160.681 110.764 l
161.533 110.477 l
162.388 110.2 l
163.246 109.934 l
164.107 109.679 l
164.972 109.434 l
165.839 109.199 l
166.709 108.976 l
167.582 108.763 l
168.458 108.56 l
169.336 108.369 l
170.216 108.188 l
171.098 108.018 l
171.982 107.859 l
172.869 107.711 l
173.757 107.574 l
174.646 107.447 l
175.537 107.332 l
176.43 107.227 l
177.323 107.134 l
178.218 107.051 l
179.114 106.98 l
180.01 106.919 l
180.907 106.87 l
181.805 106.831 l
182.703 106.803 l
183.601 106.787 l
184.5 106.781 l
185.399 106.787 l
186.297 106.803 l
187.195 106.831 l
188.093 106.87 l
188.99 106.919 l
189.886 106.98 l
190.782 107.051 l
191.677 107.134 l
192.57 107.227 l
193.463 107.332 l
194.354 107.447 l
195.243 107.574 l
196.131 107.711 l
197.018 107.859 l
197.902 108.018 l
198.784 108.188 l
199.664 108.369 l
200.542 108.56 l
201.418 108.763 l
202.291 108.976 l
203.161 109.199 l
204.028 109.434 l
204.893 109.679 l
205.754 109.934 l
206.612 110.2 l
207.467 110.477 l
208.319 110.764 l
209.167 111.061 l
210.011 111.369 l
210.851 111.688 l
211.687 112.016 l
212.52 112.355 l
213.348 112.704 l
214.171 113.063 l
214.99 113.432 l
215.805 113.811 l
216.615 114.2 l
217.42 114.599 l
218.22 115.008 l
219.015 115.427 l
219.805 115.855 l
220.589 116.293 l
221.368 116.741 l
222.142 117.198 l
222.91 117.665 l
223.672 118.141 l
224.428 118.626 l
225.178 119.121 l
225.922 119.625 l
226.66 120.138 l
227.391 120.659 l
228.116 121.19 l
228.835 121.73 l
229.546 122.278 l
230.251 122.835 l
230.949 123.401 l
231.64 123.975 l
232.324 124.558 l
233.001 125.149 l
233.671 125.749 l
234.333 126.356 l
234.987 126.972 l
235.634 127.595 l
236.273 128.227 l
236.905 128.866 l
237.528 129.513 l
238.144 130.167 l
238.751 130.829 l
239.351 131.499 l
239.942 132.176 l
240.525 132.86 l
241.099 133.551 l
241.665 134.249 l
242.222 134.954 l
242.77 135.665 l
243.31 136.384 l
243.841 137.109 l
244.362 137.84 l
244.875 138.578 l
245.379 139.322 l
245.874 140.072 l
246.359 140.828 l
246.835 141.59 l
247.302 142.358 l
247.759 143.132 l
248.207 143.911 l
248.645 144.695 l
249.073 145.485 l
249.492 146.28 l
249.901 147.08 l
250.3 147.885 l
250.689 148.695 l
251.068 149.51 l
251.437 150.329 l
251.796 151.152 l
252.145 151.98 l
252.484 152.813 l
252.812 153.649 l
253.131 154.489 l
253.439 155.333 l
253.736 156.181 l
254.023 157.033 l
254.3 157.888 l
254.566 158.746 l
254.821 159.607 l
255.066 160.472 l
255.301 161.339 l
255.524 162.209 l
255.737 163.082 l
255.94 163.958 l
256.131 164.836 l
256.312 165.716 l
256.482 166.598 l
256.641 167.482 l
256.789 168.369 l
256.926 169.257 l
257.053 170.146 l
257.168 171.037 l
257.273 171.93 l
257.366 172.823 l
257.449 173.718 l
257.52 174.614 l
257.581 175.51 l
257.63 176.407 l
257.669 177.305 l
257.697 178.203 l
257.713 179.101 l
257.719 180 l
cl
gsave
0.500 0.500 1.000 setrgbcolor
fill
grestore
stroke
grestore
1.000 setlinewidth
1.000 0.000 0.000 setrgbcolor
gsave
279 279 45 40.5 clipbox
311.318 180 m
310.708 192.43 l
308.881 204.741 l
305.857 216.813 l
301.665 228.531 l
296.344 239.782 l
289.945 250.456 l
282.532 260.453 l
274.174 269.674 l
264.953 278.032 l
254.956 285.445 l
244.282 291.844 l
233.031 297.165 l
221.313 301.357 l
209.241 304.381 l
196.93 306.208 l
184.5 306.818 l
172.07 306.208 l
159.759 304.381 l
147.687 301.357 l
135.969 297.165 l
124.718 291.844 l
114.044 285.445 l
104.047 278.032 l
94.826 269.674 l
86.4682 260.453 l
79.0545 250.456 l
72.6563 239.782 l
67.3353 228.531 l
63.1426 216.813 l
60.1186 204.741 l
58.2925 192.43 l
57.6818 180 l
58.2925 167.57 l
60.1186 155.259 l
63.1426 143.187 l
67.3353 131.469 l
72.6563 120.218 l
79.0545 109.544 l
86.4682 99.5474 l
94.826 90.326 l
104.047 81.9682 l
114.044 74.5545 l
124.718 68.1563 l
135.969 62.8353 l
147.687 58.6426 l
159.759 55.6186 l
172.07 53.7925 l
184.5 53.1818 l
196.93 53.7925 l
209.241 55.6186 l
221.313 58.6426 l
233.031 62.8353 l
244.282 68.1563 l
254.956 74.5545 l
264.953 81.9682 l
274.174 90.326 l
282.532 99.5474 l
289.945 109.544 l
296.344 120.218 l
301.665 131.469 l
305.857 143.187 l
308.881 155.259 l
310.708 167.57 l
311.318 180 l
stroke
grestore
0.750 0.750 0.000 setrgbcolor
gsave
279 279 45 40.5 clipbox
257.719 180 m
257.366 187.177 l
256.312 194.284 l
254.566 201.254 l
252.145 208.02 l
249.073 214.515 l
245.379 220.678 l
241.099 226.449 l
236.273 231.773 l
230.949 236.599 l
225.178 240.879 l
219.015 244.573 l
212.52 247.645 l
205.754 250.066 l
198.784 251.812 l
191.677 252.866 l
184.5 253.219 l
177.323 252.866 l
170.216 251.812 l
163.246 250.066 l
156.48 247.645 l
149.985 244.573 l
143.822 240.879 l
138.051 236.599 l
132.727 231.773 l
127.901 226.449 l
123.621 220.678 l
119.927 214.515 l
116.855 208.02 l
114.434 201.254 l
112.688 194.284 l
111.634 187.177 l
111.281 180 l
111.634 172.823 l
112.688 165.716 l
114.434 158.746 l
116.855 151.98 l
119.927 145.485 l
123.621 139.322 l
127.901 133.551 l
132.727 128.227 l
138.051 123.401 l
143.822 119.121 l
149.985 115.427 l
156.48 112.355 l
163.246 109.934 l
170.216 108.188 l
177.323 107.134 l
184.5 106.781 l
191.677 107.134 l
198.784 108.188 l
205.754 109.934 l
212.52 112.355 l
219.015 115.427 l
225.178 119.121 l
230.949 123.401 l
236.273 128.227 l
241.099 133.551 l
245.379 139.322 l
249.073 145.485 l
252.145 151.98 l
254.566 158.746 l
256.312 165.716 l
257.366 172.823 l
257.719 180 l
stroke
grestore
0.000 0.500 0.000 setrgbcolor
gsave
279 279 45 40.5 clipbox
247.909 180 m
247.604 186.215 l
246.691 192.37 l
245.179 198.407 l
243.082 204.266 l
240.422 209.891 l
237.223 215.228 l
233.516 220.226 l
229.337 224.837 l
224.726 229.016 l
219.728 232.723 l
214.391 235.922 l
208.766 238.582 l
202.907 240.679 l
196.87 242.191 l
190.715 243.104 l
184.5 243.409 l
178.285 243.104 l
172.13 242.191 l
166.093 240.679 l
160.234 238.582 l
154.609 235.922 l
149.272 232.723 l
144.274 229.016 l
139.663 224.837 l
135.484 220.226 l
131.777 215.228 l
128.578 209.891 l
125.918 204.266 l
123.821 198.407 l
122.309 192.37 l
121.396 186.215 l
121.091 180 l
121.396 173.785 l
122.309 167.63 l
123.821 161.593 l
125.918 155.734 l
128.578 150.109 l
131.777 144.772 l
135.484 139.774 l
139.663 135.163 l
144.274 130.984 l
149.272 127.277 l
154.609 124.078 l
160.234 121.418 l
166.093 119.321 l
172.13 117.809 l
178.285 116.896 l
184.5 116.591 l
190.715 116.896 l
196.87 117.809 l
202.907 119.321 l
208.766 121.418 l
214.391 124.078 l
219.728 127.277 l
224.726 130.984 l
229.337 135.163 l
233.516 139.774 l
237.223 144.772 l
240.422 150.109 l
243.082 155.734 l
245.179 161.593 l
246.691 167.63 l
247.604 173.785 l
247.909 180 l
stroke
grestore
0.500 setlinewidth
0 setlinecap
0.000 setgray
gsave
/o {
gsave
newpath
translate
0.5 setlinewidth
1 setlinejoin
0 setlinecap
0 0 m
0 4 l
gsave
0.000 setgray
fill
grestore
stroke
grestore
} bind def
57.6818 40.5 o
grestore
gsave
/o {
gsave
newpath
translate
0.5 setlinewidth
1 setlinejoin
0 setlinecap
0 0 m
0 -4 l
gsave
0.000 setgray
fill
grestore
stroke
grestore
} bind def
57.6818 319.5 o
grestore
/BitstreamVeraSans-Roman findfont
12.000 scalefont
setfont
gsave
44.134943 27.421875 translate
0.000000 rotate
0.000000 0.171875 m /minus glyphshow
10.054688 0.171875 m /one glyphshow
17.689453 0.171875 m /period glyphshow
21.503906 0.171875 m /zero glyphshow
grestore
gsave
/o {
gsave
newpath
translate
0.5 setlinewidth
1 setlinejoin
0 setlinecap
0 0 m
0 4 l
gsave
0.000 setgray
fill
grestore
stroke
grestore
} bind def
121.091 40.5 o
grestore
gsave
/o {
gsave
newpath
translate
0.5 setlinewidth
1 setlinejoin
0 setlinecap
0 0 m
0 -4 l
gsave
0.000 setgray
fill
grestore
stroke
grestore
} bind def
121.091 319.5 o
grestore
gsave
107.669034 27.421875 translate
0.000000 rotate
0.000000 0.171875 m /minus glyphshow
10.054688 0.171875 m /zero glyphshow
17.689453 0.171875 m /period glyphshow
21.503906 0.171875 m /five glyphshow
grestore
gsave
/o {
gsave
newpath
translate
0.5 setlinewidth
1 setlinejoin
0 setlinecap
0 0 m
0 4 l
gsave
0.000 setgray
fill
grestore
stroke
grestore
} bind def
184.5 40.5 o
grestore
gsave
/o {
gsave
newpath
translate
0.5 setlinewidth
1 setlinejoin
0 setlinecap
0 0 m
0 -4 l
gsave
0.000 setgray
fill
grestore
stroke
grestore
} bind def
184.5 319.5 o
grestore
gsave
175.750000 27.421875 translate
0.000000 rotate
0.000000 0.171875 m /zero glyphshow
7.634766 0.171875 m /period glyphshow
11.449219 0.171875 m /zero glyphshow
grestore
gsave
/o {
gsave
newpath
translate
0.5 setlinewidth
1 setlinejoin
0 setlinecap
0 0 m
0 4 l
gsave
0.000 setgray
fill
grestore
stroke
grestore
} bind def
247.909 40.5 o
grestore
gsave
/o {
gsave
newpath
translate
0.5 setlinewidth
1 setlinejoin
0 setlinecap
0 0 m
0 -4 l
gsave
0.000 setgray
fill
grestore
stroke
grestore
} bind def
247.909 319.5 o
grestore
gsave
239.284091 27.421875 translate
0.000000 rotate
0.000000 0.171875 m /zero glyphshow
7.634766 0.171875 m /period glyphshow
11.449219 0.171875 m /five glyphshow
grestore
gsave
/o {
gsave
newpath
translate
0.5 setlinewidth
1 setlinejoin
0 setlinecap
0 0 m
0 4 l
gsave
0.000 setgray
fill
grestore
stroke
grestore
} bind def
311.318 40.5 o
grestore
gsave
/o {
gsave
newpath
translate
0.5 setlinewidth
1 setlinejoin
0 setlinecap
0 0 m
0 -4 l
gsave
0.000 setgray
fill
grestore
stroke
grestore
} bind def
311.318 319.5 o
grestore
gsave
302.825994 27.421875 translate
0.000000 rotate
0.000000 0.171875 m /one glyphshow
7.634766 0.171875 m /period glyphshow
11.449219 0.171875 m /zero glyphshow
grestore
gsave
/o {
gsave
newpath
translate
0.5 setlinewidth
1 setlinejoin
0 setlinecap
0 0 m
4 0 l
gsave
0.000 setgray
fill
grestore
stroke
grestore
} bind def
45 53.1818 o
grestore
gsave
/o {
gsave
newpath
translate
0.5 setlinewidth
1 setlinejoin
0 setlinecap
0 0 m
-4 0 l
gsave
0.000 setgray
fill
grestore
stroke
grestore
} bind def
324 53.1818 o
grestore
gsave
13.906250 48.642756 translate
0.000000 rotate
0.000000 0.171875 m /minus glyphshow
10.054688 0.171875 m /one glyphshow
17.689453 0.171875 m /period glyphshow
21.503906 0.171875 m /zero glyphshow
grestore
gsave
/o {
gsave
newpath
translate
0.5 setlinewidth
1 setlinejoin
0 setlinecap
0 0 m
4 0 l
gsave
0.000 setgray
fill
grestore
stroke
grestore
} bind def
45 116.591 o
grestore
gsave
/o {
gsave
newpath
translate
0.5 setlinewidth
1 setlinejoin
0 setlinecap
0 0 m
-4 0 l
gsave
0.000 setgray
fill
grestore
stroke
grestore
} bind def
324 116.591 o
grestore
gsave
14.156250 112.051847 translate
0.000000 rotate
0.000000 0.171875 m /minus glyphshow
10.054688 0.171875 m /zero glyphshow
17.689453 0.171875 m /period glyphshow
21.503906 0.171875 m /five glyphshow
grestore
gsave
/o {
gsave
newpath
translate
0.5 setlinewidth
1 setlinejoin
0 setlinecap
0 0 m
4 0 l
gsave
0.000 setgray
fill
grestore
stroke
grestore
} bind def
45 180 o
grestore
gsave
/o {
gsave
newpath
translate
0.5 setlinewidth
1 setlinejoin
0 setlinecap
0 0 m
-4 0 l
gsave
0.000 setgray
fill
grestore
stroke
grestore
} bind def
324 180 o
grestore
gsave
23.500000 175.460938 translate
0.000000 rotate
0.000000 0.171875 m /zero glyphshow
7.634766 0.171875 m /period glyphshow
11.449219 0.171875 m /zero glyphshow
grestore
gsave
/o {
gsave
newpath
translate
0.5 setlinewidth
1 setlinejoin
0 setlinecap
0 0 m
4 0 l
gsave
0.000 setgray
fill
grestore
stroke
grestore
} bind def
45 243.409 o
grestore
gsave
/o {
gsave
newpath
translate
0.5 setlinewidth
1 setlinejoin
0 setlinecap
0 0 m
-4 0 l
gsave
0.000 setgray
fill
grestore
stroke
grestore
} bind def
324 243.409 o
grestore
gsave
23.750000 238.870028 translate
0.000000 rotate
0.000000 0.171875 m /zero glyphshow
7.634766 0.171875 m /period glyphshow
11.449219 0.171875 m /five glyphshow
grestore
gsave
/o {
gsave
newpath
translate
0.5 setlinewidth
1 setlinejoin
0 setlinecap
0 0 m
4 0 l
gsave
0.000 setgray
fill
grestore
stroke
grestore
} bind def
45 306.818 o
grestore
gsave
/o {
gsave
newpath
translate
0.5 setlinewidth
1 setlinejoin
0 setlinecap
0 0 m
-4 0 l
gsave
0.000 setgray
fill
grestore
stroke
grestore
} bind def
324 306.818 o
grestore
gsave
24.015625 302.279119 translate
0.000000 rotate
0.000000 0.171875 m /one glyphshow
7.634766 0.171875 m /period glyphshow
11.449219 0.171875 m /zero glyphshow
grestore
1.000 setlinewidth
2 setlinecap
gsave
45 319.5 m
324 319.5 l
stroke
grestore
gsave
324 40.5 m
324 319.5 l
stroke
grestore
gsave
45 40.5 m
324 40.5 l
stroke
grestore
gsave
45 40.5 m
45 319.5 l
stroke
grestore

end
showpage
