%!PS-Adobe-3.0 EPSF-3.0
%%Title: output/elipse.eps
%%Creator: matplotlib version 1.2.1, http://matplotlib.org/
%%CreationDate: Thu May 16 15:18:14 2013
%%Orientation: portrait
%%BoundingBox: 126 216 486 576
%%EndComments
%%BeginProlog
/mpldict 8 dict def
mpldict begin
/m { moveto } bind def
/l { lineto } bind def
/r { rlineto } bind def
/c { curveto } bind def
/cl { closepath } bind def
/box {
m
1 index 0 r
0 exch r
neg 0 r
cl
} bind def
/clipbox {
box
clip
newpath
} bind def
%!PS-Adobe-3.0 Resource-Font
%%Title: Bitstream Vera Sans
%%Copyright: Copyright (c) 2003 by Bitstream, Inc. All Rights Reserved.
%%Creator: Converted from TrueType to type 3 by PPR
25 dict begin
/_d{bind def}bind def
/_m{moveto}_d
/_l{lineto}_d
/_cl{closepath eofill}_d
/_c{curveto}_d
/_sc{7 -1 roll{setcachedevice}{pop pop pop pop pop pop}ifelse}_d
/_e{exec}_d
/FontName /BitstreamVeraSans-Roman def
/PaintType 0 def
/FontMatrix[.001 0 0 .001 0 0]def
/FontBBox[-183 -236 1287 928]def
/FontType 3 def
/Encoding [ /period /zero /one /five /minus ] def
/FontInfo 10 dict dup begin
/FamilyName (Bitstream Vera Sans) def
/FullName (Bitstream Vera Sans) def
/Notice (Copyright (c) 2003 by Bitstream, Inc. All Rights Reserved. Bitstream Vera is a trademark of Bitstream, Inc.) def
/Weight (Roman) def
/Version (Release 1.10) def
/ItalicAngle 0.0 def
/isFixedPitch false def
/UnderlinePosition -213 def
/UnderlineThickness 143 def
end readonly def
/CharStrings 5 dict dup begin
/period{318 0 107 0 210 124 _sc
107 124 _m
210 124 _l
210 0 _l
107 0 _l
107 124 _l
_cl}_d
/zero{636 0 66 -13 570 742 _sc
318 664 _m
267 664 229 639 203 589 _c
177 539 165 464 165 364 _c
165 264 177 189 203 139 _c
229 89 267 64 318 64 _c
369 64 407 89 433 139 _c
458 189 471 264 471 364 _c
471 464 458 539 433 589 _c
407 639 369 664 318 664 _c
318 742 _m
399 742 461 709 505 645 _c
548 580 570 486 570 364 _c
570 241 548 147 505 83 _c
461 19 399 -13 318 -13 _c
236 -13 173 19 130 83 _c
87 147 66 241 66 364 _c
66 486 87 580 130 645 _c
173 709 236 742 318 742 _c
_cl}_d
/one{636 0 110 0 544 729 _sc
124 83 _m
285 83 _l
285 639 _l
110 604 _l
110 694 _l
284 729 _l
383 729 _l
383 83 _l
544 83 _l
544 0 _l
124 0 _l
124 83 _l
_cl}_d
/five{{636 0 77 -13 549 729 _sc
108 729 _m
495 729 _l
495 646 _l
198 646 _l
198 467 _l
212 472 227 476 241 478 _c
255 480 270 482 284 482 _c
365 482 429 459 477 415 _c
525 370 549 310 549 234 _c
549 155 524 94 475 51 _c
426 8 357 -13 269 -13 _c
238 -13 207 -10 175 -6 _c
143 -1 111 6 77 17 _c
77 116 _l
106 100 136 88 168 80 _c
199 72 232 69 267 69 _c
}_e{323 69 368 83 401 113 _c
433 143 450 183 450 234 _c
450 284 433 324 401 354 _c
368 384 323 399 267 399 _c
241 399 214 396 188 390 _c
162 384 135 375 108 363 _c
108 729 _l
_cl}_e}_d
/minus{838 0 106 272 732 355 _sc
106 355 _m
732 355 _l
732 272 _l
106 272 _l
106 355 _l
_cl}_d
end readonly def

/BuildGlyph
 {exch begin
 CharStrings exch
 2 copy known not{pop /.notdef}if
 true 3 1 roll get exec
 end}_d

/BuildChar {
 1 index /Encoding get exch get
 1 index /BuildGlyph get exec
}_d

FontName currentdict end definefont pop
end
%%EndProlog
mpldict begin
126 216 translate
360 360 0 0 clipbox
gsave
0 0 m
360 0 l
360 360 l
0 360 l
cl
1.000 setgray
fill
grestore
gsave
45 40.5 m
324 40.5 l
324 319.5 l
45 319.5 l
cl
1.000 setgray
fill
grestore
2.000 setlinewidth
1 setlinejoin
2 setlinecap
[] 0 setdash
0.000 0.000 1.000 setrgbcolor
gsave
279 279 45 40.5 clipbox
257.719 180 m
257.456 180.895 l
257.187 181.784 l
256.912 182.667 l
256.631 183.544 l
256.343 184.414 l
256.049 185.278 l
255.75 186.136 l
255.444 186.987 l
255.133 187.833 l
254.815 188.673 l
254.492 189.506 l
254.163 190.334 l
253.829 191.155 l
253.488 191.971 l
253.143 192.78 l
252.792 193.584 l
252.435 194.382 l
252.072 195.174 l
251.705 195.96 l
251.332 196.741 l
250.953 197.515 l
250.57 198.284 l
250.18 199.047 l
249.786 199.804 l
249.387 200.556 l
248.982 201.302 l
248.573 202.042 l
248.158 202.777 l
247.738 203.506 l
247.312 204.229 l
246.882 204.947 l
246.447 205.659 l
246.006 206.365 l
245.561 207.066 l
245.11 207.762 l
244.655 208.451 l
244.194 209.135 l
243.729 209.814 l
243.259 210.486 l
242.784 211.153 l
242.304 211.815 l
241.819 212.471 l
241.329 213.121 l
240.834 213.765 l
240.335 214.404 l
239.83 215.037 l
239.321 215.665 l
238.807 216.287 l
238.288 216.903 l
237.764 217.513 l
237.235 218.117 l
236.702 218.716 l
236.164 219.308 l
235.621 219.896 l
235.074 220.476 l
234.521 221.052 l
233.964 221.62 l
233.403 222.184 l
232.836 222.741 l
232.265 223.292 l
231.689 223.836 l
231.108 224.375 l
230.524 224.908 l
229.934 225.434 l
229.339 225.954 l
228.74 226.467 l
228.137 226.974 l
227.529 227.475 l
226.916 227.969 l
226.299 228.457 l
225.678 228.938 l
225.052 229.413 l
224.421 229.88 l
223.787 230.341 l
223.147 230.795 l
222.504 231.242 l
221.856 231.683 l
221.204 232.116 l
220.548 232.542 l
219.887 232.961 l
219.223 233.373 l
218.554 233.777 l
217.881 234.174 l
217.204 234.564 l
216.524 234.946 l
215.839 235.321 l
215.15 235.688 l
214.458 236.047 l
213.762 236.399 l
213.062 236.743 l
212.358 237.079 l
211.651 237.407 l
210.941 237.727 l
210.227 238.039 l
209.509 238.342 l
208.789 238.638 l
208.065 238.925 l
207.337 239.204 l
206.607 239.474 l
205.874 239.736 l
205.138 239.989 l
204.399 240.234 l
203.657 240.47 l
202.912 240.697 l
202.165 240.916 l
201.416 241.126 l
200.664 241.326 l
199.909 241.518 l
199.153 241.701 l
198.394 241.875 l
197.634 242.039 l
196.871 242.195 l
196.107 242.341 l
195.341 242.478 l
194.573 242.606 l
193.804 242.724 l
193.034 242.833 l
192.262 242.933 l
191.489 243.023 l
190.715 243.104 l
189.94 243.176 l
189.165 243.237 l
188.388 243.29 l
187.611 243.333 l
186.834 243.366 l
186.056 243.39 l
185.278 243.404 l
184.5 243.409 l
183.722 243.404 l
182.944 243.39 l
182.166 243.366 l
181.389 243.333 l
180.612 243.29 l
179.835 243.237 l
179.06 243.176 l
178.285 243.104 l
177.511 243.023 l
176.738 242.933 l
175.966 242.833 l
175.196 242.724 l
174.427 242.606 l
173.659 242.478 l
172.893 242.341 l
172.129 242.195 l
171.366 242.039 l
170.606 241.875 l
169.847 241.701 l
169.091 241.518 l
168.336 241.326 l
167.584 241.126 l
166.835 240.916 l
166.088 240.697 l
165.343 240.47 l
164.601 240.234 l
163.862 239.989 l
163.126 239.736 l
162.393 239.474 l
161.663 239.204 l
160.935 238.925 l
160.211 238.638 l
159.491 238.342 l
158.773 238.039 l
158.059 237.727 l
157.349 237.407 l
156.642 237.079 l
155.938 236.743 l
155.238 236.399 l
154.542 236.047 l
153.85 235.688 l
153.161 235.321 l
152.476 234.946 l
151.796 234.564 l
151.119 234.174 l
150.446 233.777 l
149.777 233.373 l
149.113 232.961 l
148.452 232.542 l
147.796 232.116 l
147.144 231.683 l
146.496 231.242 l
145.853 230.795 l
145.213 230.341 l
144.579 229.88 l
143.948 229.413 l
143.322 228.938 l
142.701 228.457 l
142.084 227.969 l
141.471 227.475 l
140.863 226.974 l
140.26 226.467 l
139.661 225.954 l
139.066 225.434 l
138.476 224.908 l
137.892 224.375 l
137.311 223.836 l
136.735 223.292 l
136.164 222.741 l
135.597 222.184 l
135.036 221.62 l
134.479 221.052 l
133.926 220.476 l
133.379 219.896 l
132.836 219.308 l
132.298 218.716 l
131.765 218.117 l
131.236 217.513 l
130.712 216.903 l
130.193 216.287 l
129.679 215.665 l
129.17 215.037 l
128.665 214.404 l
128.166 213.765 l
127.671 213.121 l
127.181 212.471 l
126.696 211.815 l
126.216 211.153 l
125.741 210.486 l
125.271 209.814 l
124.806 209.135 l
124.345 208.451 l
123.89 207.762 l
123.439 207.066 l
122.994 206.365 l
122.553 205.659 l
122.118 204.947 l
121.688 204.229 l
121.262 203.506 l
120.842 202.777 l
120.427 202.042 l
120.018 201.302 l
119.613 200.556 l
119.214 199.804 l
118.82 199.047 l
118.43 198.284 l
118.047 197.515 l
117.668 196.741 l
117.295 195.96 l
116.928 195.174 l
116.565 194.382 l
116.208 193.584 l
115.857 192.78 l
115.512 191.971 l
115.171 191.155 l
114.837 190.334 l
114.508 189.506 l
114.185 188.673 l
113.867 187.833 l
113.556 186.987 l
113.25 186.136 l
112.951 185.278 l
112.657 184.414 l
112.369 183.544 l
112.088 182.667 l
111.813 181.784 l
111.544 180.895 l
111.281 180 l
111.025 179.098 l
110.776 178.19 l
110.533 177.276 l
110.296 176.355 l
110.066 175.427 l
109.844 174.493 l
109.628 173.552 l
109.419 172.605 l
109.218 171.651 l
109.023 170.691 l
108.836 169.724 l
108.657 168.75 l
108.485 167.769 l
108.321 166.782 l
108.164 165.787 l
108.016 164.786 l
107.876 163.778 l
107.744 162.764 l
107.62 161.742 l
107.505 160.714 l
107.398 159.678 l
107.3 158.636 l
107.211 157.587 l
107.132 156.531 l
107.061 155.467 l
107 154.397 l
106.948 153.32 l
106.906 152.237 l
106.875 151.146 l
106.853 150.048 l
106.842 148.944 l
106.841 147.832 l
106.851 146.714 l
106.871 145.59 l
106.903 144.458 l
106.946 143.32 l
107.001 142.175 l
107.067 141.024 l
107.146 139.866 l
107.236 138.701 l
107.339 137.531 l
107.454 136.354 l
107.583 135.171 l
107.724 133.982 l
107.879 132.788 l
108.048 131.587 l
108.23 130.381 l
108.426 129.169 l
108.637 127.952 l
108.862 126.73 l
109.103 125.503 l
109.358 124.271 l
109.629 123.034 l
109.915 121.794 l
110.218 120.549 l
110.537 119.3 l
110.872 118.047 l
111.224 116.791 l
111.593 115.532 l
111.979 114.271 l
112.383 113.007 l
112.805 111.74 l
113.244 110.472 l
113.703 109.203 l
114.18 107.932 l
114.675 106.661 l
115.19 105.39 l
115.725 104.118 l
116.279 102.848 l
116.853 101.579 l
117.447 100.311 l
118.062 99.0451 l
118.697 97.7818 l
119.353 96.522 l
120.03 95.2659 l
120.729 94.0143 l
121.448 92.7674 l
122.19 91.5262 l
122.953 90.291 l
123.738 89.0625 l
124.544 87.8417 l
125.374 86.6291 l
126.225 85.4253 l
127.098 84.2312 l
127.994 83.0475 l
128.913 81.8746 l
129.853 80.7138 l
130.817 79.5656 l
131.802 78.4306 l
132.81 77.3103 l
133.841 76.2048 l
134.893 75.115 l
135.968 74.0421 l
137.064 72.9868 l
138.183 71.9496 l
139.322 70.9317 l
140.484 69.9341 l
141.666 68.9575 l
142.869 68.0025 l
144.093 67.0703 l
145.337 66.1613 l
146.601 65.2769 l
147.884 64.4175 l
149.186 63.5841 l
150.506 62.778 l
151.845 61.999 l
153.201 61.2485 l
154.574 60.5274 l
155.963 59.8359 l
157.368 59.1751 l
158.788 58.546 l
160.222 57.9485 l
161.671 57.3841 l
163.132 56.8529 l
164.605 56.3556 l
166.09 55.8925 l
167.586 55.4649 l
169.092 55.0727 l
170.606 54.7163 l
172.129 54.396 l
173.659 54.113 l
175.196 53.8668 l
176.738 53.6578 l
178.285 53.4869 l
179.835 53.3534 l
181.389 53.2579 l
182.944 53.2006 l
184.5 53.1816 l
186.056 53.2006 l
187.611 53.2579 l
189.165 53.3534 l
190.715 53.4869 l
192.262 53.6578 l
193.804 53.8668 l
195.341 54.113 l
196.871 54.396 l
198.394 54.7163 l
199.908 55.0727 l
201.414 55.4649 l
202.91 55.8925 l
204.395 56.3556 l
205.868 56.8529 l
207.329 57.3841 l
208.778 57.9485 l
210.212 58.546 l
211.632 59.1751 l
213.037 59.8359 l
214.426 60.5274 l
215.799 61.2485 l
217.155 61.999 l
218.494 62.778 l
219.814 63.5841 l
221.116 64.4175 l
222.399 65.2769 l
223.663 66.1613 l
224.907 67.0703 l
226.131 68.0025 l
227.334 68.9575 l
228.516 69.9341 l
229.678 70.9317 l
230.817 71.9496 l
231.936 72.9868 l
233.032 74.0421 l
234.107 75.115 l
235.159 76.2048 l
236.19 77.3103 l
237.198 78.4306 l
238.183 79.5656 l
239.147 80.7138 l
240.087 81.8746 l
241.006 83.0475 l
241.902 84.2312 l
242.775 85.4253 l
243.626 86.6291 l
244.456 87.8417 l
245.262 89.0625 l
246.047 90.291 l
246.81 91.5262 l
247.552 92.7674 l
248.271 94.0143 l
248.97 95.2659 l
249.647 96.522 l
250.303 97.7818 l
250.938 99.0451 l
251.553 100.311 l
252.147 101.579 l
252.721 102.848 l
253.275 104.118 l
253.81 105.39 l
254.325 106.661 l
254.82 107.932 l
255.297 109.203 l
255.756 110.472 l
256.195 111.74 l
256.617 113.007 l
257.021 114.271 l
257.407 115.532 l
257.776 116.791 l
258.128 118.047 l
258.463 119.3 l
258.782 120.549 l
259.085 121.794 l
259.371 123.034 l
259.642 124.271 l
259.897 125.503 l
260.138 126.73 l
260.363 127.952 l
260.574 129.169 l
260.77 130.381 l
260.952 131.587 l
261.121 132.788 l
261.276 133.982 l
261.417 135.171 l
261.546 136.354 l
261.661 137.531 l
261.764 138.701 l
261.854 139.866 l
261.933 141.024 l
261.999 142.175 l
262.054 143.32 l
262.097 144.458 l
262.129 145.59 l
262.149 146.714 l
262.159 147.832 l
262.158 148.944 l
262.147 150.048 l
262.125 151.146 l
262.094 152.237 l
262.052 153.32 l
262 154.397 l
261.939 155.467 l
261.868 156.531 l
261.789 157.587 l
261.7 158.636 l
261.602 159.678 l
261.495 160.714 l
261.38 161.742 l
261.256 162.764 l
261.124 163.778 l
260.984 164.786 l
260.836 165.787 l
260.679 166.782 l
260.515 167.769 l
260.343 168.75 l
260.164 169.724 l
259.977 170.691 l
259.782 171.651 l
259.581 172.605 l
259.372 173.552 l
259.156 174.493 l
258.934 175.427 l
258.704 176.355 l
258.467 177.276 l
258.224 178.19 l
257.975 179.098 l
257.719 180 l
cl
gsave
0.500 0.500 1.000 setrgbcolor
fill
grestore
stroke
grestore
1.000 setlinewidth
1.000 0.000 0.000 setrgbcolor
gsave
279 279 45 40.5 clipbox
311.318 180 m
310.708 192.43 l
308.881 204.741 l
305.857 216.813 l
301.665 228.531 l
296.344 239.782 l
289.945 250.456 l
282.532 260.453 l
274.174 269.674 l
264.953 278.032 l
254.956 285.445 l
244.282 291.844 l
233.031 297.165 l
221.313 301.357 l
209.241 304.381 l
196.93 306.208 l
184.5 306.818 l
172.07 306.208 l
159.759 304.381 l
147.687 301.357 l
135.969 297.165 l
124.718 291.844 l
114.044 285.445 l
104.047 278.032 l
94.826 269.674 l
86.4682 260.453 l
79.0545 250.456 l
72.6563 239.782 l
67.3353 228.531 l
63.1426 216.813 l
60.1186 204.741 l
58.2925 192.43 l
57.6818 180 l
58.2925 167.57 l
60.1186 155.259 l
63.1426 143.187 l
67.3353 131.469 l
72.6563 120.218 l
79.0545 109.544 l
86.4682 99.5474 l
94.826 90.326 l
104.047 81.9682 l
114.044 74.5545 l
124.718 68.1563 l
135.969 62.8353 l
147.687 58.6426 l
159.759 55.6186 l
172.07 53.7925 l
184.5 53.1818 l
196.93 53.7925 l
209.241 55.6186 l
221.313 58.6426 l
233.031 62.8353 l
244.282 68.1563 l
254.956 74.5545 l
264.953 81.9682 l
274.174 90.326 l
282.532 99.5474 l
289.945 109.544 l
296.344 120.218 l
301.665 131.469 l
305.857 143.187 l
308.881 155.259 l
310.708 167.57 l
311.318 180 l
stroke
grestore
0.750 0.750 0.000 setrgbcolor
gsave
279 279 45 40.5 clipbox
257.719 180 m
257.366 187.177 l
256.312 194.284 l
254.566 201.254 l
252.145 208.02 l
249.073 214.515 l
245.379 220.678 l
241.099 226.449 l
236.273 231.773 l
230.949 236.599 l
225.178 240.879 l
219.015 244.573 l
212.52 247.645 l
205.754 250.066 l
198.784 251.812 l
191.677 252.866 l
184.5 253.219 l
177.323 252.866 l
170.216 251.812 l
163.246 250.066 l
156.48 247.645 l
149.985 244.573 l
143.822 240.879 l
138.051 236.599 l
132.727 231.773 l
127.901 226.449 l
123.621 220.678 l
119.927 214.515 l
116.855 208.02 l
114.434 201.254 l
112.688 194.284 l
111.634 187.177 l
111.281 180 l
111.634 172.823 l
112.688 165.716 l
114.434 158.746 l
116.855 151.98 l
119.927 145.485 l
123.621 139.322 l
127.901 133.551 l
132.727 128.227 l
138.051 123.401 l
143.822 119.121 l
149.985 115.427 l
156.48 112.355 l
163.246 109.934 l
170.216 108.188 l
177.323 107.134 l
184.5 106.781 l
191.677 107.134 l
198.784 108.188 l
205.754 109.934 l
212.52 112.355 l
219.015 115.427 l
225.178 119.121 l
230.949 123.401 l
236.273 128.227 l
241.099 133.551 l
245.379 139.322 l
249.073 145.485 l
252.145 151.98 l
254.566 158.746 l
256.312 165.716 l
257.366 172.823 l
257.719 180 l
stroke
grestore
0.000 0.500 0.000 setrgbcolor
gsave
279 279 45 40.5 clipbox
247.909 180 m
247.604 186.215 l
246.691 192.37 l
245.179 198.407 l
243.082 204.266 l
240.422 209.891 l
237.223 215.228 l
233.516 220.226 l
229.337 224.837 l
224.726 229.016 l
219.728 232.723 l
214.391 235.922 l
208.766 238.582 l
202.907 240.679 l
196.87 242.191 l
190.715 243.104 l
184.5 243.409 l
178.285 243.104 l
172.13 242.191 l
166.093 240.679 l
160.234 238.582 l
154.609 235.922 l
149.272 232.723 l
144.274 229.016 l
139.663 224.837 l
135.484 220.226 l
131.777 215.228 l
128.578 209.891 l
125.918 204.266 l
123.821 198.407 l
122.309 192.37 l
121.396 186.215 l
121.091 180 l
121.396 173.785 l
122.309 167.63 l
123.821 161.593 l
125.918 155.734 l
128.578 150.109 l
131.777 144.772 l
135.484 139.774 l
139.663 135.163 l
144.274 130.984 l
149.272 127.277 l
154.609 124.078 l
160.234 121.418 l
166.093 119.321 l
172.13 117.809 l
178.285 116.896 l
184.5 116.591 l
190.715 116.896 l
196.87 117.809 l
202.907 119.321 l
208.766 121.418 l
214.391 124.078 l
219.728 127.277 l
224.726 130.984 l
229.337 135.163 l
233.516 139.774 l
237.223 144.772 l
240.422 150.109 l
243.082 155.734 l
245.179 161.593 l
246.691 167.63 l
247.604 173.785 l
247.909 180 l
stroke
grestore
0.500 setlinewidth
0 setlinecap
0.000 setgray
gsave
/o {
gsave
newpath
translate
0.5 setlinewidth
1 setlinejoin
0 setlinecap
0 0 m
0 4 l
gsave
0.000 setgray
fill
grestore
stroke
grestore
} bind def
57.6818 40.5 o
grestore
gsave
/o {
gsave
newpath
translate
0.5 setlinewidth
1 setlinejoin
0 setlinecap
0 0 m
0 -4 l
gsave
0.000 setgray
fill
grestore
stroke
grestore
} bind def
57.6818 319.5 o
grestore
/BitstreamVeraSans-Roman findfont
12.000 scalefont
setfont
gsave
44.134943 27.421875 translate
0.000000 rotate
0.000000 0.171875 m /minus glyphshow
10.054688 0.171875 m /one glyphshow
17.689453 0.171875 m /period glyphshow
21.503906 0.171875 m /zero glyphshow
grestore
gsave
/o {
gsave
newpath
translate
0.5 setlinewidth
1 setlinejoin
0 setlinecap
0 0 m
0 4 l
gsave
0.000 setgray
fill
grestore
stroke
grestore
} bind def
121.091 40.5 o
grestore
gsave
/o {
gsave
newpath
translate
0.5 setlinewidth
1 setlinejoin
0 setlinecap
0 0 m
0 -4 l
gsave
0.000 setgray
fill
grestore
stroke
grestore
} bind def
121.091 319.5 o
grestore
gsave
107.669034 27.421875 translate
0.000000 rotate
0.000000 0.171875 m /minus glyphshow
10.054688 0.171875 m /zero glyphshow
17.689453 0.171875 m /period glyphshow
21.503906 0.171875 m /five glyphshow
grestore
gsave
/o {
gsave
newpath
translate
0.5 setlinewidth
1 setlinejoin
0 setlinecap
0 0 m
0 4 l
gsave
0.000 setgray
fill
grestore
stroke
grestore
} bind def
184.5 40.5 o
grestore
gsave
/o {
gsave
newpath
translate
0.5 setlinewidth
1 setlinejoin
0 setlinecap
0 0 m
0 -4 l
gsave
0.000 setgray
fill
grestore
stroke
grestore
} bind def
184.5 319.5 o
grestore
gsave
175.750000 27.421875 translate
0.000000 rotate
0.000000 0.171875 m /zero glyphshow
7.634766 0.171875 m /period glyphshow
11.449219 0.171875 m /zero glyphshow
grestore
gsave
/o {
gsave
newpath
translate
0.5 setlinewidth
1 setlinejoin
0 setlinecap
0 0 m
0 4 l
gsave
0.000 setgray
fill
grestore
stroke
grestore
} bind def
247.909 40.5 o
grestore
gsave
/o {
gsave
newpath
translate
0.5 setlinewidth
1 setlinejoin
0 setlinecap
0 0 m
0 -4 l
gsave
0.000 setgray
fill
grestore
stroke
grestore
} bind def
247.909 319.5 o
grestore
gsave
239.284091 27.421875 translate
0.000000 rotate
0.000000 0.171875 m /zero glyphshow
7.634766 0.171875 m /period glyphshow
11.449219 0.171875 m /five glyphshow
grestore
gsave
/o {
gsave
newpath
translate
0.5 setlinewidth
1 setlinejoin
0 setlinecap
0 0 m
0 4 l
gsave
0.000 setgray
fill
grestore
stroke
grestore
} bind def
311.318 40.5 o
grestore
gsave
/o {
gsave
newpath
translate
0.5 setlinewidth
1 setlinejoin
0 setlinecap
0 0 m
0 -4 l
gsave
0.000 setgray
fill
grestore
stroke
grestore
} bind def
311.318 319.5 o
grestore
gsave
302.825994 27.421875 translate
0.000000 rotate
0.000000 0.171875 m /one glyphshow
7.634766 0.171875 m /period glyphshow
11.449219 0.171875 m /zero glyphshow
grestore
gsave
/o {
gsave
newpath
translate
0.5 setlinewidth
1 setlinejoin
0 setlinecap
0 0 m
4 0 l
gsave
0.000 setgray
fill
grestore
stroke
grestore
} bind def
45 53.1818 o
grestore
gsave
/o {
gsave
newpath
translate
0.5 setlinewidth
1 setlinejoin
0 setlinecap
0 0 m
-4 0 l
gsave
0.000 setgray
fill
grestore
stroke
grestore
} bind def
324 53.1818 o
grestore
gsave
13.906250 48.642756 translate
0.000000 rotate
0.000000 0.171875 m /minus glyphshow
10.054688 0.171875 m /one glyphshow
17.689453 0.171875 m /period glyphshow
21.503906 0.171875 m /zero glyphshow
grestore
gsave
/o {
gsave
newpath
translate
0.5 setlinewidth
1 setlinejoin
0 setlinecap
0 0 m
4 0 l
gsave
0.000 setgray
fill
grestore
stroke
grestore
} bind def
45 116.591 o
grestore
gsave
/o {
gsave
newpath
translate
0.5 setlinewidth
1 setlinejoin
0 setlinecap
0 0 m
-4 0 l
gsave
0.000 setgray
fill
grestore
stroke
grestore
} bind def
324 116.591 o
grestore
gsave
14.156250 112.051847 translate
0.000000 rotate
0.000000 0.171875 m /minus glyphshow
10.054688 0.171875 m /zero glyphshow
17.689453 0.171875 m /period glyphshow
21.503906 0.171875 m /five glyphshow
grestore
gsave
/o {
gsave
newpath
translate
0.5 setlinewidth
1 setlinejoin
0 setlinecap
0 0 m
4 0 l
gsave
0.000 setgray
fill
grestore
stroke
grestore
} bind def
45 180 o
grestore
gsave
/o {
gsave
newpath
translate
0.5 setlinewidth
1 setlinejoin
0 setlinecap
0 0 m
-4 0 l
gsave
0.000 setgray
fill
grestore
stroke
grestore
} bind def
324 180 o
grestore
gsave
23.500000 175.460938 translate
0.000000 rotate
0.000000 0.171875 m /zero glyphshow
7.634766 0.171875 m /period glyphshow
11.449219 0.171875 m /zero glyphshow
grestore
gsave
/o {
gsave
newpath
translate
0.5 setlinewidth
1 setlinejoin
0 setlinecap
0 0 m
4 0 l
gsave
0.000 setgray
fill
grestore
stroke
grestore
} bind def
45 243.409 o
grestore
gsave
/o {
gsave
newpath
translate
0.5 setlinewidth
1 setlinejoin
0 setlinecap
0 0 m
-4 0 l
gsave
0.000 setgray
fill
grestore
stroke
grestore
} bind def
324 243.409 o
grestore
gsave
23.750000 238.870028 translate
0.000000 rotate
0.000000 0.171875 m /zero glyphshow
7.634766 0.171875 m /period glyphshow
11.449219 0.171875 m /five glyphshow
grestore
gsave
/o {
gsave
newpath
translate
0.5 setlinewidth
1 setlinejoin
0 setlinecap
0 0 m
4 0 l
gsave
0.000 setgray
fill
grestore
stroke
grestore
} bind def
45 306.818 o
grestore
gsave
/o {
gsave
newpath
translate
0.5 setlinewidth
1 setlinejoin
0 setlinecap
0 0 m
-4 0 l
gsave
0.000 setgray
fill
grestore
stroke
grestore
} bind def
324 306.818 o
grestore
gsave
24.015625 302.279119 translate
0.000000 rotate
0.000000 0.171875 m /one glyphshow
7.634766 0.171875 m /period glyphshow
11.449219 0.171875 m /zero glyphshow
grestore
1.000 setlinewidth
2 setlinecap
gsave
45 319.5 m
324 319.5 l
stroke
grestore
gsave
324 40.5 m
324 319.5 l
stroke
grestore
gsave
45 40.5 m
324 40.5 l
stroke
grestore
gsave
45 40.5 m
45 319.5 l
stroke
grestore

end
showpage
