%!PS-Adobe-3.0 EPSF-3.0
%%Title: output/parabol.eps
%%Creator: matplotlib version 1.2.1, http://matplotlib.org/
%%CreationDate: Thu May 16 15:17:55 2013
%%Orientation: portrait
%%BoundingBox: 126 216 486 576
%%EndComments
%%BeginProlog
/mpldict 8 dict def
mpldict begin
/m { moveto } bind def
/l { lineto } bind def
/r { rlineto } bind def
/c { curveto } bind def
/cl { closepath } bind def
/box {
m
1 index 0 r
0 exch r
neg 0 r
cl
} bind def
/clipbox {
box
clip
newpath
} bind def
%!PS-Adobe-3.0 Resource-Font
%%Title: Bitstream Vera Sans
%%Copyright: Copyright (c) 2003 by Bitstream, Inc. All Rights Reserved.
%%Creator: Converted from TrueType to type 3 by PPR
25 dict begin
/_d{bind def}bind def
/_m{moveto}_d
/_l{lineto}_d
/_cl{closepath eofill}_d
/_c{curveto}_d
/_sc{7 -1 roll{setcachedevice}{pop pop pop pop pop pop}ifelse}_d
/_e{exec}_d
/FontName /BitstreamVeraSans-Roman def
/PaintType 0 def
/FontMatrix[.001 0 0 .001 0 0]def
/FontBBox[-183 -236 1287 928]def
/FontType 3 def
/Encoding [ /period /zero /one /five /minus ] def
/FontInfo 10 dict dup begin
/FamilyName (Bitstream Vera Sans) def
/FullName (Bitstream Vera Sans) def
/Notice (Copyright (c) 2003 by Bitstream, Inc. All Rights Reserved. Bitstream Vera is a trademark of Bitstream, Inc.) def
/Weight (Roman) def
/Version (Release 1.10) def
/ItalicAngle 0.0 def
/isFixedPitch false def
/UnderlinePosition -213 def
/UnderlineThickness 143 def
end readonly def
/CharStrings 5 dict dup begin
/period{318 0 107 0 210 124 _sc
107 124 _m
210 124 _l
210 0 _l
107 0 _l
107 124 _l
_cl}_d
/zero{636 0 66 -13 570 742 _sc
318 664 _m
267 664 229 639 203 589 _c
177 539 165 464 165 364 _c
165 264 177 189 203 139 _c
229 89 267 64 318 64 _c
369 64 407 89 433 139 _c
458 189 471 264 471 364 _c
471 464 458 539 433 589 _c
407 639 369 664 318 664 _c
318 742 _m
399 742 461 709 505 645 _c
548 580 570 486 570 364 _c
570 241 548 147 505 83 _c
461 19 399 -13 318 -13 _c
236 -13 173 19 130 83 _c
87 147 66 241 66 364 _c
66 486 87 580 130 645 _c
173 709 236 742 318 742 _c
_cl}_d
/one{636 0 110 0 544 729 _sc
124 83 _m
285 83 _l
285 639 _l
110 604 _l
110 694 _l
284 729 _l
383 729 _l
383 83 _l
544 83 _l
544 0 _l
124 0 _l
124 83 _l
_cl}_d
/five{{636 0 77 -13 549 729 _sc
108 729 _m
495 729 _l
495 646 _l
198 646 _l
198 467 _l
212 472 227 476 241 478 _c
255 480 270 482 284 482 _c
365 482 429 459 477 415 _c
525 370 549 310 549 234 _c
549 155 524 94 475 51 _c
426 8 357 -13 269 -13 _c
238 -13 207 -10 175 -6 _c
143 -1 111 6 77 17 _c
77 116 _l
106 100 136 88 168 80 _c
199 72 232 69 267 69 _c
}_e{323 69 368 83 401 113 _c
433 143 450 183 450 234 _c
450 284 433 324 401 354 _c
368 384 323 399 267 399 _c
241 399 214 396 188 390 _c
162 384 135 375 108 363 _c
108 729 _l
_cl}_e}_d
/minus{838 0 106 272 732 355 _sc
106 355 _m
732 355 _l
732 272 _l
106 272 _l
106 355 _l
_cl}_d
end readonly def

/BuildGlyph
 {exch begin
 CharStrings exch
 2 copy known not{pop /.notdef}if
 true 3 1 roll get exec
 end}_d

/BuildChar {
 1 index /Encoding get exch get
 1 index /BuildGlyph get exec
}_d

FontName currentdict end definefont pop
end
%%EndProlog
mpldict begin
126 216 translate
360 360 0 0 clipbox
gsave
0 0 m
360 0 l
360 360 l
0 360 l
cl
1.000 setgray
fill
grestore
gsave
45 40.5 m
324 40.5 l
324 319.5 l
45 319.5 l
cl
1.000 setgray
fill
grestore
2.000 setlinewidth
1 setlinejoin
2 setlinecap
[] 0 setdash
0.000 0.000 1.000 setrgbcolor
gsave
279 279 45 40.5 clipbox
257.719 180 m
257.719 180.899 l
257.719 181.797 l
257.719 182.697 l
257.719 183.597 l
257.719 184.498 l
257.719 185.401 l
257.719 186.305 l
257.719 187.211 l
257.719 188.12 l
257.719 189.031 l
257.719 189.944 l
257.719 190.861 l
257.719 191.781 l
257.719 192.705 l
257.719 193.632 l
257.719 194.564 l
257.719 195.501 l
257.719 196.442 l
257.719 197.388 l
257.719 198.34 l
257.719 199.298 l
257.719 200.262 l
257.719 201.233 l
257.719 202.211 l
257.719 203.196 l
257.719 204.188 l
257.719 205.189 l
257.719 206.198 l
257.719 207.216 l
257.719 208.244 l
257.719 209.281 l
257.719 210.328 l
257.719 211.386 l
257.719 212.456 l
257.719 213.537 l
257.719 214.63 l
257.719 215.736 l
257.719 216.855 l
257.719 217.988 l
257.719 219.136 l
257.719 220.299 l
257.719 221.478 l
257.719 222.673 l
257.719 223.886 l
257.719 225.116 l
257.719 226.365 l
257.719 227.634 l
257.719 228.923 l
257.719 230.234 l
257.719 231.566 l
257.719 232.922 l
257.719 234.303 l
257.719 235.708 l
257.719 237.14 l
257.719 238.6 l
257.719 240.089 l
257.719 241.608 l
257.719 243.159 l
257.719 244.743 l
257.719 246.361 l
257.719 248.017 l
257.719 249.71 l
257.719 251.443 l
257.719 253.219 l
257.719 255.038 l
257.719 256.904 l
257.719 258.818 l
257.719 260.784 l
257.719 262.804 l
257.719 264.881 l
257.719 267.017 l
257.719 269.217 l
257.719 271.484 l
257.719 273.821 l
257.719 276.233 l
257.719 278.724 l
257.719 281.299 l
257.329 283.409 l
254.839 282.524 l
252.426 281.658 l
250.085 280.812 l
247.814 279.983 l
245.609 279.173 l
243.466 278.379 l
241.383 277.601 l
239.358 276.838 l
237.387 276.09 l
235.469 275.357 l
233.601 274.636 l
231.78 273.93 l
230.005 273.235 l
228.274 272.553 l
226.585 271.883 l
224.936 271.223 l
223.326 270.575 l
221.753 269.936 l
220.215 269.308 l
218.711 268.69 l
217.24 268.08 l
215.801 267.48 l
214.392 266.888 l
213.011 266.305 l
211.659 265.729 l
210.333 265.161 l
209.034 264.601 l
207.759 264.048 l
206.508 263.501 l
205.281 262.961 l
204.075 262.427 l
202.891 261.9 l
201.728 261.378 l
200.584 260.862 l
199.46 260.351 l
198.355 259.846 l
197.267 259.346 l
196.196 258.85 l
195.142 258.359 l
194.105 257.873 l
193.083 257.391 l
192.075 256.913 l
191.083 256.439 l
190.104 255.969 l
189.139 255.502 l
188.186 255.039 l
187.247 254.58 l
186.32 254.123 l
185.404 253.669 l
184.5 253.219 l
183.607 252.771 l
182.725 252.325 l
181.852 251.883 l
180.99 251.442 l
180.138 251.004 l
179.295 250.568 l
178.46 250.134 l
177.635 249.702 l
176.818 249.271 l
176.009 248.842 l
175.208 248.415 l
174.415 247.989 l
173.629 247.565 l
172.85 247.141 l
172.078 246.719 l
171.313 246.298 l
170.554 245.878 l
169.801 245.458 l
169.054 245.039 l
168.313 244.621 l
167.578 244.203 l
166.848 243.785 l
166.124 243.368 l
165.404 242.951 l
164.689 242.534 l
163.979 242.117 l
163.274 241.7 l
162.573 241.282 l
161.876 240.864 l
161.183 240.446 l
160.494 240.028 l
159.809 239.609 l
159.128 239.188 l
158.45 238.768 l
157.776 238.346 l
157.104 237.923 l
156.436 237.499 l
155.771 237.075 l
155.109 236.648 l
154.45 236.22 l
153.793 235.791 l
153.139 235.36 l
152.487 234.928 l
151.838 234.493 l
151.191 234.057 l
150.547 233.618 l
149.904 233.178 l
149.263 232.735 l
148.625 232.29 l
147.988 231.842 l
147.354 231.392 l
146.721 230.939 l
146.089 230.484 l
145.46 230.025 l
144.832 229.563 l
144.206 229.099 l
143.581 228.631 l
142.958 228.159 l
142.336 227.684 l
141.715 227.205 l
141.097 226.723 l
140.479 226.237 l
139.863 225.746 l
139.248 225.252 l
138.635 224.753 l
138.023 224.249 l
137.413 223.742 l
136.804 223.229 l
136.197 222.712 l
135.591 222.189 l
134.987 221.662 l
134.384 221.129 l
133.784 220.591 l
133.185 220.047 l
132.588 219.497 l
131.993 218.942 l
131.4 218.381 l
130.809 217.813 l
130.221 217.239 l
129.636 216.659 l
129.053 216.072 l
128.473 215.479 l
127.896 214.878 l
127.322 214.271 l
126.752 213.656 l
126.186 213.035 l
125.623 212.405 l
125.065 211.769 l
124.512 211.124 l
123.963 210.472 l
123.419 209.812 l
122.881 209.143 l
122.349 208.467 l
121.823 207.783 l
121.304 207.09 l
120.792 206.389 l
120.287 205.679 l
119.791 204.961 l
119.303 204.235 l
118.824 203.499 l
118.354 202.756 l
117.894 202.004 l
117.444 201.243 l
117.007 200.474 l
116.58 199.696 l
116.166 198.911 l
115.764 198.117 l
115.376 197.315 l
115.002 196.505 l
114.642 195.687 l
114.298 194.862 l
113.97 194.029 l
113.657 193.19 l
113.362 192.344 l
113.085 191.491 l
112.825 190.632 l
112.584 189.767 l
112.362 188.897 l
112.16 188.022 l
111.978 187.143 l
111.816 186.259 l
111.675 185.372 l
111.556 184.481 l
111.457 183.588 l
111.38 182.693 l
111.326 181.796 l
111.292 180.898 l
111.281 180 l
111.292 179.102 l
111.326 178.204 l
111.38 177.307 l
111.457 176.412 l
111.556 175.519 l
111.675 174.628 l
111.816 173.741 l
111.978 172.857 l
112.16 171.978 l
112.362 171.103 l
112.584 170.233 l
112.825 169.368 l
113.085 168.509 l
113.362 167.656 l
113.657 166.81 l
113.97 165.971 l
114.298 165.138 l
114.642 164.313 l
115.002 163.495 l
115.376 162.685 l
115.764 161.883 l
116.166 161.089 l
116.58 160.304 l
117.007 159.526 l
117.444 158.757 l
117.894 157.996 l
118.354 157.244 l
118.824 156.501 l
119.303 155.765 l
119.791 155.039 l
120.287 154.321 l
120.792 153.611 l
121.304 152.91 l
121.823 152.217 l
122.349 151.533 l
122.881 150.857 l
123.419 150.188 l
123.963 149.528 l
124.512 148.876 l
125.065 148.231 l
125.623 147.595 l
126.186 146.965 l
126.752 146.344 l
127.322 145.729 l
127.896 145.122 l
128.473 144.521 l
129.053 143.928 l
129.636 143.341 l
130.221 142.761 l
130.809 142.187 l
131.4 141.619 l
131.993 141.058 l
132.588 140.503 l
133.185 139.953 l
133.784 139.409 l
134.384 138.871 l
134.987 138.338 l
135.591 137.811 l
136.197 137.288 l
136.804 136.771 l
137.413 136.258 l
138.023 135.751 l
138.635 135.247 l
139.248 134.748 l
139.863 134.254 l
140.479 133.763 l
141.097 133.277 l
141.715 132.795 l
142.336 132.316 l
142.958 131.841 l
143.581 131.369 l
144.206 130.901 l
144.832 130.437 l
145.46 129.975 l
146.089 129.516 l
146.721 129.061 l
147.354 128.608 l
147.988 128.158 l
148.625 127.71 l
149.263 127.265 l
149.904 126.822 l
150.547 126.382 l
151.191 125.943 l
151.838 125.507 l
152.487 125.072 l
153.139 124.64 l
153.793 124.209 l
154.45 123.78 l
155.109 123.352 l
155.771 122.925 l
156.436 122.501 l
157.104 122.077 l
157.776 121.654 l
158.45 121.232 l
159.128 120.812 l
159.809 120.391 l
160.494 119.972 l
161.183 119.554 l
161.876 119.136 l
162.573 118.718 l
163.274 118.3 l
163.979 117.883 l
164.689 117.466 l
165.404 117.049 l
166.124 116.632 l
166.848 116.215 l
167.578 115.797 l
168.313 115.379 l
169.054 114.961 l
169.801 114.542 l
170.554 114.122 l
171.313 113.702 l
172.078 113.281 l
172.85 112.859 l
173.629 112.435 l
174.415 112.011 l
175.208 111.585 l
176.009 111.158 l
176.818 110.729 l
177.635 110.298 l
178.46 109.866 l
179.295 109.432 l
180.138 108.996 l
180.99 108.558 l
181.852 108.117 l
182.725 107.675 l
183.607 107.229 l
184.5 106.781 l
185.404 106.331 l
186.32 105.877 l
187.247 105.42 l
188.186 104.961 l
189.139 104.498 l
190.104 104.031 l
191.083 103.561 l
192.075 103.087 l
193.083 102.609 l
194.105 102.127 l
195.142 101.641 l
196.196 101.15 l
197.267 100.654 l
198.355 100.154 l
199.46 99.6487 l
200.584 99.138 l
201.728 98.622 l
202.891 98.1003 l
204.075 97.5729 l
205.281 97.039 l
206.508 96.4993 l
207.759 95.9525 l
209.034 95.3992 l
210.333 94.8386 l
211.659 94.2707 l
213.011 93.695 l
214.392 93.1117 l
215.801 92.52 l
217.24 91.9196 l
218.711 91.3101 l
220.215 90.6916 l
221.753 90.0636 l
223.326 89.4253 l
224.936 88.7768 l
226.585 88.1175 l
228.274 87.4469 l
230.005 86.7647 l
231.78 86.0705 l
233.601 85.3637 l
235.469 84.6435 l
237.387 83.9099 l
239.358 83.162 l
241.383 82.3992 l
243.466 81.6214 l
245.609 80.8271 l
247.814 80.0165 l
250.085 79.1882 l
252.426 78.3416 l
254.839 77.4763 l
257.329 76.5911 l
257.719 78.7014 l
257.719 81.276 l
257.719 83.7672 l
257.719 86.1789 l
257.719 88.5162 l
257.719 90.783 l
257.719 92.9828 l
257.719 95.1192 l
257.719 97.1958 l
257.719 99.2157 l
257.719 101.182 l
257.719 103.096 l
257.719 104.962 l
257.719 106.781 l
257.719 108.557 l
257.719 110.29 l
257.719 111.983 l
257.719 113.639 l
257.719 115.257 l
257.719 116.841 l
257.719 118.392 l
257.719 119.911 l
257.719 121.4 l
257.719 122.86 l
257.719 124.292 l
257.719 125.697 l
257.719 127.078 l
257.719 128.434 l
257.719 129.766 l
257.719 131.077 l
257.719 132.366 l
257.719 133.635 l
257.719 134.884 l
257.719 136.114 l
257.719 137.327 l
257.719 138.522 l
257.719 139.701 l
257.719 140.864 l
257.719 142.012 l
257.719 143.145 l
257.719 144.264 l
257.719 145.37 l
257.719 146.463 l
257.719 147.544 l
257.719 148.614 l
257.719 149.672 l
257.719 150.719 l
257.719 151.756 l
257.719 152.784 l
257.719 153.802 l
257.719 154.811 l
257.719 155.812 l
257.719 156.804 l
257.719 157.789 l
257.719 158.767 l
257.719 159.738 l
257.719 160.702 l
257.719 161.66 l
257.719 162.612 l
257.719 163.558 l
257.719 164.499 l
257.719 165.436 l
257.719 166.368 l
257.719 167.295 l
257.719 168.219 l
257.719 169.139 l
257.719 170.056 l
257.719 170.969 l
257.719 171.88 l
257.719 172.789 l
257.719 173.695 l
257.719 174.599 l
257.719 175.502 l
257.719 176.403 l
257.719 177.303 l
257.719 178.203 l
257.719 179.101 l
257.719 180 l
cl
gsave
0.500 0.500 1.000 setrgbcolor
fill
grestore
stroke
grestore
1.000 setlinewidth
1.000 0.000 0.000 setrgbcolor
gsave
279 279 45 40.5 clipbox
311.318 180 m
310.708 192.43 l
308.881 204.741 l
305.857 216.813 l
301.665 228.531 l
296.344 239.782 l
289.945 250.456 l
282.532 260.453 l
274.174 269.674 l
264.953 278.032 l
254.956 285.445 l
244.282 291.844 l
233.031 297.165 l
221.313 301.357 l
209.241 304.381 l
196.93 306.208 l
184.5 306.818 l
172.07 306.208 l
159.759 304.381 l
147.687 301.357 l
135.969 297.165 l
124.718 291.844 l
114.044 285.445 l
104.047 278.032 l
94.826 269.674 l
86.4682 260.453 l
79.0545 250.456 l
72.6563 239.782 l
67.3353 228.531 l
63.1426 216.813 l
60.1186 204.741 l
58.2925 192.43 l
57.6818 180 l
58.2925 167.57 l
60.1186 155.259 l
63.1426 143.187 l
67.3353 131.469 l
72.6563 120.218 l
79.0545 109.544 l
86.4682 99.5474 l
94.826 90.326 l
104.047 81.9682 l
114.044 74.5545 l
124.718 68.1563 l
135.969 62.8353 l
147.687 58.6426 l
159.759 55.6186 l
172.07 53.7925 l
184.5 53.1818 l
196.93 53.7925 l
209.241 55.6186 l
221.313 58.6426 l
233.031 62.8353 l
244.282 68.1563 l
254.956 74.5545 l
264.953 81.9682 l
274.174 90.326 l
282.532 99.5474 l
289.945 109.544 l
296.344 120.218 l
301.665 131.469 l
305.857 143.187 l
308.881 155.259 l
310.708 167.57 l
311.318 180 l
stroke
grestore
0.750 0.750 0.000 setrgbcolor
gsave
279 279 45 40.5 clipbox
257.719 180 m
257.366 187.177 l
256.312 194.284 l
254.566 201.254 l
252.145 208.02 l
249.073 214.515 l
245.379 220.678 l
241.099 226.449 l
236.273 231.773 l
230.949 236.599 l
225.178 240.879 l
219.015 244.573 l
212.52 247.645 l
205.754 250.066 l
198.784 251.812 l
191.677 252.866 l
184.5 253.219 l
177.323 252.866 l
170.216 251.812 l
163.246 250.066 l
156.48 247.645 l
149.985 244.573 l
143.822 240.879 l
138.051 236.599 l
132.727 231.773 l
127.901 226.449 l
123.621 220.678 l
119.927 214.515 l
116.855 208.02 l
114.434 201.254 l
112.688 194.284 l
111.634 187.177 l
111.281 180 l
111.634 172.823 l
112.688 165.716 l
114.434 158.746 l
116.855 151.98 l
119.927 145.485 l
123.621 139.322 l
127.901 133.551 l
132.727 128.227 l
138.051 123.401 l
143.822 119.121 l
149.985 115.427 l
156.48 112.355 l
163.246 109.934 l
170.216 108.188 l
177.323 107.134 l
184.5 106.781 l
191.677 107.134 l
198.784 108.188 l
205.754 109.934 l
212.52 112.355 l
219.015 115.427 l
225.178 119.121 l
230.949 123.401 l
236.273 128.227 l
241.099 133.551 l
245.379 139.322 l
249.073 145.485 l
252.145 151.98 l
254.566 158.746 l
256.312 165.716 l
257.366 172.823 l
257.719 180 l
stroke
grestore
0.000 0.500 0.000 setrgbcolor
gsave
279 279 45 40.5 clipbox
247.909 180 m
247.604 186.215 l
246.691 192.37 l
245.179 198.407 l
243.082 204.266 l
240.422 209.891 l
237.223 215.228 l
233.516 220.226 l
229.337 224.837 l
224.726 229.016 l
219.728 232.723 l
214.391 235.922 l
208.766 238.582 l
202.907 240.679 l
196.87 242.191 l
190.715 243.104 l
184.5 243.409 l
178.285 243.104 l
172.13 242.191 l
166.093 240.679 l
160.234 238.582 l
154.609 235.922 l
149.272 232.723 l
144.274 229.016 l
139.663 224.837 l
135.484 220.226 l
131.777 215.228 l
128.578 209.891 l
125.918 204.266 l
123.821 198.407 l
122.309 192.37 l
121.396 186.215 l
121.091 180 l
121.396 173.785 l
122.309 167.63 l
123.821 161.593 l
125.918 155.734 l
128.578 150.109 l
131.777 144.772 l
135.484 139.774 l
139.663 135.163 l
144.274 130.984 l
149.272 127.277 l
154.609 124.078 l
160.234 121.418 l
166.093 119.321 l
172.13 117.809 l
178.285 116.896 l
184.5 116.591 l
190.715 116.896 l
196.87 117.809 l
202.907 119.321 l
208.766 121.418 l
214.391 124.078 l
219.728 127.277 l
224.726 130.984 l
229.337 135.163 l
233.516 139.774 l
237.223 144.772 l
240.422 150.109 l
243.082 155.734 l
245.179 161.593 l
246.691 167.63 l
247.604 173.785 l
247.909 180 l
stroke
grestore
0.500 setlinewidth
0 setlinecap
0.000 setgray
gsave
/o {
gsave
newpath
translate
0.5 setlinewidth
1 setlinejoin
0 setlinecap
0 0 m
0 4 l
gsave
0.000 setgray
fill
grestore
stroke
grestore
} bind def
57.6818 40.5 o
grestore
gsave
/o {
gsave
newpath
translate
0.5 setlinewidth
1 setlinejoin
0 setlinecap
0 0 m
0 -4 l
gsave
0.000 setgray
fill
grestore
stroke
grestore
} bind def
57.6818 319.5 o
grestore
/BitstreamVeraSans-Roman findfont
12.000 scalefont
setfont
gsave
44.134943 27.421875 translate
0.000000 rotate
0.000000 0.171875 m /minus glyphshow
10.054688 0.171875 m /one glyphshow
17.689453 0.171875 m /period glyphshow
21.503906 0.171875 m /zero glyphshow
grestore
gsave
/o {
gsave
newpath
translate
0.5 setlinewidth
1 setlinejoin
0 setlinecap
0 0 m
0 4 l
gsave
0.000 setgray
fill
grestore
stroke
grestore
} bind def
121.091 40.5 o
grestore
gsave
/o {
gsave
newpath
translate
0.5 setlinewidth
1 setlinejoin
0 setlinecap
0 0 m
0 -4 l
gsave
0.000 setgray
fill
grestore
stroke
grestore
} bind def
121.091 319.5 o
grestore
gsave
107.669034 27.421875 translate
0.000000 rotate
0.000000 0.171875 m /minus glyphshow
10.054688 0.171875 m /zero glyphshow
17.689453 0.171875 m /period glyphshow
21.503906 0.171875 m /five glyphshow
grestore
gsave
/o {
gsave
newpath
translate
0.5 setlinewidth
1 setlinejoin
0 setlinecap
0 0 m
0 4 l
gsave
0.000 setgray
fill
grestore
stroke
grestore
} bind def
184.5 40.5 o
grestore
gsave
/o {
gsave
newpath
translate
0.5 setlinewidth
1 setlinejoin
0 setlinecap
0 0 m
0 -4 l
gsave
0.000 setgray
fill
grestore
stroke
grestore
} bind def
184.5 319.5 o
grestore
gsave
175.750000 27.421875 translate
0.000000 rotate
0.000000 0.171875 m /zero glyphshow
7.634766 0.171875 m /period glyphshow
11.449219 0.171875 m /zero glyphshow
grestore
gsave
/o {
gsave
newpath
translate
0.5 setlinewidth
1 setlinejoin
0 setlinecap
0 0 m
0 4 l
gsave
0.000 setgray
fill
grestore
stroke
grestore
} bind def
247.909 40.5 o
grestore
gsave
/o {
gsave
newpath
translate
0.5 setlinewidth
1 setlinejoin
0 setlinecap
0 0 m
0 -4 l
gsave
0.000 setgray
fill
grestore
stroke
grestore
} bind def
247.909 319.5 o
grestore
gsave
239.284091 27.421875 translate
0.000000 rotate
0.000000 0.171875 m /zero glyphshow
7.634766 0.171875 m /period glyphshow
11.449219 0.171875 m /five glyphshow
grestore
gsave
/o {
gsave
newpath
translate
0.5 setlinewidth
1 setlinejoin
0 setlinecap
0 0 m
0 4 l
gsave
0.000 setgray
fill
grestore
stroke
grestore
} bind def
311.318 40.5 o
grestore
gsave
/o {
gsave
newpath
translate
0.5 setlinewidth
1 setlinejoin
0 setlinecap
0 0 m
0 -4 l
gsave
0.000 setgray
fill
grestore
stroke
grestore
} bind def
311.318 319.5 o
grestore
gsave
302.825994 27.421875 translate
0.000000 rotate
0.000000 0.171875 m /one glyphshow
7.634766 0.171875 m /period glyphshow
11.449219 0.171875 m /zero glyphshow
grestore
gsave
/o {
gsave
newpath
translate
0.5 setlinewidth
1 setlinejoin
0 setlinecap
0 0 m
4 0 l
gsave
0.000 setgray
fill
grestore
stroke
grestore
} bind def
45 53.1818 o
grestore
gsave
/o {
gsave
newpath
translate
0.5 setlinewidth
1 setlinejoin
0 setlinecap
0 0 m
-4 0 l
gsave
0.000 setgray
fill
grestore
stroke
grestore
} bind def
324 53.1818 o
grestore
gsave
13.906250 48.642756 translate
0.000000 rotate
0.000000 0.171875 m /minus glyphshow
10.054688 0.171875 m /one glyphshow
17.689453 0.171875 m /period glyphshow
21.503906 0.171875 m /zero glyphshow
grestore
gsave
/o {
gsave
newpath
translate
0.5 setlinewidth
1 setlinejoin
0 setlinecap
0 0 m
4 0 l
gsave
0.000 setgray
fill
grestore
stroke
grestore
} bind def
45 116.591 o
grestore
gsave
/o {
gsave
newpath
translate
0.5 setlinewidth
1 setlinejoin
0 setlinecap
0 0 m
-4 0 l
gsave
0.000 setgray
fill
grestore
stroke
grestore
} bind def
324 116.591 o
grestore
gsave
14.156250 112.051847 translate
0.000000 rotate
0.000000 0.171875 m /minus glyphshow
10.054688 0.171875 m /zero glyphshow
17.689453 0.171875 m /period glyphshow
21.503906 0.171875 m /five glyphshow
grestore
gsave
/o {
gsave
newpath
translate
0.5 setlinewidth
1 setlinejoin
0 setlinecap
0 0 m
4 0 l
gsave
0.000 setgray
fill
grestore
stroke
grestore
} bind def
45 180 o
grestore
gsave
/o {
gsave
newpath
translate
0.5 setlinewidth
1 setlinejoin
0 setlinecap
0 0 m
-4 0 l
gsave
0.000 setgray
fill
grestore
stroke
grestore
} bind def
324 180 o
grestore
gsave
23.500000 175.460938 translate
0.000000 rotate
0.000000 0.171875 m /zero glyphshow
7.634766 0.171875 m /period glyphshow
11.449219 0.171875 m /zero glyphshow
grestore
gsave
/o {
gsave
newpath
translate
0.5 setlinewidth
1 setlinejoin
0 setlinecap
0 0 m
4 0 l
gsave
0.000 setgray
fill
grestore
stroke
grestore
} bind def
45 243.409 o
grestore
gsave
/o {
gsave
newpath
translate
0.5 setlinewidth
1 setlinejoin
0 setlinecap
0 0 m
-4 0 l
gsave
0.000 setgray
fill
grestore
stroke
grestore
} bind def
324 243.409 o
grestore
gsave
23.750000 238.870028 translate
0.000000 rotate
0.000000 0.171875 m /zero glyphshow
7.634766 0.171875 m /period glyphshow
11.449219 0.171875 m /five glyphshow
grestore
gsave
/o {
gsave
newpath
translate
0.5 setlinewidth
1 setlinejoin
0 setlinecap
0 0 m
4 0 l
gsave
0.000 setgray
fill
grestore
stroke
grestore
} bind def
45 306.818 o
grestore
gsave
/o {
gsave
newpath
translate
0.5 setlinewidth
1 setlinejoin
0 setlinecap
0 0 m
-4 0 l
gsave
0.000 setgray
fill
grestore
stroke
grestore
} bind def
324 306.818 o
grestore
gsave
24.015625 302.279119 translate
0.000000 rotate
0.000000 0.171875 m /one glyphshow
7.634766 0.171875 m /period glyphshow
11.449219 0.171875 m /zero glyphshow
grestore
1.000 setlinewidth
2 setlinecap
gsave
45 319.5 m
324 319.5 l
stroke
grestore
gsave
324 40.5 m
324 319.5 l
stroke
grestore
gsave
45 40.5 m
324 40.5 l
stroke
grestore
gsave
45 40.5 m
45 319.5 l
stroke
grestore

end
showpage
