%!PS-Adobe-3.0 EPSF-3.0
%%Title: output/triangle.eps
%%Creator: matplotlib version 1.2.1, http://matplotlib.org/
%%CreationDate: Thu May 16 15:16:38 2013
%%Orientation: portrait
%%BoundingBox: 126 216 486 576
%%EndComments
%%BeginProlog
/mpldict 8 dict def
mpldict begin
/m { moveto } bind def
/l { lineto } bind def
/r { rlineto } bind def
/c { curveto } bind def
/cl { closepath } bind def
/box {
m
1 index 0 r
0 exch r
neg 0 r
cl
} bind def
/clipbox {
box
clip
newpath
} bind def
%!PS-Adobe-3.0 Resource-Font
%%Title: Bitstream Vera Sans
%%Copyright: Copyright (c) 2003 by Bitstream, Inc. All Rights Reserved.
%%Creator: Converted from TrueType to type 3 by PPR
25 dict begin
/_d{bind def}bind def
/_m{moveto}_d
/_l{lineto}_d
/_cl{closepath eofill}_d
/_c{curveto}_d
/_sc{7 -1 roll{setcachedevice}{pop pop pop pop pop pop}ifelse}_d
/_e{exec}_d
/FontName /BitstreamVeraSans-Roman def
/PaintType 0 def
/FontMatrix[.001 0 0 .001 0 0]def
/FontBBox[-183 -236 1287 928]def
/FontType 3 def
/Encoding [ /period /zero /one /five /minus ] def
/FontInfo 10 dict dup begin
/FamilyName (Bitstream Vera Sans) def
/FullName (Bitstream Vera Sans) def
/Notice (Copyright (c) 2003 by Bitstream, Inc. All Rights Reserved. Bitstream Vera is a trademark of Bitstream, Inc.) def
/Weight (Roman) def
/Version (Release 1.10) def
/ItalicAngle 0.0 def
/isFixedPitch false def
/UnderlinePosition -213 def
/UnderlineThickness 143 def
end readonly def
/CharStrings 5 dict dup begin
/period{318 0 107 0 210 124 _sc
107 124 _m
210 124 _l
210 0 _l
107 0 _l
107 124 _l
_cl}_d
/zero{636 0 66 -13 570 742 _sc
318 664 _m
267 664 229 639 203 589 _c
177 539 165 464 165 364 _c
165 264 177 189 203 139 _c
229 89 267 64 318 64 _c
369 64 407 89 433 139 _c
458 189 471 264 471 364 _c
471 464 458 539 433 589 _c
407 639 369 664 318 664 _c
318 742 _m
399 742 461 709 505 645 _c
548 580 570 486 570 364 _c
570 241 548 147 505 83 _c
461 19 399 -13 318 -13 _c
236 -13 173 19 130 83 _c
87 147 66 241 66 364 _c
66 486 87 580 130 645 _c
173 709 236 742 318 742 _c
_cl}_d
/one{636 0 110 0 544 729 _sc
124 83 _m
285 83 _l
285 639 _l
110 604 _l
110 694 _l
284 729 _l
383 729 _l
383 83 _l
544 83 _l
544 0 _l
124 0 _l
124 83 _l
_cl}_d
/five{{636 0 77 -13 549 729 _sc
108 729 _m
495 729 _l
495 646 _l
198 646 _l
198 467 _l
212 472 227 476 241 478 _c
255 480 270 482 284 482 _c
365 482 429 459 477 415 _c
525 370 549 310 549 234 _c
549 155 524 94 475 51 _c
426 8 357 -13 269 -13 _c
238 -13 207 -10 175 -6 _c
143 -1 111 6 77 17 _c
77 116 _l
106 100 136 88 168 80 _c
199 72 232 69 267 69 _c
}_e{323 69 368 83 401 113 _c
433 143 450 183 450 234 _c
450 284 433 324 401 354 _c
368 384 323 399 267 399 _c
241 399 214 396 188 390 _c
162 384 135 375 108 363 _c
108 729 _l
_cl}_e}_d
/minus{838 0 106 272 732 355 _sc
106 355 _m
732 355 _l
732 272 _l
106 272 _l
106 355 _l
_cl}_d
end readonly def

/BuildGlyph
 {exch begin
 CharStrings exch
 2 copy known not{pop /.notdef}if
 true 3 1 roll get exec
 end}_d

/BuildChar {
 1 index /Encoding get exch get
 1 index /BuildGlyph get exec
}_d

FontName currentdict end definefont pop
end
%%EndProlog
mpldict begin
126 216 translate
360 360 0 0 clipbox
gsave
0 0 m
360 0 l
360 360 l
0 360 l
cl
1.000 setgray
fill
grestore
gsave
45 40.5 m
324 40.5 l
324 319.5 l
45 319.5 l
cl
1.000 setgray
fill
grestore
2.000 setlinewidth
1 setlinejoin
2 setlinecap
[] 0 setdash
0.000 0.000 1.000 setrgbcolor
gsave
279 279 45 40.5 clipbox
257.719 180 m
258.241 180.905 l
258.771 181.823 l
259.309 182.755 l
259.856 183.702 l
260.411 184.664 l
260.976 185.641 l
261.549 186.635 l
262.133 187.646 l
262.727 188.675 l
263.332 189.723 l
263.948 190.79 l
264.577 191.878 l
265.217 192.988 l
265.87 194.119 l
266.537 195.274 l
267.218 196.454 l
267.914 197.659 l
268.625 198.891 l
269.353 200.151 l
270.098 201.441 l
270.86 202.762 l
271.642 204.115 l
272.443 205.503 l
273.265 206.926 l
274.108 208.388 l
274.975 209.889 l
275.866 211.432 l
276.782 213.019 l
277.725 214.653 l
278.697 216.336 l
279.699 218.071 l
280.732 219.861 l
281.799 221.709 l
282.902 223.619 l
284.042 225.594 l
285.222 227.638 l
286.446 229.757 l
287.714 231.954 l
289.031 234.234 l
290.399 236.604 l
291.822 239.07 l
293.305 241.637 l
293.298 243.409 l
290.292 243.409 l
287.407 243.409 l
284.634 243.409 l
281.967 243.409 l
279.399 243.409 l
276.923 243.409 l
274.534 243.409 l
272.227 243.409 l
269.997 243.409 l
267.84 243.409 l
265.751 243.409 l
263.727 243.409 l
261.764 243.409 l
259.859 243.409 l
258.009 243.409 l
256.211 243.409 l
254.461 243.409 l
252.759 243.409 l
251.101 243.409 l
249.485 243.409 l
247.909 243.409 l
246.372 243.409 l
244.871 243.409 l
243.404 243.409 l
241.971 243.409 l
240.569 243.409 l
239.197 243.409 l
237.854 243.409 l
236.539 243.409 l
235.249 243.409 l
233.985 243.409 l
232.745 243.409 l
231.527 243.409 l
230.332 243.409 l
229.158 243.409 l
228.004 243.409 l
226.869 243.409 l
225.752 243.409 l
224.653 243.409 l
223.572 243.409 l
222.506 243.409 l
221.456 243.409 l
220.421 243.409 l
219.4 243.409 l
218.393 243.409 l
217.399 243.409 l
216.417 243.409 l
215.448 243.409 l
214.49 243.409 l
213.544 243.409 l
212.607 243.409 l
211.681 243.409 l
210.765 243.409 l
209.858 243.409 l
208.96 243.409 l
208.07 243.409 l
207.188 243.409 l
206.314 243.409 l
205.448 243.409 l
204.588 243.409 l
203.735 243.409 l
202.888 243.409 l
202.048 243.409 l
201.213 243.409 l
200.383 243.409 l
199.559 243.409 l
198.739 243.409 l
197.924 243.409 l
197.113 243.409 l
196.306 243.409 l
195.503 243.409 l
194.703 243.409 l
193.906 243.409 l
193.112 243.409 l
192.321 243.409 l
191.532 243.409 l
190.745 243.409 l
189.96 243.409 l
189.177 243.409 l
188.396 243.409 l
187.615 243.409 l
186.836 243.409 l
186.057 243.409 l
185.278 243.409 l
184.5 243.409 l
183.722 243.409 l
182.943 243.409 l
182.164 243.409 l
181.385 243.409 l
180.604 243.409 l
179.823 243.409 l
179.04 243.409 l
178.255 243.409 l
177.468 243.409 l
176.679 243.409 l
175.888 243.409 l
175.094 243.409 l
174.297 243.409 l
173.497 243.409 l
172.694 243.409 l
171.887 243.409 l
171.076 243.409 l
170.261 243.409 l
169.441 243.409 l
168.617 243.409 l
167.787 243.409 l
166.952 243.409 l
166.112 243.409 l
165.265 243.409 l
164.412 243.409 l
163.552 243.409 l
162.686 243.409 l
161.812 243.409 l
160.93 243.409 l
160.04 243.409 l
159.142 243.409 l
158.235 243.409 l
157.319 243.409 l
156.393 243.409 l
155.456 243.409 l
154.51 243.409 l
153.552 243.409 l
152.583 243.409 l
151.601 243.409 l
150.607 243.409 l
149.6 243.409 l
148.579 243.409 l
147.544 243.409 l
146.494 243.409 l
145.428 243.409 l
144.347 243.409 l
143.248 243.409 l
142.131 243.409 l
140.996 243.409 l
139.842 243.409 l
138.668 243.409 l
137.473 243.409 l
136.255 243.409 l
135.015 243.409 l
133.751 243.409 l
132.461 243.409 l
131.146 243.409 l
129.803 243.409 l
128.431 243.409 l
127.029 243.409 l
125.596 243.409 l
124.129 243.409 l
122.628 243.409 l
121.091 243.409 l
119.515 243.409 l
117.899 243.409 l
116.241 243.409 l
114.539 243.409 l
112.789 243.409 l
110.991 243.409 l
109.141 243.409 l
107.236 243.409 l
105.273 243.409 l
103.249 243.409 l
101.16 243.409 l
99.0027 243.409 l
96.7728 243.409 l
94.4659 243.409 l
92.0771 243.409 l
89.6014 243.409 l
87.033 243.409 l
84.366 243.409 l
81.5934 243.409 l
78.7081 243.409 l
75.7022 243.409 l
75.695 241.637 l
77.1776 239.07 l
78.6009 236.604 l
79.9693 234.234 l
81.286 231.954 l
82.5542 229.757 l
83.7776 227.638 l
84.9578 225.594 l
86.0981 223.619 l
87.2007 221.709 l
88.2676 219.861 l
89.3011 218.071 l
90.3028 216.336 l
91.2747 214.653 l
92.2178 213.019 l
93.1339 211.432 l
94.025 209.889 l
94.8915 208.388 l
95.7353 206.926 l
96.5573 205.503 l
97.3584 204.115 l
98.1399 202.762 l
98.9021 201.441 l
99.647 200.151 l
100.375 198.891 l
101.086 197.659 l
101.782 196.454 l
102.463 195.274 l
103.13 194.119 l
103.783 192.988 l
104.423 191.878 l
105.052 190.79 l
105.668 189.723 l
106.273 188.675 l
106.867 187.646 l
107.451 186.635 l
108.024 185.641 l
108.589 184.664 l
109.144 183.702 l
109.691 182.755 l
110.229 181.823 l
110.759 180.905 l
111.281 180 l
111.797 179.108 l
112.304 178.228 l
112.806 177.359 l
113.301 176.502 l
113.789 175.656 l
114.272 174.82 l
114.749 173.993 l
115.221 173.177 l
115.687 172.369 l
116.148 171.57 l
116.605 170.779 l
117.057 169.996 l
117.505 169.22 l
117.948 168.452 l
118.388 167.691 l
118.824 166.936 l
119.256 166.188 l
119.684 165.445 l
120.11 164.708 l
120.532 163.977 l
120.952 163.251 l
121.368 162.529 l
121.782 161.812 l
122.193 161.1 l
122.603 160.391 l
123.01 159.686 l
123.414 158.985 l
123.817 158.287 l
124.218 157.593 l
124.618 156.901 l
125.015 156.212 l
125.412 155.525 l
125.807 154.84 l
126.201 154.158 l
126.594 153.477 l
126.986 152.798 l
127.378 152.12 l
127.768 151.444 l
128.158 150.768 l
128.548 150.093 l
128.937 149.419 l
129.327 148.745 l
129.716 148.071 l
130.105 147.397 l
130.494 146.722 l
130.884 146.048 l
131.273 145.372 l
131.664 144.696 l
132.055 144.019 l
132.447 143.34 l
132.84 142.66 l
133.233 141.978 l
133.628 141.294 l
134.024 140.608 l
134.422 139.92 l
134.82 139.229 l
135.221 138.535 l
135.623 137.839 l
136.027 137.138 l
136.433 136.435 l
136.842 135.728 l
137.252 135.017 l
137.665 134.301 l
138.081 133.581 l
138.5 132.856 l
138.921 132.127 l
139.345 131.392 l
139.773 130.651 l
140.204 129.905 l
140.638 129.152 l
141.077 128.393 l
141.519 127.627 l
141.965 126.854 l
142.416 126.074 l
142.871 125.286 l
143.33 124.489 l
143.795 123.684 l
144.265 122.871 l
144.74 122.047 l
145.221 121.215 l
145.708 120.372 l
146.2 119.518 l
146.7 118.654 l
147.205 117.778 l
147.718 116.89 l
148.238 115.989 l
148.766 115.075 l
149.301 114.148 l
149.845 113.206 l
150.397 112.249 l
150.958 111.277 l
151.529 110.289 l
152.109 109.283 l
152.7 108.261 l
153.301 107.219 l
153.914 106.158 l
154.538 105.077 l
155.174 103.975 l
155.823 102.851 l
156.485 101.704 l
157.162 100.533 l
157.852 99.3365 l
158.558 98.1135 l
159.281 96.8628 l
160.019 95.5828 l
160.776 94.2726 l
161.551 92.9304 l
162.345 91.5541 l
163.16 90.143 l
163.997 88.6945 l
164.856 87.2067 l
165.738 85.678 l
166.646 84.1059 l
167.58 82.488 l
168.542 80.8215 l
169.534 79.1042 l
170.556 77.3329 l
171.612 75.5048 l
172.702 73.616 l
173.83 71.6629 l
174.997 69.642 l
176.205 67.5489 l
177.458 65.3787 l
178.758 63.1265 l
180.109 60.7868 l
181.514 58.3541 l
182.976 55.8211 l
184.5 53.1816 l
186.024 55.8211 l
187.486 58.3541 l
188.891 60.7868 l
190.242 63.1265 l
191.542 65.3787 l
192.795 67.5489 l
194.003 69.642 l
195.17 71.6629 l
196.298 73.616 l
197.388 75.5048 l
198.444 77.3329 l
199.466 79.1042 l
200.458 80.8215 l
201.42 82.488 l
202.354 84.1059 l
203.262 85.678 l
204.144 87.2067 l
205.003 88.6945 l
205.84 90.143 l
206.655 91.5541 l
207.449 92.9304 l
208.224 94.2726 l
208.981 95.5828 l
209.719 96.8628 l
210.442 98.1135 l
211.148 99.3365 l
211.838 100.533 l
212.515 101.704 l
213.177 102.851 l
213.826 103.975 l
214.462 105.077 l
215.086 106.158 l
215.699 107.219 l
216.3 108.261 l
216.891 109.283 l
217.471 110.289 l
218.042 111.277 l
218.603 112.249 l
219.155 113.206 l
219.699 114.148 l
220.234 115.075 l
220.762 115.989 l
221.282 116.89 l
221.795 117.778 l
222.3 118.654 l
222.8 119.518 l
223.292 120.372 l
223.779 121.215 l
224.26 122.047 l
224.735 122.871 l
225.205 123.684 l
225.67 124.489 l
226.129 125.286 l
226.584 126.074 l
227.035 126.854 l
227.481 127.627 l
227.923 128.393 l
228.362 129.152 l
228.796 129.905 l
229.227 130.651 l
229.655 131.392 l
230.079 132.127 l
230.5 132.856 l
230.919 133.581 l
231.335 134.301 l
231.748 135.017 l
232.158 135.728 l
232.567 136.435 l
232.973 137.138 l
233.377 137.839 l
233.779 138.535 l
234.18 139.229 l
234.578 139.92 l
234.976 140.608 l
235.372 141.294 l
235.767 141.978 l
236.16 142.66 l
236.553 143.34 l
236.945 144.019 l
237.336 144.696 l
237.727 145.372 l
238.116 146.048 l
238.506 146.722 l
238.895 147.397 l
239.284 148.071 l
239.673 148.745 l
240.063 149.419 l
240.452 150.093 l
240.842 150.768 l
241.232 151.444 l
241.622 152.12 l
242.014 152.798 l
242.406 153.477 l
242.799 154.158 l
243.193 154.84 l
243.588 155.525 l
243.985 156.212 l
244.382 156.901 l
244.782 157.593 l
245.183 158.287 l
245.586 158.985 l
245.99 159.686 l
246.397 160.391 l
246.807 161.1 l
247.218 161.812 l
247.632 162.529 l
248.048 163.251 l
248.468 163.977 l
248.89 164.708 l
249.316 165.445 l
249.744 166.188 l
250.176 166.936 l
250.612 167.691 l
251.052 168.452 l
251.495 169.22 l
251.943 169.996 l
252.395 170.779 l
252.852 171.57 l
253.313 172.369 l
253.779 173.177 l
254.251 173.993 l
254.728 174.82 l
255.211 175.656 l
255.699 176.502 l
256.194 177.359 l
256.696 178.228 l
257.203 179.108 l
257.719 180 l
cl
gsave
0.500 0.500 1.000 setrgbcolor
fill
grestore
stroke
grestore
1.000 setlinewidth
1.000 0.000 0.000 setrgbcolor
gsave
279 279 45 40.5 clipbox
311.318 180 m
310.708 192.43 l
308.881 204.741 l
305.857 216.813 l
301.665 228.531 l
296.344 239.782 l
289.945 250.456 l
282.532 260.453 l
274.174 269.674 l
264.953 278.032 l
254.956 285.445 l
244.282 291.844 l
233.031 297.165 l
221.313 301.357 l
209.241 304.381 l
196.93 306.208 l
184.5 306.818 l
172.07 306.208 l
159.759 304.381 l
147.687 301.357 l
135.969 297.165 l
124.718 291.844 l
114.044 285.445 l
104.047 278.032 l
94.826 269.674 l
86.4682 260.453 l
79.0545 250.456 l
72.6563 239.782 l
67.3353 228.531 l
63.1426 216.813 l
60.1186 204.741 l
58.2925 192.43 l
57.6818 180 l
58.2925 167.57 l
60.1186 155.259 l
63.1426 143.187 l
67.3353 131.469 l
72.6563 120.218 l
79.0545 109.544 l
86.4682 99.5474 l
94.826 90.326 l
104.047 81.9682 l
114.044 74.5545 l
124.718 68.1563 l
135.969 62.8353 l
147.687 58.6426 l
159.759 55.6186 l
172.07 53.7925 l
184.5 53.1818 l
196.93 53.7925 l
209.241 55.6186 l
221.313 58.6426 l
233.031 62.8353 l
244.282 68.1563 l
254.956 74.5545 l
264.953 81.9682 l
274.174 90.326 l
282.532 99.5474 l
289.945 109.544 l
296.344 120.218 l
301.665 131.469 l
305.857 143.187 l
308.881 155.259 l
310.708 167.57 l
311.318 180 l
stroke
grestore
0.750 0.750 0.000 setrgbcolor
gsave
279 279 45 40.5 clipbox
257.719 180 m
257.366 187.177 l
256.312 194.284 l
254.566 201.254 l
252.145 208.02 l
249.073 214.515 l
245.379 220.678 l
241.099 226.449 l
236.273 231.773 l
230.949 236.599 l
225.178 240.879 l
219.015 244.573 l
212.52 247.645 l
205.754 250.066 l
198.784 251.812 l
191.677 252.866 l
184.5 253.219 l
177.323 252.866 l
170.216 251.812 l
163.246 250.066 l
156.48 247.645 l
149.985 244.573 l
143.822 240.879 l
138.051 236.599 l
132.727 231.773 l
127.901 226.449 l
123.621 220.678 l
119.927 214.515 l
116.855 208.02 l
114.434 201.254 l
112.688 194.284 l
111.634 187.177 l
111.281 180 l
111.634 172.823 l
112.688 165.716 l
114.434 158.746 l
116.855 151.98 l
119.927 145.485 l
123.621 139.322 l
127.901 133.551 l
132.727 128.227 l
138.051 123.401 l
143.822 119.121 l
149.985 115.427 l
156.48 112.355 l
163.246 109.934 l
170.216 108.188 l
177.323 107.134 l
184.5 106.781 l
191.677 107.134 l
198.784 108.188 l
205.754 109.934 l
212.52 112.355 l
219.015 115.427 l
225.178 119.121 l
230.949 123.401 l
236.273 128.227 l
241.099 133.551 l
245.379 139.322 l
249.073 145.485 l
252.145 151.98 l
254.566 158.746 l
256.312 165.716 l
257.366 172.823 l
257.719 180 l
stroke
grestore
0.000 0.500 0.000 setrgbcolor
gsave
279 279 45 40.5 clipbox
247.909 180 m
247.604 186.215 l
246.691 192.37 l
245.179 198.407 l
243.082 204.266 l
240.422 209.891 l
237.223 215.228 l
233.516 220.226 l
229.337 224.837 l
224.726 229.016 l
219.728 232.723 l
214.391 235.922 l
208.766 238.582 l
202.907 240.679 l
196.87 242.191 l
190.715 243.104 l
184.5 243.409 l
178.285 243.104 l
172.13 242.191 l
166.093 240.679 l
160.234 238.582 l
154.609 235.922 l
149.272 232.723 l
144.274 229.016 l
139.663 224.837 l
135.484 220.226 l
131.777 215.228 l
128.578 209.891 l
125.918 204.266 l
123.821 198.407 l
122.309 192.37 l
121.396 186.215 l
121.091 180 l
121.396 173.785 l
122.309 167.63 l
123.821 161.593 l
125.918 155.734 l
128.578 150.109 l
131.777 144.772 l
135.484 139.774 l
139.663 135.163 l
144.274 130.984 l
149.272 127.277 l
154.609 124.078 l
160.234 121.418 l
166.093 119.321 l
172.13 117.809 l
178.285 116.896 l
184.5 116.591 l
190.715 116.896 l
196.87 117.809 l
202.907 119.321 l
208.766 121.418 l
214.391 124.078 l
219.728 127.277 l
224.726 130.984 l
229.337 135.163 l
233.516 139.774 l
237.223 144.772 l
240.422 150.109 l
243.082 155.734 l
245.179 161.593 l
246.691 167.63 l
247.604 173.785 l
247.909 180 l
stroke
grestore
0.500 setlinewidth
0 setlinecap
0.000 setgray
gsave
/o {
gsave
newpath
translate
0.5 setlinewidth
1 setlinejoin
0 setlinecap
0 0 m
0 4 l
gsave
0.000 setgray
fill
grestore
stroke
grestore
} bind def
57.6818 40.5 o
grestore
gsave
/o {
gsave
newpath
translate
0.5 setlinewidth
1 setlinejoin
0 setlinecap
0 0 m
0 -4 l
gsave
0.000 setgray
fill
grestore
stroke
grestore
} bind def
57.6818 319.5 o
grestore
/BitstreamVeraSans-Roman findfont
12.000 scalefont
setfont
gsave
44.134943 27.421875 translate
0.000000 rotate
0.000000 0.171875 m /minus glyphshow
10.054688 0.171875 m /one glyphshow
17.689453 0.171875 m /period glyphshow
21.503906 0.171875 m /zero glyphshow
grestore
gsave
/o {
gsave
newpath
translate
0.5 setlinewidth
1 setlinejoin
0 setlinecap
0 0 m
0 4 l
gsave
0.000 setgray
fill
grestore
stroke
grestore
} bind def
121.091 40.5 o
grestore
gsave
/o {
gsave
newpath
translate
0.5 setlinewidth
1 setlinejoin
0 setlinecap
0 0 m
0 -4 l
gsave
0.000 setgray
fill
grestore
stroke
grestore
} bind def
121.091 319.5 o
grestore
gsave
107.669034 27.421875 translate
0.000000 rotate
0.000000 0.171875 m /minus glyphshow
10.054688 0.171875 m /zero glyphshow
17.689453 0.171875 m /period glyphshow
21.503906 0.171875 m /five glyphshow
grestore
gsave
/o {
gsave
newpath
translate
0.5 setlinewidth
1 setlinejoin
0 setlinecap
0 0 m
0 4 l
gsave
0.000 setgray
fill
grestore
stroke
grestore
} bind def
184.5 40.5 o
grestore
gsave
/o {
gsave
newpath
translate
0.5 setlinewidth
1 setlinejoin
0 setlinecap
0 0 m
0 -4 l
gsave
0.000 setgray
fill
grestore
stroke
grestore
} bind def
184.5 319.5 o
grestore
gsave
175.750000 27.421875 translate
0.000000 rotate
0.000000 0.171875 m /zero glyphshow
7.634766 0.171875 m /period glyphshow
11.449219 0.171875 m /zero glyphshow
grestore
gsave
/o {
gsave
newpath
translate
0.5 setlinewidth
1 setlinejoin
0 setlinecap
0 0 m
0 4 l
gsave
0.000 setgray
fill
grestore
stroke
grestore
} bind def
247.909 40.5 o
grestore
gsave
/o {
gsave
newpath
translate
0.5 setlinewidth
1 setlinejoin
0 setlinecap
0 0 m
0 -4 l
gsave
0.000 setgray
fill
grestore
stroke
grestore
} bind def
247.909 319.5 o
grestore
gsave
239.284091 27.421875 translate
0.000000 rotate
0.000000 0.171875 m /zero glyphshow
7.634766 0.171875 m /period glyphshow
11.449219 0.171875 m /five glyphshow
grestore
gsave
/o {
gsave
newpath
translate
0.5 setlinewidth
1 setlinejoin
0 setlinecap
0 0 m
0 4 l
gsave
0.000 setgray
fill
grestore
stroke
grestore
} bind def
311.318 40.5 o
grestore
gsave
/o {
gsave
newpath
translate
0.5 setlinewidth
1 setlinejoin
0 setlinecap
0 0 m
0 -4 l
gsave
0.000 setgray
fill
grestore
stroke
grestore
} bind def
311.318 319.5 o
grestore
gsave
302.825994 27.421875 translate
0.000000 rotate
0.000000 0.171875 m /one glyphshow
7.634766 0.171875 m /period glyphshow
11.449219 0.171875 m /zero glyphshow
grestore
gsave
/o {
gsave
newpath
translate
0.5 setlinewidth
1 setlinejoin
0 setlinecap
0 0 m
4 0 l
gsave
0.000 setgray
fill
grestore
stroke
grestore
} bind def
45 53.1818 o
grestore
gsave
/o {
gsave
newpath
translate
0.5 setlinewidth
1 setlinejoin
0 setlinecap
0 0 m
-4 0 l
gsave
0.000 setgray
fill
grestore
stroke
grestore
} bind def
324 53.1818 o
grestore
gsave
13.906250 48.642756 translate
0.000000 rotate
0.000000 0.171875 m /minus glyphshow
10.054688 0.171875 m /one glyphshow
17.689453 0.171875 m /period glyphshow
21.503906 0.171875 m /zero glyphshow
grestore
gsave
/o {
gsave
newpath
translate
0.5 setlinewidth
1 setlinejoin
0 setlinecap
0 0 m
4 0 l
gsave
0.000 setgray
fill
grestore
stroke
grestore
} bind def
45 116.591 o
grestore
gsave
/o {
gsave
newpath
translate
0.5 setlinewidth
1 setlinejoin
0 setlinecap
0 0 m
-4 0 l
gsave
0.000 setgray
fill
grestore
stroke
grestore
} bind def
324 116.591 o
grestore
gsave
14.156250 112.051847 translate
0.000000 rotate
0.000000 0.171875 m /minus glyphshow
10.054688 0.171875 m /zero glyphshow
17.689453 0.171875 m /period glyphshow
21.503906 0.171875 m /five glyphshow
grestore
gsave
/o {
gsave
newpath
translate
0.5 setlinewidth
1 setlinejoin
0 setlinecap
0 0 m
4 0 l
gsave
0.000 setgray
fill
grestore
stroke
grestore
} bind def
45 180 o
grestore
gsave
/o {
gsave
newpath
translate
0.5 setlinewidth
1 setlinejoin
0 setlinecap
0 0 m
-4 0 l
gsave
0.000 setgray
fill
grestore
stroke
grestore
} bind def
324 180 o
grestore
gsave
23.500000 175.460938 translate
0.000000 rotate
0.000000 0.171875 m /zero glyphshow
7.634766 0.171875 m /period glyphshow
11.449219 0.171875 m /zero glyphshow
grestore
gsave
/o {
gsave
newpath
translate
0.5 setlinewidth
1 setlinejoin
0 setlinecap
0 0 m
4 0 l
gsave
0.000 setgray
fill
grestore
stroke
grestore
} bind def
45 243.409 o
grestore
gsave
/o {
gsave
newpath
translate
0.5 setlinewidth
1 setlinejoin
0 setlinecap
0 0 m
-4 0 l
gsave
0.000 setgray
fill
grestore
stroke
grestore
} bind def
324 243.409 o
grestore
gsave
23.750000 238.870028 translate
0.000000 rotate
0.000000 0.171875 m /zero glyphshow
7.634766 0.171875 m /period glyphshow
11.449219 0.171875 m /five glyphshow
grestore
gsave
/o {
gsave
newpath
translate
0.5 setlinewidth
1 setlinejoin
0 setlinecap
0 0 m
4 0 l
gsave
0.000 setgray
fill
grestore
stroke
grestore
} bind def
45 306.818 o
grestore
gsave
/o {
gsave
newpath
translate
0.5 setlinewidth
1 setlinejoin
0 setlinecap
0 0 m
-4 0 l
gsave
0.000 setgray
fill
grestore
stroke
grestore
} bind def
324 306.818 o
grestore
gsave
24.015625 302.279119 translate
0.000000 rotate
0.000000 0.171875 m /one glyphshow
7.634766 0.171875 m /period glyphshow
11.449219 0.171875 m /zero glyphshow
grestore
1.000 setlinewidth
2 setlinecap
gsave
45 319.5 m
324 319.5 l
stroke
grestore
gsave
324 40.5 m
324 319.5 l
stroke
grestore
gsave
45 40.5 m
324 40.5 l
stroke
grestore
gsave
45 40.5 m
45 319.5 l
stroke
grestore

end
showpage
