%!PS-Adobe-3.0 EPSF-3.0
%%Title: ../../thesis/images/4l_2d_entangled//CK.eps
%%Creator: matplotlib version 1.2.1, http://matplotlib.org/
%%CreationDate: Mon May 20 13:29:01 2013
%%Orientation: portrait
%%BoundingBox: 162 252 450 540
%%EndComments
%%BeginProlog
/mpldict 8 dict def
mpldict begin
/m { moveto } bind def
/l { lineto } bind def
/r { rlineto } bind def
/c { curveto } bind def
/cl { closepath } bind def
/box {
m
1 index 0 r
0 exch r
neg 0 r
cl
} bind def
/clipbox {
box
clip
newpath
} bind def
%!PS-Adobe-3.0 Resource-Font
%%Title: Bitstream Vera Sans
%%Copyright: Copyright (c) 2003 by Bitstream, Inc. All Rights Reserved.
%%Creator: Converted from TrueType to type 3 by PPR
25 dict begin
/_d{bind def}bind def
/_m{moveto}_d
/_l{lineto}_d
/_cl{closepath eofill}_d
/_c{curveto}_d
/_sc{7 -1 roll{setcachedevice}{pop pop pop pop pop pop}ifelse}_d
/_e{exec}_d
/FontName /BitstreamVeraSans-Roman def
/PaintType 0 def
/FontMatrix[.001 0 0 .001 0 0]def
/FontBBox[-183 -236 1287 928]def
/FontType 3 def
/Encoding [ /period /zero /one /five /minus ] def
/FontInfo 10 dict dup begin
/FamilyName (Bitstream Vera Sans) def
/FullName (Bitstream Vera Sans) def
/Notice (Copyright (c) 2003 by Bitstream, Inc. All Rights Reserved. Bitstream Vera is a trademark of Bitstream, Inc.) def
/Weight (Roman) def
/Version (Release 1.10) def
/ItalicAngle 0.0 def
/isFixedPitch false def
/UnderlinePosition -213 def
/UnderlineThickness 143 def
end readonly def
/CharStrings 5 dict dup begin
/period{318 0 107 0 210 124 _sc
107 124 _m
210 124 _l
210 0 _l
107 0 _l
107 124 _l
_cl}_d
/zero{636 0 66 -13 570 742 _sc
318 664 _m
267 664 229 639 203 589 _c
177 539 165 464 165 364 _c
165 264 177 189 203 139 _c
229 89 267 64 318 64 _c
369 64 407 89 433 139 _c
458 189 471 264 471 364 _c
471 464 458 539 433 589 _c
407 639 369 664 318 664 _c
318 742 _m
399 742 461 709 505 645 _c
548 580 570 486 570 364 _c
570 241 548 147 505 83 _c
461 19 399 -13 318 -13 _c
236 -13 173 19 130 83 _c
87 147 66 241 66 364 _c
66 486 87 580 130 645 _c
173 709 236 742 318 742 _c
_cl}_d
/one{636 0 110 0 544 729 _sc
124 83 _m
285 83 _l
285 639 _l
110 604 _l
110 694 _l
284 729 _l
383 729 _l
383 83 _l
544 83 _l
544 0 _l
124 0 _l
124 83 _l
_cl}_d
/five{{636 0 77 -13 549 729 _sc
108 729 _m
495 729 _l
495 646 _l
198 646 _l
198 467 _l
212 472 227 476 241 478 _c
255 480 270 482 284 482 _c
365 482 429 459 477 415 _c
525 370 549 310 549 234 _c
549 155 524 94 475 51 _c
426 8 357 -13 269 -13 _c
238 -13 207 -10 175 -6 _c
143 -1 111 6 77 17 _c
77 116 _l
106 100 136 88 168 80 _c
199 72 232 69 267 69 _c
}_e{323 69 368 83 401 113 _c
433 143 450 183 450 234 _c
450 284 433 324 401 354 _c
368 384 323 399 267 399 _c
241 399 214 396 188 390 _c
162 384 135 375 108 363 _c
108 729 _l
_cl}_e}_d
/minus{838 0 106 272 732 355 _sc
106 355 _m
732 355 _l
732 272 _l
106 272 _l
106 355 _l
_cl}_d
end readonly def

/BuildGlyph
 {exch begin
 CharStrings exch
 2 copy known not{pop /.notdef}if
 true 3 1 roll get exec
 end}_d

/BuildChar {
 1 index /Encoding get exch get
 1 index /BuildGlyph get exec
}_d

FontName currentdict end definefont pop
end
%%EndProlog
mpldict begin
162 252 translate
288 288 0 0 clipbox
gsave
0 0 m
288 0 l
288 288 l
0 288 l
cl
1.000 setgray
fill
grestore
gsave
36 32.4 m
259.2 32.4 l
259.2 255.6 l
36 255.6 l
cl
1.000 setgray
fill
grestore
2.000 setlinewidth
1 setlinejoin
2 setlinecap
[] 0 setdash
0.000 0.000 1.000 setrgbcolor
gsave
223.2 223.2 36 32.4 clipbox
189.019 144 m
189.227 144.511 l
189.438 145.027 l
189.651 145.549 l
189.867 146.076 l
190.084 146.61 l
190.305 147.15 l
190.528 147.697 l
190.754 148.25 l
190.983 148.811 l
191.215 149.379 l
191.45 149.956 l
191.689 150.54 l
191.931 151.133 l
192.176 151.735 l
192.426 152.346 l
192.68 152.967 l
192.937 153.598 l
193.199 154.24 l
193.466 154.892 l
193.737 155.557 l
194.013 156.233 l
194.294 156.922 l
194.581 157.624 l
194.873 158.34 l
195.171 159.07 l
195.475 159.816 l
195.786 160.577 l
196.104 161.355 l
196.429 162.15 l
196.761 162.963 l
197.1 163.796 l
197.448 164.648 l
197.805 165.521 l
198.17 166.416 l
198.545 167.335 l
198.93 168.277 l
199.325 169.246 l
199.732 170.241 l
200.149 171.265 l
200.58 172.318 l
201.023 173.403 l
201.48 174.522 l
201.951 175.676 l
202.437 176.868 l
202.484 177.818 l
201.005 177.818 l
199.582 177.818 l
198.213 177.818 l
196.892 177.818 l
195.618 177.818 l
194.388 177.818 l
193.199 177.818 l
192.048 177.818 l
190.934 177.818 l
189.855 177.818 l
188.808 177.818 l
187.792 177.818 l
186.805 177.818 l
185.846 177.818 l
184.913 177.818 l
184.005 177.818 l
183.12 177.818 l
182.259 177.818 l
181.418 177.818 l
180.598 177.818 l
179.798 177.818 l
179.016 177.818 l
178.251 177.818 l
177.503 177.818 l
176.772 177.818 l
176.056 177.818 l
175.354 177.818 l
174.666 177.818 l
173.992 177.818 l
173.331 177.818 l
172.681 177.818 l
172.044 177.818 l
171.418 177.818 l
170.802 177.818 l
170.197 177.818 l
169.601 177.818 l
169.015 177.818 l
168.438 177.818 l
167.87 177.818 l
167.31 177.818 l
166.758 177.818 l
166.213 177.818 l
165.676 177.818 l
165.146 177.818 l
164.623 177.818 l
164.106 177.818 l
163.595 177.818 l
163.09 177.818 l
162.591 177.818 l
162.097 177.818 l
161.608 177.818 l
161.124 177.818 l
160.645 177.818 l
160.171 177.818 l
159.7 177.818 l
159.234 177.818 l
158.772 177.818 l
158.314 177.818 l
157.859 177.818 l
157.407 177.818 l
156.959 177.818 l
156.513 177.818 l
156.071 177.818 l
155.631 177.818 l
155.194 177.818 l
154.759 177.818 l
154.327 177.818 l
153.896 177.818 l
153.468 177.818 l
153.041 177.818 l
152.616 177.818 l
152.193 177.818 l
151.771 177.818 l
151.35 177.818 l
150.931 177.818 l
150.512 177.818 l
150.095 177.818 l
149.678 177.818 l
149.261 177.818 l
148.846 177.818 l
148.43 177.818 l
148.015 177.818 l
147.6 177.818 l
147.185 177.818 l
146.77 177.818 l
146.354 177.818 l
145.939 177.818 l
145.522 177.818 l
145.105 177.818 l
144.688 177.818 l
144.269 177.818 l
143.85 177.818 l
143.429 177.818 l
143.007 177.818 l
142.584 177.818 l
142.159 177.818 l
141.732 177.818 l
141.304 177.818 l
140.873 177.818 l
140.441 177.818 l
140.006 177.818 l
139.569 177.818 l
139.129 177.818 l
138.687 177.818 l
138.241 177.818 l
137.793 177.818 l
137.341 177.818 l
136.886 177.818 l
136.428 177.818 l
135.966 177.818 l
135.5 177.818 l
135.029 177.818 l
134.555 177.818 l
134.076 177.818 l
133.592 177.818 l
133.103 177.818 l
132.609 177.818 l
132.11 177.818 l
131.605 177.818 l
131.094 177.818 l
130.577 177.818 l
130.054 177.818 l
129.524 177.818 l
128.987 177.818 l
128.442 177.818 l
127.89 177.818 l
127.33 177.818 l
126.762 177.818 l
126.185 177.818 l
125.599 177.818 l
125.003 177.818 l
124.398 177.818 l
123.782 177.818 l
123.156 177.818 l
122.519 177.818 l
121.869 177.818 l
121.208 177.818 l
120.534 177.818 l
119.846 177.818 l
119.144 177.818 l
118.428 177.818 l
117.697 177.818 l
116.949 177.818 l
116.184 177.818 l
115.402 177.818 l
114.602 177.818 l
113.782 177.818 l
112.941 177.818 l
112.08 177.818 l
111.195 177.818 l
110.287 177.818 l
109.354 177.818 l
108.395 177.818 l
107.408 177.818 l
106.392 177.818 l
105.345 177.818 l
104.266 177.818 l
103.152 177.818 l
102.001 177.818 l
100.812 177.818 l
99.5819 177.818 l
98.3079 177.818 l
96.9874 177.818 l
95.6176 177.818 l
94.1952 177.818 l
92.7164 177.818 l
92.7629 176.868 l
93.2494 175.676 l
93.7205 174.522 l
94.1774 173.403 l
94.6204 172.318 l
95.0506 171.265 l
95.4684 170.241 l
95.8747 169.246 l
96.2702 168.277 l
96.6549 167.335 l
97.03 166.416 l
97.3952 165.521 l
97.7517 164.648 l
98.0999 163.796 l
98.4394 162.963 l
98.7714 162.15 l
99.0962 161.355 l
99.4136 160.577 l
99.7245 159.816 l
100.029 159.07 l
100.327 158.34 l
100.619 157.624 l
100.906 156.922 l
101.187 156.233 l
101.463 155.557 l
101.734 154.892 l
102.001 154.24 l
102.263 153.598 l
102.52 152.967 l
102.774 152.346 l
103.024 151.735 l
103.269 151.133 l
103.511 150.54 l
103.75 149.956 l
103.985 149.379 l
104.217 148.811 l
104.446 148.25 l
104.672 147.697 l
104.895 147.15 l
105.116 146.61 l
105.333 146.076 l
105.549 145.549 l
105.762 145.027 l
105.973 144.511 l
106.181 144 l
106.388 143.494 l
106.592 142.993 l
106.795 142.497 l
106.995 142.005 l
107.195 141.518 l
107.392 141.034 l
107.588 140.554 l
107.782 140.078 l
107.975 139.606 l
108.167 139.136 l
108.357 138.67 l
108.546 138.207 l
108.734 137.746 l
108.921 137.289 l
109.107 136.833 l
109.292 136.38 l
109.476 135.929 l
109.659 135.48 l
109.842 135.033 l
110.024 134.588 l
110.205 134.144 l
110.386 133.701 l
110.566 133.26 l
110.745 132.82 l
110.925 132.381 l
111.104 131.943 l
111.282 131.506 l
111.46 131.069 l
111.638 130.633 l
111.816 130.197 l
111.994 129.761 l
112.172 129.325 l
112.35 128.89 l
112.528 128.454 l
112.706 128.017 l
112.884 127.581 l
113.063 127.143 l
113.242 126.705 l
113.421 126.267 l
113.6 125.827 l
113.78 125.386 l
113.961 124.944 l
114.142 124.5 l
114.324 124.055 l
114.506 123.608 l
114.689 123.16 l
114.873 122.709 l
115.058 122.256 l
115.244 121.801 l
115.43 121.344 l
115.618 120.884 l
115.807 120.421 l
115.997 119.955 l
116.189 119.486 l
116.382 119.014 l
116.576 118.539 l
116.771 118.06 l
116.968 117.577 l
117.167 117.09 l
117.368 116.599 l
117.57 116.103 l
117.774 115.603 l
117.98 115.098 l
118.188 114.588 l
118.399 114.073 l
118.611 113.552 l
118.826 113.026 l
119.044 112.493 l
119.264 111.954 l
119.486 111.409 l
119.712 110.856 l
119.94 110.297 l
120.172 109.73 l
120.407 109.155 l
120.645 108.572 l
120.886 107.98 l
121.131 107.38 l
121.38 106.77 l
121.633 106.151 l
121.89 105.522 l
122.151 104.882 l
122.417 104.231 l
122.687 103.569 l
122.962 102.895 l
123.243 102.208 l
123.529 101.508 l
123.82 100.794 l
124.117 100.067 l
124.42 99.3236 l
124.73 98.5651 l
125.046 97.7902 l
125.37 96.9979 l
125.7 96.1879 l
126.039 95.3589 l
126.385 94.5102 l
126.74 93.6406 l
127.104 92.7491 l
127.478 91.8347 l
127.861 90.8963 l
128.254 89.9325 l
128.659 88.9416 l
129.075 87.9228 l
129.503 86.8743 l
129.944 85.7946 l
130.398 84.6816 l
130.867 83.5333 l
131.35 82.3482 l
131.85 81.1237 l
132.367 79.8578 l
132.902 78.5474 l
133.456 77.1901 l
134.031 75.7829 l
134.627 74.3222 l
135.246 72.805 l
135.891 71.227 l
136.561 69.584 l
137.261 67.8716 l
137.99 66.0848 l
138.752 64.2175 l
139.55 62.2642 l
140.385 60.218 l
141.262 58.0713 l
142.182 55.8158 l
143.151 53.4427 l
144.172 50.941 l
145.251 48.2998 l
146.391 45.5061 l
147.6 42.5453 l
148.809 45.5061 l
149.949 48.2998 l
151.028 50.941 l
152.049 53.4427 l
153.018 55.8158 l
153.938 58.0713 l
154.815 60.218 l
155.65 62.2642 l
156.448 64.2175 l
157.21 66.0848 l
157.939 67.8716 l
158.639 69.584 l
159.309 71.227 l
159.954 72.805 l
160.573 74.3222 l
161.169 75.7829 l
161.744 77.1901 l
162.298 78.5474 l
162.833 79.8578 l
163.35 81.1237 l
163.85 82.3482 l
164.333 83.5333 l
164.802 84.6816 l
165.256 85.7946 l
165.697 86.8743 l
166.125 87.9228 l
166.541 88.9416 l
166.946 89.9325 l
167.339 90.8963 l
167.722 91.8347 l
168.096 92.7491 l
168.46 93.6406 l
168.815 94.5102 l
169.161 95.3589 l
169.5 96.1879 l
169.83 96.9979 l
170.154 97.7902 l
170.47 98.5651 l
170.78 99.3236 l
171.083 100.067 l
171.38 100.794 l
171.671 101.508 l
171.957 102.208 l
172.238 102.895 l
172.513 103.569 l
172.783 104.231 l
173.049 104.882 l
173.31 105.522 l
173.567 106.151 l
173.82 106.77 l
174.069 107.38 l
174.314 107.98 l
174.555 108.572 l
174.793 109.155 l
175.028 109.73 l
175.26 110.297 l
175.488 110.856 l
175.714 111.409 l
175.936 111.954 l
176.156 112.493 l
176.374 113.026 l
176.589 113.552 l
176.801 114.073 l
177.012 114.588 l
177.22 115.098 l
177.426 115.603 l
177.63 116.103 l
177.832 116.599 l
178.033 117.09 l
178.232 117.577 l
178.429 118.06 l
178.624 118.539 l
178.818 119.014 l
179.011 119.486 l
179.203 119.955 l
179.393 120.421 l
179.582 120.884 l
179.77 121.344 l
179.956 121.801 l
180.142 122.256 l
180.327 122.709 l
180.511 123.16 l
180.694 123.608 l
180.876 124.055 l
181.058 124.5 l
181.239 124.944 l
181.42 125.386 l
181.6 125.827 l
181.779 126.267 l
181.958 126.705 l
182.137 127.143 l
182.316 127.581 l
182.494 128.017 l
182.672 128.454 l
182.85 128.89 l
183.028 129.325 l
183.206 129.761 l
183.384 130.197 l
183.562 130.633 l
183.74 131.069 l
183.918 131.506 l
184.096 131.943 l
184.275 132.381 l
184.455 132.82 l
184.634 133.26 l
184.814 133.701 l
184.995 134.144 l
185.176 134.588 l
185.358 135.033 l
185.541 135.48 l
185.724 135.929 l
185.908 136.38 l
186.093 136.833 l
186.279 137.289 l
186.466 137.746 l
186.654 138.207 l
186.843 138.67 l
187.033 139.136 l
187.225 139.606 l
187.418 140.078 l
187.612 140.554 l
187.808 141.034 l
188.005 141.518 l
188.205 142.005 l
188.405 142.497 l
188.608 142.993 l
188.812 143.494 l
189.019 144 l
cl
gsave
0.500 0.500 1.000 setrgbcolor
fill
grestore
stroke
grestore
1.000 setlinewidth
0.000 setgray
gsave
223.2 223.2 36 32.4 clipbox
189.019 144 m
188.78 144.505 l
188.58 145.006 l
188.378 145.502 l
188.174 145.993 l
187.969 146.48 l
187.761 146.962 l
187.551 147.44 l
187.256 147.906 l
187.043 148.374 l
186.828 148.838 l
186.611 149.298 l
186.393 149.754 l
186.173 150.206 l
185.951 150.655 l
185.728 151.099 l
185.416 151.522 l
185.189 151.958 l
184.961 152.39 l
184.731 152.818 l
184.5 153.243 l
184.268 153.665 l
184.034 154.083 l
183.707 154.471 l
183.47 154.881 l
183.232 155.288 l
182.992 155.692 l
182.752 156.093 l
182.509 156.491 l
182.171 156.85 l
181.926 157.241 l
181.68 157.629 l
181.433 158.014 l
181.184 158.396 l
180.836 158.732 l
180.585 159.108 l
180.333 159.481 l
180.08 159.852 l
179.826 160.221 l
179.468 160.534 l
179.212 160.897 l
178.954 161.257 l
178.696 161.616 l
178.438 161.973 l
178.071 162.264 l
177.775 162.593 l
177.484 162.924 l
177.195 163.254 l
176.91 163.584 l
176.627 163.914 l
176.345 164.245 l
176.066 164.575 l
175.698 164.839 l
175.423 165.169 l
175.149 165.5 l
174.793 165.764 l
174.522 166.094 l
174.172 166.358 l
173.902 166.689 l
173.558 166.953 l
173.289 167.283 l
172.948 167.547 l
172.61 167.812 l
172.274 168.076 l
172.006 168.406 l
171.672 168.67 l
171.34 168.934 l
171.008 169.199 l
170.678 169.463 l
170.349 169.727 l
169.963 169.925 l
169.636 170.189 l
169.31 170.454 l
168.983 170.718 l
168.605 170.916 l
168.28 171.18 l
167.905 171.378 l
167.58 171.643 l
167.208 171.841 l
166.882 172.105 l
166.511 172.303 l
166.142 172.501 l
165.815 172.765 l
165.447 172.964 l
165.079 173.162 l
164.711 173.36 l
164.344 173.558 l
163.978 173.756 l
163.611 173.954 l
163.21 174.086 l
162.844 174.284 l
162.478 174.483 l
162.08 174.615 l
161.713 174.813 l
161.317 174.945 l
160.95 175.143 l
160.555 175.275 l
160.16 175.407 l
159.792 175.606 l
159.397 175.738 l
159.003 175.87 l
158.609 176.002 l
158.216 176.134 l
157.822 176.266 l
157.428 176.398 l
157.014 176.464 l
156.621 176.596 l
156.226 176.729 l
155.815 176.794 l
155.42 176.927 l
155.009 176.993 l
154.599 177.059 l
154.202 177.191 l
153.792 177.257 l
153.382 177.323 l
152.972 177.389 l
152.563 177.455 l
152.153 177.521 l
151.743 177.587 l
151.325 177.587 l
150.915 177.653 l
150.504 177.719 l
150.087 177.719 l
149.676 177.785 l
149.26 177.785 l
148.844 177.785 l
148.429 177.785 l
148.015 177.785 l
147.6 177.818 l
147.185 177.785 l
146.771 177.785 l
146.356 177.785 l
145.94 177.785 l
145.524 177.785 l
145.113 177.719 l
144.696 177.719 l
144.285 177.653 l
143.875 177.587 l
143.457 177.587 l
143.047 177.521 l
142.637 177.455 l
142.228 177.389 l
141.818 177.323 l
141.408 177.257 l
140.998 177.191 l
140.601 177.059 l
140.191 176.993 l
139.78 176.927 l
139.385 176.794 l
138.974 176.729 l
138.579 176.596 l
138.186 176.464 l
137.772 176.398 l
137.378 176.266 l
136.984 176.134 l
136.591 176.002 l
136.197 175.87 l
135.803 175.738 l
135.408 175.606 l
135.04 175.407 l
134.645 175.275 l
134.25 175.143 l
133.883 174.945 l
133.487 174.813 l
133.12 174.615 l
132.722 174.483 l
132.356 174.284 l
131.99 174.086 l
131.589 173.954 l
131.222 173.756 l
130.856 173.558 l
130.489 173.36 l
130.121 173.162 l
129.753 172.964 l
129.385 172.765 l
129.058 172.501 l
128.689 172.303 l
128.318 172.105 l
127.992 171.841 l
127.62 171.643 l
127.295 171.378 l
126.92 171.18 l
126.595 170.916 l
126.217 170.718 l
125.89 170.454 l
125.564 170.189 l
125.237 169.925 l
124.851 169.727 l
124.522 169.463 l
124.192 169.199 l
123.86 168.934 l
123.528 168.67 l
123.194 168.406 l
122.926 168.076 l
122.59 167.812 l
122.252 167.547 l
121.911 167.283 l
121.642 166.953 l
121.298 166.689 l
121.028 166.358 l
120.678 166.094 l
120.407 165.764 l
120.051 165.5 l
119.777 165.169 l
119.502 164.839 l
119.134 164.575 l
118.855 164.245 l
118.573 163.914 l
118.29 163.584 l
118.005 163.254 l
117.716 162.924 l
117.425 162.593 l
117.129 162.264 l
116.762 161.973 l
116.504 161.616 l
116.246 161.257 l
115.988 160.897 l
115.732 160.534 l
115.374 160.221 l
115.12 159.852 l
114.867 159.481 l
114.615 159.108 l
114.364 158.732 l
114.016 158.396 l
113.767 158.014 l
113.52 157.629 l
113.274 157.241 l
113.029 156.85 l
112.691 156.491 l
112.448 156.093 l
112.208 155.692 l
111.968 155.288 l
111.73 154.881 l
111.493 154.471 l
111.166 154.083 l
110.932 153.665 l
110.7 153.243 l
110.469 152.818 l
110.239 152.39 l
110.011 151.958 l
109.784 151.522 l
109.472 151.099 l
109.249 150.655 l
109.027 150.206 l
108.807 149.754 l
108.589 149.298 l
108.372 148.838 l
108.157 148.374 l
107.944 147.906 l
107.649 147.44 l
107.439 146.962 l
107.231 146.48 l
107.026 145.993 l
106.822 145.502 l
106.62 145.006 l
106.42 144.505 l
106.181 144 l
106.388 143.494 l
106.592 142.993 l
106.795 142.497 l
106.995 142.005 l
107.195 141.518 l
107.392 141.034 l
107.588 140.554 l
107.782 140.078 l
107.975 139.606 l
108.167 139.136 l
108.357 138.67 l
108.546 138.207 l
108.734 137.746 l
108.921 137.289 l
109.107 136.833 l
109.292 136.38 l
109.476 135.929 l
109.659 135.48 l
109.842 135.033 l
110.024 134.588 l
110.205 134.144 l
110.386 133.701 l
110.566 133.26 l
110.745 132.82 l
110.925 132.381 l
111.104 131.943 l
111.282 131.506 l
111.46 131.069 l
111.638 130.633 l
111.816 130.197 l
111.994 129.761 l
112.172 129.325 l
112.35 128.89 l
112.528 128.454 l
112.706 128.017 l
112.884 127.581 l
113.063 127.143 l
113.242 126.705 l
113.421 126.267 l
113.6 125.827 l
113.78 125.386 l
113.961 124.944 l
114.142 124.5 l
114.324 124.055 l
114.506 123.608 l
114.689 123.16 l
114.873 122.709 l
115.058 122.256 l
115.244 121.801 l
115.43 121.344 l
115.618 120.884 l
115.807 120.421 l
115.997 119.955 l
116.189 119.486 l
116.382 119.014 l
116.576 118.539 l
116.771 118.06 l
116.968 117.577 l
117.167 117.09 l
117.368 116.599 l
117.57 116.103 l
117.774 115.603 l
117.98 115.098 l
118.188 114.588 l
118.399 114.073 l
118.611 113.552 l
118.826 113.026 l
119.044 112.493 l
119.264 111.954 l
119.486 111.409 l
119.712 110.856 l
119.94 110.297 l
120.172 109.73 l
120.407 109.155 l
120.645 108.572 l
120.886 107.98 l
121.131 107.38 l
121.38 106.77 l
121.633 106.151 l
121.89 105.522 l
122.151 104.882 l
122.417 104.231 l
122.687 103.569 l
122.962 102.895 l
123.243 102.208 l
123.529 101.508 l
123.82 100.794 l
124.117 100.067 l
124.42 99.3236 l
124.73 98.5651 l
125.046 97.7902 l
125.37 96.9979 l
125.7 96.1879 l
126.039 95.3589 l
126.385 94.5102 l
126.74 93.6406 l
127.104 92.7491 l
127.478 91.8347 l
127.861 90.8963 l
128.254 89.9325 l
128.659 88.9416 l
129.075 87.9228 l
129.503 86.8743 l
129.944 85.7946 l
130.398 84.6816 l
130.867 83.5333 l
131.35 82.3482 l
131.85 81.1237 l
132.367 79.8578 l
132.902 78.5474 l
133.456 77.1901 l
134.031 75.7829 l
134.627 74.3222 l
135.246 72.805 l
135.891 71.227 l
136.561 69.584 l
137.261 67.8716 l
137.99 66.0848 l
138.752 64.2175 l
139.55 62.2642 l
140.385 60.218 l
141.262 58.0713 l
142.182 55.8158 l
143.151 53.4427 l
144.172 50.941 l
145.251 48.2998 l
146.391 45.5061 l
147.6 42.6443 l
148.809 45.5061 l
149.949 48.2998 l
151.028 50.941 l
152.049 53.4427 l
153.018 55.8158 l
153.938 58.0713 l
154.815 60.218 l
155.65 62.2642 l
156.448 64.2175 l
157.21 66.0848 l
157.939 67.8716 l
158.639 69.584 l
159.309 71.227 l
159.954 72.805 l
160.573 74.3222 l
161.169 75.7829 l
161.744 77.1901 l
162.298 78.5474 l
162.833 79.8578 l
163.35 81.1237 l
163.85 82.3482 l
164.333 83.5333 l
164.802 84.6816 l
165.256 85.7946 l
165.697 86.8743 l
166.125 87.9228 l
166.541 88.9416 l
166.946 89.9325 l
167.339 90.8963 l
167.722 91.8347 l
168.096 92.7491 l
168.46 93.6406 l
168.815 94.5102 l
169.161 95.3589 l
169.5 96.1879 l
169.83 96.9979 l
170.154 97.7902 l
170.47 98.5651 l
170.78 99.3236 l
171.083 100.067 l
171.38 100.794 l
171.671 101.508 l
171.957 102.208 l
172.238 102.895 l
172.513 103.569 l
172.783 104.231 l
173.049 104.882 l
173.31 105.522 l
173.567 106.151 l
173.82 106.77 l
174.069 107.38 l
174.314 107.98 l
174.555 108.572 l
174.793 109.155 l
175.028 109.73 l
175.26 110.297 l
175.488 110.856 l
175.714 111.409 l
175.936 111.954 l
176.156 112.493 l
176.374 113.026 l
176.589 113.552 l
176.801 114.073 l
177.012 114.588 l
177.22 115.098 l
177.426 115.603 l
177.63 116.103 l
177.832 116.599 l
178.033 117.09 l
178.232 117.577 l
178.429 118.06 l
178.624 118.539 l
178.818 119.014 l
179.011 119.486 l
179.203 119.955 l
179.393 120.421 l
179.582 120.884 l
179.77 121.344 l
179.956 121.801 l
180.142 122.256 l
180.327 122.709 l
180.511 123.16 l
180.694 123.608 l
180.876 124.055 l
181.058 124.5 l
181.239 124.944 l
181.42 125.386 l
181.6 125.827 l
181.779 126.267 l
181.958 126.705 l
182.137 127.143 l
182.316 127.581 l
182.494 128.017 l
182.672 128.454 l
182.85 128.89 l
183.028 129.325 l
183.206 129.761 l
183.384 130.197 l
183.562 130.633 l
183.74 131.069 l
183.918 131.506 l
184.096 131.943 l
184.275 132.381 l
184.455 132.82 l
184.634 133.26 l
184.814 133.701 l
184.995 134.144 l
185.176 134.588 l
185.358 135.033 l
185.541 135.48 l
185.724 135.929 l
185.908 136.38 l
186.093 136.833 l
186.279 137.289 l
186.466 137.746 l
186.654 138.207 l
186.843 138.67 l
187.033 139.136 l
187.225 139.606 l
187.418 140.078 l
187.612 140.554 l
187.808 141.034 l
188.005 141.518 l
188.205 142.005 l
188.405 142.497 l
188.608 142.993 l
188.812 143.494 l
189.019 144 l
cl
gsave
0.500 setgray
fill
grestore
stroke
grestore
1.000 0.000 0.000 setrgbcolor
gsave
223.2 223.2 36 32.4 clipbox
249.055 144 m
248.566 153.944 l
247.105 163.793 l
244.686 173.451 l
241.332 182.825 l
237.075 191.825 l
231.956 200.365 l
226.025 208.362 l
219.339 215.739 l
211.962 222.425 l
203.965 228.356 l
195.425 233.475 l
186.425 237.732 l
177.051 241.086 l
167.393 243.505 l
157.544 244.966 l
147.6 245.455 l
137.656 244.966 l
127.807 243.505 l
118.149 241.086 l
108.775 237.732 l
99.7747 233.475 l
91.2349 228.356 l
83.2379 222.425 l
75.8608 215.739 l
69.1746 208.362 l
63.2436 200.365 l
58.1251 191.825 l
53.8682 182.825 l
50.5141 173.451 l
48.0949 163.793 l
46.634 153.944 l
46.1455 144 l
46.634 134.056 l
48.0949 124.207 l
50.5141 114.549 l
53.8682 105.175 l
58.1251 96.1747 l
63.2436 87.6349 l
69.1746 79.6379 l
75.8608 72.2608 l
83.2379 65.5746 l
91.2349 59.6436 l
99.7747 54.5251 l
108.775 50.2682 l
118.149 46.9141 l
127.807 44.4949 l
137.656 43.034 l
147.6 42.5455 l
157.544 43.034 l
167.393 44.4949 l
177.051 46.9141 l
186.425 50.2682 l
195.425 54.5251 l
203.965 59.6436 l
211.962 65.5746 l
219.339 72.2608 l
226.025 79.6379 l
231.956 87.6349 l
237.075 96.1747 l
241.332 105.175 l
244.686 114.549 l
247.105 124.207 l
248.566 134.056 l
249.055 144 l
stroke
grestore
0.750 0.750 0.000 setrgbcolor
gsave
223.2 223.2 36 32.4 clipbox
206.175 144 m
205.893 149.741 l
205.049 155.427 l
203.653 161.003 l
201.716 166.416 l
199.258 171.612 l
196.303 176.542 l
192.879 181.159 l
189.019 185.419 l
184.759 189.279 l
180.142 192.703 l
175.212 195.658 l
170.016 198.116 l
164.603 200.053 l
159.027 201.449 l
153.341 202.293 l
147.6 202.575 l
141.859 202.293 l
136.173 201.449 l
130.597 200.053 l
125.184 198.116 l
119.988 195.658 l
115.058 192.703 l
110.441 189.279 l
106.181 185.419 l
102.321 181.159 l
98.8968 176.542 l
95.9416 171.612 l
93.4839 166.416 l
91.5474 161.003 l
90.1507 155.427 l
89.3072 149.741 l
89.0252 144 l
89.3072 138.259 l
90.1507 132.573 l
91.5474 126.997 l
93.4839 121.584 l
95.9416 116.388 l
98.8968 111.458 l
102.321 106.841 l
106.181 102.581 l
110.441 98.7211 l
115.058 95.2968 l
119.988 92.3416 l
125.184 89.8839 l
130.597 87.9474 l
136.173 86.5507 l
141.859 85.7072 l
147.6 85.4252 l
153.341 85.7072 l
159.027 86.5507 l
164.603 87.9474 l
170.016 89.8839 l
175.212 92.3416 l
180.142 95.2968 l
184.759 98.7211 l
189.019 102.581 l
192.879 106.841 l
196.303 111.458 l
199.258 116.388 l
201.716 121.584 l
203.653 126.997 l
205.049 132.573 l
205.893 138.259 l
206.175 144 l
stroke
grestore
gsave
223.2 223.2 36 32.4 clipbox
219.339 144 m
218.994 151.032 l
217.961 157.996 l
216.25 164.825 l
213.878 171.453 l
210.868 177.818 l
207.249 183.856 l
203.055 189.511 l
198.327 194.727 l
193.111 199.455 l
187.456 203.649 l
181.418 207.268 l
175.053 210.278 l
168.425 212.65 l
161.596 214.361 l
154.632 215.394 l
147.6 215.739 l
140.568 215.394 l
133.604 214.361 l
126.775 212.65 l
120.147 210.278 l
113.782 207.268 l
107.744 203.649 l
102.089 199.455 l
96.8727 194.727 l
92.1449 189.511 l
87.951 183.856 l
84.3317 177.818 l
81.3216 171.453 l
78.9499 164.825 l
77.2393 157.996 l
76.2062 151.032 l
75.8608 144 l
76.2062 136.968 l
77.2393 130.004 l
78.9499 123.175 l
81.3216 116.547 l
84.3317 110.182 l
87.951 104.144 l
92.1449 98.4891 l
96.8727 93.2727 l
102.089 88.5449 l
107.744 84.351 l
113.782 80.7317 l
120.147 77.7216 l
126.775 75.3499 l
133.604 73.6393 l
140.568 72.6062 l
147.6 72.2608 l
154.632 72.6062 l
161.596 73.6393 l
168.425 75.3499 l
175.053 77.7216 l
181.418 80.7317 l
187.456 84.351 l
193.111 88.5449 l
198.327 93.2727 l
203.055 98.4891 l
207.249 104.144 l
210.868 110.182 l
213.878 116.547 l
216.25 123.175 l
217.961 130.004 l
218.994 136.968 l
219.339 144 l
stroke
grestore
gsave
223.2 223.2 36 32.4 clipbox
189.019 144 m
188.819 148.06 l
188.223 152.08 l
187.235 156.023 l
185.866 159.85 l
184.128 163.525 l
182.038 167.011 l
179.617 170.276 l
176.887 173.287 l
173.876 176.017 l
170.611 178.438 l
167.125 180.528 l
163.45 182.266 l
159.623 183.635 l
155.68 184.623 l
151.66 185.219 l
147.6 185.419 l
143.54 185.219 l
139.52 184.623 l
135.577 183.635 l
131.75 182.266 l
128.075 180.528 l
124.589 178.438 l
121.324 176.017 l
118.313 173.287 l
115.583 170.276 l
113.162 167.011 l
111.072 163.525 l
109.334 159.85 l
107.965 156.023 l
106.977 152.08 l
106.381 148.06 l
106.181 144 l
106.381 139.94 l
106.977 135.92 l
107.965 131.977 l
109.334 128.15 l
111.072 124.475 l
113.162 120.989 l
115.583 117.724 l
118.313 114.713 l
121.324 111.983 l
124.589 109.562 l
128.075 107.472 l
131.75 105.734 l
135.577 104.365 l
139.52 103.377 l
143.54 102.781 l
147.6 102.581 l
151.66 102.781 l
155.68 103.377 l
159.623 104.365 l
163.45 105.734 l
167.125 107.472 l
170.611 109.562 l
173.876 111.983 l
176.887 114.713 l
179.617 117.724 l
182.038 120.989 l
184.128 124.475 l
185.866 128.15 l
187.235 131.977 l
188.223 135.92 l
188.819 139.94 l
189.019 144 l
stroke
grestore
0.000 0.500 0.000 setrgbcolor
gsave
223.2 223.2 36 32.4 clipbox
181.418 144 m
181.255 147.315 l
180.768 150.598 l
179.962 153.817 l
178.844 156.942 l
177.425 159.942 l
175.719 162.788 l
173.742 165.454 l
171.513 167.913 l
169.054 170.142 l
166.388 172.119 l
163.542 173.825 l
160.542 175.244 l
157.417 176.362 l
154.198 177.168 l
150.915 177.655 l
147.6 177.818 l
144.285 177.655 l
141.002 177.168 l
137.783 176.362 l
134.658 175.244 l
131.658 173.825 l
128.812 172.119 l
126.146 170.142 l
123.687 167.913 l
121.458 165.454 l
119.481 162.788 l
117.775 159.942 l
116.356 156.942 l
115.238 153.817 l
114.432 150.598 l
113.945 147.315 l
113.782 144 l
113.945 140.685 l
114.432 137.402 l
115.238 134.183 l
116.356 131.058 l
117.775 128.058 l
119.481 125.212 l
121.458 122.546 l
123.687 120.087 l
126.146 117.858 l
128.812 115.881 l
131.658 114.175 l
134.658 112.756 l
137.783 111.638 l
141.002 110.832 l
144.285 110.345 l
147.6 110.182 l
150.915 110.345 l
154.198 110.832 l
157.417 111.638 l
160.542 112.756 l
163.542 114.175 l
166.388 115.881 l
169.054 117.858 l
171.513 120.087 l
173.742 122.546 l
175.719 125.212 l
177.425 128.058 l
178.844 131.058 l
179.962 134.183 l
180.768 137.402 l
181.255 140.685 l
181.418 144 l
stroke
grestore
0.500 setlinewidth
0 setlinecap
0.000 setgray
gsave
/o {
gsave
newpath
translate
0.5 setlinewidth
1 setlinejoin
0 setlinecap
0 0 m
0 4 l
gsave
0.000 setgray
fill
grestore
stroke
grestore
} bind def
46.1455 32.4 o
grestore
gsave
/o {
gsave
newpath
translate
0.5 setlinewidth
1 setlinejoin
0 setlinecap
0 0 m
0 -4 l
gsave
0.000 setgray
fill
grestore
stroke
grestore
} bind def
46.1455 255.6 o
grestore
/BitstreamVeraSans-Roman findfont
9.000 scalefont
setfont
gsave
35.989205 21.587500 translate
0.000000 rotate
0.000000 0.125000 m /minus glyphshow
7.541016 0.125000 m /one glyphshow
13.267090 0.125000 m /period glyphshow
16.127930 0.125000 m /zero glyphshow
grestore
gsave
/o {
gsave
newpath
translate
0.5 setlinewidth
1 setlinejoin
0 setlinecap
0 0 m
0 4 l
gsave
0.000 setgray
fill
grestore
stroke
grestore
} bind def
96.8727 32.4 o
grestore
gsave
/o {
gsave
newpath
translate
0.5 setlinewidth
1 setlinejoin
0 setlinecap
0 0 m
0 -4 l
gsave
0.000 setgray
fill
grestore
stroke
grestore
} bind def
96.8727 255.6 o
grestore
gsave
86.810227 21.587500 translate
0.000000 rotate
0.000000 0.125000 m /minus glyphshow
7.541016 0.125000 m /zero glyphshow
13.267090 0.125000 m /period glyphshow
16.127930 0.125000 m /five glyphshow
grestore
gsave
/o {
gsave
newpath
translate
0.5 setlinewidth
1 setlinejoin
0 setlinecap
0 0 m
0 4 l
gsave
0.000 setgray
fill
grestore
stroke
grestore
} bind def
147.6 32.4 o
grestore
gsave
/o {
gsave
newpath
translate
0.5 setlinewidth
1 setlinejoin
0 setlinecap
0 0 m
0 -4 l
gsave
0.000 setgray
fill
grestore
stroke
grestore
} bind def
147.6 255.6 o
grestore
gsave
141.037500 21.587500 translate
0.000000 rotate
0.000000 0.125000 m /zero glyphshow
5.726074 0.125000 m /period glyphshow
8.586914 0.125000 m /zero glyphshow
grestore
gsave
/o {
gsave
newpath
translate
0.5 setlinewidth
1 setlinejoin
0 setlinecap
0 0 m
0 4 l
gsave
0.000 setgray
fill
grestore
stroke
grestore
} bind def
198.327 32.4 o
grestore
gsave
/o {
gsave
newpath
translate
0.5 setlinewidth
1 setlinejoin
0 setlinecap
0 0 m
0 -4 l
gsave
0.000 setgray
fill
grestore
stroke
grestore
} bind def
198.327 255.6 o
grestore
gsave
191.858523 21.587500 translate
0.000000 rotate
0.000000 0.125000 m /zero glyphshow
5.726074 0.125000 m /period glyphshow
8.586914 0.125000 m /five glyphshow
grestore
gsave
/o {
gsave
newpath
translate
0.5 setlinewidth
1 setlinejoin
0 setlinecap
0 0 m
0 4 l
gsave
0.000 setgray
fill
grestore
stroke
grestore
} bind def
249.055 32.4 o
grestore
gsave
/o {
gsave
newpath
translate
0.5 setlinewidth
1 setlinejoin
0 setlinecap
0 0 m
0 -4 l
gsave
0.000 setgray
fill
grestore
stroke
grestore
} bind def
249.055 255.6 o
grestore
gsave
242.687358 21.587500 translate
0.000000 rotate
0.000000 0.125000 m /one glyphshow
5.726074 0.125000 m /period glyphshow
8.586914 0.125000 m /zero glyphshow
grestore
gsave
/o {
gsave
newpath
translate
0.5 setlinewidth
1 setlinejoin
0 setlinecap
0 0 m
4 0 l
gsave
0.000 setgray
fill
grestore
stroke
grestore
} bind def
36 42.5455 o
grestore
gsave
/o {
gsave
newpath
translate
0.5 setlinewidth
1 setlinejoin
0 setlinecap
0 0 m
-4 0 l
gsave
0.000 setgray
fill
grestore
stroke
grestore
} bind def
259.2 42.5455 o
grestore
gsave
11.687500 39.139205 translate
0.000000 rotate
0.000000 0.125000 m /minus glyphshow
7.541016 0.125000 m /one glyphshow
13.267090 0.125000 m /period glyphshow
16.127930 0.125000 m /zero glyphshow
grestore
gsave
/o {
gsave
newpath
translate
0.5 setlinewidth
1 setlinejoin
0 setlinecap
0 0 m
4 0 l
gsave
0.000 setgray
fill
grestore
stroke
grestore
} bind def
36 93.2727 o
grestore
gsave
/o {
gsave
newpath
translate
0.5 setlinewidth
1 setlinejoin
0 setlinecap
0 0 m
-4 0 l
gsave
0.000 setgray
fill
grestore
stroke
grestore
} bind def
259.2 93.2727 o
grestore
gsave
11.875000 89.866477 translate
0.000000 rotate
0.000000 0.125000 m /minus glyphshow
7.541016 0.125000 m /zero glyphshow
13.267090 0.125000 m /period glyphshow
16.127930 0.125000 m /five glyphshow
grestore
gsave
/o {
gsave
newpath
translate
0.5 setlinewidth
1 setlinejoin
0 setlinecap
0 0 m
4 0 l
gsave
0.000 setgray
fill
grestore
stroke
grestore
} bind def
36 144 o
grestore
gsave
/o {
gsave
newpath
translate
0.5 setlinewidth
1 setlinejoin
0 setlinecap
0 0 m
-4 0 l
gsave
0.000 setgray
fill
grestore
stroke
grestore
} bind def
259.2 144 o
grestore
gsave
18.875000 140.593750 translate
0.000000 rotate
0.000000 0.125000 m /zero glyphshow
5.726074 0.125000 m /period glyphshow
8.586914 0.125000 m /zero glyphshow
grestore
gsave
/o {
gsave
newpath
translate
0.5 setlinewidth
1 setlinejoin
0 setlinecap
0 0 m
4 0 l
gsave
0.000 setgray
fill
grestore
stroke
grestore
} bind def
36 194.727 o
grestore
gsave
/o {
gsave
newpath
translate
0.5 setlinewidth
1 setlinejoin
0 setlinecap
0 0 m
-4 0 l
gsave
0.000 setgray
fill
grestore
stroke
grestore
} bind def
259.2 194.727 o
grestore
gsave
19.062500 191.321023 translate
0.000000 rotate
0.000000 0.125000 m /zero glyphshow
5.726074 0.125000 m /period glyphshow
8.586914 0.125000 m /five glyphshow
grestore
gsave
/o {
gsave
newpath
translate
0.5 setlinewidth
1 setlinejoin
0 setlinecap
0 0 m
4 0 l
gsave
0.000 setgray
fill
grestore
stroke
grestore
} bind def
36 245.455 o
grestore
gsave
/o {
gsave
newpath
translate
0.5 setlinewidth
1 setlinejoin
0 setlinecap
0 0 m
-4 0 l
gsave
0.000 setgray
fill
grestore
stroke
grestore
} bind def
259.2 245.455 o
grestore
gsave
19.265625 242.048295 translate
0.000000 rotate
0.000000 0.125000 m /one glyphshow
5.726074 0.125000 m /period glyphshow
8.586914 0.125000 m /zero glyphshow
grestore
1.000 setlinewidth
2 setlinecap
gsave
36 255.6 m
259.2 255.6 l
stroke
grestore
gsave
259.2 32.4 m
259.2 255.6 l
stroke
grestore
gsave
36 32.4 m
259.2 32.4 l
stroke
grestore
gsave
36 32.4 m
36 255.6 l
stroke
grestore

end
showpage
