%!PS-Adobe-3.0 EPSF-3.0
%%Title: ../../thesis/images/4l_2d_entangled//EF.eps
%%Creator: matplotlib version 1.2.1, http://matplotlib.org/
%%CreationDate: Mon May 20 13:29:33 2013
%%Orientation: portrait
%%BoundingBox: 162 252 450 540
%%EndComments
%%BeginProlog
/mpldict 8 dict def
mpldict begin
/m { moveto } bind def
/l { lineto } bind def
/r { rlineto } bind def
/c { curveto } bind def
/cl { closepath } bind def
/box {
m
1 index 0 r
0 exch r
neg 0 r
cl
} bind def
/clipbox {
box
clip
newpath
} bind def
%!PS-Adobe-3.0 Resource-Font
%%Title: Bitstream Vera Sans
%%Copyright: Copyright (c) 2003 by Bitstream, Inc. All Rights Reserved.
%%Creator: Converted from TrueType to type 3 by PPR
25 dict begin
/_d{bind def}bind def
/_m{moveto}_d
/_l{lineto}_d
/_cl{closepath eofill}_d
/_c{curveto}_d
/_sc{7 -1 roll{setcachedevice}{pop pop pop pop pop pop}ifelse}_d
/_e{exec}_d
/FontName /BitstreamVeraSans-Roman def
/PaintType 0 def
/FontMatrix[.001 0 0 .001 0 0]def
/FontBBox[-183 -236 1287 928]def
/FontType 3 def
/Encoding [ /period /zero /one /five /minus ] def
/FontInfo 10 dict dup begin
/FamilyName (Bitstream Vera Sans) def
/FullName (Bitstream Vera Sans) def
/Notice (Copyright (c) 2003 by Bitstream, Inc. All Rights Reserved. Bitstream Vera is a trademark of Bitstream, Inc.) def
/Weight (Roman) def
/Version (Release 1.10) def
/ItalicAngle 0.0 def
/isFixedPitch false def
/UnderlinePosition -213 def
/UnderlineThickness 143 def
end readonly def
/CharStrings 5 dict dup begin
/period{318 0 107 0 210 124 _sc
107 124 _m
210 124 _l
210 0 _l
107 0 _l
107 124 _l
_cl}_d
/zero{636 0 66 -13 570 742 _sc
318 664 _m
267 664 229 639 203 589 _c
177 539 165 464 165 364 _c
165 264 177 189 203 139 _c
229 89 267 64 318 64 _c
369 64 407 89 433 139 _c
458 189 471 264 471 364 _c
471 464 458 539 433 589 _c
407 639 369 664 318 664 _c
318 742 _m
399 742 461 709 505 645 _c
548 580 570 486 570 364 _c
570 241 548 147 505 83 _c
461 19 399 -13 318 -13 _c
236 -13 173 19 130 83 _c
87 147 66 241 66 364 _c
66 486 87 580 130 645 _c
173 709 236 742 318 742 _c
_cl}_d
/one{636 0 110 0 544 729 _sc
124 83 _m
285 83 _l
285 639 _l
110 604 _l
110 694 _l
284 729 _l
383 729 _l
383 83 _l
544 83 _l
544 0 _l
124 0 _l
124 83 _l
_cl}_d
/five{{636 0 77 -13 549 729 _sc
108 729 _m
495 729 _l
495 646 _l
198 646 _l
198 467 _l
212 472 227 476 241 478 _c
255 480 270 482 284 482 _c
365 482 429 459 477 415 _c
525 370 549 310 549 234 _c
549 155 524 94 475 51 _c
426 8 357 -13 269 -13 _c
238 -13 207 -10 175 -6 _c
143 -1 111 6 77 17 _c
77 116 _l
106 100 136 88 168 80 _c
199 72 232 69 267 69 _c
}_e{323 69 368 83 401 113 _c
433 143 450 183 450 234 _c
450 284 433 324 401 354 _c
368 384 323 399 267 399 _c
241 399 214 396 188 390 _c
162 384 135 375 108 363 _c
108 729 _l
_cl}_e}_d
/minus{838 0 106 272 732 355 _sc
106 355 _m
732 355 _l
732 272 _l
106 272 _l
106 355 _l
_cl}_d
end readonly def

/BuildGlyph
 {exch begin
 CharStrings exch
 2 copy known not{pop /.notdef}if
 true 3 1 roll get exec
 end}_d

/BuildChar {
 1 index /Encoding get exch get
 1 index /BuildGlyph get exec
}_d

FontName currentdict end definefont pop
end
%%EndProlog
mpldict begin
162 252 translate
288 288 0 0 clipbox
gsave
0 0 m
288 0 l
288 288 l
0 288 l
cl
1.000 setgray
fill
grestore
gsave
36 32.4 m
259.2 32.4 l
259.2 255.6 l
36 255.6 l
cl
1.000 setgray
fill
grestore
2.000 setlinewidth
1 setlinejoin
2 setlinecap
[] 0 setdash
0.000 0.000 1.000 setrgbcolor
gsave
223.2 223.2 36 32.4 clipbox
189.019 144 m
189.019 144.508 l
189.019 145.017 l
189.019 145.526 l
189.019 146.035 l
189.019 146.545 l
189.019 147.055 l
189.019 147.567 l
189.019 148.079 l
189.019 148.593 l
189.019 149.109 l
189.019 149.625 l
189.019 150.144 l
189.019 150.664 l
189.019 151.187 l
189.019 151.712 l
189.019 152.239 l
189.019 152.768 l
189.019 153.301 l
189.019 153.836 l
189.019 154.375 l
189.019 154.917 l
189.019 155.462 l
189.019 156.011 l
189.019 156.564 l
189.019 157.121 l
189.019 157.683 l
189.019 158.249 l
189.019 158.82 l
189.019 159.396 l
189.019 159.977 l
189.019 160.564 l
189.019 161.156 l
189.019 161.755 l
189.019 162.36 l
189.019 162.971 l
189.019 163.59 l
189.019 164.215 l
189.019 164.848 l
189.019 165.489 l
189.019 166.139 l
189.019 166.797 l
189.019 167.463 l
189.019 168.14 l
189.019 168.825 l
189.019 169.522 l
189.019 170.228 l
189.019 170.946 l
189.019 171.675 l
189.019 172.416 l
189.019 173.17 l
189.019 173.937 l
189.019 174.718 l
189.019 175.513 l
189.019 176.324 l
189.019 177.149 l
189.019 177.992 l
189.019 178.851 l
189.019 179.728 l
189.019 180.624 l
189.019 181.54 l
189.019 182.476 l
189.019 183.434 l
189.019 184.415 l
189.019 185.419 l
189.019 186.448 l
189.019 187.503 l
189.019 188.586 l
189.019 189.699 l
189.019 190.841 l
189.019 192.016 l
189.019 193.225 l
189.019 194.469 l
189.019 195.751 l
189.019 197.073 l
189.019 198.438 l
189.019 199.847 l
189.019 201.303 l
188.798 202.497 l
187.39 201.996 l
186.025 201.507 l
184.701 201.028 l
183.416 200.559 l
182.168 200.101 l
180.956 199.651 l
179.778 199.211 l
178.632 198.78 l
177.518 198.357 l
176.433 197.942 l
175.376 197.534 l
174.346 197.135 l
173.342 196.742 l
172.363 196.356 l
171.407 195.977 l
170.474 195.604 l
169.563 195.237 l
168.673 194.876 l
167.804 194.521 l
166.953 194.17 l
166.121 193.826 l
165.306 193.486 l
164.509 193.151 l
163.728 192.821 l
162.963 192.496 l
162.214 192.174 l
161.478 191.858 l
160.757 191.545 l
160.05 191.235 l
159.355 190.93 l
158.673 190.628 l
158.004 190.329 l
157.346 190.034 l
156.699 189.743 l
156.063 189.454 l
155.437 189.168 l
154.822 188.885 l
154.216 188.604 l
153.62 188.327 l
153.033 188.052 l
152.455 187.779 l
151.885 187.509 l
151.324 187.24 l
150.77 186.975 l
150.224 186.711 l
149.685 186.449 l
149.154 186.189 l
148.629 185.93 l
148.111 185.674 l
147.6 185.419 l
147.095 185.165 l
146.596 184.913 l
146.102 184.663 l
145.615 184.414 l
145.132 184.166 l
144.655 183.919 l
144.183 183.674 l
143.717 183.429 l
143.254 183.186 l
142.797 182.943 l
142.344 182.701 l
141.895 182.461 l
141.45 182.22 l
141.01 181.981 l
140.573 181.742 l
140.14 181.504 l
139.711 181.266 l
139.285 181.029 l
138.863 180.792 l
138.443 180.555 l
138.028 180.319 l
137.615 180.082 l
137.205 179.846 l
136.798 179.61 l
136.393 179.374 l
135.992 179.139 l
135.593 178.903 l
135.196 178.667 l
134.802 178.43 l
134.41 178.194 l
134.02 177.957 l
133.633 177.72 l
133.247 177.482 l
132.864 177.244 l
132.482 177.006 l
132.103 176.766 l
131.725 176.527 l
131.348 176.286 l
130.974 176.045 l
130.601 175.803 l
130.229 175.56 l
129.859 175.317 l
129.491 175.072 l
129.124 174.826 l
128.758 174.579 l
128.393 174.331 l
128.029 174.082 l
127.667 173.832 l
127.306 173.58 l
126.946 173.327 l
126.587 173.072 l
126.229 172.816 l
125.872 172.558 l
125.516 172.299 l
125.16 172.037 l
124.806 171.774 l
124.453 171.51 l
124.1 171.243 l
123.748 170.974 l
123.397 170.703 l
123.047 170.431 l
122.698 170.155 l
122.349 169.878 l
122.002 169.598 l
121.655 169.316 l
121.309 169.031 l
120.964 168.744 l
120.619 168.454 l
120.276 168.161 l
119.933 167.866 l
119.591 167.567 l
119.25 167.266 l
118.91 166.962 l
118.572 166.654 l
118.234 166.343 l
117.897 166.029 l
117.562 165.711 l
117.228 165.39 l
116.895 165.066 l
116.564 164.737 l
116.234 164.406 l
115.906 164.07 l
115.58 163.73 l
115.255 163.387 l
114.933 163.039 l
114.613 162.687 l
114.294 162.331 l
113.979 161.971 l
113.665 161.606 l
113.355 161.237 l
113.047 160.864 l
112.743 160.486 l
112.442 160.103 l
112.145 159.716 l
111.851 159.324 l
111.561 158.928 l
111.276 158.526 l
110.995 158.12 l
110.719 157.709 l
110.448 157.293 l
110.182 156.873 l
109.922 156.447 l
109.668 156.017 l
109.42 155.582 l
109.179 155.142 l
108.944 154.697 l
108.717 154.248 l
108.497 153.795 l
108.286 153.337 l
108.082 152.874 l
107.888 152.407 l
107.702 151.936 l
107.525 151.461 l
107.358 150.983 l
107.201 150.5 l
107.055 150.014 l
106.918 149.525 l
106.793 149.033 l
106.678 148.538 l
106.576 148.041 l
106.484 147.541 l
106.404 147.039 l
106.336 146.535 l
106.281 146.03 l
106.237 145.523 l
106.206 145.016 l
106.187 144.508 l
106.181 144 l
106.187 143.492 l
106.206 142.984 l
106.237 142.477 l
106.281 141.97 l
106.336 141.465 l
106.404 140.961 l
106.484 140.459 l
106.576 139.959 l
106.678 139.462 l
106.793 138.967 l
106.918 138.475 l
107.055 137.986 l
107.201 137.5 l
107.358 137.017 l
107.525 136.539 l
107.702 136.064 l
107.888 135.593 l
108.082 135.126 l
108.286 134.663 l
108.497 134.205 l
108.717 133.752 l
108.944 133.303 l
109.179 132.858 l
109.42 132.418 l
109.668 131.983 l
109.922 131.553 l
110.182 131.127 l
110.448 130.707 l
110.719 130.291 l
110.995 129.88 l
111.276 129.474 l
111.561 129.072 l
111.851 128.676 l
112.145 128.284 l
112.442 127.897 l
112.743 127.514 l
113.047 127.136 l
113.355 126.763 l
113.665 126.394 l
113.979 126.029 l
114.294 125.669 l
114.613 125.313 l
114.933 124.961 l
115.255 124.613 l
115.58 124.27 l
115.906 123.93 l
116.234 123.594 l
116.564 123.263 l
116.895 122.934 l
117.228 122.61 l
117.562 122.289 l
117.897 121.971 l
118.234 121.657 l
118.572 121.346 l
118.91 121.038 l
119.25 120.734 l
119.591 120.433 l
119.933 120.134 l
120.276 119.839 l
120.619 119.546 l
120.964 119.256 l
121.309 118.969 l
121.655 118.684 l
122.002 118.402 l
122.349 118.122 l
122.698 117.845 l
123.047 117.569 l
123.397 117.297 l
123.748 117.026 l
124.1 116.757 l
124.453 116.49 l
124.806 116.226 l
125.16 115.963 l
125.516 115.701 l
125.872 115.442 l
126.229 115.184 l
126.587 114.928 l
126.946 114.673 l
127.306 114.42 l
127.667 114.168 l
128.029 113.918 l
128.393 113.669 l
128.758 113.421 l
129.124 113.174 l
129.491 112.928 l
129.859 112.683 l
130.229 112.44 l
130.601 112.197 l
130.974 111.955 l
131.348 111.714 l
131.725 111.473 l
132.103 111.234 l
132.482 110.994 l
132.864 110.756 l
133.247 110.518 l
133.633 110.28 l
134.02 110.043 l
134.41 109.806 l
134.802 109.57 l
135.196 109.333 l
135.593 109.097 l
135.992 108.861 l
136.393 108.626 l
136.798 108.39 l
137.205 108.154 l
137.615 107.918 l
138.028 107.681 l
138.443 107.445 l
138.863 107.208 l
139.285 106.971 l
139.711 106.734 l
140.14 106.496 l
140.573 106.258 l
141.01 106.019 l
141.45 105.78 l
141.895 105.539 l
142.344 105.299 l
142.797 105.057 l
143.254 104.814 l
143.717 104.571 l
144.183 104.326 l
144.655 104.081 l
145.132 103.834 l
145.615 103.586 l
146.102 103.337 l
146.596 103.087 l
147.095 102.835 l
147.6 102.581 l
148.111 102.326 l
148.629 102.07 l
149.154 101.811 l
149.685 101.551 l
150.224 101.289 l
150.77 101.025 l
151.324 100.76 l
151.885 100.491 l
152.455 100.221 l
153.033 99.9484 l
153.62 99.6732 l
154.216 99.3956 l
154.822 99.1153 l
155.437 98.8321 l
156.063 98.5464 l
156.699 98.2574 l
157.346 97.9656 l
158.004 97.6706 l
158.673 97.372 l
159.355 97.0702 l
160.05 96.7647 l
160.757 96.4555 l
161.478 96.1424 l
162.214 95.8255 l
162.963 95.504 l
163.728 95.1786 l
164.509 94.8486 l
165.306 94.5137 l
166.121 94.174 l
166.953 93.8295 l
167.804 93.4795 l
168.673 93.1241 l
169.563 92.7633 l
170.474 92.3964 l
171.407 92.0233 l
172.363 91.644 l
173.342 91.2582 l
174.346 90.8653 l
175.376 90.4656 l
176.433 90.0581 l
177.518 89.6432 l
178.632 89.2201 l
179.778 88.7888 l
180.956 88.3485 l
182.168 87.8994 l
183.416 87.4408 l
184.701 86.9722 l
186.025 86.4934 l
187.39 86.0037 l
188.798 85.5032 l
189.019 86.6968 l
189.019 88.1534 l
189.019 89.5624 l
189.019 90.9269 l
189.019 92.2489 l
189.019 93.5311 l
189.019 94.7755 l
189.019 95.9842 l
189.019 97.1588 l
189.019 98.3014 l
189.019 99.4135 l
189.019 100.497 l
189.019 101.552 l
189.019 102.581 l
189.019 103.585 l
189.019 104.566 l
189.019 105.524 l
189.019 106.46 l
189.019 107.376 l
189.019 108.272 l
189.019 109.149 l
189.019 110.008 l
189.019 110.851 l
189.019 111.676 l
189.019 112.487 l
189.019 113.282 l
189.019 114.063 l
189.019 114.83 l
189.019 115.584 l
189.019 116.325 l
189.019 117.054 l
189.019 117.772 l
189.019 118.478 l
189.019 119.175 l
189.019 119.86 l
189.019 120.537 l
189.019 121.203 l
189.019 121.861 l
189.019 122.511 l
189.019 123.152 l
189.019 123.785 l
189.019 124.41 l
189.019 125.029 l
189.019 125.64 l
189.019 126.245 l
189.019 126.844 l
189.019 127.436 l
189.019 128.023 l
189.019 128.604 l
189.019 129.18 l
189.019 129.751 l
189.019 130.317 l
189.019 130.879 l
189.019 131.436 l
189.019 131.989 l
189.019 132.538 l
189.019 133.083 l
189.019 133.625 l
189.019 134.164 l
189.019 134.699 l
189.019 135.232 l
189.019 135.761 l
189.019 136.288 l
189.019 136.813 l
189.019 137.336 l
189.019 137.856 l
189.019 138.375 l
189.019 138.891 l
189.019 139.407 l
189.019 139.921 l
189.019 140.433 l
189.019 140.945 l
189.019 141.455 l
189.019 141.965 l
189.019 142.474 l
189.019 142.983 l
189.019 143.492 l
189.019 144 l
cl
gsave
0.500 0.500 1.000 setrgbcolor
fill
grestore
stroke
grestore
1.000 setlinewidth
0.000 setgray
gsave
223.2 223.2 36 32.4 clipbox
189.019 144 m
188.978 144.508 l
188.978 145.016 l
188.978 145.524 l
188.898 146.029 l
188.898 146.537 l
188.816 147.04 l
188.736 147.542 l
188.655 148.044 l
188.493 148.535 l
188.412 149.034 l
188.25 149.521 l
188.169 150.018 l
188.008 150.502 l
187.846 150.983 l
187.684 151.463 l
187.522 151.941 l
187.279 152.4 l
187.118 152.874 l
186.875 153.327 l
186.713 153.797 l
186.471 154.245 l
186.228 154.69 l
185.985 155.132 l
185.742 155.57 l
185.5 156.007 l
185.257 156.44 l
185.015 156.871 l
184.772 157.3 l
184.448 157.697 l
184.206 158.12 l
183.963 158.542 l
183.639 158.928 l
183.316 159.31 l
183.073 159.724 l
182.749 160.1 l
182.426 160.471 l
182.183 160.879 l
181.859 161.245 l
181.536 161.607 l
181.212 161.966 l
180.889 162.322 l
180.565 162.674 l
180.242 163.024 l
179.918 163.371 l
179.594 163.714 l
179.271 164.055 l
178.947 164.394 l
178.624 164.729 l
178.3 165.063 l
177.977 165.394 l
177.653 165.722 l
177.329 166.049 l
177.006 166.373 l
176.601 166.633 l
176.278 166.952 l
175.954 167.27 l
175.631 167.586 l
175.307 167.9 l
174.902 168.142 l
174.579 168.452 l
174.255 168.761 l
173.851 168.993 l
173.527 169.299 l
173.204 169.604 l
172.88 169.908 l
172.476 170.128 l
172.152 170.43 l
171.828 170.732 l
171.424 170.943 l
171.1 171.243 l
170.777 171.545 l
170.372 171.748 l
170.049 172.049 l
169.644 172.247 l
169.321 172.548 l
168.997 172.85 l
168.592 173.043 l
168.239 173.306 l
167.922 173.621 l
167.525 173.82 l
167.201 174.129 l
166.802 174.323 l
166.471 174.625 l
166.07 174.815 l
165.732 175.11 l
165.328 175.295 l
164.984 175.584 l
164.579 175.765 l
164.227 176.047 l
163.872 176.327 l
163.462 176.5 l
163.101 176.774 l
162.735 177.044 l
162.321 177.21 l
161.949 177.474 l
161.574 177.735 l
161.194 177.993 l
160.773 178.149 l
160.387 178.401 l
159.998 178.65 l
159.605 178.896 l
159.208 179.138 l
158.808 179.377 l
158.403 179.613 l
157.995 179.846 l
157.584 180.076 l
157.168 180.303 l
156.749 180.526 l
156.327 180.747 l
155.921 181.054 l
155.49 181.268 l
155.055 181.479 l
154.633 181.774 l
154.19 181.978 l
153.743 182.178 l
153.305 182.463 l
152.862 182.743 l
152.402 182.932 l
151.948 183.205 l
151.479 183.387 l
151.015 183.651 l
150.544 183.911 l
150.068 184.166 l
149.586 184.417 l
149.098 184.664 l
148.604 184.907 l
148.105 185.145 l
147.6 185.419 l
147.095 185.165 l
146.596 184.913 l
146.102 184.663 l
145.615 184.414 l
145.132 184.166 l
144.655 183.919 l
144.183 183.674 l
143.717 183.429 l
143.254 183.186 l
142.797 182.943 l
142.344 182.701 l
141.895 182.461 l
141.45 182.22 l
141.01 181.981 l
140.573 181.742 l
140.14 181.504 l
139.711 181.266 l
139.285 181.029 l
138.863 180.792 l
138.443 180.555 l
138.028 180.319 l
137.615 180.082 l
137.205 179.846 l
136.798 179.61 l
136.393 179.374 l
135.992 179.139 l
135.593 178.903 l
135.196 178.667 l
134.802 178.43 l
134.41 178.194 l
134.02 177.957 l
133.633 177.72 l
133.247 177.482 l
132.864 177.244 l
132.482 177.006 l
132.103 176.766 l
131.725 176.527 l
131.348 176.286 l
130.974 176.045 l
130.601 175.803 l
130.229 175.56 l
129.859 175.317 l
129.491 175.072 l
129.124 174.826 l
128.758 174.579 l
128.393 174.331 l
128.029 174.082 l
127.667 173.832 l
127.306 173.58 l
126.946 173.327 l
126.587 173.072 l
126.229 172.816 l
125.872 172.558 l
125.516 172.299 l
125.16 172.037 l
124.806 171.774 l
124.453 171.51 l
124.1 171.243 l
123.748 170.974 l
123.397 170.703 l
123.047 170.431 l
122.698 170.155 l
122.349 169.878 l
122.002 169.598 l
121.655 169.316 l
121.309 169.031 l
120.964 168.744 l
120.619 168.454 l
120.276 168.161 l
119.933 167.866 l
119.591 167.567 l
119.25 167.266 l
118.91 166.962 l
118.572 166.654 l
118.234 166.343 l
117.897 166.029 l
117.562 165.711 l
117.228 165.39 l
116.895 165.066 l
116.564 164.737 l
116.234 164.406 l
115.906 164.07 l
115.58 163.73 l
115.255 163.387 l
114.933 163.039 l
114.613 162.687 l
114.294 162.331 l
113.979 161.971 l
113.665 161.606 l
113.355 161.237 l
113.047 160.864 l
112.743 160.486 l
112.442 160.103 l
112.145 159.716 l
111.851 159.324 l
111.561 158.928 l
111.276 158.526 l
110.995 158.12 l
110.719 157.709 l
110.448 157.293 l
110.182 156.873 l
109.922 156.447 l
109.668 156.017 l
109.42 155.582 l
109.179 155.142 l
108.944 154.697 l
108.717 154.248 l
108.497 153.795 l
108.286 153.337 l
108.082 152.874 l
107.888 152.407 l
107.702 151.936 l
107.525 151.461 l
107.358 150.983 l
107.201 150.5 l
107.055 150.014 l
106.918 149.525 l
106.793 149.033 l
106.678 148.538 l
106.576 148.041 l
106.484 147.541 l
106.404 147.039 l
106.336 146.535 l
106.281 146.03 l
106.237 145.523 l
106.206 145.016 l
106.187 144.508 l
106.181 144 l
106.187 143.492 l
106.206 142.984 l
106.237 142.477 l
106.281 141.97 l
106.336 141.465 l
106.404 140.961 l
106.484 140.459 l
106.576 139.959 l
106.678 139.462 l
106.793 138.967 l
106.918 138.475 l
107.055 137.986 l
107.201 137.5 l
107.358 137.017 l
107.525 136.539 l
107.702 136.064 l
107.888 135.593 l
108.082 135.126 l
108.286 134.663 l
108.497 134.205 l
108.717 133.752 l
108.944 133.303 l
109.179 132.858 l
109.42 132.418 l
109.668 131.983 l
109.922 131.553 l
110.182 131.127 l
110.448 130.707 l
110.719 130.291 l
110.995 129.88 l
111.276 129.474 l
111.561 129.072 l
111.851 128.676 l
112.145 128.284 l
112.442 127.897 l
112.743 127.514 l
113.047 127.136 l
113.355 126.763 l
113.665 126.394 l
113.979 126.029 l
114.294 125.669 l
114.613 125.313 l
114.933 124.961 l
115.255 124.613 l
115.58 124.27 l
115.906 123.93 l
116.234 123.594 l
116.564 123.263 l
116.895 122.934 l
117.228 122.61 l
117.562 122.289 l
117.897 121.971 l
118.234 121.657 l
118.572 121.346 l
118.91 121.038 l
119.25 120.734 l
119.591 120.433 l
119.933 120.134 l
120.276 119.839 l
120.619 119.546 l
120.964 119.256 l
121.309 118.969 l
121.655 118.684 l
122.002 118.402 l
122.349 118.122 l
122.698 117.845 l
123.047 117.569 l
123.397 117.297 l
123.748 117.026 l
124.1 116.757 l
124.453 116.49 l
124.806 116.226 l
125.16 115.963 l
125.516 115.701 l
125.872 115.442 l
126.229 115.184 l
126.587 114.928 l
126.946 114.673 l
127.306 114.42 l
127.667 114.168 l
128.029 113.918 l
128.393 113.669 l
128.758 113.421 l
129.124 113.174 l
129.491 112.928 l
129.859 112.683 l
130.229 112.44 l
130.601 112.197 l
130.974 111.955 l
131.348 111.714 l
131.725 111.473 l
132.103 111.234 l
132.482 110.994 l
132.864 110.756 l
133.247 110.518 l
133.633 110.28 l
134.02 110.043 l
134.41 109.806 l
134.802 109.57 l
135.196 109.333 l
135.593 109.097 l
135.992 108.861 l
136.393 108.626 l
136.798 108.39 l
137.205 108.154 l
137.615 107.918 l
138.028 107.681 l
138.443 107.445 l
138.863 107.208 l
139.285 106.971 l
139.711 106.734 l
140.14 106.496 l
140.573 106.258 l
141.01 106.019 l
141.45 105.78 l
141.895 105.539 l
142.344 105.299 l
142.797 105.057 l
143.254 104.814 l
143.717 104.571 l
144.183 104.326 l
144.655 104.081 l
145.132 103.834 l
145.615 103.586 l
146.102 103.337 l
146.596 103.087 l
147.095 102.835 l
147.6 102.581 l
148.105 102.855 l
148.604 103.093 l
149.098 103.336 l
149.586 103.583 l
150.068 103.834 l
150.544 104.089 l
151.015 104.349 l
151.479 104.613 l
151.948 104.795 l
152.402 105.068 l
152.862 105.257 l
153.305 105.537 l
153.743 105.822 l
154.19 106.022 l
154.633 106.226 l
155.055 106.521 l
155.49 106.732 l
155.921 106.946 l
156.327 107.253 l
156.749 107.474 l
157.168 107.697 l
157.584 107.924 l
157.995 108.154 l
158.403 108.387 l
158.808 108.623 l
159.208 108.862 l
159.605 109.104 l
159.998 109.35 l
160.387 109.599 l
160.773 109.851 l
161.194 110.007 l
161.574 110.265 l
161.949 110.526 l
162.321 110.79 l
162.735 110.956 l
163.101 111.226 l
163.462 111.5 l
163.872 111.673 l
164.227 111.953 l
164.579 112.235 l
164.984 112.416 l
165.328 112.705 l
165.732 112.89 l
166.07 113.185 l
166.471 113.375 l
166.802 113.677 l
167.201 113.871 l
167.525 114.18 l
167.922 114.379 l
168.239 114.694 l
168.592 114.957 l
168.997 115.15 l
169.321 115.452 l
169.644 115.753 l
170.049 115.951 l
170.372 116.252 l
170.777 116.455 l
171.1 116.757 l
171.424 117.057 l
171.828 117.268 l
172.152 117.57 l
172.476 117.872 l
172.88 118.092 l
173.204 118.396 l
173.527 118.701 l
173.851 119.007 l
174.255 119.239 l
174.579 119.548 l
174.902 119.858 l
175.307 120.1 l
175.631 120.414 l
175.954 120.73 l
176.278 121.048 l
176.601 121.367 l
177.006 121.627 l
177.329 121.951 l
177.653 122.278 l
177.977 122.606 l
178.3 122.937 l
178.624 123.271 l
178.947 123.606 l
179.271 123.945 l
179.594 124.286 l
179.918 124.629 l
180.242 124.976 l
180.565 125.326 l
180.889 125.678 l
181.212 126.034 l
181.536 126.393 l
181.859 126.755 l
182.183 127.121 l
182.426 127.529 l
182.749 127.9 l
183.073 128.276 l
183.316 128.69 l
183.639 129.072 l
183.963 129.458 l
184.206 129.88 l
184.448 130.303 l
184.772 130.7 l
185.015 131.129 l
185.257 131.56 l
185.5 131.993 l
185.742 132.43 l
185.985 132.868 l
186.228 133.31 l
186.471 133.755 l
186.713 134.203 l
186.875 134.673 l
187.118 135.126 l
187.279 135.6 l
187.522 136.059 l
187.684 136.537 l
187.846 137.017 l
188.008 137.498 l
188.169 137.982 l
188.25 138.479 l
188.412 138.966 l
188.493 139.465 l
188.655 139.956 l
188.736 140.458 l
188.816 140.96 l
188.898 141.463 l
188.898 141.971 l
188.978 142.476 l
188.978 142.984 l
188.978 143.492 l
188.978 144 l
cl
gsave
0.500 setgray
fill
grestore
stroke
grestore
1.000 0.000 0.000 setrgbcolor
gsave
223.2 223.2 36 32.4 clipbox
249.055 144 m
248.566 153.944 l
247.105 163.793 l
244.686 173.451 l
241.332 182.825 l
237.075 191.825 l
231.956 200.365 l
226.025 208.362 l
219.339 215.739 l
211.962 222.425 l
203.965 228.356 l
195.425 233.475 l
186.425 237.732 l
177.051 241.086 l
167.393 243.505 l
157.544 244.966 l
147.6 245.455 l
137.656 244.966 l
127.807 243.505 l
118.149 241.086 l
108.775 237.732 l
99.7747 233.475 l
91.2349 228.356 l
83.2379 222.425 l
75.8608 215.739 l
69.1746 208.362 l
63.2436 200.365 l
58.1251 191.825 l
53.8682 182.825 l
50.5141 173.451 l
48.0949 163.793 l
46.634 153.944 l
46.1455 144 l
46.634 134.056 l
48.0949 124.207 l
50.5141 114.549 l
53.8682 105.175 l
58.1251 96.1747 l
63.2436 87.6349 l
69.1746 79.6379 l
75.8608 72.2608 l
83.2379 65.5746 l
91.2349 59.6436 l
99.7747 54.5251 l
108.775 50.2682 l
118.149 46.9141 l
127.807 44.4949 l
137.656 43.034 l
147.6 42.5455 l
157.544 43.034 l
167.393 44.4949 l
177.051 46.9141 l
186.425 50.2682 l
195.425 54.5251 l
203.965 59.6436 l
211.962 65.5746 l
219.339 72.2608 l
226.025 79.6379 l
231.956 87.6349 l
237.075 96.1747 l
241.332 105.175 l
244.686 114.549 l
247.105 124.207 l
248.566 134.056 l
249.055 144 l
stroke
grestore
0.750 0.750 0.000 setrgbcolor
gsave
223.2 223.2 36 32.4 clipbox
206.175 144 m
205.893 149.741 l
205.049 155.427 l
203.653 161.003 l
201.716 166.416 l
199.258 171.612 l
196.303 176.542 l
192.879 181.159 l
189.019 185.419 l
184.759 189.279 l
180.142 192.703 l
175.212 195.658 l
170.016 198.116 l
164.603 200.053 l
159.027 201.449 l
153.341 202.293 l
147.6 202.575 l
141.859 202.293 l
136.173 201.449 l
130.597 200.053 l
125.184 198.116 l
119.988 195.658 l
115.058 192.703 l
110.441 189.279 l
106.181 185.419 l
102.321 181.159 l
98.8968 176.542 l
95.9416 171.612 l
93.4839 166.416 l
91.5474 161.003 l
90.1507 155.427 l
89.3072 149.741 l
89.0252 144 l
89.3072 138.259 l
90.1507 132.573 l
91.5474 126.997 l
93.4839 121.584 l
95.9416 116.388 l
98.8968 111.458 l
102.321 106.841 l
106.181 102.581 l
110.441 98.7211 l
115.058 95.2968 l
119.988 92.3416 l
125.184 89.8839 l
130.597 87.9474 l
136.173 86.5507 l
141.859 85.7072 l
147.6 85.4252 l
153.341 85.7072 l
159.027 86.5507 l
164.603 87.9474 l
170.016 89.8839 l
175.212 92.3416 l
180.142 95.2968 l
184.759 98.7211 l
189.019 102.581 l
192.879 106.841 l
196.303 111.458 l
199.258 116.388 l
201.716 121.584 l
203.653 126.997 l
205.049 132.573 l
205.893 138.259 l
206.175 144 l
stroke
grestore
gsave
223.2 223.2 36 32.4 clipbox
219.339 144 m
218.994 151.032 l
217.961 157.996 l
216.25 164.825 l
213.878 171.453 l
210.868 177.818 l
207.249 183.856 l
203.055 189.511 l
198.327 194.727 l
193.111 199.455 l
187.456 203.649 l
181.418 207.268 l
175.053 210.278 l
168.425 212.65 l
161.596 214.361 l
154.632 215.394 l
147.6 215.739 l
140.568 215.394 l
133.604 214.361 l
126.775 212.65 l
120.147 210.278 l
113.782 207.268 l
107.744 203.649 l
102.089 199.455 l
96.8727 194.727 l
92.1449 189.511 l
87.951 183.856 l
84.3317 177.818 l
81.3216 171.453 l
78.9499 164.825 l
77.2393 157.996 l
76.2062 151.032 l
75.8608 144 l
76.2062 136.968 l
77.2393 130.004 l
78.9499 123.175 l
81.3216 116.547 l
84.3317 110.182 l
87.951 104.144 l
92.1449 98.4891 l
96.8727 93.2727 l
102.089 88.5449 l
107.744 84.351 l
113.782 80.7317 l
120.147 77.7216 l
126.775 75.3499 l
133.604 73.6393 l
140.568 72.6062 l
147.6 72.2608 l
154.632 72.6062 l
161.596 73.6393 l
168.425 75.3499 l
175.053 77.7216 l
181.418 80.7317 l
187.456 84.351 l
193.111 88.5449 l
198.327 93.2727 l
203.055 98.4891 l
207.249 104.144 l
210.868 110.182 l
213.878 116.547 l
216.25 123.175 l
217.961 130.004 l
218.994 136.968 l
219.339 144 l
stroke
grestore
gsave
223.2 223.2 36 32.4 clipbox
189.019 144 m
188.819 148.06 l
188.223 152.08 l
187.235 156.023 l
185.866 159.85 l
184.128 163.525 l
182.038 167.011 l
179.617 170.276 l
176.887 173.287 l
173.876 176.017 l
170.611 178.438 l
167.125 180.528 l
163.45 182.266 l
159.623 183.635 l
155.68 184.623 l
151.66 185.219 l
147.6 185.419 l
143.54 185.219 l
139.52 184.623 l
135.577 183.635 l
131.75 182.266 l
128.075 180.528 l
124.589 178.438 l
121.324 176.017 l
118.313 173.287 l
115.583 170.276 l
113.162 167.011 l
111.072 163.525 l
109.334 159.85 l
107.965 156.023 l
106.977 152.08 l
106.381 148.06 l
106.181 144 l
106.381 139.94 l
106.977 135.92 l
107.965 131.977 l
109.334 128.15 l
111.072 124.475 l
113.162 120.989 l
115.583 117.724 l
118.313 114.713 l
121.324 111.983 l
124.589 109.562 l
128.075 107.472 l
131.75 105.734 l
135.577 104.365 l
139.52 103.377 l
143.54 102.781 l
147.6 102.581 l
151.66 102.781 l
155.68 103.377 l
159.623 104.365 l
163.45 105.734 l
167.125 107.472 l
170.611 109.562 l
173.876 111.983 l
176.887 114.713 l
179.617 117.724 l
182.038 120.989 l
184.128 124.475 l
185.866 128.15 l
187.235 131.977 l
188.223 135.92 l
188.819 139.94 l
189.019 144 l
stroke
grestore
0.000 0.500 0.000 setrgbcolor
gsave
223.2 223.2 36 32.4 clipbox
181.418 144 m
181.255 147.315 l
180.768 150.598 l
179.962 153.817 l
178.844 156.942 l
177.425 159.942 l
175.719 162.788 l
173.742 165.454 l
171.513 167.913 l
169.054 170.142 l
166.388 172.119 l
163.542 173.825 l
160.542 175.244 l
157.417 176.362 l
154.198 177.168 l
150.915 177.655 l
147.6 177.818 l
144.285 177.655 l
141.002 177.168 l
137.783 176.362 l
134.658 175.244 l
131.658 173.825 l
128.812 172.119 l
126.146 170.142 l
123.687 167.913 l
121.458 165.454 l
119.481 162.788 l
117.775 159.942 l
116.356 156.942 l
115.238 153.817 l
114.432 150.598 l
113.945 147.315 l
113.782 144 l
113.945 140.685 l
114.432 137.402 l
115.238 134.183 l
116.356 131.058 l
117.775 128.058 l
119.481 125.212 l
121.458 122.546 l
123.687 120.087 l
126.146 117.858 l
128.812 115.881 l
131.658 114.175 l
134.658 112.756 l
137.783 111.638 l
141.002 110.832 l
144.285 110.345 l
147.6 110.182 l
150.915 110.345 l
154.198 110.832 l
157.417 111.638 l
160.542 112.756 l
163.542 114.175 l
166.388 115.881 l
169.054 117.858 l
171.513 120.087 l
173.742 122.546 l
175.719 125.212 l
177.425 128.058 l
178.844 131.058 l
179.962 134.183 l
180.768 137.402 l
181.255 140.685 l
181.418 144 l
stroke
grestore
0.500 setlinewidth
0 setlinecap
0.000 setgray
gsave
/o {
gsave
newpath
translate
0.5 setlinewidth
1 setlinejoin
0 setlinecap
0 0 m
0 4 l
gsave
0.000 setgray
fill
grestore
stroke
grestore
} bind def
46.1455 32.4 o
grestore
gsave
/o {
gsave
newpath
translate
0.5 setlinewidth
1 setlinejoin
0 setlinecap
0 0 m
0 -4 l
gsave
0.000 setgray
fill
grestore
stroke
grestore
} bind def
46.1455 255.6 o
grestore
/BitstreamVeraSans-Roman findfont
9.000 scalefont
setfont
gsave
35.989205 21.587500 translate
0.000000 rotate
0.000000 0.125000 m /minus glyphshow
7.541016 0.125000 m /one glyphshow
13.267090 0.125000 m /period glyphshow
16.127930 0.125000 m /zero glyphshow
grestore
gsave
/o {
gsave
newpath
translate
0.5 setlinewidth
1 setlinejoin
0 setlinecap
0 0 m
0 4 l
gsave
0.000 setgray
fill
grestore
stroke
grestore
} bind def
96.8727 32.4 o
grestore
gsave
/o {
gsave
newpath
translate
0.5 setlinewidth
1 setlinejoin
0 setlinecap
0 0 m
0 -4 l
gsave
0.000 setgray
fill
grestore
stroke
grestore
} bind def
96.8727 255.6 o
grestore
gsave
86.810227 21.587500 translate
0.000000 rotate
0.000000 0.125000 m /minus glyphshow
7.541016 0.125000 m /zero glyphshow
13.267090 0.125000 m /period glyphshow
16.127930 0.125000 m /five glyphshow
grestore
gsave
/o {
gsave
newpath
translate
0.5 setlinewidth
1 setlinejoin
0 setlinecap
0 0 m
0 4 l
gsave
0.000 setgray
fill
grestore
stroke
grestore
} bind def
147.6 32.4 o
grestore
gsave
/o {
gsave
newpath
translate
0.5 setlinewidth
1 setlinejoin
0 setlinecap
0 0 m
0 -4 l
gsave
0.000 setgray
fill
grestore
stroke
grestore
} bind def
147.6 255.6 o
grestore
gsave
141.037500 21.587500 translate
0.000000 rotate
0.000000 0.125000 m /zero glyphshow
5.726074 0.125000 m /period glyphshow
8.586914 0.125000 m /zero glyphshow
grestore
gsave
/o {
gsave
newpath
translate
0.5 setlinewidth
1 setlinejoin
0 setlinecap
0 0 m
0 4 l
gsave
0.000 setgray
fill
grestore
stroke
grestore
} bind def
198.327 32.4 o
grestore
gsave
/o {
gsave
newpath
translate
0.5 setlinewidth
1 setlinejoin
0 setlinecap
0 0 m
0 -4 l
gsave
0.000 setgray
fill
grestore
stroke
grestore
} bind def
198.327 255.6 o
grestore
gsave
191.858523 21.587500 translate
0.000000 rotate
0.000000 0.125000 m /zero glyphshow
5.726074 0.125000 m /period glyphshow
8.586914 0.125000 m /five glyphshow
grestore
gsave
/o {
gsave
newpath
translate
0.5 setlinewidth
1 setlinejoin
0 setlinecap
0 0 m
0 4 l
gsave
0.000 setgray
fill
grestore
stroke
grestore
} bind def
249.055 32.4 o
grestore
gsave
/o {
gsave
newpath
translate
0.5 setlinewidth
1 setlinejoin
0 setlinecap
0 0 m
0 -4 l
gsave
0.000 setgray
fill
grestore
stroke
grestore
} bind def
249.055 255.6 o
grestore
gsave
242.687358 21.587500 translate
0.000000 rotate
0.000000 0.125000 m /one glyphshow
5.726074 0.125000 m /period glyphshow
8.586914 0.125000 m /zero glyphshow
grestore
gsave
/o {
gsave
newpath
translate
0.5 setlinewidth
1 setlinejoin
0 setlinecap
0 0 m
4 0 l
gsave
0.000 setgray
fill
grestore
stroke
grestore
} bind def
36 42.5455 o
grestore
gsave
/o {
gsave
newpath
translate
0.5 setlinewidth
1 setlinejoin
0 setlinecap
0 0 m
-4 0 l
gsave
0.000 setgray
fill
grestore
stroke
grestore
} bind def
259.2 42.5455 o
grestore
gsave
11.687500 39.139205 translate
0.000000 rotate
0.000000 0.125000 m /minus glyphshow
7.541016 0.125000 m /one glyphshow
13.267090 0.125000 m /period glyphshow
16.127930 0.125000 m /zero glyphshow
grestore
gsave
/o {
gsave
newpath
translate
0.5 setlinewidth
1 setlinejoin
0 setlinecap
0 0 m
4 0 l
gsave
0.000 setgray
fill
grestore
stroke
grestore
} bind def
36 93.2727 o
grestore
gsave
/o {
gsave
newpath
translate
0.5 setlinewidth
1 setlinejoin
0 setlinecap
0 0 m
-4 0 l
gsave
0.000 setgray
fill
grestore
stroke
grestore
} bind def
259.2 93.2727 o
grestore
gsave
11.875000 89.866477 translate
0.000000 rotate
0.000000 0.125000 m /minus glyphshow
7.541016 0.125000 m /zero glyphshow
13.267090 0.125000 m /period glyphshow
16.127930 0.125000 m /five glyphshow
grestore
gsave
/o {
gsave
newpath
translate
0.5 setlinewidth
1 setlinejoin
0 setlinecap
0 0 m
4 0 l
gsave
0.000 setgray
fill
grestore
stroke
grestore
} bind def
36 144 o
grestore
gsave
/o {
gsave
newpath
translate
0.5 setlinewidth
1 setlinejoin
0 setlinecap
0 0 m
-4 0 l
gsave
0.000 setgray
fill
grestore
stroke
grestore
} bind def
259.2 144 o
grestore
gsave
18.875000 140.593750 translate
0.000000 rotate
0.000000 0.125000 m /zero glyphshow
5.726074 0.125000 m /period glyphshow
8.586914 0.125000 m /zero glyphshow
grestore
gsave
/o {
gsave
newpath
translate
0.5 setlinewidth
1 setlinejoin
0 setlinecap
0 0 m
4 0 l
gsave
0.000 setgray
fill
grestore
stroke
grestore
} bind def
36 194.727 o
grestore
gsave
/o {
gsave
newpath
translate
0.5 setlinewidth
1 setlinejoin
0 setlinecap
0 0 m
-4 0 l
gsave
0.000 setgray
fill
grestore
stroke
grestore
} bind def
259.2 194.727 o
grestore
gsave
19.062500 191.321023 translate
0.000000 rotate
0.000000 0.125000 m /zero glyphshow
5.726074 0.125000 m /period glyphshow
8.586914 0.125000 m /five glyphshow
grestore
gsave
/o {
gsave
newpath
translate
0.5 setlinewidth
1 setlinejoin
0 setlinecap
0 0 m
4 0 l
gsave
0.000 setgray
fill
grestore
stroke
grestore
} bind def
36 245.455 o
grestore
gsave
/o {
gsave
newpath
translate
0.5 setlinewidth
1 setlinejoin
0 setlinecap
0 0 m
-4 0 l
gsave
0.000 setgray
fill
grestore
stroke
grestore
} bind def
259.2 245.455 o
grestore
gsave
19.265625 242.048295 translate
0.000000 rotate
0.000000 0.125000 m /one glyphshow
5.726074 0.125000 m /period glyphshow
8.586914 0.125000 m /zero glyphshow
grestore
1.000 setlinewidth
2 setlinecap
gsave
36 255.6 m
259.2 255.6 l
stroke
grestore
gsave
259.2 32.4 m
259.2 255.6 l
stroke
grestore
gsave
36 32.4 m
259.2 32.4 l
stroke
grestore
gsave
36 32.4 m
36 255.6 l
stroke
grestore

end
showpage
