%!PS-Adobe-3.0 EPSF-3.0
%%Title: ../../thesis/images/4l_2d_entangled//FE.eps
%%Creator: matplotlib version 1.2.1, http://matplotlib.org/
%%CreationDate: Mon May 20 13:29:41 2013
%%Orientation: portrait
%%BoundingBox: 162 252 450 540
%%EndComments
%%BeginProlog
/mpldict 8 dict def
mpldict begin
/m { moveto } bind def
/l { lineto } bind def
/r { rlineto } bind def
/c { curveto } bind def
/cl { closepath } bind def
/box {
m
1 index 0 r
0 exch r
neg 0 r
cl
} bind def
/clipbox {
box
clip
newpath
} bind def
%!PS-Adobe-3.0 Resource-Font
%%Title: Bitstream Vera Sans
%%Copyright: Copyright (c) 2003 by Bitstream, Inc. All Rights Reserved.
%%Creator: Converted from TrueType to type 3 by PPR
25 dict begin
/_d{bind def}bind def
/_m{moveto}_d
/_l{lineto}_d
/_cl{closepath eofill}_d
/_c{curveto}_d
/_sc{7 -1 roll{setcachedevice}{pop pop pop pop pop pop}ifelse}_d
/_e{exec}_d
/FontName /BitstreamVeraSans-Roman def
/PaintType 0 def
/FontMatrix[.001 0 0 .001 0 0]def
/FontBBox[-183 -236 1287 928]def
/FontType 3 def
/Encoding [ /period /zero /one /five /minus ] def
/FontInfo 10 dict dup begin
/FamilyName (Bitstream Vera Sans) def
/FullName (Bitstream Vera Sans) def
/Notice (Copyright (c) 2003 by Bitstream, Inc. All Rights Reserved. Bitstream Vera is a trademark of Bitstream, Inc.) def
/Weight (Roman) def
/Version (Release 1.10) def
/ItalicAngle 0.0 def
/isFixedPitch false def
/UnderlinePosition -213 def
/UnderlineThickness 143 def
end readonly def
/CharStrings 5 dict dup begin
/period{318 0 107 0 210 124 _sc
107 124 _m
210 124 _l
210 0 _l
107 0 _l
107 124 _l
_cl}_d
/zero{636 0 66 -13 570 742 _sc
318 664 _m
267 664 229 639 203 589 _c
177 539 165 464 165 364 _c
165 264 177 189 203 139 _c
229 89 267 64 318 64 _c
369 64 407 89 433 139 _c
458 189 471 264 471 364 _c
471 464 458 539 433 589 _c
407 639 369 664 318 664 _c
318 742 _m
399 742 461 709 505 645 _c
548 580 570 486 570 364 _c
570 241 548 147 505 83 _c
461 19 399 -13 318 -13 _c
236 -13 173 19 130 83 _c
87 147 66 241 66 364 _c
66 486 87 580 130 645 _c
173 709 236 742 318 742 _c
_cl}_d
/one{636 0 110 0 544 729 _sc
124 83 _m
285 83 _l
285 639 _l
110 604 _l
110 694 _l
284 729 _l
383 729 _l
383 83 _l
544 83 _l
544 0 _l
124 0 _l
124 83 _l
_cl}_d
/five{{636 0 77 -13 549 729 _sc
108 729 _m
495 729 _l
495 646 _l
198 646 _l
198 467 _l
212 472 227 476 241 478 _c
255 480 270 482 284 482 _c
365 482 429 459 477 415 _c
525 370 549 310 549 234 _c
549 155 524 94 475 51 _c
426 8 357 -13 269 -13 _c
238 -13 207 -10 175 -6 _c
143 -1 111 6 77 17 _c
77 116 _l
106 100 136 88 168 80 _c
199 72 232 69 267 69 _c
}_e{323 69 368 83 401 113 _c
433 143 450 183 450 234 _c
450 284 433 324 401 354 _c
368 384 323 399 267 399 _c
241 399 214 396 188 390 _c
162 384 135 375 108 363 _c
108 729 _l
_cl}_e}_d
/minus{838 0 106 272 732 355 _sc
106 355 _m
732 355 _l
732 272 _l
106 272 _l
106 355 _l
_cl}_d
end readonly def

/BuildGlyph
 {exch begin
 CharStrings exch
 2 copy known not{pop /.notdef}if
 true 3 1 roll get exec
 end}_d

/BuildChar {
 1 index /Encoding get exch get
 1 index /BuildGlyph get exec
}_d

FontName currentdict end definefont pop
end
%%EndProlog
mpldict begin
162 252 translate
288 288 0 0 clipbox
gsave
0 0 m
288 0 l
288 288 l
0 288 l
cl
1.000 setgray
fill
grestore
gsave
36 32.4 m
259.2 32.4 l
259.2 255.6 l
36 255.6 l
cl
1.000 setgray
fill
grestore
2.000 setlinewidth
1 setlinejoin
2 setlinecap
[] 0 setdash
0.000 0.000 1.000 setrgbcolor
gsave
223.2 223.2 36 32.4 clipbox
189.019 144 m
189.013 144.508 l
188.994 145.016 l
188.963 145.523 l
188.919 146.03 l
188.864 146.535 l
188.796 147.039 l
188.716 147.541 l
188.624 148.041 l
188.522 148.538 l
188.407 149.033 l
188.282 149.525 l
188.145 150.014 l
187.999 150.5 l
187.842 150.983 l
187.675 151.461 l
187.498 151.936 l
187.312 152.407 l
187.118 152.874 l
186.914 153.337 l
186.703 153.795 l
186.483 154.248 l
186.256 154.697 l
186.021 155.142 l
185.78 155.582 l
185.532 156.017 l
185.278 156.447 l
185.018 156.873 l
184.752 157.293 l
184.481 157.709 l
184.205 158.12 l
183.924 158.526 l
183.639 158.928 l
183.349 159.324 l
183.055 159.716 l
182.758 160.103 l
182.457 160.486 l
182.153 160.864 l
181.845 161.237 l
181.535 161.606 l
181.221 161.971 l
180.906 162.331 l
180.587 162.687 l
180.267 163.039 l
179.945 163.387 l
179.62 163.73 l
179.294 164.07 l
178.966 164.406 l
178.636 164.737 l
178.305 165.066 l
177.972 165.39 l
177.638 165.711 l
177.303 166.029 l
176.966 166.343 l
176.628 166.654 l
176.29 166.962 l
175.95 167.266 l
175.609 167.567 l
175.267 167.866 l
174.924 168.161 l
174.581 168.454 l
174.236 168.744 l
173.891 169.031 l
173.545 169.316 l
173.198 169.598 l
172.851 169.878 l
172.502 170.155 l
172.153 170.431 l
171.803 170.703 l
171.452 170.974 l
171.1 171.243 l
170.747 171.51 l
170.394 171.774 l
170.04 172.037 l
169.684 172.299 l
169.328 172.558 l
168.971 172.816 l
168.613 173.072 l
168.254 173.327 l
167.894 173.58 l
167.533 173.832 l
167.171 174.082 l
166.807 174.331 l
166.442 174.579 l
166.076 174.826 l
165.709 175.072 l
165.341 175.317 l
164.971 175.56 l
164.599 175.803 l
164.226 176.045 l
163.852 176.286 l
163.475 176.527 l
163.097 176.766 l
162.718 177.006 l
162.336 177.244 l
161.953 177.482 l
161.567 177.72 l
161.18 177.957 l
160.79 178.194 l
160.398 178.43 l
160.004 178.667 l
159.607 178.903 l
159.208 179.139 l
158.807 179.374 l
158.402 179.61 l
157.995 179.846 l
157.585 180.082 l
157.172 180.319 l
156.757 180.555 l
156.337 180.792 l
155.915 181.029 l
155.489 181.266 l
155.06 181.504 l
154.627 181.742 l
154.19 181.981 l
153.75 182.22 l
153.305 182.461 l
152.856 182.701 l
152.403 182.943 l
151.946 183.186 l
151.483 183.429 l
151.017 183.674 l
150.545 183.919 l
150.068 184.166 l
149.585 184.414 l
149.098 184.663 l
148.604 184.913 l
148.105 185.165 l
147.6 185.419 l
147.089 185.674 l
146.571 185.93 l
146.046 186.189 l
145.515 186.449 l
144.976 186.711 l
144.43 186.975 l
143.876 187.24 l
143.315 187.509 l
142.745 187.779 l
142.167 188.052 l
141.58 188.327 l
140.984 188.604 l
140.378 188.885 l
139.763 189.168 l
139.137 189.454 l
138.501 189.743 l
137.854 190.034 l
137.196 190.329 l
136.527 190.628 l
135.845 190.93 l
135.15 191.235 l
134.443 191.545 l
133.722 191.858 l
132.986 192.174 l
132.237 192.496 l
131.472 192.821 l
130.691 193.151 l
129.894 193.486 l
129.079 193.826 l
128.247 194.17 l
127.396 194.521 l
126.527 194.876 l
125.637 195.237 l
124.726 195.604 l
123.793 195.977 l
122.837 196.356 l
121.858 196.742 l
120.854 197.135 l
119.824 197.534 l
118.767 197.942 l
117.682 198.357 l
116.568 198.78 l
115.422 199.211 l
114.244 199.651 l
113.032 200.101 l
111.784 200.559 l
110.499 201.028 l
109.175 201.507 l
107.81 201.996 l
106.402 202.497 l
106.181 201.303 l
106.181 199.847 l
106.181 198.438 l
106.181 197.073 l
106.181 195.751 l
106.181 194.469 l
106.181 193.225 l
106.181 192.016 l
106.181 190.841 l
106.181 189.699 l
106.181 188.586 l
106.181 187.503 l
106.181 186.448 l
106.181 185.419 l
106.181 184.415 l
106.181 183.434 l
106.181 182.476 l
106.181 181.54 l
106.181 180.624 l
106.181 179.728 l
106.181 178.851 l
106.181 177.992 l
106.181 177.149 l
106.181 176.324 l
106.181 175.513 l
106.181 174.718 l
106.181 173.937 l
106.181 173.17 l
106.181 172.416 l
106.181 171.675 l
106.181 170.946 l
106.181 170.228 l
106.181 169.522 l
106.181 168.825 l
106.181 168.14 l
106.181 167.463 l
106.181 166.797 l
106.181 166.139 l
106.181 165.489 l
106.181 164.848 l
106.181 164.215 l
106.181 163.59 l
106.181 162.971 l
106.181 162.36 l
106.181 161.755 l
106.181 161.156 l
106.181 160.564 l
106.181 159.977 l
106.181 159.396 l
106.181 158.82 l
106.181 158.249 l
106.181 157.683 l
106.181 157.121 l
106.181 156.564 l
106.181 156.011 l
106.181 155.462 l
106.181 154.917 l
106.181 154.375 l
106.181 153.836 l
106.181 153.301 l
106.181 152.768 l
106.181 152.239 l
106.181 151.712 l
106.181 151.187 l
106.181 150.664 l
106.181 150.144 l
106.181 149.625 l
106.181 149.109 l
106.181 148.593 l
106.181 148.079 l
106.181 147.567 l
106.181 147.055 l
106.181 146.545 l
106.181 146.035 l
106.181 145.526 l
106.181 145.017 l
106.181 144.508 l
106.181 144 l
106.181 143.492 l
106.181 142.983 l
106.181 142.474 l
106.181 141.965 l
106.181 141.455 l
106.181 140.945 l
106.181 140.433 l
106.181 139.921 l
106.181 139.407 l
106.181 138.891 l
106.181 138.375 l
106.181 137.856 l
106.181 137.336 l
106.181 136.813 l
106.181 136.288 l
106.181 135.761 l
106.181 135.232 l
106.181 134.699 l
106.181 134.164 l
106.181 133.625 l
106.181 133.083 l
106.181 132.538 l
106.181 131.989 l
106.181 131.436 l
106.181 130.879 l
106.181 130.317 l
106.181 129.751 l
106.181 129.18 l
106.181 128.604 l
106.181 128.023 l
106.181 127.436 l
106.181 126.844 l
106.181 126.245 l
106.181 125.64 l
106.181 125.029 l
106.181 124.41 l
106.181 123.785 l
106.181 123.152 l
106.181 122.511 l
106.181 121.861 l
106.181 121.203 l
106.181 120.537 l
106.181 119.86 l
106.181 119.175 l
106.181 118.478 l
106.181 117.772 l
106.181 117.054 l
106.181 116.325 l
106.181 115.584 l
106.181 114.83 l
106.181 114.063 l
106.181 113.282 l
106.181 112.487 l
106.181 111.676 l
106.181 110.851 l
106.181 110.008 l
106.181 109.149 l
106.181 108.272 l
106.181 107.376 l
106.181 106.46 l
106.181 105.524 l
106.181 104.566 l
106.181 103.585 l
106.181 102.581 l
106.181 101.552 l
106.181 100.497 l
106.181 99.4135 l
106.181 98.3014 l
106.181 97.1588 l
106.181 95.9842 l
106.181 94.7755 l
106.181 93.5311 l
106.181 92.2489 l
106.181 90.9269 l
106.181 89.5624 l
106.181 88.1534 l
106.181 86.6968 l
106.402 85.5032 l
107.81 86.0037 l
109.175 86.4934 l
110.499 86.9722 l
111.784 87.4408 l
113.032 87.8994 l
114.244 88.3485 l
115.422 88.7888 l
116.568 89.2201 l
117.682 89.6432 l
118.767 90.0581 l
119.824 90.4656 l
120.854 90.8653 l
121.858 91.2582 l
122.837 91.644 l
123.793 92.0233 l
124.726 92.3964 l
125.637 92.7633 l
126.527 93.1241 l
127.396 93.4795 l
128.247 93.8295 l
129.079 94.174 l
129.894 94.5137 l
130.691 94.8486 l
131.472 95.1786 l
132.237 95.504 l
132.986 95.8255 l
133.722 96.1424 l
134.443 96.4555 l
135.15 96.7647 l
135.845 97.0702 l
136.527 97.372 l
137.196 97.6706 l
137.854 97.9656 l
138.501 98.2574 l
139.137 98.5464 l
139.763 98.8321 l
140.378 99.1153 l
140.984 99.3956 l
141.58 99.6732 l
142.167 99.9484 l
142.745 100.221 l
143.315 100.491 l
143.876 100.76 l
144.43 101.025 l
144.976 101.289 l
145.515 101.551 l
146.046 101.811 l
146.571 102.07 l
147.089 102.326 l
147.6 102.581 l
148.105 102.835 l
148.604 103.087 l
149.098 103.337 l
149.585 103.586 l
150.068 103.834 l
150.545 104.081 l
151.017 104.326 l
151.483 104.571 l
151.946 104.814 l
152.403 105.057 l
152.856 105.299 l
153.305 105.539 l
153.75 105.78 l
154.19 106.019 l
154.627 106.258 l
155.06 106.496 l
155.489 106.734 l
155.915 106.971 l
156.337 107.208 l
156.757 107.445 l
157.172 107.681 l
157.585 107.918 l
157.995 108.154 l
158.402 108.39 l
158.807 108.626 l
159.208 108.861 l
159.607 109.097 l
160.004 109.333 l
160.398 109.57 l
160.79 109.806 l
161.18 110.043 l
161.567 110.28 l
161.953 110.518 l
162.336 110.756 l
162.718 110.994 l
163.097 111.234 l
163.475 111.473 l
163.852 111.714 l
164.226 111.955 l
164.599 112.197 l
164.971 112.44 l
165.341 112.683 l
165.709 112.928 l
166.076 113.174 l
166.442 113.421 l
166.807 113.669 l
167.171 113.918 l
167.533 114.168 l
167.894 114.42 l
168.254 114.673 l
168.613 114.928 l
168.971 115.184 l
169.328 115.442 l
169.684 115.701 l
170.04 115.963 l
170.394 116.226 l
170.747 116.49 l
171.1 116.757 l
171.452 117.026 l
171.803 117.297 l
172.153 117.569 l
172.502 117.845 l
172.851 118.122 l
173.198 118.402 l
173.545 118.684 l
173.891 118.969 l
174.236 119.256 l
174.581 119.546 l
174.924 119.839 l
175.267 120.134 l
175.609 120.433 l
175.95 120.734 l
176.29 121.038 l
176.628 121.346 l
176.966 121.657 l
177.303 121.971 l
177.638 122.289 l
177.972 122.61 l
178.305 122.934 l
178.636 123.263 l
178.966 123.594 l
179.294 123.93 l
179.62 124.27 l
179.945 124.613 l
180.267 124.961 l
180.587 125.313 l
180.906 125.669 l
181.221 126.029 l
181.535 126.394 l
181.845 126.763 l
182.153 127.136 l
182.457 127.514 l
182.758 127.897 l
183.055 128.284 l
183.349 128.676 l
183.639 129.072 l
183.924 129.474 l
184.205 129.88 l
184.481 130.291 l
184.752 130.707 l
185.018 131.127 l
185.278 131.553 l
185.532 131.983 l
185.78 132.418 l
186.021 132.858 l
186.256 133.303 l
186.483 133.752 l
186.703 134.205 l
186.914 134.663 l
187.118 135.126 l
187.312 135.593 l
187.498 136.064 l
187.675 136.539 l
187.842 137.017 l
187.999 137.5 l
188.145 137.986 l
188.282 138.475 l
188.407 138.967 l
188.522 139.462 l
188.624 139.959 l
188.716 140.459 l
188.796 140.961 l
188.864 141.465 l
188.919 141.97 l
188.963 142.477 l
188.994 142.984 l
189.013 143.492 l
189.019 144 l
cl
gsave
0.500 0.500 1.000 setrgbcolor
fill
grestore
stroke
grestore
1.000 setlinewidth
0.000 setgray
gsave
223.2 223.2 36 32.4 clipbox
189.019 144 m
189.013 144.508 l
188.994 145.016 l
188.963 145.523 l
188.919 146.03 l
188.864 146.535 l
188.796 147.039 l
188.716 147.541 l
188.624 148.041 l
188.522 148.538 l
188.407 149.033 l
188.282 149.525 l
188.145 150.014 l
187.999 150.5 l
187.842 150.983 l
187.675 151.461 l
187.498 151.936 l
187.312 152.407 l
187.118 152.874 l
186.914 153.337 l
186.703 153.795 l
186.483 154.248 l
186.256 154.697 l
186.021 155.142 l
185.78 155.582 l
185.532 156.017 l
185.278 156.447 l
185.018 156.873 l
184.752 157.293 l
184.481 157.709 l
184.205 158.12 l
183.924 158.526 l
183.639 158.928 l
183.349 159.324 l
183.055 159.716 l
182.758 160.103 l
182.457 160.486 l
182.153 160.864 l
181.845 161.237 l
181.535 161.606 l
181.221 161.971 l
180.906 162.331 l
180.587 162.687 l
180.267 163.039 l
179.945 163.387 l
179.62 163.73 l
179.294 164.07 l
178.966 164.406 l
178.636 164.737 l
178.305 165.066 l
177.972 165.39 l
177.638 165.711 l
177.303 166.029 l
176.966 166.343 l
176.628 166.654 l
176.29 166.962 l
175.95 167.266 l
175.609 167.567 l
175.267 167.866 l
174.924 168.161 l
174.581 168.454 l
174.236 168.744 l
173.891 169.031 l
173.545 169.316 l
173.198 169.598 l
172.851 169.878 l
172.502 170.155 l
172.153 170.431 l
171.803 170.703 l
171.452 170.974 l
171.1 171.243 l
170.747 171.51 l
170.394 171.774 l
170.04 172.037 l
169.684 172.299 l
169.328 172.558 l
168.971 172.816 l
168.613 173.072 l
168.254 173.327 l
167.894 173.58 l
167.533 173.832 l
167.171 174.082 l
166.807 174.331 l
166.442 174.579 l
166.076 174.826 l
165.709 175.072 l
165.341 175.317 l
164.971 175.56 l
164.599 175.803 l
164.226 176.045 l
163.852 176.286 l
163.475 176.527 l
163.097 176.766 l
162.718 177.006 l
162.336 177.244 l
161.953 177.482 l
161.567 177.72 l
161.18 177.957 l
160.79 178.194 l
160.398 178.43 l
160.004 178.667 l
159.607 178.903 l
159.208 179.139 l
158.807 179.374 l
158.402 179.61 l
157.995 179.846 l
157.585 180.082 l
157.172 180.319 l
156.757 180.555 l
156.337 180.792 l
155.915 181.029 l
155.489 181.266 l
155.06 181.504 l
154.627 181.742 l
154.19 181.981 l
153.75 182.22 l
153.305 182.461 l
152.856 182.701 l
152.403 182.943 l
151.946 183.186 l
151.483 183.429 l
151.017 183.674 l
150.545 183.919 l
150.068 184.166 l
149.585 184.414 l
149.098 184.663 l
148.604 184.913 l
148.105 185.165 l
147.6 185.419 l
147.095 185.145 l
146.596 184.907 l
146.102 184.664 l
145.614 184.417 l
145.132 184.166 l
144.656 183.911 l
144.185 183.651 l
143.721 183.387 l
143.252 183.205 l
142.798 182.932 l
142.338 182.743 l
141.895 182.463 l
141.457 182.178 l
141.01 181.978 l
140.567 181.774 l
140.145 181.479 l
139.71 181.268 l
139.279 181.054 l
138.873 180.747 l
138.451 180.526 l
138.032 180.303 l
137.616 180.076 l
137.205 179.846 l
136.797 179.613 l
136.392 179.377 l
135.992 179.138 l
135.595 178.896 l
135.202 178.65 l
134.813 178.401 l
134.427 178.149 l
134.006 177.993 l
133.626 177.735 l
133.251 177.474 l
132.879 177.21 l
132.465 177.044 l
132.099 176.774 l
131.738 176.5 l
131.328 176.327 l
130.973 176.047 l
130.621 175.765 l
130.216 175.584 l
129.872 175.295 l
129.468 175.11 l
129.13 174.815 l
128.729 174.625 l
128.398 174.323 l
127.999 174.129 l
127.675 173.82 l
127.278 173.621 l
126.961 173.306 l
126.608 173.043 l
126.203 172.85 l
125.879 172.548 l
125.556 172.247 l
125.151 172.049 l
124.828 171.748 l
124.423 171.545 l
124.1 171.243 l
123.776 170.943 l
123.372 170.732 l
123.048 170.43 l
122.724 170.128 l
122.32 169.908 l
121.996 169.604 l
121.673 169.299 l
121.349 168.993 l
120.945 168.761 l
120.621 168.452 l
120.298 168.142 l
119.893 167.9 l
119.569 167.586 l
119.246 167.27 l
118.922 166.952 l
118.599 166.633 l
118.194 166.373 l
117.871 166.049 l
117.547 165.722 l
117.223 165.394 l
116.9 165.063 l
116.576 164.729 l
116.253 164.394 l
115.929 164.055 l
115.606 163.714 l
115.282 163.371 l
114.958 163.024 l
114.635 162.674 l
114.311 162.322 l
113.988 161.966 l
113.664 161.607 l
113.341 161.245 l
113.017 160.879 l
112.774 160.471 l
112.451 160.1 l
112.127 159.724 l
111.884 159.31 l
111.561 158.928 l
111.237 158.542 l
110.994 158.12 l
110.752 157.697 l
110.428 157.3 l
110.185 156.871 l
109.943 156.44 l
109.7 156.007 l
109.458 155.57 l
109.215 155.132 l
108.972 154.69 l
108.729 154.245 l
108.487 153.797 l
108.325 153.327 l
108.082 152.874 l
107.921 152.4 l
107.678 151.941 l
107.516 151.463 l
107.354 150.983 l
107.192 150.502 l
107.031 150.018 l
106.95 149.521 l
106.788 149.034 l
106.707 148.535 l
106.545 148.044 l
106.464 147.542 l
106.384 147.04 l
106.302 146.537 l
106.302 146.029 l
106.222 145.524 l
106.222 145.016 l
106.222 144.508 l
106.222 144 l
106.222 143.492 l
106.222 142.984 l
106.222 142.476 l
106.302 141.971 l
106.302 141.463 l
106.384 140.96 l
106.464 140.458 l
106.545 139.956 l
106.707 139.465 l
106.788 138.966 l
106.95 138.479 l
107.031 137.982 l
107.192 137.498 l
107.354 137.017 l
107.516 136.537 l
107.678 136.059 l
107.921 135.6 l
108.082 135.126 l
108.325 134.673 l
108.487 134.203 l
108.729 133.755 l
108.972 133.31 l
109.215 132.868 l
109.458 132.43 l
109.7 131.993 l
109.943 131.56 l
110.185 131.129 l
110.428 130.7 l
110.752 130.303 l
110.994 129.88 l
111.237 129.458 l
111.561 129.072 l
111.884 128.69 l
112.127 128.276 l
112.451 127.9 l
112.774 127.529 l
113.017 127.121 l
113.341 126.755 l
113.664 126.393 l
113.988 126.034 l
114.311 125.678 l
114.635 125.326 l
114.958 124.976 l
115.282 124.629 l
115.606 124.286 l
115.929 123.945 l
116.253 123.606 l
116.576 123.271 l
116.9 122.937 l
117.223 122.606 l
117.547 122.278 l
117.871 121.951 l
118.194 121.627 l
118.599 121.367 l
118.922 121.048 l
119.246 120.73 l
119.569 120.414 l
119.893 120.1 l
120.298 119.858 l
120.621 119.548 l
120.945 119.239 l
121.349 119.007 l
121.673 118.701 l
121.996 118.396 l
122.32 118.092 l
122.724 117.872 l
123.048 117.57 l
123.372 117.268 l
123.776 117.057 l
124.1 116.757 l
124.423 116.455 l
124.828 116.252 l
125.151 115.951 l
125.556 115.753 l
125.879 115.452 l
126.203 115.15 l
126.608 114.957 l
126.961 114.694 l
127.278 114.379 l
127.675 114.18 l
127.999 113.871 l
128.398 113.677 l
128.729 113.375 l
129.13 113.185 l
129.468 112.89 l
129.872 112.705 l
130.216 112.416 l
130.621 112.235 l
130.973 111.953 l
131.328 111.673 l
131.738 111.5 l
132.099 111.226 l
132.465 110.956 l
132.879 110.79 l
133.251 110.526 l
133.626 110.265 l
134.006 110.007 l
134.427 109.851 l
134.813 109.599 l
135.202 109.35 l
135.595 109.104 l
135.992 108.862 l
136.392 108.623 l
136.797 108.387 l
137.205 108.154 l
137.616 107.924 l
138.032 107.697 l
138.451 107.474 l
138.873 107.253 l
139.279 106.946 l
139.71 106.732 l
140.145 106.521 l
140.567 106.226 l
141.01 106.022 l
141.457 105.822 l
141.895 105.537 l
142.338 105.257 l
142.798 105.068 l
143.252 104.795 l
143.721 104.613 l
144.185 104.349 l
144.656 104.089 l
145.132 103.834 l
145.614 103.583 l
146.102 103.336 l
146.596 103.093 l
147.095 102.855 l
147.6 102.581 l
148.105 102.835 l
148.604 103.087 l
149.098 103.337 l
149.585 103.586 l
150.068 103.834 l
150.545 104.081 l
151.017 104.326 l
151.483 104.571 l
151.946 104.814 l
152.403 105.057 l
152.856 105.299 l
153.305 105.539 l
153.75 105.78 l
154.19 106.019 l
154.627 106.258 l
155.06 106.496 l
155.489 106.734 l
155.915 106.971 l
156.337 107.208 l
156.757 107.445 l
157.172 107.681 l
157.585 107.918 l
157.995 108.154 l
158.402 108.39 l
158.807 108.626 l
159.208 108.861 l
159.607 109.097 l
160.004 109.333 l
160.398 109.57 l
160.79 109.806 l
161.18 110.043 l
161.567 110.28 l
161.953 110.518 l
162.336 110.756 l
162.718 110.994 l
163.097 111.234 l
163.475 111.473 l
163.852 111.714 l
164.226 111.955 l
164.599 112.197 l
164.971 112.44 l
165.341 112.683 l
165.709 112.928 l
166.076 113.174 l
166.442 113.421 l
166.807 113.669 l
167.171 113.918 l
167.533 114.168 l
167.894 114.42 l
168.254 114.673 l
168.613 114.928 l
168.971 115.184 l
169.328 115.442 l
169.684 115.701 l
170.04 115.963 l
170.394 116.226 l
170.747 116.49 l
171.1 116.757 l
171.452 117.026 l
171.803 117.297 l
172.153 117.569 l
172.502 117.845 l
172.851 118.122 l
173.198 118.402 l
173.545 118.684 l
173.891 118.969 l
174.236 119.256 l
174.581 119.546 l
174.924 119.839 l
175.267 120.134 l
175.609 120.433 l
175.95 120.734 l
176.29 121.038 l
176.628 121.346 l
176.966 121.657 l
177.303 121.971 l
177.638 122.289 l
177.972 122.61 l
178.305 122.934 l
178.636 123.263 l
178.966 123.594 l
179.294 123.93 l
179.62 124.27 l
179.945 124.613 l
180.267 124.961 l
180.587 125.313 l
180.906 125.669 l
181.221 126.029 l
181.535 126.394 l
181.845 126.763 l
182.153 127.136 l
182.457 127.514 l
182.758 127.897 l
183.055 128.284 l
183.349 128.676 l
183.639 129.072 l
183.924 129.474 l
184.205 129.88 l
184.481 130.291 l
184.752 130.707 l
185.018 131.127 l
185.278 131.553 l
185.532 131.983 l
185.78 132.418 l
186.021 132.858 l
186.256 133.303 l
186.483 133.752 l
186.703 134.205 l
186.914 134.663 l
187.118 135.126 l
187.312 135.593 l
187.498 136.064 l
187.675 136.539 l
187.842 137.017 l
187.999 137.5 l
188.145 137.986 l
188.282 138.475 l
188.407 138.967 l
188.522 139.462 l
188.624 139.959 l
188.716 140.459 l
188.796 140.961 l
188.864 141.465 l
188.919 141.97 l
188.963 142.477 l
188.994 142.984 l
189.013 143.492 l
189.019 144 l
cl
gsave
0.500 setgray
fill
grestore
stroke
grestore
1.000 0.000 0.000 setrgbcolor
gsave
223.2 223.2 36 32.4 clipbox
249.055 144 m
248.566 153.944 l
247.105 163.793 l
244.686 173.451 l
241.332 182.825 l
237.075 191.825 l
231.956 200.365 l
226.025 208.362 l
219.339 215.739 l
211.962 222.425 l
203.965 228.356 l
195.425 233.475 l
186.425 237.732 l
177.051 241.086 l
167.393 243.505 l
157.544 244.966 l
147.6 245.455 l
137.656 244.966 l
127.807 243.505 l
118.149 241.086 l
108.775 237.732 l
99.7747 233.475 l
91.2349 228.356 l
83.2379 222.425 l
75.8608 215.739 l
69.1746 208.362 l
63.2436 200.365 l
58.1251 191.825 l
53.8682 182.825 l
50.5141 173.451 l
48.0949 163.793 l
46.634 153.944 l
46.1455 144 l
46.634 134.056 l
48.0949 124.207 l
50.5141 114.549 l
53.8682 105.175 l
58.1251 96.1747 l
63.2436 87.6349 l
69.1746 79.6379 l
75.8608 72.2608 l
83.2379 65.5746 l
91.2349 59.6436 l
99.7747 54.5251 l
108.775 50.2682 l
118.149 46.9141 l
127.807 44.4949 l
137.656 43.034 l
147.6 42.5455 l
157.544 43.034 l
167.393 44.4949 l
177.051 46.9141 l
186.425 50.2682 l
195.425 54.5251 l
203.965 59.6436 l
211.962 65.5746 l
219.339 72.2608 l
226.025 79.6379 l
231.956 87.6349 l
237.075 96.1747 l
241.332 105.175 l
244.686 114.549 l
247.105 124.207 l
248.566 134.056 l
249.055 144 l
stroke
grestore
0.750 0.750 0.000 setrgbcolor
gsave
223.2 223.2 36 32.4 clipbox
206.175 144 m
205.893 149.741 l
205.049 155.427 l
203.653 161.003 l
201.716 166.416 l
199.258 171.612 l
196.303 176.542 l
192.879 181.159 l
189.019 185.419 l
184.759 189.279 l
180.142 192.703 l
175.212 195.658 l
170.016 198.116 l
164.603 200.053 l
159.027 201.449 l
153.341 202.293 l
147.6 202.575 l
141.859 202.293 l
136.173 201.449 l
130.597 200.053 l
125.184 198.116 l
119.988 195.658 l
115.058 192.703 l
110.441 189.279 l
106.181 185.419 l
102.321 181.159 l
98.8968 176.542 l
95.9416 171.612 l
93.4839 166.416 l
91.5474 161.003 l
90.1507 155.427 l
89.3072 149.741 l
89.0252 144 l
89.3072 138.259 l
90.1507 132.573 l
91.5474 126.997 l
93.4839 121.584 l
95.9416 116.388 l
98.8968 111.458 l
102.321 106.841 l
106.181 102.581 l
110.441 98.7211 l
115.058 95.2968 l
119.988 92.3416 l
125.184 89.8839 l
130.597 87.9474 l
136.173 86.5507 l
141.859 85.7072 l
147.6 85.4252 l
153.341 85.7072 l
159.027 86.5507 l
164.603 87.9474 l
170.016 89.8839 l
175.212 92.3416 l
180.142 95.2968 l
184.759 98.7211 l
189.019 102.581 l
192.879 106.841 l
196.303 111.458 l
199.258 116.388 l
201.716 121.584 l
203.653 126.997 l
205.049 132.573 l
205.893 138.259 l
206.175 144 l
stroke
grestore
gsave
223.2 223.2 36 32.4 clipbox
219.339 144 m
218.994 151.032 l
217.961 157.996 l
216.25 164.825 l
213.878 171.453 l
210.868 177.818 l
207.249 183.856 l
203.055 189.511 l
198.327 194.727 l
193.111 199.455 l
187.456 203.649 l
181.418 207.268 l
175.053 210.278 l
168.425 212.65 l
161.596 214.361 l
154.632 215.394 l
147.6 215.739 l
140.568 215.394 l
133.604 214.361 l
126.775 212.65 l
120.147 210.278 l
113.782 207.268 l
107.744 203.649 l
102.089 199.455 l
96.8727 194.727 l
92.1449 189.511 l
87.951 183.856 l
84.3317 177.818 l
81.3216 171.453 l
78.9499 164.825 l
77.2393 157.996 l
76.2062 151.032 l
75.8608 144 l
76.2062 136.968 l
77.2393 130.004 l
78.9499 123.175 l
81.3216 116.547 l
84.3317 110.182 l
87.951 104.144 l
92.1449 98.4891 l
96.8727 93.2727 l
102.089 88.5449 l
107.744 84.351 l
113.782 80.7317 l
120.147 77.7216 l
126.775 75.3499 l
133.604 73.6393 l
140.568 72.6062 l
147.6 72.2608 l
154.632 72.6062 l
161.596 73.6393 l
168.425 75.3499 l
175.053 77.7216 l
181.418 80.7317 l
187.456 84.351 l
193.111 88.5449 l
198.327 93.2727 l
203.055 98.4891 l
207.249 104.144 l
210.868 110.182 l
213.878 116.547 l
216.25 123.175 l
217.961 130.004 l
218.994 136.968 l
219.339 144 l
stroke
grestore
gsave
223.2 223.2 36 32.4 clipbox
189.019 144 m
188.819 148.06 l
188.223 152.08 l
187.235 156.023 l
185.866 159.85 l
184.128 163.525 l
182.038 167.011 l
179.617 170.276 l
176.887 173.287 l
173.876 176.017 l
170.611 178.438 l
167.125 180.528 l
163.45 182.266 l
159.623 183.635 l
155.68 184.623 l
151.66 185.219 l
147.6 185.419 l
143.54 185.219 l
139.52 184.623 l
135.577 183.635 l
131.75 182.266 l
128.075 180.528 l
124.589 178.438 l
121.324 176.017 l
118.313 173.287 l
115.583 170.276 l
113.162 167.011 l
111.072 163.525 l
109.334 159.85 l
107.965 156.023 l
106.977 152.08 l
106.381 148.06 l
106.181 144 l
106.381 139.94 l
106.977 135.92 l
107.965 131.977 l
109.334 128.15 l
111.072 124.475 l
113.162 120.989 l
115.583 117.724 l
118.313 114.713 l
121.324 111.983 l
124.589 109.562 l
128.075 107.472 l
131.75 105.734 l
135.577 104.365 l
139.52 103.377 l
143.54 102.781 l
147.6 102.581 l
151.66 102.781 l
155.68 103.377 l
159.623 104.365 l
163.45 105.734 l
167.125 107.472 l
170.611 109.562 l
173.876 111.983 l
176.887 114.713 l
179.617 117.724 l
182.038 120.989 l
184.128 124.475 l
185.866 128.15 l
187.235 131.977 l
188.223 135.92 l
188.819 139.94 l
189.019 144 l
stroke
grestore
0.000 0.500 0.000 setrgbcolor
gsave
223.2 223.2 36 32.4 clipbox
181.418 144 m
181.255 147.315 l
180.768 150.598 l
179.962 153.817 l
178.844 156.942 l
177.425 159.942 l
175.719 162.788 l
173.742 165.454 l
171.513 167.913 l
169.054 170.142 l
166.388 172.119 l
163.542 173.825 l
160.542 175.244 l
157.417 176.362 l
154.198 177.168 l
150.915 177.655 l
147.6 177.818 l
144.285 177.655 l
141.002 177.168 l
137.783 176.362 l
134.658 175.244 l
131.658 173.825 l
128.812 172.119 l
126.146 170.142 l
123.687 167.913 l
121.458 165.454 l
119.481 162.788 l
117.775 159.942 l
116.356 156.942 l
115.238 153.817 l
114.432 150.598 l
113.945 147.315 l
113.782 144 l
113.945 140.685 l
114.432 137.402 l
115.238 134.183 l
116.356 131.058 l
117.775 128.058 l
119.481 125.212 l
121.458 122.546 l
123.687 120.087 l
126.146 117.858 l
128.812 115.881 l
131.658 114.175 l
134.658 112.756 l
137.783 111.638 l
141.002 110.832 l
144.285 110.345 l
147.6 110.182 l
150.915 110.345 l
154.198 110.832 l
157.417 111.638 l
160.542 112.756 l
163.542 114.175 l
166.388 115.881 l
169.054 117.858 l
171.513 120.087 l
173.742 122.546 l
175.719 125.212 l
177.425 128.058 l
178.844 131.058 l
179.962 134.183 l
180.768 137.402 l
181.255 140.685 l
181.418 144 l
stroke
grestore
0.500 setlinewidth
0 setlinecap
0.000 setgray
gsave
/o {
gsave
newpath
translate
0.5 setlinewidth
1 setlinejoin
0 setlinecap
0 0 m
0 4 l
gsave
0.000 setgray
fill
grestore
stroke
grestore
} bind def
46.1455 32.4 o
grestore
gsave
/o {
gsave
newpath
translate
0.5 setlinewidth
1 setlinejoin
0 setlinecap
0 0 m
0 -4 l
gsave
0.000 setgray
fill
grestore
stroke
grestore
} bind def
46.1455 255.6 o
grestore
/BitstreamVeraSans-Roman findfont
9.000 scalefont
setfont
gsave
35.989205 21.587500 translate
0.000000 rotate
0.000000 0.125000 m /minus glyphshow
7.541016 0.125000 m /one glyphshow
13.267090 0.125000 m /period glyphshow
16.127930 0.125000 m /zero glyphshow
grestore
gsave
/o {
gsave
newpath
translate
0.5 setlinewidth
1 setlinejoin
0 setlinecap
0 0 m
0 4 l
gsave
0.000 setgray
fill
grestore
stroke
grestore
} bind def
96.8727 32.4 o
grestore
gsave
/o {
gsave
newpath
translate
0.5 setlinewidth
1 setlinejoin
0 setlinecap
0 0 m
0 -4 l
gsave
0.000 setgray
fill
grestore
stroke
grestore
} bind def
96.8727 255.6 o
grestore
gsave
86.810227 21.587500 translate
0.000000 rotate
0.000000 0.125000 m /minus glyphshow
7.541016 0.125000 m /zero glyphshow
13.267090 0.125000 m /period glyphshow
16.127930 0.125000 m /five glyphshow
grestore
gsave
/o {
gsave
newpath
translate
0.5 setlinewidth
1 setlinejoin
0 setlinecap
0 0 m
0 4 l
gsave
0.000 setgray
fill
grestore
stroke
grestore
} bind def
147.6 32.4 o
grestore
gsave
/o {
gsave
newpath
translate
0.5 setlinewidth
1 setlinejoin
0 setlinecap
0 0 m
0 -4 l
gsave
0.000 setgray
fill
grestore
stroke
grestore
} bind def
147.6 255.6 o
grestore
gsave
141.037500 21.587500 translate
0.000000 rotate
0.000000 0.125000 m /zero glyphshow
5.726074 0.125000 m /period glyphshow
8.586914 0.125000 m /zero glyphshow
grestore
gsave
/o {
gsave
newpath
translate
0.5 setlinewidth
1 setlinejoin
0 setlinecap
0 0 m
0 4 l
gsave
0.000 setgray
fill
grestore
stroke
grestore
} bind def
198.327 32.4 o
grestore
gsave
/o {
gsave
newpath
translate
0.5 setlinewidth
1 setlinejoin
0 setlinecap
0 0 m
0 -4 l
gsave
0.000 setgray
fill
grestore
stroke
grestore
} bind def
198.327 255.6 o
grestore
gsave
191.858523 21.587500 translate
0.000000 rotate
0.000000 0.125000 m /zero glyphshow
5.726074 0.125000 m /period glyphshow
8.586914 0.125000 m /five glyphshow
grestore
gsave
/o {
gsave
newpath
translate
0.5 setlinewidth
1 setlinejoin
0 setlinecap
0 0 m
0 4 l
gsave
0.000 setgray
fill
grestore
stroke
grestore
} bind def
249.055 32.4 o
grestore
gsave
/o {
gsave
newpath
translate
0.5 setlinewidth
1 setlinejoin
0 setlinecap
0 0 m
0 -4 l
gsave
0.000 setgray
fill
grestore
stroke
grestore
} bind def
249.055 255.6 o
grestore
gsave
242.687358 21.587500 translate
0.000000 rotate
0.000000 0.125000 m /one glyphshow
5.726074 0.125000 m /period glyphshow
8.586914 0.125000 m /zero glyphshow
grestore
gsave
/o {
gsave
newpath
translate
0.5 setlinewidth
1 setlinejoin
0 setlinecap
0 0 m
4 0 l
gsave
0.000 setgray
fill
grestore
stroke
grestore
} bind def
36 42.5455 o
grestore
gsave
/o {
gsave
newpath
translate
0.5 setlinewidth
1 setlinejoin
0 setlinecap
0 0 m
-4 0 l
gsave
0.000 setgray
fill
grestore
stroke
grestore
} bind def
259.2 42.5455 o
grestore
gsave
11.687500 39.139205 translate
0.000000 rotate
0.000000 0.125000 m /minus glyphshow
7.541016 0.125000 m /one glyphshow
13.267090 0.125000 m /period glyphshow
16.127930 0.125000 m /zero glyphshow
grestore
gsave
/o {
gsave
newpath
translate
0.5 setlinewidth
1 setlinejoin
0 setlinecap
0 0 m
4 0 l
gsave
0.000 setgray
fill
grestore
stroke
grestore
} bind def
36 93.2727 o
grestore
gsave
/o {
gsave
newpath
translate
0.5 setlinewidth
1 setlinejoin
0 setlinecap
0 0 m
-4 0 l
gsave
0.000 setgray
fill
grestore
stroke
grestore
} bind def
259.2 93.2727 o
grestore
gsave
11.875000 89.866477 translate
0.000000 rotate
0.000000 0.125000 m /minus glyphshow
7.541016 0.125000 m /zero glyphshow
13.267090 0.125000 m /period glyphshow
16.127930 0.125000 m /five glyphshow
grestore
gsave
/o {
gsave
newpath
translate
0.5 setlinewidth
1 setlinejoin
0 setlinecap
0 0 m
4 0 l
gsave
0.000 setgray
fill
grestore
stroke
grestore
} bind def
36 144 o
grestore
gsave
/o {
gsave
newpath
translate
0.5 setlinewidth
1 setlinejoin
0 setlinecap
0 0 m
-4 0 l
gsave
0.000 setgray
fill
grestore
stroke
grestore
} bind def
259.2 144 o
grestore
gsave
18.875000 140.593750 translate
0.000000 rotate
0.000000 0.125000 m /zero glyphshow
5.726074 0.125000 m /period glyphshow
8.586914 0.125000 m /zero glyphshow
grestore
gsave
/o {
gsave
newpath
translate
0.5 setlinewidth
1 setlinejoin
0 setlinecap
0 0 m
4 0 l
gsave
0.000 setgray
fill
grestore
stroke
grestore
} bind def
36 194.727 o
grestore
gsave
/o {
gsave
newpath
translate
0.5 setlinewidth
1 setlinejoin
0 setlinecap
0 0 m
-4 0 l
gsave
0.000 setgray
fill
grestore
stroke
grestore
} bind def
259.2 194.727 o
grestore
gsave
19.062500 191.321023 translate
0.000000 rotate
0.000000 0.125000 m /zero glyphshow
5.726074 0.125000 m /period glyphshow
8.586914 0.125000 m /five glyphshow
grestore
gsave
/o {
gsave
newpath
translate
0.5 setlinewidth
1 setlinejoin
0 setlinecap
0 0 m
4 0 l
gsave
0.000 setgray
fill
grestore
stroke
grestore
} bind def
36 245.455 o
grestore
gsave
/o {
gsave
newpath
translate
0.5 setlinewidth
1 setlinejoin
0 setlinecap
0 0 m
-4 0 l
gsave
0.000 setgray
fill
grestore
stroke
grestore
} bind def
259.2 245.455 o
grestore
gsave
19.265625 242.048295 translate
0.000000 rotate
0.000000 0.125000 m /one glyphshow
5.726074 0.125000 m /period glyphshow
8.586914 0.125000 m /zero glyphshow
grestore
1.000 setlinewidth
2 setlinecap
gsave
36 255.6 m
259.2 255.6 l
stroke
grestore
gsave
259.2 32.4 m
259.2 255.6 l
stroke
grestore
gsave
36 32.4 m
259.2 32.4 l
stroke
grestore
gsave
36 32.4 m
36 255.6 l
stroke
grestore

end
showpage
