%!PS-Adobe-3.0 EPSF-3.0
%%Title: ../../thesis/images/4l_2d_entangled//GH.eps
%%Creator: matplotlib version 1.2.1, http://matplotlib.org/
%%CreationDate: Mon May 20 13:29:17 2013
%%Orientation: portrait
%%BoundingBox: 162 252 450 540
%%EndComments
%%BeginProlog
/mpldict 8 dict def
mpldict begin
/m { moveto } bind def
/l { lineto } bind def
/r { rlineto } bind def
/c { curveto } bind def
/cl { closepath } bind def
/box {
m
1 index 0 r
0 exch r
neg 0 r
cl
} bind def
/clipbox {
box
clip
newpath
} bind def
%!PS-Adobe-3.0 Resource-Font
%%Title: Bitstream Vera Sans
%%Copyright: Copyright (c) 2003 by Bitstream, Inc. All Rights Reserved.
%%Creator: Converted from TrueType to type 3 by PPR
25 dict begin
/_d{bind def}bind def
/_m{moveto}_d
/_l{lineto}_d
/_cl{closepath eofill}_d
/_c{curveto}_d
/_sc{7 -1 roll{setcachedevice}{pop pop pop pop pop pop}ifelse}_d
/_e{exec}_d
/FontName /BitstreamVeraSans-Roman def
/PaintType 0 def
/FontMatrix[.001 0 0 .001 0 0]def
/FontBBox[-183 -236 1287 928]def
/FontType 3 def
/Encoding [ /period /zero /one /five /minus ] def
/FontInfo 10 dict dup begin
/FamilyName (Bitstream Vera Sans) def
/FullName (Bitstream Vera Sans) def
/Notice (Copyright (c) 2003 by Bitstream, Inc. All Rights Reserved. Bitstream Vera is a trademark of Bitstream, Inc.) def
/Weight (Roman) def
/Version (Release 1.10) def
/ItalicAngle 0.0 def
/isFixedPitch false def
/UnderlinePosition -213 def
/UnderlineThickness 143 def
end readonly def
/CharStrings 5 dict dup begin
/period{318 0 107 0 210 124 _sc
107 124 _m
210 124 _l
210 0 _l
107 0 _l
107 124 _l
_cl}_d
/zero{636 0 66 -13 570 742 _sc
318 664 _m
267 664 229 639 203 589 _c
177 539 165 464 165 364 _c
165 264 177 189 203 139 _c
229 89 267 64 318 64 _c
369 64 407 89 433 139 _c
458 189 471 264 471 364 _c
471 464 458 539 433 589 _c
407 639 369 664 318 664 _c
318 742 _m
399 742 461 709 505 645 _c
548 580 570 486 570 364 _c
570 241 548 147 505 83 _c
461 19 399 -13 318 -13 _c
236 -13 173 19 130 83 _c
87 147 66 241 66 364 _c
66 486 87 580 130 645 _c
173 709 236 742 318 742 _c
_cl}_d
/one{636 0 110 0 544 729 _sc
124 83 _m
285 83 _l
285 639 _l
110 604 _l
110 694 _l
284 729 _l
383 729 _l
383 83 _l
544 83 _l
544 0 _l
124 0 _l
124 83 _l
_cl}_d
/five{{636 0 77 -13 549 729 _sc
108 729 _m
495 729 _l
495 646 _l
198 646 _l
198 467 _l
212 472 227 476 241 478 _c
255 480 270 482 284 482 _c
365 482 429 459 477 415 _c
525 370 549 310 549 234 _c
549 155 524 94 475 51 _c
426 8 357 -13 269 -13 _c
238 -13 207 -10 175 -6 _c
143 -1 111 6 77 17 _c
77 116 _l
106 100 136 88 168 80 _c
199 72 232 69 267 69 _c
}_e{323 69 368 83 401 113 _c
433 143 450 183 450 234 _c
450 284 433 324 401 354 _c
368 384 323 399 267 399 _c
241 399 214 396 188 390 _c
162 384 135 375 108 363 _c
108 729 _l
_cl}_e}_d
/minus{838 0 106 272 732 355 _sc
106 355 _m
732 355 _l
732 272 _l
106 272 _l
106 355 _l
_cl}_d
end readonly def

/BuildGlyph
 {exch begin
 CharStrings exch
 2 copy known not{pop /.notdef}if
 true 3 1 roll get exec
 end}_d

/BuildChar {
 1 index /Encoding get exch get
 1 index /BuildGlyph get exec
}_d

FontName currentdict end definefont pop
end
%%EndProlog
mpldict begin
162 252 translate
288 288 0 0 clipbox
gsave
0 0 m
288 0 l
288 288 l
0 288 l
cl
1.000 setgray
fill
grestore
gsave
36 32.4 m
259.2 32.4 l
259.2 255.6 l
36 255.6 l
cl
1.000 setgray
fill
grestore
2.000 setlinewidth
1 setlinejoin
2 setlinecap
[] 0 setdash
0.000 0.000 1.000 setrgbcolor
gsave
223.2 223.2 36 32.4 clipbox
189.019 144 m
188.87 144.506 l
188.718 145.009 l
188.562 145.509 l
188.403 146.005 l
188.24 146.497 l
188.074 146.986 l
187.905 147.471 l
187.732 147.953 l
187.556 148.431 l
187.376 148.906 l
187.194 149.377 l
187.008 149.846 l
186.818 150.31 l
186.626 150.772 l
186.43 151.23 l
186.232 151.684 l
186.03 152.136 l
185.825 152.584 l
185.617 153.028 l
185.406 153.47 l
185.192 153.908 l
184.975 154.343 l
184.755 154.775 l
184.532 155.203 l
184.306 155.628 l
184.077 156.05 l
183.845 156.469 l
183.61 156.885 l
183.372 157.297 l
183.132 157.706 l
182.889 158.112 l
182.642 158.515 l
182.393 158.915 l
182.141 159.311 l
181.886 159.704 l
181.629 160.094 l
181.368 160.481 l
181.105 160.865 l
180.839 161.246 l
180.57 161.623 l
180.299 161.997 l
180.024 162.368 l
179.747 162.736 l
179.468 163.101 l
179.185 163.462 l
178.899 163.82 l
178.611 164.175 l
178.321 164.527 l
178.027 164.875 l
177.731 165.22 l
177.432 165.562 l
177.13 165.901 l
176.826 166.236 l
176.519 166.568 l
176.209 166.897 l
175.896 167.222 l
175.581 167.544 l
175.263 167.863 l
174.943 168.178 l
174.62 168.489 l
174.294 168.798 l
173.966 169.102 l
173.635 169.404 l
173.301 169.701 l
172.965 169.995 l
172.626 170.286 l
172.285 170.573 l
171.941 170.856 l
171.594 171.136 l
171.245 171.411 l
170.894 171.683 l
170.54 171.952 l
170.183 172.216 l
169.824 172.477 l
169.462 172.734 l
169.098 172.987 l
168.732 173.236 l
168.363 173.481 l
167.992 173.722 l
167.618 173.959 l
167.242 174.192 l
166.864 174.421 l
166.483 174.646 l
166.1 174.866 l
165.715 175.082 l
165.328 175.294 l
164.938 175.502 l
164.547 175.705 l
164.153 175.904 l
163.757 176.099 l
163.359 176.289 l
162.959 176.474 l
162.557 176.655 l
162.153 176.832 l
161.747 177.003 l
161.34 177.171 l
160.93 177.333 l
160.519 177.491 l
160.106 177.644 l
159.691 177.792 l
159.274 177.935 l
158.856 178.074 l
158.437 178.207 l
158.016 178.336 l
157.593 178.459 l
157.169 178.578 l
156.744 178.692 l
156.317 178.8 l
155.889 178.903 l
155.46 179.001 l
155.03 179.095 l
154.598 179.183 l
154.166 179.265 l
153.733 179.343 l
153.298 179.415 l
152.863 179.482 l
152.427 179.544 l
151.991 179.6 l
151.554 179.651 l
151.116 179.697 l
150.678 179.738 l
150.239 179.773 l
149.8 179.802 l
149.36 179.826 l
148.92 179.845 l
148.48 179.859 l
148.04 179.867 l
147.6 179.87 l
147.16 179.867 l
146.72 179.859 l
146.28 179.845 l
145.84 179.826 l
145.4 179.802 l
144.961 179.773 l
144.522 179.738 l
144.084 179.697 l
143.646 179.651 l
143.209 179.6 l
142.773 179.544 l
142.337 179.482 l
141.902 179.415 l
141.467 179.343 l
141.034 179.265 l
140.602 179.183 l
140.17 179.095 l
139.74 179.001 l
139.311 178.903 l
138.883 178.8 l
138.456 178.692 l
138.031 178.578 l
137.607 178.459 l
137.184 178.336 l
136.763 178.207 l
136.344 178.074 l
135.926 177.935 l
135.509 177.792 l
135.094 177.644 l
134.681 177.491 l
134.27 177.333 l
133.86 177.171 l
133.453 177.003 l
133.047 176.832 l
132.643 176.655 l
132.241 176.474 l
131.841 176.289 l
131.443 176.099 l
131.047 175.904 l
130.653 175.705 l
130.262 175.502 l
129.872 175.294 l
129.485 175.082 l
129.1 174.866 l
128.717 174.646 l
128.336 174.421 l
127.958 174.192 l
127.582 173.959 l
127.208 173.722 l
126.837 173.481 l
126.468 173.236 l
126.102 172.987 l
125.738 172.734 l
125.376 172.477 l
125.017 172.216 l
124.66 171.952 l
124.306 171.683 l
123.955 171.411 l
123.606 171.136 l
123.259 170.856 l
122.915 170.573 l
122.574 170.286 l
122.235 169.995 l
121.899 169.701 l
121.565 169.404 l
121.234 169.102 l
120.906 168.798 l
120.58 168.489 l
120.257 168.178 l
119.937 167.863 l
119.619 167.544 l
119.304 167.222 l
118.991 166.897 l
118.681 166.568 l
118.374 166.236 l
118.07 165.901 l
117.768 165.562 l
117.469 165.22 l
117.173 164.875 l
116.879 164.527 l
116.589 164.175 l
116.301 163.82 l
116.015 163.462 l
115.732 163.101 l
115.453 162.736 l
115.176 162.368 l
114.901 161.997 l
114.63 161.623 l
114.361 161.246 l
114.095 160.865 l
113.832 160.481 l
113.571 160.094 l
113.314 159.704 l
113.059 159.311 l
112.807 158.915 l
112.558 158.515 l
112.311 158.112 l
112.068 157.706 l
111.828 157.297 l
111.59 156.885 l
111.355 156.469 l
111.123 156.05 l
110.894 155.628 l
110.668 155.203 l
110.445 154.775 l
110.225 154.343 l
110.008 153.908 l
109.794 153.47 l
109.583 153.028 l
109.375 152.584 l
109.17 152.136 l
108.968 151.684 l
108.77 151.23 l
108.574 150.772 l
108.382 150.31 l
108.192 149.846 l
108.006 149.377 l
107.824 148.906 l
107.644 148.431 l
107.468 147.953 l
107.295 147.471 l
107.126 146.986 l
106.96 146.497 l
106.797 146.005 l
106.638 145.509 l
106.482 145.009 l
106.33 144.506 l
106.181 144 l
106.036 143.49 l
105.895 142.976 l
105.758 142.459 l
105.624 141.938 l
105.494 141.413 l
105.368 140.885 l
105.246 140.353 l
105.128 139.817 l
105.014 139.277 l
104.904 138.734 l
104.798 138.187 l
104.696 137.636 l
104.599 137.081 l
104.506 136.523 l
104.418 135.96 l
104.334 135.394 l
104.255 134.824 l
104.18 134.25 l
104.11 133.672 l
104.045 133.09 l
103.985 132.504 l
103.929 131.915 l
103.879 131.321 l
103.834 130.724 l
103.794 130.122 l
103.759 129.517 l
103.73 128.908 l
103.706 128.295 l
103.688 127.678 l
103.676 127.057 l
103.67 126.432 l
103.669 125.803 l
103.675 125.171 l
103.687 124.535 l
103.704 123.894 l
103.729 123.25 l
103.76 122.603 l
103.797 121.952 l
103.842 121.297 l
103.893 120.638 l
103.951 119.976 l
104.016 119.31 l
104.089 118.641 l
104.169 117.969 l
104.257 117.293 l
104.352 116.613 l
104.455 115.931 l
104.566 115.246 l
104.685 114.557 l
104.813 113.866 l
104.949 113.172 l
105.093 112.475 l
105.246 111.775 l
105.409 111.074 l
105.58 110.369 l
105.76 109.663 l
105.95 108.954 l
106.149 108.244 l
106.357 107.532 l
106.576 106.818 l
106.804 106.103 l
107.043 105.387 l
107.292 104.669 l
107.551 103.951 l
107.821 103.232 l
108.101 102.513 l
108.392 101.794 l
108.695 101.075 l
109.008 100.356 l
109.333 99.638 l
109.669 98.921 l
110.017 98.2049 l
110.376 97.4904 l
110.747 96.7778 l
111.13 96.0672 l
111.525 95.3591 l
111.933 94.6538 l
112.352 93.9516 l
112.784 93.2529 l
113.228 92.5579 l
113.684 91.8675 l
114.153 91.1815 l
114.635 90.5005 l
115.129 89.8249 l
115.636 89.1554 l
116.155 88.492 l
116.687 87.8352 l
117.232 87.1856 l
117.79 86.5436 l
118.36 85.9099 l
118.943 85.2844 l
119.538 84.668 l
120.146 84.061 l
120.766 83.464 l
121.399 82.8773 l
122.044 82.3016 l
122.701 81.7374 l
123.369 81.1847 l
124.05 80.6445 l
124.742 80.1173 l
125.446 79.6031 l
126.161 79.1026 l
126.887 78.6167 l
127.623 78.1452 l
128.37 77.689 l
129.127 77.2485 l
129.894 76.8239 l
130.671 76.416 l
131.457 76.0249 l
132.252 75.6513 l
133.055 75.2951 l
133.867 74.9573 l
134.686 74.6379 l
135.512 74.3373 l
136.346 74.0561 l
137.186 73.7943 l
138.032 73.5522 l
138.884 73.3303 l
139.741 73.1288 l
140.602 72.9476 l
141.468 72.7876 l
142.337 72.6482 l
143.209 72.5302 l
144.084 72.4332 l
144.961 72.3578 l
145.84 72.3038 l
146.72 72.2714 l
147.6 72.2607 l
148.48 72.2714 l
149.36 72.3038 l
150.239 72.3578 l
151.116 72.4332 l
151.991 72.5302 l
152.863 72.6482 l
153.732 72.7876 l
154.598 72.9476 l
155.459 73.1288 l
156.316 73.3303 l
157.168 73.5522 l
158.014 73.7943 l
158.854 74.0561 l
159.688 74.3373 l
160.514 74.6379 l
161.333 74.9573 l
162.145 75.2951 l
162.948 75.6513 l
163.743 76.0249 l
164.529 76.416 l
165.306 76.8239 l
166.073 77.2485 l
166.83 77.689 l
167.577 78.1452 l
168.313 78.6167 l
169.039 79.1026 l
169.754 79.6031 l
170.458 80.1173 l
171.15 80.6445 l
171.831 81.1847 l
172.499 81.7374 l
173.156 82.3016 l
173.801 82.8773 l
174.434 83.464 l
175.054 84.061 l
175.662 84.668 l
176.257 85.2844 l
176.84 85.9099 l
177.41 86.5436 l
177.968 87.1856 l
178.513 87.8352 l
179.045 88.492 l
179.564 89.1554 l
180.071 89.8249 l
180.565 90.5005 l
181.047 91.1815 l
181.516 91.8675 l
181.972 92.5579 l
182.416 93.2529 l
182.848 93.9516 l
183.267 94.6538 l
183.675 95.3591 l
184.07 96.0672 l
184.453 96.7778 l
184.824 97.4904 l
185.183 98.2049 l
185.531 98.921 l
185.867 99.638 l
186.192 100.356 l
186.505 101.075 l
186.808 101.794 l
187.099 102.513 l
187.379 103.232 l
187.649 103.951 l
187.908 104.669 l
188.157 105.387 l
188.396 106.103 l
188.624 106.818 l
188.843 107.532 l
189.051 108.244 l
189.25 108.954 l
189.44 109.663 l
189.62 110.369 l
189.791 111.074 l
189.954 111.775 l
190.107 112.475 l
190.251 113.172 l
190.387 113.866 l
190.515 114.557 l
190.634 115.246 l
190.745 115.931 l
190.848 116.613 l
190.943 117.293 l
191.031 117.969 l
191.111 118.641 l
191.184 119.31 l
191.249 119.976 l
191.307 120.638 l
191.358 121.297 l
191.403 121.952 l
191.44 122.603 l
191.471 123.25 l
191.496 123.894 l
191.513 124.535 l
191.525 125.171 l
191.531 125.803 l
191.53 126.432 l
191.524 127.057 l
191.512 127.678 l
191.494 128.295 l
191.47 128.908 l
191.441 129.517 l
191.406 130.122 l
191.366 130.724 l
191.321 131.321 l
191.271 131.915 l
191.215 132.504 l
191.155 133.09 l
191.09 133.672 l
191.02 134.25 l
190.945 134.824 l
190.866 135.394 l
190.782 135.96 l
190.694 136.523 l
190.601 137.081 l
190.504 137.636 l
190.402 138.187 l
190.296 138.734 l
190.186 139.277 l
190.072 139.817 l
189.954 140.353 l
189.832 140.885 l
189.706 141.413 l
189.576 141.938 l
189.442 142.459 l
189.305 142.976 l
189.164 143.49 l
189.019 144 l
cl
gsave
0.500 0.500 1.000 setrgbcolor
fill
grestore
stroke
grestore
1.000 setlinewidth
0.000 setgray
gsave
223.2 223.2 36 32.4 clipbox
189.019 144 m
188.87 144.506 l
188.718 145.009 l
188.562 145.509 l
188.403 146.005 l
188.24 146.497 l
188.074 146.986 l
187.905 147.471 l
187.732 147.953 l
187.556 148.431 l
187.376 148.906 l
187.194 149.377 l
187.008 149.846 l
186.818 150.31 l
186.626 150.772 l
186.43 151.23 l
186.232 151.684 l
186.03 152.136 l
185.825 152.584 l
185.617 153.028 l
185.406 153.47 l
185.192 153.908 l
184.975 154.343 l
184.755 154.775 l
184.532 155.203 l
184.306 155.628 l
184.077 156.05 l
183.845 156.469 l
183.61 156.885 l
183.372 157.297 l
183.132 157.706 l
182.889 158.112 l
182.642 158.515 l
182.393 158.915 l
182.141 159.311 l
181.886 159.704 l
181.629 160.094 l
181.368 160.481 l
181.105 160.865 l
180.839 161.246 l
180.57 161.623 l
180.299 161.997 l
180.024 162.368 l
179.747 162.736 l
179.468 163.101 l
179.185 163.462 l
178.899 163.82 l
178.611 164.175 l
178.321 164.527 l
178.027 164.875 l
177.731 165.22 l
177.432 165.562 l
177.13 165.901 l
176.826 166.236 l
176.519 166.568 l
176.209 166.897 l
175.896 167.222 l
175.581 167.544 l
175.263 167.863 l
174.943 168.178 l
174.62 168.489 l
174.294 168.798 l
173.966 169.102 l
173.635 169.404 l
173.301 169.701 l
172.965 169.995 l
172.626 170.286 l
172.285 170.573 l
171.941 170.856 l
171.594 171.136 l
171.245 171.411 l
170.894 171.683 l
170.54 171.952 l
170.183 172.216 l
169.824 172.477 l
169.462 172.734 l
169.098 172.987 l
168.732 173.236 l
168.363 173.481 l
167.992 173.722 l
167.618 173.959 l
167.242 174.192 l
166.864 174.421 l
166.483 174.646 l
166.1 174.866 l
165.715 175.082 l
165.328 175.294 l
164.938 175.502 l
164.547 175.705 l
164.153 175.904 l
163.757 176.099 l
163.359 176.289 l
162.959 176.474 l
162.557 176.655 l
162.153 176.832 l
161.747 177.003 l
161.34 177.171 l
160.93 177.333 l
160.519 177.491 l
160.106 177.644 l
159.691 177.792 l
159.274 177.935 l
158.856 178.074 l
158.437 178.207 l
158.016 178.336 l
157.593 178.459 l
157.169 178.578 l
156.744 178.692 l
156.317 178.8 l
155.889 178.903 l
155.46 179.001 l
155.03 179.095 l
154.598 179.183 l
154.166 179.265 l
153.733 179.343 l
153.298 179.415 l
152.863 179.482 l
152.427 179.544 l
151.991 179.6 l
151.554 179.651 l
151.116 179.697 l
150.678 179.738 l
150.239 179.773 l
149.8 179.802 l
149.36 179.826 l
148.92 179.845 l
148.48 179.859 l
148.04 179.867 l
147.6 179.87 l
147.16 179.867 l
146.72 179.859 l
146.28 179.845 l
145.84 179.826 l
145.4 179.802 l
144.961 179.773 l
144.522 179.738 l
144.084 179.697 l
143.646 179.651 l
143.209 179.6 l
142.773 179.544 l
142.337 179.482 l
141.902 179.415 l
141.467 179.343 l
141.034 179.265 l
140.602 179.183 l
140.17 179.095 l
139.74 179.001 l
139.311 178.903 l
138.883 178.8 l
138.456 178.692 l
138.031 178.578 l
137.607 178.459 l
137.184 178.336 l
136.763 178.207 l
136.344 178.074 l
135.926 177.935 l
135.509 177.792 l
135.094 177.644 l
134.681 177.491 l
134.27 177.333 l
133.86 177.171 l
133.453 177.003 l
133.047 176.832 l
132.643 176.655 l
132.241 176.474 l
131.841 176.289 l
131.443 176.099 l
131.047 175.904 l
130.653 175.705 l
130.262 175.502 l
129.872 175.294 l
129.485 175.082 l
129.1 174.866 l
128.717 174.646 l
128.336 174.421 l
127.958 174.192 l
127.582 173.959 l
127.208 173.722 l
126.837 173.481 l
126.468 173.236 l
126.102 172.987 l
125.738 172.734 l
125.376 172.477 l
125.017 172.216 l
124.66 171.952 l
124.306 171.683 l
123.955 171.411 l
123.606 171.136 l
123.259 170.856 l
122.915 170.573 l
122.574 170.286 l
122.235 169.995 l
121.899 169.701 l
121.565 169.404 l
121.234 169.102 l
120.906 168.798 l
120.58 168.489 l
120.257 168.178 l
119.937 167.863 l
119.619 167.544 l
119.304 167.222 l
118.991 166.897 l
118.681 166.568 l
118.374 166.236 l
118.07 165.901 l
117.768 165.562 l
117.469 165.22 l
117.173 164.875 l
116.879 164.527 l
116.589 164.175 l
116.301 163.82 l
116.015 163.462 l
115.732 163.101 l
115.453 162.736 l
115.176 162.368 l
114.901 161.997 l
114.63 161.623 l
114.361 161.246 l
114.095 160.865 l
113.832 160.481 l
113.571 160.094 l
113.314 159.704 l
113.059 159.311 l
112.807 158.915 l
112.558 158.515 l
112.311 158.112 l
112.068 157.706 l
111.828 157.297 l
111.59 156.885 l
111.355 156.469 l
111.123 156.05 l
110.894 155.628 l
110.668 155.203 l
110.445 154.775 l
110.225 154.343 l
110.008 153.908 l
109.794 153.47 l
109.583 153.028 l
109.375 152.584 l
109.17 152.136 l
108.968 151.684 l
108.77 151.23 l
108.574 150.772 l
108.382 150.31 l
108.192 149.846 l
108.006 149.377 l
107.824 148.906 l
107.644 148.431 l
107.468 147.953 l
107.295 147.471 l
107.126 146.986 l
106.96 146.497 l
106.797 146.005 l
106.638 145.509 l
106.482 145.009 l
106.33 144.506 l
106.181 144 l
106.32 143.493 l
106.506 142.991 l
106.616 142.49 l
106.731 141.992 l
106.933 141.502 l
107.059 141.01 l
107.19 140.52 l
107.326 140.033 l
107.467 139.549 l
107.614 139.068 l
107.766 138.59 l
107.923 138.114 l
108.085 137.642 l
108.168 137.158 l
108.34 136.69 l
108.517 136.226 l
108.615 135.747 l
108.802 135.288 l
108.909 134.812 l
109.106 134.358 l
109.224 133.885 l
109.345 133.414 l
109.472 132.943 l
109.689 132.5 l
109.826 132.033 l
109.967 131.568 l
110.113 131.104 l
110.265 130.641 l
110.421 130.18 l
110.496 129.688 l
110.663 129.228 l
110.834 128.771 l
111.01 128.315 l
111.106 127.823 l
111.292 127.37 l
111.483 126.918 l
111.595 126.427 l
111.796 125.978 l
111.918 125.487 l
112.045 124.996 l
112.263 124.551 l
112.401 124.06 l
112.545 123.569 l
112.694 123.078 l
112.934 122.639 l
113.094 122.15 l
113.261 121.66 l
113.433 121.171 l
113.612 120.682 l
113.796 120.193 l
113.904 119.645 l
114.101 119.156 l
114.304 118.667 l
114.514 118.18 l
114.649 117.627 l
114.872 117.141 l
115.02 116.586 l
115.257 116.1 l
115.419 115.545 l
115.59 114.988 l
115.848 114.504 l
116.034 113.946 l
116.227 113.388 l
116.429 112.829 l
116.639 112.27 l
116.857 111.71 l
117.084 111.15 l
117.319 110.59 l
117.563 110.031 l
117.816 109.472 l
118.004 108.826 l
118.275 108.267 l
118.483 107.619 l
118.773 107.062 l
119.001 106.412 l
119.311 105.857 l
119.561 105.207 l
119.822 104.558 l
120.094 103.908 l
120.377 103.258 l
120.673 102.61 l
120.98 101.962 l
121.234 101.211 l
121.566 100.565 l
121.91 99.9208 l
122.205 99.1708 l
122.574 98.5306 l
122.896 97.7828 l
123.233 97.0361 l
123.585 96.2912 l
123.952 95.5482 l
124.334 94.8077 l
124.731 94.0703 l
125.142 93.3366 l
125.57 92.6068 l
125.962 91.7612 l
126.421 91.0403 l
126.848 90.2021 l
127.339 89.492 l
127.801 88.6641 l
128.28 87.8414 l
128.778 87.0247 l
129.294 86.215 l
129.828 85.4124 l
130.38 84.618 l
130.949 83.8324 l
131.537 83.056 l
132.142 82.29 l
132.765 81.5346 l
133.376 80.6573 l
134.035 79.9247 l
134.711 79.205 l
135.405 78.4988 l
136.114 77.8068 l
136.84 77.1298 l
137.583 76.4682 l
138.34 75.8225 l
139.131 75.3317 l
139.917 74.7207 l
140.732 74.266 l
141.557 73.8307 l
142.393 73.4147 l
143.239 73.0187 l
144.101 72.7827 l
144.969 72.5677 l
145.842 72.3738 l
146.721 72.3414 l
147.6 72.3308 l
148.479 72.3414 l
149.358 72.3738 l
150.231 72.5677 l
151.099 72.7827 l
151.961 73.0187 l
152.807 73.4147 l
153.643 73.8307 l
154.468 74.266 l
155.283 74.7207 l
156.069 75.3317 l
156.86 75.8225 l
157.617 76.4682 l
158.36 77.1298 l
159.086 77.8068 l
159.795 78.4988 l
160.489 79.205 l
161.165 79.9247 l
161.824 80.6573 l
162.435 81.5346 l
163.058 82.29 l
163.663 83.056 l
164.251 83.8324 l
164.82 84.618 l
165.372 85.4124 l
165.906 86.215 l
166.422 87.0247 l
166.92 87.8414 l
167.399 88.6641 l
167.861 89.492 l
168.352 90.2021 l
168.779 91.0403 l
169.238 91.7612 l
169.63 92.6068 l
170.058 93.3366 l
170.469 94.0703 l
170.866 94.8077 l
171.248 95.5482 l
171.615 96.2912 l
171.967 97.0361 l
172.304 97.7828 l
172.626 98.5306 l
172.995 99.1708 l
173.29 99.9208 l
173.634 100.565 l
173.966 101.211 l
174.22 101.962 l
174.527 102.61 l
174.823 103.258 l
175.106 103.908 l
175.378 104.558 l
175.639 105.207 l
175.889 105.857 l
176.199 106.412 l
176.427 107.062 l
176.717 107.619 l
176.925 108.267 l
177.196 108.826 l
177.384 109.472 l
177.637 110.031 l
177.881 110.59 l
178.116 111.15 l
178.343 111.71 l
178.561 112.27 l
178.771 112.829 l
178.973 113.388 l
179.166 113.946 l
179.352 114.504 l
179.61 114.988 l
179.781 115.545 l
179.943 116.1 l
180.18 116.586 l
180.328 117.141 l
180.551 117.627 l
180.686 118.18 l
180.896 118.667 l
181.099 119.156 l
181.296 119.645 l
181.404 120.193 l
181.588 120.682 l
181.767 121.171 l
181.939 121.66 l
182.106 122.15 l
182.266 122.639 l
182.506 123.078 l
182.655 123.569 l
182.799 124.06 l
182.937 124.551 l
183.155 124.996 l
183.282 125.487 l
183.404 125.978 l
183.605 126.427 l
183.717 126.918 l
183.908 127.37 l
184.094 127.823 l
184.19 128.315 l
184.366 128.771 l
184.537 129.228 l
184.704 129.688 l
184.779 130.18 l
184.935 130.641 l
185.087 131.104 l
185.233 131.568 l
185.374 132.033 l
185.511 132.5 l
185.728 132.943 l
185.855 133.414 l
185.976 133.885 l
186.094 134.358 l
186.291 134.812 l
186.398 135.288 l
186.585 135.747 l
186.683 136.226 l
186.86 136.69 l
187.032 137.158 l
187.115 137.642 l
187.277 138.114 l
187.434 138.59 l
187.586 139.068 l
187.733 139.549 l
187.874 140.033 l
188.01 140.52 l
188.141 141.01 l
188.267 141.502 l
188.469 141.992 l
188.584 142.49 l
188.694 142.991 l
188.88 143.493 l
189.019 144 l
cl
gsave
0.500 setgray
fill
grestore
stroke
grestore
1.000 0.000 0.000 setrgbcolor
gsave
223.2 223.2 36 32.4 clipbox
249.055 144 m
248.566 153.944 l
247.105 163.793 l
244.686 173.451 l
241.332 182.825 l
237.075 191.825 l
231.956 200.365 l
226.025 208.362 l
219.339 215.739 l
211.962 222.425 l
203.965 228.356 l
195.425 233.475 l
186.425 237.732 l
177.051 241.086 l
167.393 243.505 l
157.544 244.966 l
147.6 245.455 l
137.656 244.966 l
127.807 243.505 l
118.149 241.086 l
108.775 237.732 l
99.7747 233.475 l
91.2349 228.356 l
83.2379 222.425 l
75.8608 215.739 l
69.1746 208.362 l
63.2436 200.365 l
58.1251 191.825 l
53.8682 182.825 l
50.5141 173.451 l
48.0949 163.793 l
46.634 153.944 l
46.1455 144 l
46.634 134.056 l
48.0949 124.207 l
50.5141 114.549 l
53.8682 105.175 l
58.1251 96.1747 l
63.2436 87.6349 l
69.1746 79.6379 l
75.8608 72.2608 l
83.2379 65.5746 l
91.2349 59.6436 l
99.7747 54.5251 l
108.775 50.2682 l
118.149 46.9141 l
127.807 44.4949 l
137.656 43.034 l
147.6 42.5455 l
157.544 43.034 l
167.393 44.4949 l
177.051 46.9141 l
186.425 50.2682 l
195.425 54.5251 l
203.965 59.6436 l
211.962 65.5746 l
219.339 72.2608 l
226.025 79.6379 l
231.956 87.6349 l
237.075 96.1747 l
241.332 105.175 l
244.686 114.549 l
247.105 124.207 l
248.566 134.056 l
249.055 144 l
stroke
grestore
0.750 0.750 0.000 setrgbcolor
gsave
223.2 223.2 36 32.4 clipbox
206.175 144 m
205.893 149.741 l
205.049 155.427 l
203.653 161.003 l
201.716 166.416 l
199.258 171.612 l
196.303 176.542 l
192.879 181.159 l
189.019 185.419 l
184.759 189.279 l
180.142 192.703 l
175.212 195.658 l
170.016 198.116 l
164.603 200.053 l
159.027 201.449 l
153.341 202.293 l
147.6 202.575 l
141.859 202.293 l
136.173 201.449 l
130.597 200.053 l
125.184 198.116 l
119.988 195.658 l
115.058 192.703 l
110.441 189.279 l
106.181 185.419 l
102.321 181.159 l
98.8968 176.542 l
95.9416 171.612 l
93.4839 166.416 l
91.5474 161.003 l
90.1507 155.427 l
89.3072 149.741 l
89.0252 144 l
89.3072 138.259 l
90.1507 132.573 l
91.5474 126.997 l
93.4839 121.584 l
95.9416 116.388 l
98.8968 111.458 l
102.321 106.841 l
106.181 102.581 l
110.441 98.7211 l
115.058 95.2968 l
119.988 92.3416 l
125.184 89.8839 l
130.597 87.9474 l
136.173 86.5507 l
141.859 85.7072 l
147.6 85.4252 l
153.341 85.7072 l
159.027 86.5507 l
164.603 87.9474 l
170.016 89.8839 l
175.212 92.3416 l
180.142 95.2968 l
184.759 98.7211 l
189.019 102.581 l
192.879 106.841 l
196.303 111.458 l
199.258 116.388 l
201.716 121.584 l
203.653 126.997 l
205.049 132.573 l
205.893 138.259 l
206.175 144 l
stroke
grestore
gsave
223.2 223.2 36 32.4 clipbox
219.339 144 m
218.994 151.032 l
217.961 157.996 l
216.25 164.825 l
213.878 171.453 l
210.868 177.818 l
207.249 183.856 l
203.055 189.511 l
198.327 194.727 l
193.111 199.455 l
187.456 203.649 l
181.418 207.268 l
175.053 210.278 l
168.425 212.65 l
161.596 214.361 l
154.632 215.394 l
147.6 215.739 l
140.568 215.394 l
133.604 214.361 l
126.775 212.65 l
120.147 210.278 l
113.782 207.268 l
107.744 203.649 l
102.089 199.455 l
96.8727 194.727 l
92.1449 189.511 l
87.951 183.856 l
84.3317 177.818 l
81.3216 171.453 l
78.9499 164.825 l
77.2393 157.996 l
76.2062 151.032 l
75.8608 144 l
76.2062 136.968 l
77.2393 130.004 l
78.9499 123.175 l
81.3216 116.547 l
84.3317 110.182 l
87.951 104.144 l
92.1449 98.4891 l
96.8727 93.2727 l
102.089 88.5449 l
107.744 84.351 l
113.782 80.7317 l
120.147 77.7216 l
126.775 75.3499 l
133.604 73.6393 l
140.568 72.6062 l
147.6 72.2608 l
154.632 72.6062 l
161.596 73.6393 l
168.425 75.3499 l
175.053 77.7216 l
181.418 80.7317 l
187.456 84.351 l
193.111 88.5449 l
198.327 93.2727 l
203.055 98.4891 l
207.249 104.144 l
210.868 110.182 l
213.878 116.547 l
216.25 123.175 l
217.961 130.004 l
218.994 136.968 l
219.339 144 l
stroke
grestore
gsave
223.2 223.2 36 32.4 clipbox
189.019 144 m
188.819 148.06 l
188.223 152.08 l
187.235 156.023 l
185.866 159.85 l
184.128 163.525 l
182.038 167.011 l
179.617 170.276 l
176.887 173.287 l
173.876 176.017 l
170.611 178.438 l
167.125 180.528 l
163.45 182.266 l
159.623 183.635 l
155.68 184.623 l
151.66 185.219 l
147.6 185.419 l
143.54 185.219 l
139.52 184.623 l
135.577 183.635 l
131.75 182.266 l
128.075 180.528 l
124.589 178.438 l
121.324 176.017 l
118.313 173.287 l
115.583 170.276 l
113.162 167.011 l
111.072 163.525 l
109.334 159.85 l
107.965 156.023 l
106.977 152.08 l
106.381 148.06 l
106.181 144 l
106.381 139.94 l
106.977 135.92 l
107.965 131.977 l
109.334 128.15 l
111.072 124.475 l
113.162 120.989 l
115.583 117.724 l
118.313 114.713 l
121.324 111.983 l
124.589 109.562 l
128.075 107.472 l
131.75 105.734 l
135.577 104.365 l
139.52 103.377 l
143.54 102.781 l
147.6 102.581 l
151.66 102.781 l
155.68 103.377 l
159.623 104.365 l
163.45 105.734 l
167.125 107.472 l
170.611 109.562 l
173.876 111.983 l
176.887 114.713 l
179.617 117.724 l
182.038 120.989 l
184.128 124.475 l
185.866 128.15 l
187.235 131.977 l
188.223 135.92 l
188.819 139.94 l
189.019 144 l
stroke
grestore
0.000 0.500 0.000 setrgbcolor
gsave
223.2 223.2 36 32.4 clipbox
181.418 144 m
181.255 147.315 l
180.768 150.598 l
179.962 153.817 l
178.844 156.942 l
177.425 159.942 l
175.719 162.788 l
173.742 165.454 l
171.513 167.913 l
169.054 170.142 l
166.388 172.119 l
163.542 173.825 l
160.542 175.244 l
157.417 176.362 l
154.198 177.168 l
150.915 177.655 l
147.6 177.818 l
144.285 177.655 l
141.002 177.168 l
137.783 176.362 l
134.658 175.244 l
131.658 173.825 l
128.812 172.119 l
126.146 170.142 l
123.687 167.913 l
121.458 165.454 l
119.481 162.788 l
117.775 159.942 l
116.356 156.942 l
115.238 153.817 l
114.432 150.598 l
113.945 147.315 l
113.782 144 l
113.945 140.685 l
114.432 137.402 l
115.238 134.183 l
116.356 131.058 l
117.775 128.058 l
119.481 125.212 l
121.458 122.546 l
123.687 120.087 l
126.146 117.858 l
128.812 115.881 l
131.658 114.175 l
134.658 112.756 l
137.783 111.638 l
141.002 110.832 l
144.285 110.345 l
147.6 110.182 l
150.915 110.345 l
154.198 110.832 l
157.417 111.638 l
160.542 112.756 l
163.542 114.175 l
166.388 115.881 l
169.054 117.858 l
171.513 120.087 l
173.742 122.546 l
175.719 125.212 l
177.425 128.058 l
178.844 131.058 l
179.962 134.183 l
180.768 137.402 l
181.255 140.685 l
181.418 144 l
stroke
grestore
0.500 setlinewidth
0 setlinecap
0.000 setgray
gsave
/o {
gsave
newpath
translate
0.5 setlinewidth
1 setlinejoin
0 setlinecap
0 0 m
0 4 l
gsave
0.000 setgray
fill
grestore
stroke
grestore
} bind def
46.1455 32.4 o
grestore
gsave
/o {
gsave
newpath
translate
0.5 setlinewidth
1 setlinejoin
0 setlinecap
0 0 m
0 -4 l
gsave
0.000 setgray
fill
grestore
stroke
grestore
} bind def
46.1455 255.6 o
grestore
/BitstreamVeraSans-Roman findfont
9.000 scalefont
setfont
gsave
35.989205 21.587500 translate
0.000000 rotate
0.000000 0.125000 m /minus glyphshow
7.541016 0.125000 m /one glyphshow
13.267090 0.125000 m /period glyphshow
16.127930 0.125000 m /zero glyphshow
grestore
gsave
/o {
gsave
newpath
translate
0.5 setlinewidth
1 setlinejoin
0 setlinecap
0 0 m
0 4 l
gsave
0.000 setgray
fill
grestore
stroke
grestore
} bind def
96.8727 32.4 o
grestore
gsave
/o {
gsave
newpath
translate
0.5 setlinewidth
1 setlinejoin
0 setlinecap
0 0 m
0 -4 l
gsave
0.000 setgray
fill
grestore
stroke
grestore
} bind def
96.8727 255.6 o
grestore
gsave
86.810227 21.587500 translate
0.000000 rotate
0.000000 0.125000 m /minus glyphshow
7.541016 0.125000 m /zero glyphshow
13.267090 0.125000 m /period glyphshow
16.127930 0.125000 m /five glyphshow
grestore
gsave
/o {
gsave
newpath
translate
0.5 setlinewidth
1 setlinejoin
0 setlinecap
0 0 m
0 4 l
gsave
0.000 setgray
fill
grestore
stroke
grestore
} bind def
147.6 32.4 o
grestore
gsave
/o {
gsave
newpath
translate
0.5 setlinewidth
1 setlinejoin
0 setlinecap
0 0 m
0 -4 l
gsave
0.000 setgray
fill
grestore
stroke
grestore
} bind def
147.6 255.6 o
grestore
gsave
141.037500 21.587500 translate
0.000000 rotate
0.000000 0.125000 m /zero glyphshow
5.726074 0.125000 m /period glyphshow
8.586914 0.125000 m /zero glyphshow
grestore
gsave
/o {
gsave
newpath
translate
0.5 setlinewidth
1 setlinejoin
0 setlinecap
0 0 m
0 4 l
gsave
0.000 setgray
fill
grestore
stroke
grestore
} bind def
198.327 32.4 o
grestore
gsave
/o {
gsave
newpath
translate
0.5 setlinewidth
1 setlinejoin
0 setlinecap
0 0 m
0 -4 l
gsave
0.000 setgray
fill
grestore
stroke
grestore
} bind def
198.327 255.6 o
grestore
gsave
191.858523 21.587500 translate
0.000000 rotate
0.000000 0.125000 m /zero glyphshow
5.726074 0.125000 m /period glyphshow
8.586914 0.125000 m /five glyphshow
grestore
gsave
/o {
gsave
newpath
translate
0.5 setlinewidth
1 setlinejoin
0 setlinecap
0 0 m
0 4 l
gsave
0.000 setgray
fill
grestore
stroke
grestore
} bind def
249.055 32.4 o
grestore
gsave
/o {
gsave
newpath
translate
0.5 setlinewidth
1 setlinejoin
0 setlinecap
0 0 m
0 -4 l
gsave
0.000 setgray
fill
grestore
stroke
grestore
} bind def
249.055 255.6 o
grestore
gsave
242.687358 21.587500 translate
0.000000 rotate
0.000000 0.125000 m /one glyphshow
5.726074 0.125000 m /period glyphshow
8.586914 0.125000 m /zero glyphshow
grestore
gsave
/o {
gsave
newpath
translate
0.5 setlinewidth
1 setlinejoin
0 setlinecap
0 0 m
4 0 l
gsave
0.000 setgray
fill
grestore
stroke
grestore
} bind def
36 42.5455 o
grestore
gsave
/o {
gsave
newpath
translate
0.5 setlinewidth
1 setlinejoin
0 setlinecap
0 0 m
-4 0 l
gsave
0.000 setgray
fill
grestore
stroke
grestore
} bind def
259.2 42.5455 o
grestore
gsave
11.687500 39.139205 translate
0.000000 rotate
0.000000 0.125000 m /minus glyphshow
7.541016 0.125000 m /one glyphshow
13.267090 0.125000 m /period glyphshow
16.127930 0.125000 m /zero glyphshow
grestore
gsave
/o {
gsave
newpath
translate
0.5 setlinewidth
1 setlinejoin
0 setlinecap
0 0 m
4 0 l
gsave
0.000 setgray
fill
grestore
stroke
grestore
} bind def
36 93.2727 o
grestore
gsave
/o {
gsave
newpath
translate
0.5 setlinewidth
1 setlinejoin
0 setlinecap
0 0 m
-4 0 l
gsave
0.000 setgray
fill
grestore
stroke
grestore
} bind def
259.2 93.2727 o
grestore
gsave
11.875000 89.866477 translate
0.000000 rotate
0.000000 0.125000 m /minus glyphshow
7.541016 0.125000 m /zero glyphshow
13.267090 0.125000 m /period glyphshow
16.127930 0.125000 m /five glyphshow
grestore
gsave
/o {
gsave
newpath
translate
0.5 setlinewidth
1 setlinejoin
0 setlinecap
0 0 m
4 0 l
gsave
0.000 setgray
fill
grestore
stroke
grestore
} bind def
36 144 o
grestore
gsave
/o {
gsave
newpath
translate
0.5 setlinewidth
1 setlinejoin
0 setlinecap
0 0 m
-4 0 l
gsave
0.000 setgray
fill
grestore
stroke
grestore
} bind def
259.2 144 o
grestore
gsave
18.875000 140.593750 translate
0.000000 rotate
0.000000 0.125000 m /zero glyphshow
5.726074 0.125000 m /period glyphshow
8.586914 0.125000 m /zero glyphshow
grestore
gsave
/o {
gsave
newpath
translate
0.5 setlinewidth
1 setlinejoin
0 setlinecap
0 0 m
4 0 l
gsave
0.000 setgray
fill
grestore
stroke
grestore
} bind def
36 194.727 o
grestore
gsave
/o {
gsave
newpath
translate
0.5 setlinewidth
1 setlinejoin
0 setlinecap
0 0 m
-4 0 l
gsave
0.000 setgray
fill
grestore
stroke
grestore
} bind def
259.2 194.727 o
grestore
gsave
19.062500 191.321023 translate
0.000000 rotate
0.000000 0.125000 m /zero glyphshow
5.726074 0.125000 m /period glyphshow
8.586914 0.125000 m /five glyphshow
grestore
gsave
/o {
gsave
newpath
translate
0.5 setlinewidth
1 setlinejoin
0 setlinecap
0 0 m
4 0 l
gsave
0.000 setgray
fill
grestore
stroke
grestore
} bind def
36 245.455 o
grestore
gsave
/o {
gsave
newpath
translate
0.5 setlinewidth
1 setlinejoin
0 setlinecap
0 0 m
-4 0 l
gsave
0.000 setgray
fill
grestore
stroke
grestore
} bind def
259.2 245.455 o
grestore
gsave
19.265625 242.048295 translate
0.000000 rotate
0.000000 0.125000 m /one glyphshow
5.726074 0.125000 m /period glyphshow
8.586914 0.125000 m /zero glyphshow
grestore
1.000 setlinewidth
2 setlinecap
gsave
36 255.6 m
259.2 255.6 l
stroke
grestore
gsave
259.2 32.4 m
259.2 255.6 l
stroke
grestore
gsave
36 32.4 m
259.2 32.4 l
stroke
grestore
gsave
36 32.4 m
36 255.6 l
stroke
grestore

end
showpage
