%!PS-Adobe-3.0 EPSF-3.0
%%Title: ../../thesis/images/4l_2d_entangled//HG.eps
%%Creator: matplotlib version 1.2.1, http://matplotlib.org/
%%CreationDate: Mon May 20 13:29:25 2013
%%Orientation: portrait
%%BoundingBox: 162 252 450 540
%%EndComments
%%BeginProlog
/mpldict 8 dict def
mpldict begin
/m { moveto } bind def
/l { lineto } bind def
/r { rlineto } bind def
/c { curveto } bind def
/cl { closepath } bind def
/box {
m
1 index 0 r
0 exch r
neg 0 r
cl
} bind def
/clipbox {
box
clip
newpath
} bind def
%!PS-Adobe-3.0 Resource-Font
%%Title: Bitstream Vera Sans
%%Copyright: Copyright (c) 2003 by Bitstream, Inc. All Rights Reserved.
%%Creator: Converted from TrueType to type 3 by PPR
25 dict begin
/_d{bind def}bind def
/_m{moveto}_d
/_l{lineto}_d
/_cl{closepath eofill}_d
/_c{curveto}_d
/_sc{7 -1 roll{setcachedevice}{pop pop pop pop pop pop}ifelse}_d
/_e{exec}_d
/FontName /BitstreamVeraSans-Roman def
/PaintType 0 def
/FontMatrix[.001 0 0 .001 0 0]def
/FontBBox[-183 -236 1287 928]def
/FontType 3 def
/Encoding [ /period /zero /one /five /minus ] def
/FontInfo 10 dict dup begin
/FamilyName (Bitstream Vera Sans) def
/FullName (Bitstream Vera Sans) def
/Notice (Copyright (c) 2003 by Bitstream, Inc. All Rights Reserved. Bitstream Vera is a trademark of Bitstream, Inc.) def
/Weight (Roman) def
/Version (Release 1.10) def
/ItalicAngle 0.0 def
/isFixedPitch false def
/UnderlinePosition -213 def
/UnderlineThickness 143 def
end readonly def
/CharStrings 5 dict dup begin
/period{318 0 107 0 210 124 _sc
107 124 _m
210 124 _l
210 0 _l
107 0 _l
107 124 _l
_cl}_d
/zero{636 0 66 -13 570 742 _sc
318 664 _m
267 664 229 639 203 589 _c
177 539 165 464 165 364 _c
165 264 177 189 203 139 _c
229 89 267 64 318 64 _c
369 64 407 89 433 139 _c
458 189 471 264 471 364 _c
471 464 458 539 433 589 _c
407 639 369 664 318 664 _c
318 742 _m
399 742 461 709 505 645 _c
548 580 570 486 570 364 _c
570 241 548 147 505 83 _c
461 19 399 -13 318 -13 _c
236 -13 173 19 130 83 _c
87 147 66 241 66 364 _c
66 486 87 580 130 645 _c
173 709 236 742 318 742 _c
_cl}_d
/one{636 0 110 0 544 729 _sc
124 83 _m
285 83 _l
285 639 _l
110 604 _l
110 694 _l
284 729 _l
383 729 _l
383 83 _l
544 83 _l
544 0 _l
124 0 _l
124 83 _l
_cl}_d
/five{{636 0 77 -13 549 729 _sc
108 729 _m
495 729 _l
495 646 _l
198 646 _l
198 467 _l
212 472 227 476 241 478 _c
255 480 270 482 284 482 _c
365 482 429 459 477 415 _c
525 370 549 310 549 234 _c
549 155 524 94 475 51 _c
426 8 357 -13 269 -13 _c
238 -13 207 -10 175 -6 _c
143 -1 111 6 77 17 _c
77 116 _l
106 100 136 88 168 80 _c
199 72 232 69 267 69 _c
}_e{323 69 368 83 401 113 _c
433 143 450 183 450 234 _c
450 284 433 324 401 354 _c
368 384 323 399 267 399 _c
241 399 214 396 188 390 _c
162 384 135 375 108 363 _c
108 729 _l
_cl}_e}_d
/minus{838 0 106 272 732 355 _sc
106 355 _m
732 355 _l
732 272 _l
106 272 _l
106 355 _l
_cl}_d
end readonly def

/BuildGlyph
 {exch begin
 CharStrings exch
 2 copy known not{pop /.notdef}if
 true 3 1 roll get exec
 end}_d

/BuildChar {
 1 index /Encoding get exch get
 1 index /BuildGlyph get exec
}_d

FontName currentdict end definefont pop
end
%%EndProlog
mpldict begin
162 252 translate
288 288 0 0 clipbox
gsave
0 0 m
288 0 l
288 288 l
0 288 l
cl
1.000 setgray
fill
grestore
gsave
36 32.4 m
259.2 32.4 l
259.2 255.6 l
36 255.6 l
cl
1.000 setgray
fill
grestore
2.000 setlinewidth
1 setlinejoin
2 setlinecap
[] 0 setdash
0.000 0.000 1.000 setrgbcolor
gsave
223.2 223.2 36 32.4 clipbox
183.47 144 m
183.47 144.44 l
183.47 144.881 l
183.47 145.321 l
183.47 145.762 l
183.47 146.204 l
183.47 146.646 l
183.47 147.089 l
183.47 147.533 l
183.47 147.978 l
183.47 148.424 l
183.47 148.872 l
183.47 149.321 l
183.47 149.772 l
183.47 150.224 l
183.47 150.678 l
183.47 151.135 l
183.47 151.594 l
183.47 152.055 l
183.47 152.518 l
183.47 152.985 l
183.47 153.454 l
183.47 153.926 l
183.47 154.402 l
183.47 154.881 l
183.47 155.363 l
183.47 155.85 l
183.47 156.34 l
183.47 156.834 l
183.47 157.333 l
183.47 157.837 l
183.47 158.345 l
183.47 158.858 l
183.47 159.376 l
183.47 159.9 l
183.47 160.429 l
183.47 160.965 l
183.47 161.507 l
183.47 162.055 l
183.47 162.61 l
183.47 163.173 l
183.47 163.743 l
183.47 164.32 l
183.47 164.906 l
183.47 165.5 l
183.47 166.102 l
183.47 166.714 l
183.47 167.336 l
183.47 167.967 l
183.47 168.609 l
183.47 169.262 l
183.47 169.927 l
183.47 170.603 l
183.47 171.291 l
183.47 171.993 l
183.47 172.708 l
183.47 173.438 l
183.47 174.182 l
183.47 174.941 l
183.47 175.717 l
183.47 176.51 l
183.47 177.321 l
183.47 178.151 l
183.47 179 l
183.47 179.87 l
183.47 180.761 l
183.47 181.675 l
183.47 182.613 l
183.47 183.576 l
183.47 184.566 l
183.47 185.583 l
183.47 186.63 l
183.47 187.707 l
183.47 188.818 l
183.47 189.963 l
183.47 191.144 l
183.47 192.365 l
183.47 193.626 l
183.298 194.687 l
182.196 194.426 l
181.123 194.171 l
180.077 193.921 l
179.057 193.677 l
178.062 193.436 l
177.09 193.201 l
176.14 192.969 l
175.212 192.742 l
174.305 192.519 l
173.417 192.3 l
172.548 192.084 l
171.697 191.872 l
170.863 191.664 l
170.046 191.458 l
169.245 191.256 l
168.459 191.056 l
167.687 190.86 l
166.93 190.666 l
166.186 190.475 l
165.455 190.287 l
164.736 190.101 l
164.029 189.917 l
163.334 189.736 l
162.65 189.557 l
161.976 189.379 l
161.313 189.204 l
160.659 189.031 l
160.014 188.859 l
159.379 188.69 l
158.752 188.522 l
158.134 188.355 l
157.523 188.191 l
156.921 188.027 l
156.325 187.865 l
155.737 187.705 l
155.156 187.545 l
154.581 187.387 l
154.013 187.23 l
153.45 187.074 l
152.894 186.92 l
152.343 186.766 l
151.797 186.613 l
151.257 186.461 l
150.721 186.31 l
150.19 186.16 l
149.664 186.01 l
149.142 185.862 l
148.624 185.713 l
148.11 185.566 l
147.6 185.419 l
147.093 185.272 l
146.59 185.126 l
146.091 184.981 l
145.594 184.836 l
145.1 184.691 l
144.609 184.546 l
144.121 184.402 l
143.635 184.258 l
143.151 184.114 l
142.67 183.97 l
142.191 183.827 l
141.714 183.683 l
141.238 183.54 l
140.764 183.396 l
140.292 183.252 l
139.821 183.109 l
139.351 182.965 l
138.882 182.821 l
138.415 182.677 l
137.948 182.532 l
137.482 182.387 l
137.017 182.242 l
136.552 182.096 l
136.088 181.95 l
135.624 181.804 l
135.16 181.657 l
134.696 181.509 l
134.232 181.361 l
133.768 181.212 l
133.303 181.063 l
132.838 180.912 l
132.373 180.761 l
131.907 180.609 l
131.44 180.456 l
130.972 180.303 l
130.503 180.148 l
130.033 179.992 l
129.562 179.835 l
129.089 179.677 l
128.615 179.518 l
128.139 179.357 l
127.662 179.196 l
127.182 179.032 l
126.701 178.868 l
126.218 178.701 l
125.732 178.534 l
125.244 178.364 l
124.753 178.193 l
124.259 178.02 l
123.763 177.845 l
123.264 177.669 l
122.762 177.49 l
122.257 177.309 l
121.748 177.126 l
121.236 176.941 l
120.721 176.753 l
120.201 176.563 l
119.678 176.37 l
119.15 176.174 l
118.619 175.976 l
118.082 175.775 l
117.542 175.571 l
116.997 175.364 l
116.447 175.153 l
115.891 174.94 l
115.331 174.722 l
114.766 174.502 l
114.195 174.277 l
113.618 174.048 l
113.036 173.815 l
112.447 173.579 l
111.852 173.337 l
111.252 173.091 l
110.644 172.841 l
110.03 172.585 l
109.409 172.324 l
108.782 172.058 l
108.147 171.786 l
107.505 171.508 l
106.855 171.225 l
106.199 170.935 l
105.534 170.638 l
104.862 170.335 l
104.182 170.024 l
103.494 169.706 l
102.798 169.38 l
102.094 169.046 l
101.382 168.704 l
100.662 168.353 l
99.9339 167.993 l
99.198 167.624 l
98.4544 167.244 l
97.7031 166.854 l
96.9445 166.454 l
96.1787 166.043 l
95.4063 165.619 l
94.6272 165.184 l
93.8426 164.737 l
93.0524 164.276 l
92.2578 163.802 l
91.4593 163.314 l
90.6582 162.811 l
89.855 162.294 l
89.0516 161.76 l
88.2487 161.212 l
87.4483 160.646 l
86.6518 160.064 l
85.8615 159.465 l
85.0794 158.848 l
84.308 158.213 l
83.5494 157.56 l
82.8068 156.888 l
82.0831 156.198 l
81.3815 155.49 l
80.7053 154.763 l
80.0583 154.019 l
79.444 153.257 l
78.8659 152.478 l
78.3286 151.682 l
77.8351 150.871 l
77.3893 150.046 l
76.995 149.208 l
76.6551 148.359 l
76.3727 147.499 l
76.1504 146.632 l
75.99 145.758 l
75.8931 144.88 l
75.8607 144 l
75.8931 143.12 l
75.99 142.242 l
76.1504 141.368 l
76.3727 140.501 l
76.6551 139.641 l
76.995 138.792 l
77.3893 137.954 l
77.8351 137.129 l
78.3286 136.318 l
78.8659 135.522 l
79.444 134.743 l
80.0583 133.981 l
80.7053 133.237 l
81.3815 132.51 l
82.0831 131.802 l
82.8068 131.112 l
83.5494 130.44 l
84.308 129.787 l
85.0794 129.152 l
85.8615 128.535 l
86.6518 127.936 l
87.4483 127.354 l
88.2487 126.788 l
89.0516 126.24 l
89.855 125.706 l
90.6582 125.189 l
91.4593 124.686 l
92.2578 124.198 l
93.0524 123.724 l
93.8426 123.263 l
94.6272 122.816 l
95.4063 122.381 l
96.1787 121.957 l
96.9445 121.546 l
97.7031 121.146 l
98.4544 120.756 l
99.198 120.376 l
99.9339 120.007 l
100.662 119.647 l
101.382 119.296 l
102.094 118.954 l
102.798 118.62 l
103.494 118.294 l
104.182 117.976 l
104.862 117.665 l
105.534 117.362 l
106.199 117.065 l
106.855 116.775 l
107.505 116.492 l
108.147 116.214 l
108.782 115.942 l
109.409 115.676 l
110.03 115.415 l
110.644 115.159 l
111.252 114.909 l
111.852 114.663 l
112.447 114.421 l
113.036 114.185 l
113.618 113.952 l
114.195 113.723 l
114.766 113.498 l
115.331 113.278 l
115.891 113.06 l
116.447 112.847 l
116.997 112.636 l
117.542 112.429 l
118.082 112.225 l
118.619 112.024 l
119.15 111.826 l
119.678 111.63 l
120.201 111.437 l
120.721 111.247 l
121.236 111.059 l
121.748 110.874 l
122.257 110.691 l
122.762 110.51 l
123.264 110.331 l
123.763 110.155 l
124.259 109.98 l
124.753 109.807 l
125.244 109.636 l
125.732 109.466 l
126.218 109.299 l
126.701 109.132 l
127.182 108.968 l
127.662 108.804 l
128.139 108.643 l
128.615 108.482 l
129.089 108.323 l
129.562 108.165 l
130.033 108.008 l
130.503 107.852 l
130.972 107.697 l
131.44 107.544 l
131.907 107.391 l
132.373 107.239 l
132.838 107.088 l
133.303 106.937 l
133.768 106.788 l
134.232 106.639 l
134.696 106.491 l
135.16 106.343 l
135.624 106.196 l
136.088 106.05 l
136.552 105.904 l
137.017 105.758 l
137.482 105.613 l
137.948 105.468 l
138.415 105.323 l
138.882 105.179 l
139.351 105.035 l
139.821 104.891 l
140.292 104.748 l
140.764 104.604 l
141.238 104.46 l
141.714 104.317 l
142.191 104.173 l
142.67 104.03 l
143.151 103.886 l
143.635 103.742 l
144.121 103.598 l
144.609 103.454 l
145.1 103.309 l
145.594 103.164 l
146.091 103.019 l
146.59 102.874 l
147.093 102.728 l
147.6 102.581 l
148.11 102.434 l
148.624 102.287 l
149.142 102.138 l
149.664 101.99 l
150.19 101.84 l
150.721 101.69 l
151.257 101.539 l
151.797 101.387 l
152.343 101.234 l
152.894 101.08 l
153.45 100.926 l
154.013 100.77 l
154.581 100.613 l
155.156 100.455 l
155.737 100.295 l
156.325 100.135 l
156.921 99.9727 l
157.523 99.8095 l
158.134 99.6445 l
158.752 99.4781 l
159.379 99.3101 l
160.014 99.1405 l
160.659 98.969 l
161.313 98.7957 l
161.976 98.6206 l
162.65 98.4433 l
163.334 98.2641 l
164.029 98.0827 l
164.736 97.899 l
165.455 97.713 l
166.186 97.5246 l
166.93 97.3335 l
167.687 97.1399 l
168.459 96.9436 l
169.245 96.7442 l
170.046 96.5419 l
170.863 96.3365 l
171.697 96.1277 l
172.548 95.9159 l
173.417 95.7001 l
174.305 95.4809 l
175.212 95.2577 l
176.14 95.0307 l
177.09 94.7993 l
178.062 94.5636 l
179.057 94.3234 l
180.077 94.0787 l
181.123 93.8286 l
182.196 93.5736 l
183.298 93.3133 l
183.47 94.3738 l
183.47 95.6354 l
183.47 96.8556 l
183.47 98.0373 l
183.47 99.1823 l
183.47 100.293 l
183.47 101.37 l
183.47 102.417 l
183.47 103.434 l
183.47 104.424 l
183.47 105.387 l
183.47 106.325 l
183.47 107.239 l
183.47 108.13 l
183.47 109 l
183.47 109.849 l
183.47 110.679 l
183.47 111.49 l
183.47 112.283 l
183.47 113.059 l
183.47 113.818 l
183.47 114.562 l
183.47 115.292 l
183.47 116.007 l
183.47 116.709 l
183.47 117.397 l
183.47 118.073 l
183.47 118.738 l
183.47 119.391 l
183.47 120.033 l
183.47 120.664 l
183.47 121.286 l
183.47 121.898 l
183.47 122.5 l
183.47 123.094 l
183.47 123.68 l
183.47 124.257 l
183.47 124.827 l
183.47 125.39 l
183.47 125.945 l
183.47 126.493 l
183.47 127.035 l
183.47 127.571 l
183.47 128.1 l
183.47 128.624 l
183.47 129.142 l
183.47 129.655 l
183.47 130.163 l
183.47 130.667 l
183.47 131.166 l
183.47 131.66 l
183.47 132.15 l
183.47 132.637 l
183.47 133.119 l
183.47 133.598 l
183.47 134.074 l
183.47 134.546 l
183.47 135.015 l
183.47 135.482 l
183.47 135.945 l
183.47 136.406 l
183.47 136.865 l
183.47 137.322 l
183.47 137.776 l
183.47 138.228 l
183.47 138.679 l
183.47 139.128 l
183.47 139.576 l
183.47 140.022 l
183.47 140.467 l
183.47 140.911 l
183.47 141.354 l
183.47 141.796 l
183.47 142.238 l
183.47 142.679 l
183.47 143.119 l
183.47 143.56 l
183.47 144 l
cl
gsave
0.500 0.500 1.000 setrgbcolor
fill
grestore
stroke
grestore
1.000 setlinewidth
0.000 setgray
gsave
223.2 223.2 36 32.4 clipbox
183.47 144 m
183.435 144.44 l
183.435 144.88 l
183.435 145.32 l
183.435 145.76 l
183.435 146.202 l
183.365 146.638 l
183.365 147.08 l
183.295 147.516 l
183.225 147.951 l
183.225 148.394 l
183.155 148.829 l
183.085 149.264 l
183.014 149.698 l
182.944 150.133 l
182.874 150.568 l
182.804 151.003 l
182.664 151.423 l
182.594 151.858 l
182.524 152.294 l
182.384 152.713 l
182.314 153.15 l
182.174 153.568 l
182.034 153.986 l
181.964 154.424 l
181.823 154.842 l
181.683 155.26 l
181.543 155.677 l
181.403 156.095 l
181.263 156.513 l
181.123 156.931 l
180.913 157.322 l
180.772 157.74 l
180.632 158.16 l
180.422 158.549 l
180.282 158.969 l
180.072 159.358 l
179.862 159.746 l
179.722 160.169 l
179.511 160.557 l
179.301 160.945 l
179.091 161.333 l
178.881 161.72 l
178.671 162.109 l
178.461 162.497 l
178.25 162.886 l
178.04 163.276 l
177.76 163.621 l
177.55 164.012 l
177.34 164.404 l
177.059 164.748 l
176.849 165.141 l
176.569 165.485 l
176.359 165.881 l
176.079 166.225 l
175.798 166.568 l
175.518 166.912 l
175.308 167.314 l
175.028 167.659 l
174.747 168.005 l
174.467 168.351 l
174.187 168.698 l
173.907 169.046 l
173.626 169.395 l
173.276 169.676 l
172.996 170.027 l
172.716 170.38 l
172.365 170.66 l
172.085 171.015 l
171.805 171.374 l
171.455 171.654 l
171.175 172.017 l
170.824 172.299 l
170.474 172.58 l
170.194 172.951 l
169.843 173.235 l
169.493 173.519 l
169.143 173.805 l
168.83 174.145 l
168.446 174.384 l
168.127 174.72 l
167.803 175.055 l
167.414 175.29 l
167.085 175.622 l
166.693 175.856 l
166.357 176.184 l
165.963 176.416 l
165.62 176.741 l
165.223 176.97 l
164.825 177.199 l
164.473 177.52 l
164.07 177.746 l
163.711 178.064 l
163.305 178.288 l
162.898 178.511 l
162.528 178.825 l
162.116 179.045 l
161.703 179.265 l
161.322 179.574 l
160.904 179.791 l
160.484 180.007 l
160.061 180.222 l
159.637 180.436 l
159.238 180.738 l
158.808 180.949 l
158.376 181.159 l
157.941 181.368 l
157.504 181.576 l
157.064 181.783 l
156.622 181.988 l
156.176 182.192 l
155.728 182.395 l
155.277 182.596 l
154.823 182.796 l
154.366 182.995 l
153.906 183.193 l
153.443 183.389 l
152.976 183.583 l
152.506 183.776 l
152.032 183.968 l
151.555 184.158 l
151.067 184.263 l
150.584 184.451 l
150.097 184.637 l
149.605 184.821 l
149.11 185.003 l
148.609 185.102 l
148.107 185.282 l
147.6 185.419 l
147.093 185.272 l
146.59 185.126 l
146.091 184.981 l
145.594 184.836 l
145.1 184.691 l
144.609 184.546 l
144.121 184.402 l
143.635 184.258 l
143.151 184.114 l
142.67 183.97 l
142.191 183.827 l
141.714 183.683 l
141.238 183.54 l
140.764 183.396 l
140.292 183.252 l
139.821 183.109 l
139.351 182.965 l
138.882 182.821 l
138.415 182.677 l
137.948 182.532 l
137.482 182.387 l
137.017 182.242 l
136.552 182.096 l
136.088 181.95 l
135.624 181.804 l
135.16 181.657 l
134.696 181.509 l
134.232 181.361 l
133.768 181.212 l
133.303 181.063 l
132.838 180.912 l
132.373 180.761 l
131.907 180.609 l
131.44 180.456 l
130.972 180.303 l
130.503 180.148 l
130.033 179.992 l
129.562 179.835 l
129.089 179.677 l
128.615 179.518 l
128.139 179.357 l
127.662 179.196 l
127.182 179.032 l
126.701 178.868 l
126.218 178.701 l
125.732 178.534 l
125.244 178.364 l
124.753 178.193 l
124.259 178.02 l
123.763 177.845 l
123.264 177.669 l
122.762 177.49 l
122.257 177.309 l
121.748 177.126 l
121.236 176.941 l
120.721 176.753 l
120.201 176.563 l
119.678 176.37 l
119.15 176.174 l
118.619 175.976 l
118.082 175.775 l
117.542 175.571 l
116.997 175.364 l
116.447 175.153 l
115.891 174.94 l
115.331 174.722 l
114.766 174.502 l
114.195 174.277 l
113.618 174.048 l
113.036 173.815 l
112.447 173.579 l
111.852 173.337 l
111.252 173.091 l
110.644 172.841 l
110.03 172.585 l
109.409 172.324 l
108.782 172.058 l
108.147 171.786 l
107.505 171.508 l
106.855 171.225 l
106.199 170.935 l
105.534 170.638 l
104.862 170.335 l
104.182 170.024 l
103.494 169.706 l
102.798 169.38 l
102.094 169.046 l
101.382 168.704 l
100.662 168.353 l
99.9339 167.993 l
99.198 167.624 l
98.4544 167.244 l
97.7031 166.854 l
96.9445 166.454 l
96.1787 166.043 l
95.4063 165.619 l
94.6272 165.184 l
93.8426 164.737 l
93.0524 164.276 l
92.2578 163.802 l
91.4593 163.314 l
90.6582 162.811 l
89.855 162.294 l
89.0516 161.76 l
88.2487 161.212 l
87.4483 160.646 l
86.6518 160.064 l
85.8615 159.465 l
85.0794 158.848 l
84.308 158.213 l
83.5494 157.56 l
82.8068 156.888 l
82.0831 156.198 l
81.3815 155.49 l
80.7053 154.763 l
80.0583 154.019 l
79.444 153.257 l
78.8659 152.478 l
78.3286 151.682 l
77.8351 150.871 l
77.3893 150.046 l
76.995 149.208 l
76.6551 148.359 l
76.3727 147.499 l
76.1504 146.632 l
75.99 145.758 l
75.8931 144.88 l
75.9308 144 l
75.8931 143.12 l
75.99 142.242 l
76.1504 141.368 l
76.3727 140.501 l
76.6551 139.641 l
76.995 138.792 l
77.3893 137.954 l
77.8351 137.129 l
78.3286 136.318 l
78.8659 135.522 l
79.444 134.743 l
80.0583 133.981 l
80.7053 133.237 l
81.3815 132.51 l
82.0831 131.802 l
82.8068 131.112 l
83.5494 130.44 l
84.308 129.787 l
85.0794 129.152 l
85.8615 128.535 l
86.6518 127.936 l
87.4483 127.354 l
88.2487 126.788 l
89.0516 126.24 l
89.855 125.706 l
90.6582 125.189 l
91.4593 124.686 l
92.2578 124.198 l
93.0524 123.724 l
93.8426 123.263 l
94.6272 122.816 l
95.4063 122.381 l
96.1787 121.957 l
96.9445 121.546 l
97.7031 121.146 l
98.4544 120.756 l
99.198 120.376 l
99.9339 120.007 l
100.662 119.647 l
101.382 119.296 l
102.094 118.954 l
102.798 118.62 l
103.494 118.294 l
104.182 117.976 l
104.862 117.665 l
105.534 117.362 l
106.199 117.065 l
106.855 116.775 l
107.505 116.492 l
108.147 116.214 l
108.782 115.942 l
109.409 115.676 l
110.03 115.415 l
110.644 115.159 l
111.252 114.909 l
111.852 114.663 l
112.447 114.421 l
113.036 114.185 l
113.618 113.952 l
114.195 113.723 l
114.766 113.498 l
115.331 113.278 l
115.891 113.06 l
116.447 112.847 l
116.997 112.636 l
117.542 112.429 l
118.082 112.225 l
118.619 112.024 l
119.15 111.826 l
119.678 111.63 l
120.201 111.437 l
120.721 111.247 l
121.236 111.059 l
121.748 110.874 l
122.257 110.691 l
122.762 110.51 l
123.264 110.331 l
123.763 110.155 l
124.259 109.98 l
124.753 109.807 l
125.244 109.636 l
125.732 109.466 l
126.218 109.299 l
126.701 109.132 l
127.182 108.968 l
127.662 108.804 l
128.139 108.643 l
128.615 108.482 l
129.089 108.323 l
129.562 108.165 l
130.033 108.008 l
130.503 107.852 l
130.972 107.697 l
131.44 107.544 l
131.907 107.391 l
132.373 107.239 l
132.838 107.088 l
133.303 106.937 l
133.768 106.788 l
134.232 106.639 l
134.696 106.491 l
135.16 106.343 l
135.624 106.196 l
136.088 106.05 l
136.552 105.904 l
137.017 105.758 l
137.482 105.613 l
137.948 105.468 l
138.415 105.323 l
138.882 105.179 l
139.351 105.035 l
139.821 104.891 l
140.292 104.748 l
140.764 104.604 l
141.238 104.46 l
141.714 104.317 l
142.191 104.173 l
142.67 104.03 l
143.151 103.886 l
143.635 103.742 l
144.121 103.598 l
144.609 103.454 l
145.1 103.309 l
145.594 103.164 l
146.091 103.019 l
146.59 102.874 l
147.093 102.728 l
147.6 102.581 l
148.107 102.718 l
148.609 102.898 l
149.11 102.997 l
149.605 103.179 l
150.097 103.363 l
150.584 103.549 l
151.067 103.737 l
151.555 103.842 l
152.032 104.032 l
152.506 104.224 l
152.976 104.417 l
153.443 104.611 l
153.906 104.807 l
154.366 105.005 l
154.823 105.204 l
155.277 105.404 l
155.728 105.605 l
156.176 105.808 l
156.622 106.012 l
157.064 106.217 l
157.504 106.424 l
157.941 106.632 l
158.376 106.841 l
158.808 107.051 l
159.238 107.262 l
159.637 107.564 l
160.061 107.778 l
160.484 107.993 l
160.904 108.209 l
161.322 108.426 l
161.703 108.735 l
162.116 108.955 l
162.528 109.175 l
162.898 109.489 l
163.305 109.712 l
163.711 109.936 l
164.07 110.254 l
164.473 110.48 l
164.825 110.801 l
165.223 111.03 l
165.62 111.259 l
165.963 111.584 l
166.357 111.816 l
166.693 112.144 l
167.085 112.378 l
167.414 112.71 l
167.803 112.945 l
168.127 113.28 l
168.446 113.616 l
168.83 113.855 l
169.143 114.195 l
169.493 114.481 l
169.843 114.765 l
170.194 115.049 l
170.474 115.42 l
170.824 115.701 l
171.175 115.983 l
171.455 116.346 l
171.805 116.626 l
172.085 116.985 l
172.365 117.34 l
172.716 117.62 l
172.996 117.973 l
173.276 118.324 l
173.626 118.605 l
173.907 118.954 l
174.187 119.302 l
174.467 119.649 l
174.747 119.995 l
175.028 120.341 l
175.308 120.686 l
175.518 121.088 l
175.798 121.432 l
176.079 121.775 l
176.359 122.119 l
176.569 122.515 l
176.849 122.859 l
177.059 123.252 l
177.34 123.596 l
177.55 123.988 l
177.76 124.379 l
178.04 124.724 l
178.25 125.114 l
178.461 125.503 l
178.671 125.891 l
178.881 126.28 l
179.091 126.667 l
179.301 127.055 l
179.511 127.443 l
179.722 127.831 l
179.862 128.254 l
180.072 128.642 l
180.282 129.031 l
180.422 129.451 l
180.632 129.84 l
180.772 130.26 l
180.913 130.678 l
181.123 131.069 l
181.263 131.487 l
181.403 131.905 l
181.543 132.323 l
181.683 132.74 l
181.823 133.158 l
181.964 133.576 l
182.034 134.014 l
182.174 134.432 l
182.314 134.85 l
182.384 135.287 l
182.524 135.706 l
182.594 136.142 l
182.664 136.577 l
182.804 136.997 l
182.874 137.432 l
182.944 137.867 l
183.014 138.302 l
183.085 138.736 l
183.155 139.171 l
183.225 139.606 l
183.225 140.049 l
183.295 140.484 l
183.365 140.92 l
183.365 141.362 l
183.435 141.798 l
183.435 142.24 l
183.435 142.68 l
183.435 143.12 l
183.435 143.56 l
183.435 144 l
cl
gsave
0.500 setgray
fill
grestore
stroke
grestore
1.000 0.000 0.000 setrgbcolor
gsave
223.2 223.2 36 32.4 clipbox
249.055 144 m
248.566 153.944 l
247.105 163.793 l
244.686 173.451 l
241.332 182.825 l
237.075 191.825 l
231.956 200.365 l
226.025 208.362 l
219.339 215.739 l
211.962 222.425 l
203.965 228.356 l
195.425 233.475 l
186.425 237.732 l
177.051 241.086 l
167.393 243.505 l
157.544 244.966 l
147.6 245.455 l
137.656 244.966 l
127.807 243.505 l
118.149 241.086 l
108.775 237.732 l
99.7747 233.475 l
91.2349 228.356 l
83.2379 222.425 l
75.8608 215.739 l
69.1746 208.362 l
63.2436 200.365 l
58.1251 191.825 l
53.8682 182.825 l
50.5141 173.451 l
48.0949 163.793 l
46.634 153.944 l
46.1455 144 l
46.634 134.056 l
48.0949 124.207 l
50.5141 114.549 l
53.8682 105.175 l
58.1251 96.1747 l
63.2436 87.6349 l
69.1746 79.6379 l
75.8608 72.2608 l
83.2379 65.5746 l
91.2349 59.6436 l
99.7747 54.5251 l
108.775 50.2682 l
118.149 46.9141 l
127.807 44.4949 l
137.656 43.034 l
147.6 42.5455 l
157.544 43.034 l
167.393 44.4949 l
177.051 46.9141 l
186.425 50.2682 l
195.425 54.5251 l
203.965 59.6436 l
211.962 65.5746 l
219.339 72.2608 l
226.025 79.6379 l
231.956 87.6349 l
237.075 96.1747 l
241.332 105.175 l
244.686 114.549 l
247.105 124.207 l
248.566 134.056 l
249.055 144 l
stroke
grestore
0.750 0.750 0.000 setrgbcolor
gsave
223.2 223.2 36 32.4 clipbox
206.175 144 m
205.893 149.741 l
205.049 155.427 l
203.653 161.003 l
201.716 166.416 l
199.258 171.612 l
196.303 176.542 l
192.879 181.159 l
189.019 185.419 l
184.759 189.279 l
180.142 192.703 l
175.212 195.658 l
170.016 198.116 l
164.603 200.053 l
159.027 201.449 l
153.341 202.293 l
147.6 202.575 l
141.859 202.293 l
136.173 201.449 l
130.597 200.053 l
125.184 198.116 l
119.988 195.658 l
115.058 192.703 l
110.441 189.279 l
106.181 185.419 l
102.321 181.159 l
98.8968 176.542 l
95.9416 171.612 l
93.4839 166.416 l
91.5474 161.003 l
90.1507 155.427 l
89.3072 149.741 l
89.0252 144 l
89.3072 138.259 l
90.1507 132.573 l
91.5474 126.997 l
93.4839 121.584 l
95.9416 116.388 l
98.8968 111.458 l
102.321 106.841 l
106.181 102.581 l
110.441 98.7211 l
115.058 95.2968 l
119.988 92.3416 l
125.184 89.8839 l
130.597 87.9474 l
136.173 86.5507 l
141.859 85.7072 l
147.6 85.4252 l
153.341 85.7072 l
159.027 86.5507 l
164.603 87.9474 l
170.016 89.8839 l
175.212 92.3416 l
180.142 95.2968 l
184.759 98.7211 l
189.019 102.581 l
192.879 106.841 l
196.303 111.458 l
199.258 116.388 l
201.716 121.584 l
203.653 126.997 l
205.049 132.573 l
205.893 138.259 l
206.175 144 l
stroke
grestore
gsave
223.2 223.2 36 32.4 clipbox
219.339 144 m
218.994 151.032 l
217.961 157.996 l
216.25 164.825 l
213.878 171.453 l
210.868 177.818 l
207.249 183.856 l
203.055 189.511 l
198.327 194.727 l
193.111 199.455 l
187.456 203.649 l
181.418 207.268 l
175.053 210.278 l
168.425 212.65 l
161.596 214.361 l
154.632 215.394 l
147.6 215.739 l
140.568 215.394 l
133.604 214.361 l
126.775 212.65 l
120.147 210.278 l
113.782 207.268 l
107.744 203.649 l
102.089 199.455 l
96.8727 194.727 l
92.1449 189.511 l
87.951 183.856 l
84.3317 177.818 l
81.3216 171.453 l
78.9499 164.825 l
77.2393 157.996 l
76.2062 151.032 l
75.8608 144 l
76.2062 136.968 l
77.2393 130.004 l
78.9499 123.175 l
81.3216 116.547 l
84.3317 110.182 l
87.951 104.144 l
92.1449 98.4891 l
96.8727 93.2727 l
102.089 88.5449 l
107.744 84.351 l
113.782 80.7317 l
120.147 77.7216 l
126.775 75.3499 l
133.604 73.6393 l
140.568 72.6062 l
147.6 72.2608 l
154.632 72.6062 l
161.596 73.6393 l
168.425 75.3499 l
175.053 77.7216 l
181.418 80.7317 l
187.456 84.351 l
193.111 88.5449 l
198.327 93.2727 l
203.055 98.4891 l
207.249 104.144 l
210.868 110.182 l
213.878 116.547 l
216.25 123.175 l
217.961 130.004 l
218.994 136.968 l
219.339 144 l
stroke
grestore
gsave
223.2 223.2 36 32.4 clipbox
189.019 144 m
188.819 148.06 l
188.223 152.08 l
187.235 156.023 l
185.866 159.85 l
184.128 163.525 l
182.038 167.011 l
179.617 170.276 l
176.887 173.287 l
173.876 176.017 l
170.611 178.438 l
167.125 180.528 l
163.45 182.266 l
159.623 183.635 l
155.68 184.623 l
151.66 185.219 l
147.6 185.419 l
143.54 185.219 l
139.52 184.623 l
135.577 183.635 l
131.75 182.266 l
128.075 180.528 l
124.589 178.438 l
121.324 176.017 l
118.313 173.287 l
115.583 170.276 l
113.162 167.011 l
111.072 163.525 l
109.334 159.85 l
107.965 156.023 l
106.977 152.08 l
106.381 148.06 l
106.181 144 l
106.381 139.94 l
106.977 135.92 l
107.965 131.977 l
109.334 128.15 l
111.072 124.475 l
113.162 120.989 l
115.583 117.724 l
118.313 114.713 l
121.324 111.983 l
124.589 109.562 l
128.075 107.472 l
131.75 105.734 l
135.577 104.365 l
139.52 103.377 l
143.54 102.781 l
147.6 102.581 l
151.66 102.781 l
155.68 103.377 l
159.623 104.365 l
163.45 105.734 l
167.125 107.472 l
170.611 109.562 l
173.876 111.983 l
176.887 114.713 l
179.617 117.724 l
182.038 120.989 l
184.128 124.475 l
185.866 128.15 l
187.235 131.977 l
188.223 135.92 l
188.819 139.94 l
189.019 144 l
stroke
grestore
0.000 0.500 0.000 setrgbcolor
gsave
223.2 223.2 36 32.4 clipbox
181.418 144 m
181.255 147.315 l
180.768 150.598 l
179.962 153.817 l
178.844 156.942 l
177.425 159.942 l
175.719 162.788 l
173.742 165.454 l
171.513 167.913 l
169.054 170.142 l
166.388 172.119 l
163.542 173.825 l
160.542 175.244 l
157.417 176.362 l
154.198 177.168 l
150.915 177.655 l
147.6 177.818 l
144.285 177.655 l
141.002 177.168 l
137.783 176.362 l
134.658 175.244 l
131.658 173.825 l
128.812 172.119 l
126.146 170.142 l
123.687 167.913 l
121.458 165.454 l
119.481 162.788 l
117.775 159.942 l
116.356 156.942 l
115.238 153.817 l
114.432 150.598 l
113.945 147.315 l
113.782 144 l
113.945 140.685 l
114.432 137.402 l
115.238 134.183 l
116.356 131.058 l
117.775 128.058 l
119.481 125.212 l
121.458 122.546 l
123.687 120.087 l
126.146 117.858 l
128.812 115.881 l
131.658 114.175 l
134.658 112.756 l
137.783 111.638 l
141.002 110.832 l
144.285 110.345 l
147.6 110.182 l
150.915 110.345 l
154.198 110.832 l
157.417 111.638 l
160.542 112.756 l
163.542 114.175 l
166.388 115.881 l
169.054 117.858 l
171.513 120.087 l
173.742 122.546 l
175.719 125.212 l
177.425 128.058 l
178.844 131.058 l
179.962 134.183 l
180.768 137.402 l
181.255 140.685 l
181.418 144 l
stroke
grestore
0.500 setlinewidth
0 setlinecap
0.000 setgray
gsave
/o {
gsave
newpath
translate
0.5 setlinewidth
1 setlinejoin
0 setlinecap
0 0 m
0 4 l
gsave
0.000 setgray
fill
grestore
stroke
grestore
} bind def
46.1455 32.4 o
grestore
gsave
/o {
gsave
newpath
translate
0.5 setlinewidth
1 setlinejoin
0 setlinecap
0 0 m
0 -4 l
gsave
0.000 setgray
fill
grestore
stroke
grestore
} bind def
46.1455 255.6 o
grestore
/BitstreamVeraSans-Roman findfont
9.000 scalefont
setfont
gsave
35.989205 21.587500 translate
0.000000 rotate
0.000000 0.125000 m /minus glyphshow
7.541016 0.125000 m /one glyphshow
13.267090 0.125000 m /period glyphshow
16.127930 0.125000 m /zero glyphshow
grestore
gsave
/o {
gsave
newpath
translate
0.5 setlinewidth
1 setlinejoin
0 setlinecap
0 0 m
0 4 l
gsave
0.000 setgray
fill
grestore
stroke
grestore
} bind def
96.8727 32.4 o
grestore
gsave
/o {
gsave
newpath
translate
0.5 setlinewidth
1 setlinejoin
0 setlinecap
0 0 m
0 -4 l
gsave
0.000 setgray
fill
grestore
stroke
grestore
} bind def
96.8727 255.6 o
grestore
gsave
86.810227 21.587500 translate
0.000000 rotate
0.000000 0.125000 m /minus glyphshow
7.541016 0.125000 m /zero glyphshow
13.267090 0.125000 m /period glyphshow
16.127930 0.125000 m /five glyphshow
grestore
gsave
/o {
gsave
newpath
translate
0.5 setlinewidth
1 setlinejoin
0 setlinecap
0 0 m
0 4 l
gsave
0.000 setgray
fill
grestore
stroke
grestore
} bind def
147.6 32.4 o
grestore
gsave
/o {
gsave
newpath
translate
0.5 setlinewidth
1 setlinejoin
0 setlinecap
0 0 m
0 -4 l
gsave
0.000 setgray
fill
grestore
stroke
grestore
} bind def
147.6 255.6 o
grestore
gsave
141.037500 21.587500 translate
0.000000 rotate
0.000000 0.125000 m /zero glyphshow
5.726074 0.125000 m /period glyphshow
8.586914 0.125000 m /zero glyphshow
grestore
gsave
/o {
gsave
newpath
translate
0.5 setlinewidth
1 setlinejoin
0 setlinecap
0 0 m
0 4 l
gsave
0.000 setgray
fill
grestore
stroke
grestore
} bind def
198.327 32.4 o
grestore
gsave
/o {
gsave
newpath
translate
0.5 setlinewidth
1 setlinejoin
0 setlinecap
0 0 m
0 -4 l
gsave
0.000 setgray
fill
grestore
stroke
grestore
} bind def
198.327 255.6 o
grestore
gsave
191.858523 21.587500 translate
0.000000 rotate
0.000000 0.125000 m /zero glyphshow
5.726074 0.125000 m /period glyphshow
8.586914 0.125000 m /five glyphshow
grestore
gsave
/o {
gsave
newpath
translate
0.5 setlinewidth
1 setlinejoin
0 setlinecap
0 0 m
0 4 l
gsave
0.000 setgray
fill
grestore
stroke
grestore
} bind def
249.055 32.4 o
grestore
gsave
/o {
gsave
newpath
translate
0.5 setlinewidth
1 setlinejoin
0 setlinecap
0 0 m
0 -4 l
gsave
0.000 setgray
fill
grestore
stroke
grestore
} bind def
249.055 255.6 o
grestore
gsave
242.687358 21.587500 translate
0.000000 rotate
0.000000 0.125000 m /one glyphshow
5.726074 0.125000 m /period glyphshow
8.586914 0.125000 m /zero glyphshow
grestore
gsave
/o {
gsave
newpath
translate
0.5 setlinewidth
1 setlinejoin
0 setlinecap
0 0 m
4 0 l
gsave
0.000 setgray
fill
grestore
stroke
grestore
} bind def
36 42.5455 o
grestore
gsave
/o {
gsave
newpath
translate
0.5 setlinewidth
1 setlinejoin
0 setlinecap
0 0 m
-4 0 l
gsave
0.000 setgray
fill
grestore
stroke
grestore
} bind def
259.2 42.5455 o
grestore
gsave
11.687500 39.139205 translate
0.000000 rotate
0.000000 0.125000 m /minus glyphshow
7.541016 0.125000 m /one glyphshow
13.267090 0.125000 m /period glyphshow
16.127930 0.125000 m /zero glyphshow
grestore
gsave
/o {
gsave
newpath
translate
0.5 setlinewidth
1 setlinejoin
0 setlinecap
0 0 m
4 0 l
gsave
0.000 setgray
fill
grestore
stroke
grestore
} bind def
36 93.2727 o
grestore
gsave
/o {
gsave
newpath
translate
0.5 setlinewidth
1 setlinejoin
0 setlinecap
0 0 m
-4 0 l
gsave
0.000 setgray
fill
grestore
stroke
grestore
} bind def
259.2 93.2727 o
grestore
gsave
11.875000 89.866477 translate
0.000000 rotate
0.000000 0.125000 m /minus glyphshow
7.541016 0.125000 m /zero glyphshow
13.267090 0.125000 m /period glyphshow
16.127930 0.125000 m /five glyphshow
grestore
gsave
/o {
gsave
newpath
translate
0.5 setlinewidth
1 setlinejoin
0 setlinecap
0 0 m
4 0 l
gsave
0.000 setgray
fill
grestore
stroke
grestore
} bind def
36 144 o
grestore
gsave
/o {
gsave
newpath
translate
0.5 setlinewidth
1 setlinejoin
0 setlinecap
0 0 m
-4 0 l
gsave
0.000 setgray
fill
grestore
stroke
grestore
} bind def
259.2 144 o
grestore
gsave
18.875000 140.593750 translate
0.000000 rotate
0.000000 0.125000 m /zero glyphshow
5.726074 0.125000 m /period glyphshow
8.586914 0.125000 m /zero glyphshow
grestore
gsave
/o {
gsave
newpath
translate
0.5 setlinewidth
1 setlinejoin
0 setlinecap
0 0 m
4 0 l
gsave
0.000 setgray
fill
grestore
stroke
grestore
} bind def
36 194.727 o
grestore
gsave
/o {
gsave
newpath
translate
0.5 setlinewidth
1 setlinejoin
0 setlinecap
0 0 m
-4 0 l
gsave
0.000 setgray
fill
grestore
stroke
grestore
} bind def
259.2 194.727 o
grestore
gsave
19.062500 191.321023 translate
0.000000 rotate
0.000000 0.125000 m /zero glyphshow
5.726074 0.125000 m /period glyphshow
8.586914 0.125000 m /five glyphshow
grestore
gsave
/o {
gsave
newpath
translate
0.5 setlinewidth
1 setlinejoin
0 setlinecap
0 0 m
4 0 l
gsave
0.000 setgray
fill
grestore
stroke
grestore
} bind def
36 245.455 o
grestore
gsave
/o {
gsave
newpath
translate
0.5 setlinewidth
1 setlinejoin
0 setlinecap
0 0 m
-4 0 l
gsave
0.000 setgray
fill
grestore
stroke
grestore
} bind def
259.2 245.455 o
grestore
gsave
19.265625 242.048295 translate
0.000000 rotate
0.000000 0.125000 m /one glyphshow
5.726074 0.125000 m /period glyphshow
8.586914 0.125000 m /zero glyphshow
grestore
1.000 setlinewidth
2 setlinecap
gsave
36 255.6 m
259.2 255.6 l
stroke
grestore
gsave
259.2 32.4 m
259.2 255.6 l
stroke
grestore
gsave
36 32.4 m
259.2 32.4 l
stroke
grestore
gsave
36 32.4 m
36 255.6 l
stroke
grestore

end
showpage
