%!PS-Adobe-3.0 EPSF-3.0
%%Title: ../../thesis/images/4l_2d_entangled//KC.eps
%%Creator: matplotlib version 1.2.1, http://matplotlib.org/
%%CreationDate: Mon May 20 13:29:09 2013
%%Orientation: portrait
%%BoundingBox: 162 252 450 540
%%EndComments
%%BeginProlog
/mpldict 8 dict def
mpldict begin
/m { moveto } bind def
/l { lineto } bind def
/r { rlineto } bind def
/c { curveto } bind def
/cl { closepath } bind def
/box {
m
1 index 0 r
0 exch r
neg 0 r
cl
} bind def
/clipbox {
box
clip
newpath
} bind def
%!PS-Adobe-3.0 Resource-Font
%%Title: Bitstream Vera Sans
%%Copyright: Copyright (c) 2003 by Bitstream, Inc. All Rights Reserved.
%%Creator: Converted from TrueType to type 3 by PPR
25 dict begin
/_d{bind def}bind def
/_m{moveto}_d
/_l{lineto}_d
/_cl{closepath eofill}_d
/_c{curveto}_d
/_sc{7 -1 roll{setcachedevice}{pop pop pop pop pop pop}ifelse}_d
/_e{exec}_d
/FontName /BitstreamVeraSans-Roman def
/PaintType 0 def
/FontMatrix[.001 0 0 .001 0 0]def
/FontBBox[-183 -236 1287 928]def
/FontType 3 def
/Encoding [ /period /zero /one /five /minus ] def
/FontInfo 10 dict dup begin
/FamilyName (Bitstream Vera Sans) def
/FullName (Bitstream Vera Sans) def
/Notice (Copyright (c) 2003 by Bitstream, Inc. All Rights Reserved. Bitstream Vera is a trademark of Bitstream, Inc.) def
/Weight (Roman) def
/Version (Release 1.10) def
/ItalicAngle 0.0 def
/isFixedPitch false def
/UnderlinePosition -213 def
/UnderlineThickness 143 def
end readonly def
/CharStrings 5 dict dup begin
/period{318 0 107 0 210 124 _sc
107 124 _m
210 124 _l
210 0 _l
107 0 _l
107 124 _l
_cl}_d
/zero{636 0 66 -13 570 742 _sc
318 664 _m
267 664 229 639 203 589 _c
177 539 165 464 165 364 _c
165 264 177 189 203 139 _c
229 89 267 64 318 64 _c
369 64 407 89 433 139 _c
458 189 471 264 471 364 _c
471 464 458 539 433 589 _c
407 639 369 664 318 664 _c
318 742 _m
399 742 461 709 505 645 _c
548 580 570 486 570 364 _c
570 241 548 147 505 83 _c
461 19 399 -13 318 -13 _c
236 -13 173 19 130 83 _c
87 147 66 241 66 364 _c
66 486 87 580 130 645 _c
173 709 236 742 318 742 _c
_cl}_d
/one{636 0 110 0 544 729 _sc
124 83 _m
285 83 _l
285 639 _l
110 604 _l
110 694 _l
284 729 _l
383 729 _l
383 83 _l
544 83 _l
544 0 _l
124 0 _l
124 83 _l
_cl}_d
/five{{636 0 77 -13 549 729 _sc
108 729 _m
495 729 _l
495 646 _l
198 646 _l
198 467 _l
212 472 227 476 241 478 _c
255 480 270 482 284 482 _c
365 482 429 459 477 415 _c
525 370 549 310 549 234 _c
549 155 524 94 475 51 _c
426 8 357 -13 269 -13 _c
238 -13 207 -10 175 -6 _c
143 -1 111 6 77 17 _c
77 116 _l
106 100 136 88 168 80 _c
199 72 232 69 267 69 _c
}_e{323 69 368 83 401 113 _c
433 143 450 183 450 234 _c
450 284 433 324 401 354 _c
368 384 323 399 267 399 _c
241 399 214 396 188 390 _c
162 384 135 375 108 363 _c
108 729 _l
_cl}_e}_d
/minus{838 0 106 272 732 355 _sc
106 355 _m
732 355 _l
732 272 _l
106 272 _l
106 355 _l
_cl}_d
end readonly def

/BuildGlyph
 {exch begin
 CharStrings exch
 2 copy known not{pop /.notdef}if
 true 3 1 roll get exec
 end}_d

/BuildChar {
 1 index /Encoding get exch get
 1 index /BuildGlyph get exec
}_d

FontName currentdict end definefont pop
end
%%EndProlog
mpldict begin
162 252 translate
288 288 0 0 clipbox
gsave
0 0 m
288 0 l
288 288 l
0 288 l
cl
1.000 setgray
fill
grestore
gsave
36 32.4 m
259.2 32.4 l
259.2 255.6 l
36 255.6 l
cl
1.000 setgray
fill
grestore
2.000 setlinewidth
1 setlinejoin
2 setlinecap
[] 0 setdash
0.000 0.000 1.000 setrgbcolor
gsave
223.2 223.2 36 32.4 clipbox
189.019 144 m
188.81 144.506 l
188.6 145.006 l
188.387 145.502 l
188.172 145.993 l
187.956 146.479 l
187.737 146.961 l
187.517 147.437 l
187.295 147.91 l
187.07 148.377 l
186.844 148.84 l
186.616 149.299 l
186.386 149.753 l
186.155 150.204 l
185.922 150.649 l
185.686 151.091 l
185.449 151.529 l
185.21 151.962 l
184.97 152.392 l
184.728 152.817 l
184.484 153.239 l
184.238 153.657 l
183.99 154.07 l
183.741 154.481 l
183.49 154.887 l
183.237 155.29 l
182.982 155.689 l
182.726 156.084 l
182.468 156.476 l
182.208 156.864 l
181.947 157.249 l
181.683 157.63 l
181.418 158.008 l
181.151 158.382 l
180.883 158.753 l
180.613 159.121 l
180.341 159.485 l
180.067 159.846 l
179.791 160.204 l
179.514 160.558 l
179.234 160.909 l
178.953 161.257 l
178.671 161.601 l
178.386 161.942 l
178.099 162.281 l
177.811 162.616 l
177.521 162.947 l
177.229 163.276 l
176.935 163.601 l
176.639 163.923 l
176.342 164.242 l
176.042 164.558 l
175.741 164.871 l
175.438 165.18 l
175.133 165.487 l
174.825 165.79 l
174.516 166.09 l
174.206 166.387 l
173.893 166.68 l
173.578 166.971 l
173.261 167.258 l
172.943 167.542 l
172.622 167.823 l
172.299 168.101 l
171.975 168.375 l
171.648 168.646 l
171.32 168.914 l
170.989 169.178 l
170.657 169.439 l
170.323 169.697 l
169.986 169.952 l
169.648 170.203 l
169.307 170.45 l
168.965 170.694 l
168.62 170.935 l
168.274 171.172 l
167.926 171.406 l
167.575 171.636 l
167.223 171.863 l
166.869 172.086 l
166.513 172.305 l
166.155 172.521 l
165.795 172.733 l
165.433 172.941 l
165.069 173.145 l
164.703 173.346 l
164.336 173.542 l
163.966 173.735 l
163.595 173.924 l
163.221 174.109 l
162.846 174.29 l
162.47 174.466 l
162.091 174.639 l
161.711 174.808 l
161.329 174.972 l
160.945 175.132 l
160.56 175.288 l
160.173 175.439 l
159.784 175.587 l
159.394 175.729 l
159.003 175.868 l
158.609 176.002 l
158.215 176.131 l
157.819 176.256 l
157.421 176.377 l
157.023 176.493 l
156.623 176.604 l
156.221 176.71 l
155.819 176.812 l
155.415 176.909 l
155.011 177.001 l
154.605 177.089 l
154.198 177.172 l
153.791 177.249 l
153.382 177.322 l
152.973 177.39 l
152.562 177.453 l
152.151 177.511 l
151.74 177.565 l
151.328 177.613 l
150.915 177.656 l
150.502 177.694 l
150.088 177.727 l
149.674 177.755 l
149.259 177.778 l
148.845 177.795 l
148.43 177.808 l
148.015 177.816 l
147.6 177.818 l
147.185 177.816 l
146.77 177.808 l
146.355 177.795 l
145.941 177.778 l
145.526 177.755 l
145.112 177.727 l
144.698 177.694 l
144.285 177.656 l
143.872 177.613 l
143.46 177.565 l
143.049 177.511 l
142.638 177.453 l
142.227 177.39 l
141.818 177.322 l
141.409 177.249 l
141.002 177.172 l
140.595 177.089 l
140.189 177.001 l
139.785 176.909 l
139.381 176.812 l
138.979 176.71 l
138.577 176.604 l
138.177 176.493 l
137.779 176.377 l
137.381 176.256 l
136.985 176.131 l
136.591 176.002 l
136.197 175.868 l
135.806 175.729 l
135.416 175.587 l
135.027 175.439 l
134.64 175.288 l
134.255 175.132 l
133.871 174.972 l
133.489 174.808 l
133.109 174.639 l
132.73 174.466 l
132.354 174.29 l
131.979 174.109 l
131.605 173.924 l
131.234 173.735 l
130.864 173.542 l
130.497 173.346 l
130.131 173.145 l
129.767 172.941 l
129.405 172.733 l
129.045 172.521 l
128.687 172.305 l
128.331 172.086 l
127.977 171.863 l
127.625 171.636 l
127.274 171.406 l
126.926 171.172 l
126.58 170.935 l
126.235 170.694 l
125.893 170.45 l
125.552 170.203 l
125.214 169.952 l
124.877 169.697 l
124.543 169.439 l
124.211 169.178 l
123.88 168.914 l
123.552 168.646 l
123.225 168.375 l
122.901 168.101 l
122.578 167.823 l
122.257 167.542 l
121.939 167.258 l
121.622 166.971 l
121.307 166.68 l
120.994 166.387 l
120.684 166.09 l
120.375 165.79 l
120.067 165.487 l
119.762 165.18 l
119.459 164.871 l
119.158 164.558 l
118.858 164.242 l
118.561 163.923 l
118.265 163.601 l
117.971 163.276 l
117.679 162.947 l
117.389 162.616 l
117.101 162.281 l
116.814 161.942 l
116.529 161.601 l
116.247 161.257 l
115.966 160.909 l
115.686 160.558 l
115.409 160.204 l
115.133 159.846 l
114.859 159.485 l
114.587 159.121 l
114.317 158.753 l
114.049 158.382 l
113.782 158.008 l
113.517 157.63 l
113.253 157.249 l
112.992 156.864 l
112.732 156.476 l
112.474 156.084 l
112.218 155.689 l
111.963 155.29 l
111.71 154.887 l
111.459 154.481 l
111.21 154.07 l
110.962 153.657 l
110.716 153.239 l
110.472 152.817 l
110.23 152.392 l
109.99 151.962 l
109.751 151.529 l
109.514 151.091 l
109.278 150.649 l
109.045 150.204 l
108.814 149.753 l
108.584 149.299 l
108.356 148.84 l
108.13 148.377 l
107.905 147.91 l
107.683 147.437 l
107.463 146.961 l
107.244 146.479 l
107.028 145.993 l
106.813 145.502 l
106.6 145.006 l
106.39 144.506 l
106.181 144 l
105.975 143.489 l
105.77 142.973 l
105.568 142.452 l
105.368 141.925 l
105.17 141.393 l
104.975 140.856 l
104.782 140.313 l
104.591 139.764 l
104.402 139.209 l
104.216 138.649 l
104.033 138.083 l
103.851 137.511 l
103.673 136.932 l
103.497 136.347 l
103.324 135.757 l
103.154 135.159 l
102.987 134.555 l
102.823 133.945 l
102.661 133.328 l
102.503 132.704 l
102.348 132.073 l
102.196 131.435 l
102.048 130.79 l
101.903 130.138 l
101.762 129.478 l
101.624 128.812 l
101.49 128.137 l
101.36 127.455 l
101.233 126.765 l
101.112 126.067 l
100.994 125.362 l
100.88 124.648 l
100.772 123.926 l
100.668 123.196 l
100.568 122.458 l
100.474 121.711 l
100.384 120.955 l
100.3 120.191 l
100.222 119.419 l
100.149 118.637 l
100.082 117.846 l
100.021 117.047 l
99.9658 116.238 l
99.9175 115.42 l
99.8757 114.593 l
99.8406 113.757 l
99.8127 112.911 l
99.7921 112.056 l
99.7791 111.191 l
99.7739 110.317 l
99.7768 109.433 l
99.7879 108.54 l
99.8076 107.637 l
99.8362 106.725 l
99.8741 105.803 l
99.9215 104.871 l
99.9786 103.93 l
100.046 102.979 l
100.123 102.019 l
100.212 101.05 l
100.311 100.071 l
100.422 99.0828 l
100.545 98.0858 l
100.68 97.0796 l
100.827 96.0648 l
100.987 95.0412 l
101.161 94.0093 l
101.348 92.9692 l
101.55 91.9212 l
101.766 90.8653 l
101.996 89.802 l
102.242 88.7317 l
102.504 87.6549 l
102.782 86.5714 l
103.077 85.4822 l
103.388 84.3874 l
103.717 83.2876 l
104.064 82.1834 l
104.429 81.0753 l
104.812 79.9638 l
105.215 78.8494 l
105.637 77.7331 l
106.079 76.6155 l
106.541 75.4973 l
107.024 74.3792 l
107.527 73.2619 l
108.052 72.1467 l
108.599 71.0342 l
109.168 69.9255 l
109.758 68.8214 l
110.371 67.7228 l
111.007 66.6312 l
111.666 65.5475 l
112.348 64.4729 l
113.053 63.4086 l
113.782 62.3555 l
114.534 61.3152 l
115.309 60.2889 l
116.108 59.2781 l
116.93 58.2837 l
117.776 57.3072 l
118.644 56.3502 l
119.536 55.414 l
120.45 54.4996 l
121.387 53.6092 l
122.346 52.7435 l
123.326 51.9041 l
124.328 51.0929 l
125.35 50.3105 l
126.392 49.5585 l
127.454 48.8385 l
128.535 48.1518 l
129.633 47.4996 l
130.749 46.8828 l
131.88 46.303 l
133.028 45.7615 l
134.189 45.2587 l
135.364 44.7962 l
136.552 44.3748 l
137.75 43.9951 l
138.959 43.6583 l
140.177 43.365 l
141.402 43.1157 l
142.634 42.911 l
143.871 42.7512 l
145.112 42.637 l
146.355 42.5683 l
147.6 42.5453 l
148.845 42.5683 l
150.088 42.637 l
151.329 42.7512 l
152.566 42.911 l
153.798 43.1157 l
155.023 43.365 l
156.241 43.6583 l
157.45 43.9951 l
158.648 44.3748 l
159.836 44.7962 l
161.011 45.2587 l
162.172 45.7615 l
163.32 46.303 l
164.451 46.8828 l
165.567 47.4996 l
166.665 48.1518 l
167.746 48.8385 l
168.808 49.5585 l
169.85 50.3105 l
170.872 51.0929 l
171.874 51.9041 l
172.854 52.7435 l
173.813 53.6092 l
174.75 54.4996 l
175.664 55.414 l
176.556 56.3502 l
177.424 57.3072 l
178.27 58.2837 l
179.092 59.2781 l
179.891 60.2889 l
180.666 61.3152 l
181.418 62.3555 l
182.147 63.4086 l
182.852 64.4729 l
183.534 65.5475 l
184.193 66.6312 l
184.829 67.7228 l
185.442 68.8214 l
186.032 69.9255 l
186.601 71.0342 l
187.148 72.1467 l
187.673 73.2619 l
188.176 74.3792 l
188.659 75.4973 l
189.121 76.6155 l
189.563 77.7331 l
189.985 78.8494 l
190.388 79.9638 l
190.771 81.0753 l
191.136 82.1834 l
191.483 83.2876 l
191.812 84.3874 l
192.123 85.4822 l
192.418 86.5714 l
192.696 87.6549 l
192.958 88.7317 l
193.204 89.802 l
193.434 90.8653 l
193.65 91.9212 l
193.852 92.9692 l
194.039 94.0093 l
194.213 95.0412 l
194.373 96.0648 l
194.52 97.0796 l
194.655 98.0858 l
194.778 99.0828 l
194.889 100.071 l
194.988 101.05 l
195.077 102.019 l
195.154 102.979 l
195.221 103.93 l
195.279 104.871 l
195.326 105.803 l
195.364 106.725 l
195.392 107.637 l
195.412 108.54 l
195.423 109.433 l
195.426 110.317 l
195.421 111.191 l
195.408 112.056 l
195.387 112.911 l
195.359 113.757 l
195.324 114.593 l
195.283 115.42 l
195.234 116.238 l
195.179 117.047 l
195.118 117.846 l
195.051 118.637 l
194.978 119.419 l
194.9 120.191 l
194.816 120.955 l
194.726 121.711 l
194.632 122.458 l
194.532 123.196 l
194.428 123.926 l
194.32 124.648 l
194.206 125.362 l
194.088 126.067 l
193.967 126.765 l
193.84 127.455 l
193.71 128.137 l
193.576 128.812 l
193.438 129.478 l
193.297 130.138 l
193.152 130.79 l
193.004 131.435 l
192.852 132.073 l
192.697 132.704 l
192.539 133.328 l
192.377 133.945 l
192.213 134.555 l
192.046 135.159 l
191.876 135.757 l
191.703 136.347 l
191.527 136.932 l
191.349 137.511 l
191.167 138.083 l
190.984 138.649 l
190.798 139.209 l
190.609 139.764 l
190.418 140.313 l
190.225 140.856 l
190.03 141.393 l
189.832 141.925 l
189.632 142.452 l
189.43 142.973 l
189.225 143.489 l
189.019 144 l
cl
gsave
0.500 0.500 1.000 setrgbcolor
fill
grestore
stroke
grestore
1.000 setlinewidth
0.000 setgray
gsave
223.2 223.2 36 32.4 clipbox
189.019 144 m
188.81 144.506 l
188.6 145.006 l
188.387 145.502 l
188.172 145.993 l
187.956 146.479 l
187.737 146.961 l
187.517 147.437 l
187.295 147.91 l
187.07 148.377 l
186.844 148.84 l
186.616 149.299 l
186.386 149.753 l
186.155 150.204 l
185.922 150.649 l
185.686 151.091 l
185.449 151.529 l
185.21 151.962 l
184.97 152.392 l
184.728 152.817 l
184.484 153.239 l
184.238 153.657 l
183.99 154.07 l
183.741 154.481 l
183.49 154.887 l
183.237 155.29 l
182.982 155.689 l
182.726 156.084 l
182.468 156.476 l
182.208 156.864 l
181.947 157.249 l
181.683 157.63 l
181.418 158.008 l
181.151 158.382 l
180.883 158.753 l
180.613 159.121 l
180.341 159.485 l
180.067 159.846 l
179.791 160.204 l
179.514 160.558 l
179.234 160.909 l
178.953 161.257 l
178.671 161.601 l
178.386 161.942 l
178.099 162.281 l
177.811 162.616 l
177.521 162.947 l
177.229 163.276 l
176.935 163.601 l
176.639 163.923 l
176.342 164.242 l
176.042 164.558 l
175.741 164.871 l
175.438 165.18 l
175.133 165.487 l
174.825 165.79 l
174.516 166.09 l
174.206 166.387 l
173.893 166.68 l
173.578 166.971 l
173.261 167.258 l
172.943 167.542 l
172.622 167.823 l
172.299 168.101 l
171.975 168.375 l
171.648 168.646 l
171.32 168.914 l
170.989 169.178 l
170.657 169.439 l
170.323 169.697 l
169.986 169.952 l
169.648 170.203 l
169.307 170.45 l
168.965 170.694 l
168.62 170.935 l
168.274 171.172 l
167.926 171.406 l
167.575 171.636 l
167.223 171.863 l
166.869 172.086 l
166.513 172.305 l
166.155 172.521 l
165.795 172.733 l
165.433 172.941 l
165.069 173.145 l
164.703 173.346 l
164.336 173.542 l
163.966 173.735 l
163.595 173.924 l
163.221 174.109 l
162.846 174.29 l
162.47 174.466 l
162.091 174.639 l
161.711 174.808 l
161.329 174.972 l
160.945 175.132 l
160.56 175.288 l
160.173 175.439 l
159.784 175.587 l
159.394 175.729 l
159.003 175.868 l
158.609 176.002 l
158.215 176.131 l
157.819 176.256 l
157.421 176.377 l
157.023 176.493 l
156.623 176.604 l
156.221 176.71 l
155.819 176.812 l
155.415 176.909 l
155.011 177.001 l
154.605 177.089 l
154.198 177.172 l
153.791 177.249 l
153.382 177.322 l
152.973 177.39 l
152.562 177.453 l
152.151 177.511 l
151.74 177.565 l
151.328 177.613 l
150.915 177.656 l
150.502 177.694 l
150.088 177.727 l
149.674 177.755 l
149.259 177.778 l
148.845 177.795 l
148.43 177.808 l
148.015 177.816 l
147.6 177.818 l
147.185 177.816 l
146.77 177.808 l
146.355 177.795 l
145.941 177.778 l
145.526 177.755 l
145.112 177.727 l
144.698 177.694 l
144.285 177.656 l
143.872 177.613 l
143.46 177.565 l
143.049 177.511 l
142.638 177.453 l
142.227 177.39 l
141.818 177.322 l
141.409 177.249 l
141.002 177.172 l
140.595 177.089 l
140.189 177.001 l
139.785 176.909 l
139.381 176.812 l
138.979 176.71 l
138.577 176.604 l
138.177 176.493 l
137.779 176.377 l
137.381 176.256 l
136.985 176.131 l
136.591 176.002 l
136.197 175.868 l
135.806 175.729 l
135.416 175.587 l
135.027 175.439 l
134.64 175.288 l
134.255 175.132 l
133.871 174.972 l
133.489 174.808 l
133.109 174.639 l
132.73 174.466 l
132.354 174.29 l
131.979 174.109 l
131.605 173.924 l
131.234 173.735 l
130.864 173.542 l
130.497 173.346 l
130.131 173.145 l
129.767 172.941 l
129.405 172.733 l
129.045 172.521 l
128.687 172.305 l
128.331 172.086 l
127.977 171.863 l
127.625 171.636 l
127.274 171.406 l
126.926 171.172 l
126.58 170.935 l
126.235 170.694 l
125.893 170.45 l
125.552 170.203 l
125.214 169.952 l
124.877 169.697 l
124.543 169.439 l
124.211 169.178 l
123.88 168.914 l
123.552 168.646 l
123.225 168.375 l
122.901 168.101 l
122.578 167.823 l
122.257 167.542 l
121.939 167.258 l
121.622 166.971 l
121.307 166.68 l
120.994 166.387 l
120.684 166.09 l
120.375 165.79 l
120.067 165.487 l
119.762 165.18 l
119.459 164.871 l
119.158 164.558 l
118.858 164.242 l
118.561 163.923 l
118.265 163.601 l
117.971 163.276 l
117.679 162.947 l
117.389 162.616 l
117.101 162.281 l
116.814 161.942 l
116.529 161.601 l
116.247 161.257 l
115.966 160.909 l
115.686 160.558 l
115.409 160.204 l
115.133 159.846 l
114.859 159.485 l
114.587 159.121 l
114.317 158.753 l
114.049 158.382 l
113.782 158.008 l
113.517 157.63 l
113.253 157.249 l
112.992 156.864 l
112.732 156.476 l
112.474 156.084 l
112.218 155.689 l
111.963 155.29 l
111.71 154.887 l
111.459 154.481 l
111.21 154.07 l
110.962 153.657 l
110.716 153.239 l
110.472 152.817 l
110.23 152.392 l
109.99 151.962 l
109.751 151.529 l
109.514 151.091 l
109.278 150.649 l
109.045 150.204 l
108.814 149.753 l
108.584 149.299 l
108.356 148.84 l
108.13 148.377 l
107.905 147.91 l
107.683 147.437 l
107.463 146.961 l
107.244 146.479 l
107.028 145.993 l
106.813 145.502 l
106.6 145.006 l
106.39 144.506 l
106.181 144 l
106.422 143.495 l
106.628 142.994 l
106.758 142.496 l
106.977 142.004 l
107.201 141.518 l
107.431 141.037 l
107.583 140.554 l
107.741 140.074 l
107.988 139.607 l
108.156 139.135 l
108.33 138.666 l
108.508 138.201 l
108.692 137.74 l
108.881 137.282 l
109.075 136.827 l
109.274 136.377 l
109.479 135.93 l
109.688 135.487 l
109.815 135.027 l
110.034 134.59 l
110.17 134.135 l
110.399 133.705 l
110.544 133.254 l
110.784 132.832 l
110.938 132.386 l
111.097 131.941 l
111.261 131.499 l
111.43 131.058 l
111.603 130.619 l
111.78 130.183 l
111.963 129.748 l
112.15 129.316 l
112.342 128.886 l
112.538 128.458 l
112.739 128.033 l
112.854 127.566 l
113.064 127.144 l
113.28 126.725 l
113.408 126.26 l
113.634 125.845 l
113.771 125.381 l
114.006 124.969 l
114.154 124.507 l
114.306 124.044 l
114.463 123.582 l
114.719 123.178 l
114.886 122.717 l
115.059 122.257 l
115.237 121.796 l
115.42 121.336 l
115.609 120.877 l
115.803 120.418 l
116.003 119.959 l
116.208 119.502 l
116.42 119.045 l
116.544 118.513 l
116.767 118.056 l
116.996 117.601 l
117.139 117.065 l
117.381 116.611 l
117.537 116.072 l
117.791 115.62 l
117.961 115.079 l
118.229 114.629 l
118.413 114.087 l
118.604 113.544 l
118.802 113 l
119.009 112.455 l
119.223 111.908 l
119.446 111.362 l
119.677 110.814 l
119.916 110.267 l
120.164 109.72 l
120.42 109.173 l
120.686 108.626 l
120.874 107.965 l
121.159 107.418 l
121.368 106.753 l
121.672 106.208 l
121.902 105.541 l
122.144 104.871 l
122.398 104.201 l
122.663 103.53 l
122.941 102.858 l
123.23 102.187 l
123.533 101.516 l
123.848 100.846 l
124.1 100.035 l
124.443 99.3672 l
124.725 98.5551 l
125.023 97.742 l
125.337 96.9289 l
125.668 96.1164 l
126.015 95.3052 l
126.379 94.4961 l
126.761 93.6898 l
127.095 92.7257 l
127.45 91.7623 l
127.887 90.9661 l
128.282 90.0088 l
128.639 88.8857 l
129.079 87.9349 l
129.485 86.817 l
129.969 85.8772 l
130.423 84.7693 l
130.854 83.4891 l
131.362 82.3929 l
131.85 81.1244 l
132.368 79.8629 l
132.916 78.6103 l
133.455 77.1825 l
134.027 75.7643 l
134.634 74.3576 l
135.241 72.7744 l
135.887 71.2043 l
136.571 69.6495 l
137.267 67.919 l
137.981 66.0126 l
138.742 64.1247 l
139.549 62.2577 l
140.385 60.2186 l
141.257 58.0081 l
142.183 55.8248 l
143.153 53.474 l
144.173 50.9579 l
145.25 48.2793 l
146.39 45.4409 l
147.6 42.5453 l
148.81 45.4409 l
149.95 48.2793 l
151.027 50.9579 l
152.047 53.474 l
153.017 55.8248 l
153.943 58.0081 l
154.815 60.2186 l
155.651 62.2577 l
156.458 64.1247 l
157.219 66.0126 l
157.933 67.919 l
158.629 69.6495 l
159.313 71.2043 l
159.959 72.7744 l
160.566 74.3576 l
161.173 75.7643 l
161.745 77.1825 l
162.284 78.6103 l
162.832 79.8629 l
163.35 81.1244 l
163.838 82.3929 l
164.346 83.4891 l
164.777 84.7693 l
165.231 85.8772 l
165.715 86.817 l
166.121 87.9349 l
166.561 88.8857 l
166.918 90.0088 l
167.313 90.9661 l
167.75 91.7623 l
168.105 92.7257 l
168.439 93.6898 l
168.821 94.4961 l
169.185 95.3052 l
169.532 96.1164 l
169.863 96.9289 l
170.177 97.742 l
170.475 98.5551 l
170.757 99.3672 l
171.1 100.035 l
171.352 100.846 l
171.667 101.516 l
171.97 102.187 l
172.259 102.858 l
172.537 103.53 l
172.802 104.201 l
173.056 104.871 l
173.298 105.541 l
173.528 106.208 l
173.832 106.753 l
174.041 107.418 l
174.326 107.965 l
174.514 108.626 l
174.78 109.173 l
175.036 109.72 l
175.284 110.267 l
175.523 110.814 l
175.754 111.362 l
175.977 111.908 l
176.191 112.455 l
176.398 113 l
176.596 113.544 l
176.787 114.087 l
176.971 114.629 l
177.239 115.079 l
177.409 115.62 l
177.663 116.072 l
177.819 116.611 l
178.061 117.065 l
178.204 117.601 l
178.433 118.056 l
178.656 118.513 l
178.78 119.045 l
178.992 119.502 l
179.197 119.959 l
179.397 120.418 l
179.591 120.877 l
179.78 121.336 l
179.963 121.796 l
180.141 122.257 l
180.314 122.717 l
180.481 123.178 l
180.737 123.582 l
180.894 124.044 l
181.046 124.507 l
181.194 124.969 l
181.429 125.381 l
181.566 125.845 l
181.792 126.26 l
181.92 126.725 l
182.136 127.144 l
182.346 127.566 l
182.461 128.033 l
182.662 128.458 l
182.858 128.886 l
183.05 129.316 l
183.237 129.748 l
183.42 130.183 l
183.597 130.619 l
183.77 131.058 l
183.939 131.499 l
184.103 131.941 l
184.262 132.386 l
184.416 132.832 l
184.656 133.254 l
184.801 133.705 l
185.03 134.135 l
185.166 134.59 l
185.385 135.027 l
185.512 135.487 l
185.721 135.93 l
185.926 136.377 l
186.125 136.827 l
186.319 137.282 l
186.508 137.74 l
186.692 138.201 l
186.87 138.666 l
187.044 139.135 l
187.212 139.607 l
187.459 140.074 l
187.617 140.554 l
187.769 141.037 l
187.999 141.518 l
188.223 142.004 l
188.442 142.496 l
188.572 142.994 l
188.778 143.495 l
189.019 144 l
cl
gsave
0.500 setgray
fill
grestore
stroke
grestore
1.000 0.000 0.000 setrgbcolor
gsave
223.2 223.2 36 32.4 clipbox
249.055 144 m
248.566 153.944 l
247.105 163.793 l
244.686 173.451 l
241.332 182.825 l
237.075 191.825 l
231.956 200.365 l
226.025 208.362 l
219.339 215.739 l
211.962 222.425 l
203.965 228.356 l
195.425 233.475 l
186.425 237.732 l
177.051 241.086 l
167.393 243.505 l
157.544 244.966 l
147.6 245.455 l
137.656 244.966 l
127.807 243.505 l
118.149 241.086 l
108.775 237.732 l
99.7747 233.475 l
91.2349 228.356 l
83.2379 222.425 l
75.8608 215.739 l
69.1746 208.362 l
63.2436 200.365 l
58.1251 191.825 l
53.8682 182.825 l
50.5141 173.451 l
48.0949 163.793 l
46.634 153.944 l
46.1455 144 l
46.634 134.056 l
48.0949 124.207 l
50.5141 114.549 l
53.8682 105.175 l
58.1251 96.1747 l
63.2436 87.6349 l
69.1746 79.6379 l
75.8608 72.2608 l
83.2379 65.5746 l
91.2349 59.6436 l
99.7747 54.5251 l
108.775 50.2682 l
118.149 46.9141 l
127.807 44.4949 l
137.656 43.034 l
147.6 42.5455 l
157.544 43.034 l
167.393 44.4949 l
177.051 46.9141 l
186.425 50.2682 l
195.425 54.5251 l
203.965 59.6436 l
211.962 65.5746 l
219.339 72.2608 l
226.025 79.6379 l
231.956 87.6349 l
237.075 96.1747 l
241.332 105.175 l
244.686 114.549 l
247.105 124.207 l
248.566 134.056 l
249.055 144 l
stroke
grestore
0.750 0.750 0.000 setrgbcolor
gsave
223.2 223.2 36 32.4 clipbox
206.175 144 m
205.893 149.741 l
205.049 155.427 l
203.653 161.003 l
201.716 166.416 l
199.258 171.612 l
196.303 176.542 l
192.879 181.159 l
189.019 185.419 l
184.759 189.279 l
180.142 192.703 l
175.212 195.658 l
170.016 198.116 l
164.603 200.053 l
159.027 201.449 l
153.341 202.293 l
147.6 202.575 l
141.859 202.293 l
136.173 201.449 l
130.597 200.053 l
125.184 198.116 l
119.988 195.658 l
115.058 192.703 l
110.441 189.279 l
106.181 185.419 l
102.321 181.159 l
98.8968 176.542 l
95.9416 171.612 l
93.4839 166.416 l
91.5474 161.003 l
90.1507 155.427 l
89.3072 149.741 l
89.0252 144 l
89.3072 138.259 l
90.1507 132.573 l
91.5474 126.997 l
93.4839 121.584 l
95.9416 116.388 l
98.8968 111.458 l
102.321 106.841 l
106.181 102.581 l
110.441 98.7211 l
115.058 95.2968 l
119.988 92.3416 l
125.184 89.8839 l
130.597 87.9474 l
136.173 86.5507 l
141.859 85.7072 l
147.6 85.4252 l
153.341 85.7072 l
159.027 86.5507 l
164.603 87.9474 l
170.016 89.8839 l
175.212 92.3416 l
180.142 95.2968 l
184.759 98.7211 l
189.019 102.581 l
192.879 106.841 l
196.303 111.458 l
199.258 116.388 l
201.716 121.584 l
203.653 126.997 l
205.049 132.573 l
205.893 138.259 l
206.175 144 l
stroke
grestore
gsave
223.2 223.2 36 32.4 clipbox
219.339 144 m
218.994 151.032 l
217.961 157.996 l
216.25 164.825 l
213.878 171.453 l
210.868 177.818 l
207.249 183.856 l
203.055 189.511 l
198.327 194.727 l
193.111 199.455 l
187.456 203.649 l
181.418 207.268 l
175.053 210.278 l
168.425 212.65 l
161.596 214.361 l
154.632 215.394 l
147.6 215.739 l
140.568 215.394 l
133.604 214.361 l
126.775 212.65 l
120.147 210.278 l
113.782 207.268 l
107.744 203.649 l
102.089 199.455 l
96.8727 194.727 l
92.1449 189.511 l
87.951 183.856 l
84.3317 177.818 l
81.3216 171.453 l
78.9499 164.825 l
77.2393 157.996 l
76.2062 151.032 l
75.8608 144 l
76.2062 136.968 l
77.2393 130.004 l
78.9499 123.175 l
81.3216 116.547 l
84.3317 110.182 l
87.951 104.144 l
92.1449 98.4891 l
96.8727 93.2727 l
102.089 88.5449 l
107.744 84.351 l
113.782 80.7317 l
120.147 77.7216 l
126.775 75.3499 l
133.604 73.6393 l
140.568 72.6062 l
147.6 72.2608 l
154.632 72.6062 l
161.596 73.6393 l
168.425 75.3499 l
175.053 77.7216 l
181.418 80.7317 l
187.456 84.351 l
193.111 88.5449 l
198.327 93.2727 l
203.055 98.4891 l
207.249 104.144 l
210.868 110.182 l
213.878 116.547 l
216.25 123.175 l
217.961 130.004 l
218.994 136.968 l
219.339 144 l
stroke
grestore
gsave
223.2 223.2 36 32.4 clipbox
189.019 144 m
188.819 148.06 l
188.223 152.08 l
187.235 156.023 l
185.866 159.85 l
184.128 163.525 l
182.038 167.011 l
179.617 170.276 l
176.887 173.287 l
173.876 176.017 l
170.611 178.438 l
167.125 180.528 l
163.45 182.266 l
159.623 183.635 l
155.68 184.623 l
151.66 185.219 l
147.6 185.419 l
143.54 185.219 l
139.52 184.623 l
135.577 183.635 l
131.75 182.266 l
128.075 180.528 l
124.589 178.438 l
121.324 176.017 l
118.313 173.287 l
115.583 170.276 l
113.162 167.011 l
111.072 163.525 l
109.334 159.85 l
107.965 156.023 l
106.977 152.08 l
106.381 148.06 l
106.181 144 l
106.381 139.94 l
106.977 135.92 l
107.965 131.977 l
109.334 128.15 l
111.072 124.475 l
113.162 120.989 l
115.583 117.724 l
118.313 114.713 l
121.324 111.983 l
124.589 109.562 l
128.075 107.472 l
131.75 105.734 l
135.577 104.365 l
139.52 103.377 l
143.54 102.781 l
147.6 102.581 l
151.66 102.781 l
155.68 103.377 l
159.623 104.365 l
163.45 105.734 l
167.125 107.472 l
170.611 109.562 l
173.876 111.983 l
176.887 114.713 l
179.617 117.724 l
182.038 120.989 l
184.128 124.475 l
185.866 128.15 l
187.235 131.977 l
188.223 135.92 l
188.819 139.94 l
189.019 144 l
stroke
grestore
0.000 0.500 0.000 setrgbcolor
gsave
223.2 223.2 36 32.4 clipbox
181.418 144 m
181.255 147.315 l
180.768 150.598 l
179.962 153.817 l
178.844 156.942 l
177.425 159.942 l
175.719 162.788 l
173.742 165.454 l
171.513 167.913 l
169.054 170.142 l
166.388 172.119 l
163.542 173.825 l
160.542 175.244 l
157.417 176.362 l
154.198 177.168 l
150.915 177.655 l
147.6 177.818 l
144.285 177.655 l
141.002 177.168 l
137.783 176.362 l
134.658 175.244 l
131.658 173.825 l
128.812 172.119 l
126.146 170.142 l
123.687 167.913 l
121.458 165.454 l
119.481 162.788 l
117.775 159.942 l
116.356 156.942 l
115.238 153.817 l
114.432 150.598 l
113.945 147.315 l
113.782 144 l
113.945 140.685 l
114.432 137.402 l
115.238 134.183 l
116.356 131.058 l
117.775 128.058 l
119.481 125.212 l
121.458 122.546 l
123.687 120.087 l
126.146 117.858 l
128.812 115.881 l
131.658 114.175 l
134.658 112.756 l
137.783 111.638 l
141.002 110.832 l
144.285 110.345 l
147.6 110.182 l
150.915 110.345 l
154.198 110.832 l
157.417 111.638 l
160.542 112.756 l
163.542 114.175 l
166.388 115.881 l
169.054 117.858 l
171.513 120.087 l
173.742 122.546 l
175.719 125.212 l
177.425 128.058 l
178.844 131.058 l
179.962 134.183 l
180.768 137.402 l
181.255 140.685 l
181.418 144 l
stroke
grestore
0.500 setlinewidth
0 setlinecap
0.000 setgray
gsave
/o {
gsave
newpath
translate
0.5 setlinewidth
1 setlinejoin
0 setlinecap
0 0 m
0 4 l
gsave
0.000 setgray
fill
grestore
stroke
grestore
} bind def
46.1455 32.4 o
grestore
gsave
/o {
gsave
newpath
translate
0.5 setlinewidth
1 setlinejoin
0 setlinecap
0 0 m
0 -4 l
gsave
0.000 setgray
fill
grestore
stroke
grestore
} bind def
46.1455 255.6 o
grestore
/BitstreamVeraSans-Roman findfont
9.000 scalefont
setfont
gsave
35.989205 21.587500 translate
0.000000 rotate
0.000000 0.125000 m /minus glyphshow
7.541016 0.125000 m /one glyphshow
13.267090 0.125000 m /period glyphshow
16.127930 0.125000 m /zero glyphshow
grestore
gsave
/o {
gsave
newpath
translate
0.5 setlinewidth
1 setlinejoin
0 setlinecap
0 0 m
0 4 l
gsave
0.000 setgray
fill
grestore
stroke
grestore
} bind def
96.8727 32.4 o
grestore
gsave
/o {
gsave
newpath
translate
0.5 setlinewidth
1 setlinejoin
0 setlinecap
0 0 m
0 -4 l
gsave
0.000 setgray
fill
grestore
stroke
grestore
} bind def
96.8727 255.6 o
grestore
gsave
86.810227 21.587500 translate
0.000000 rotate
0.000000 0.125000 m /minus glyphshow
7.541016 0.125000 m /zero glyphshow
13.267090 0.125000 m /period glyphshow
16.127930 0.125000 m /five glyphshow
grestore
gsave
/o {
gsave
newpath
translate
0.5 setlinewidth
1 setlinejoin
0 setlinecap
0 0 m
0 4 l
gsave
0.000 setgray
fill
grestore
stroke
grestore
} bind def
147.6 32.4 o
grestore
gsave
/o {
gsave
newpath
translate
0.5 setlinewidth
1 setlinejoin
0 setlinecap
0 0 m
0 -4 l
gsave
0.000 setgray
fill
grestore
stroke
grestore
} bind def
147.6 255.6 o
grestore
gsave
141.037500 21.587500 translate
0.000000 rotate
0.000000 0.125000 m /zero glyphshow
5.726074 0.125000 m /period glyphshow
8.586914 0.125000 m /zero glyphshow
grestore
gsave
/o {
gsave
newpath
translate
0.5 setlinewidth
1 setlinejoin
0 setlinecap
0 0 m
0 4 l
gsave
0.000 setgray
fill
grestore
stroke
grestore
} bind def
198.327 32.4 o
grestore
gsave
/o {
gsave
newpath
translate
0.5 setlinewidth
1 setlinejoin
0 setlinecap
0 0 m
0 -4 l
gsave
0.000 setgray
fill
grestore
stroke
grestore
} bind def
198.327 255.6 o
grestore
gsave
191.858523 21.587500 translate
0.000000 rotate
0.000000 0.125000 m /zero glyphshow
5.726074 0.125000 m /period glyphshow
8.586914 0.125000 m /five glyphshow
grestore
gsave
/o {
gsave
newpath
translate
0.5 setlinewidth
1 setlinejoin
0 setlinecap
0 0 m
0 4 l
gsave
0.000 setgray
fill
grestore
stroke
grestore
} bind def
249.055 32.4 o
grestore
gsave
/o {
gsave
newpath
translate
0.5 setlinewidth
1 setlinejoin
0 setlinecap
0 0 m
0 -4 l
gsave
0.000 setgray
fill
grestore
stroke
grestore
} bind def
249.055 255.6 o
grestore
gsave
242.687358 21.587500 translate
0.000000 rotate
0.000000 0.125000 m /one glyphshow
5.726074 0.125000 m /period glyphshow
8.586914 0.125000 m /zero glyphshow
grestore
gsave
/o {
gsave
newpath
translate
0.5 setlinewidth
1 setlinejoin
0 setlinecap
0 0 m
4 0 l
gsave
0.000 setgray
fill
grestore
stroke
grestore
} bind def
36 42.5455 o
grestore
gsave
/o {
gsave
newpath
translate
0.5 setlinewidth
1 setlinejoin
0 setlinecap
0 0 m
-4 0 l
gsave
0.000 setgray
fill
grestore
stroke
grestore
} bind def
259.2 42.5455 o
grestore
gsave
11.687500 39.139205 translate
0.000000 rotate
0.000000 0.125000 m /minus glyphshow
7.541016 0.125000 m /one glyphshow
13.267090 0.125000 m /period glyphshow
16.127930 0.125000 m /zero glyphshow
grestore
gsave
/o {
gsave
newpath
translate
0.5 setlinewidth
1 setlinejoin
0 setlinecap
0 0 m
4 0 l
gsave
0.000 setgray
fill
grestore
stroke
grestore
} bind def
36 93.2727 o
grestore
gsave
/o {
gsave
newpath
translate
0.5 setlinewidth
1 setlinejoin
0 setlinecap
0 0 m
-4 0 l
gsave
0.000 setgray
fill
grestore
stroke
grestore
} bind def
259.2 93.2727 o
grestore
gsave
11.875000 89.866477 translate
0.000000 rotate
0.000000 0.125000 m /minus glyphshow
7.541016 0.125000 m /zero glyphshow
13.267090 0.125000 m /period glyphshow
16.127930 0.125000 m /five glyphshow
grestore
gsave
/o {
gsave
newpath
translate
0.5 setlinewidth
1 setlinejoin
0 setlinecap
0 0 m
4 0 l
gsave
0.000 setgray
fill
grestore
stroke
grestore
} bind def
36 144 o
grestore
gsave
/o {
gsave
newpath
translate
0.5 setlinewidth
1 setlinejoin
0 setlinecap
0 0 m
-4 0 l
gsave
0.000 setgray
fill
grestore
stroke
grestore
} bind def
259.2 144 o
grestore
gsave
18.875000 140.593750 translate
0.000000 rotate
0.000000 0.125000 m /zero glyphshow
5.726074 0.125000 m /period glyphshow
8.586914 0.125000 m /zero glyphshow
grestore
gsave
/o {
gsave
newpath
translate
0.5 setlinewidth
1 setlinejoin
0 setlinecap
0 0 m
4 0 l
gsave
0.000 setgray
fill
grestore
stroke
grestore
} bind def
36 194.727 o
grestore
gsave
/o {
gsave
newpath
translate
0.5 setlinewidth
1 setlinejoin
0 setlinecap
0 0 m
-4 0 l
gsave
0.000 setgray
fill
grestore
stroke
grestore
} bind def
259.2 194.727 o
grestore
gsave
19.062500 191.321023 translate
0.000000 rotate
0.000000 0.125000 m /zero glyphshow
5.726074 0.125000 m /period glyphshow
8.586914 0.125000 m /five glyphshow
grestore
gsave
/o {
gsave
newpath
translate
0.5 setlinewidth
1 setlinejoin
0 setlinecap
0 0 m
4 0 l
gsave
0.000 setgray
fill
grestore
stroke
grestore
} bind def
36 245.455 o
grestore
gsave
/o {
gsave
newpath
translate
0.5 setlinewidth
1 setlinejoin
0 setlinecap
0 0 m
-4 0 l
gsave
0.000 setgray
fill
grestore
stroke
grestore
} bind def
259.2 245.455 o
grestore
gsave
19.265625 242.048295 translate
0.000000 rotate
0.000000 0.125000 m /one glyphshow
5.726074 0.125000 m /period glyphshow
8.586914 0.125000 m /zero glyphshow
grestore
1.000 setlinewidth
2 setlinecap
gsave
36 255.6 m
259.2 255.6 l
stroke
grestore
gsave
259.2 32.4 m
259.2 255.6 l
stroke
grestore
gsave
36 32.4 m
259.2 32.4 l
stroke
grestore
gsave
36 32.4 m
36 255.6 l
stroke
grestore

end
showpage
